"Name","ID","Status"
"Common Ostrich","spStrutcam","introduced"
"Emu","spDromanov",
"Magpie Goose","spAnsersem",
"Plumed Whistling Duck","spDendreyt",
"Wandering Whistling Duck","spDendrarc","rarity"
"Cape Barren Goose","spCereonov",
"Black Swan","spCygnuatr",
"Freckled Duck","spStictnae",
"Radjah Shelduck","spRadjarad","rarity"
"Australian Shelduck","spTadortad1",
"Pink-eared Duck","spMalacmem",
"Muscovy Duck","spCairimos","escaped"
"Maned Duck","spChenojub",
"Garganey","spSpatuque","rarity"
"Australasian Shoveler","spSpaturhy",
"Northern Shoveler","spSpatucly","rarity"
"Pacific Black Duck","spAnassup",
"Mallard","spAnaspla","introduced"
"Grey Teal","spAnasgra",
"Chestnut Teal","spAnascas",
"Hardhead","spAythyaus",
"Blue-billed Duck","spOxyuraus",
"Musk Duck","spBiziulob",
"Australian Brushturkey","spAlectlat","introduced"
"Malleefowl","spLeipooce",
"Wild Turkey","spMeleagal","introduced"
"Brown Quail","spSynoiyps",
"King Quail","spSynoichi","rarity"
"Stubble Quail","spCoturpec",
"Spotted Nightjar","spEurosarg",
"White-throated Nightjar","spEurosmys","rarity"
"Tawny Frogmouth","spPodarstr",
"Australian Owlet-nightjar","spAegotcri1",
"White-throated Needletail","spHiruncau",
"Pacific Swift","spApuspac",
"House Swift","spApusnip","rarity"
"Australian Bustard","spArdeoaus",
"Pacific Koel","spEudynori","rarity"
"Channel-billed Cuckoo","spScythnov","rarity"
"Horsfield's Bronze Cuckoo","spChalc1bas",
"Black-eared Cuckoo","spChalc1osc",
"Shining Bronze Cuckoo","spChalc1luc",
"Pallid Cuckoo","spHeter2pal",
"Fan-tailed Cuckoo","spCacomfla",
"Sahul Brush Cuckoo","spCacomvar","rarity"
"Oriental Cuckoo","spCuculopt","rarity"
"Rock Dove","spColumliv","introduced"
"African Collared Dove","spStrep1ros","escaped"
"Spotted Dove","spSpilochi","introduced"
"Common Bronzewing","spPhapscha",
"Brush Bronzewing","spPhapsele",
"Flock Bronzewing","spPhapshis",
"Crested Pigeon","spOcyphlop",
"Spinifex Pigeon","spGeophplu",
"Diamond Dove","spGeopecun",
"Peaceful Dove","spGeopepla",
"Rose-crowned Fruit Dove","spPtilireg","rarity"
"Lewin's Rail","spLewinpec",
"Buff-banded Rail","spHypotphi",
"Australian Crake","spPorzaflu",
"Black-tailed Nativehen","spTriboven",
"Dusky Moorhen","spGalli3ten",
"Eurasian Coot","spFulicatr",
"Australasian Swamphen","spPorph1mel",
"Baillon's Crake","spZaporpus",
"Spotless Crake","spZaportab",
"Brolga","spAntigrub",
"Australasian Grebe","spTachy2nov",
"Hoary-headed Grebe","spPolio1pol",
"Great Crested Grebe","spPodic1cri",
"Little Buttonquail","spTurnivel",
"Red-chested Buttonquail","spTurnipyr","rarity"
"Painted Buttonquail","spTurnivar",
"Beach Stone-curlew","spEsacumag","rarity"
"Bush Stone-curlew","spBurhigra",
"Pied Oystercatcher","spHaema1lon",
"Sooty Oystercatcher","spHaema1ful",
"Pied Stilt","spHiman1leu",
"Banded Stilt","spCladoleu",
"Red-necked Avocet","spRecurnov",
"Grey Plover","spPluvi1squ",
"Pacific Golden Plover","spPluvi1ful",
"American Golden Plover","spPluvi1dom","rarity"
"Common Ringed Plover","spCharahia","rarity"
"Semipalmated Plover","spCharasem","rarity"
"Hooded Plover","spCharacuc",
"Black-fronted Dotterel","spCharamel1",
"Little Ringed Plover","spCharadub","rarity"
"Grey-headed Lapwing","spVanelcin","rarity"
"Banded Lapwing","spVaneltri",
"Masked Lapwing","spVanelmil",
"Red-kneed Dotterel","spEryth1cin",
"Inland Dotterel","spPeltoaus",
"Oriental Plover","spAnarhver",
"Siberian Sand Plover","spAnarhmon",
"Greater Sand Plover","spAnarhles",
"Double-banded Plover","spAnarhbic",
"Red-capped Plover","spAnarhruf",
"Australian Painted-snipe","spRostraus",
"Comb-crested Jacana","spIredigal","rarity"
"Plains-wanderer","spPediotor","rarity"
"Eurasian Whimbrel","spNumenpha",
"Little Curlew","spNumenmin","rarity"
"Far Eastern Curlew","spNumenmad",
"Bar-tailed Godwit","spLimoslap",
"Black-tailed Godwit","spLimoslim",
"Hudsonian Godwit","spLimoshae","rarity"
"Short-billed Dowitcher","spLimnogri","rarity"
"Latham's Snipe","spGalli5har",
"Red Phalarope","spPhala1ful","rarity"
"Red-necked Phalarope","spPhala1lob","rarity"
"Terek Sandpiper","spXenuscin",
"Common Sandpiper","spActithyp",
"Grey-tailed Tattler","spTringbre",
"Marsh Sandpiper","spTringsta",
"Wood Sandpiper","spTringgla",
"Common Redshank","spTringtot","rarity"
"Lesser Yellowlegs","spTringfla","rarity"
"Common Greenshank","spTringneb",
"Ruddy Turnstone","spArenaint",
"Great Knot","spCalidten",
"Red Knot","spCalidcan",
"Ruff","spCalidpug",
"Broad-billed Sandpiper","spCalidfal","rarity"
"Sharp-tailed Sandpiper","spCalidacu",
"Curlew Sandpiper","spCalidfer",
"Long-toed Stint","spCalidsub",
"Red-necked Stint","spCalidruf",
"Buff-breasted Sandpiper","spCalidsub1","rarity"
"Sanderling","spCalidalb",
"Baird's Sandpiper","spCalidbai","rarity"
"Little Stint","spCalidmin","rarity"
"White-rumped Sandpiper","spCalidfus","rarity"
"Pectoral Sandpiper","spCalidmel",
"Western Sandpiper","spCalidmau","rarity"
"Australian Pratincole","spStiltisa",
"Oriental Pratincole","spGlaremal","rarity"
"Sooty Tern","spOnychfus","rarity"
"Bridled Tern","spOnychana","rarity"
"Little Tern","spStern1alb",
"Fairy Tern","spStern1ner",
"Gull-billed Tern","spGelocnil","rarity"
"Australian Tern","spGelocmac",
"Caspian Tern","spHydro3cas",
"Whiskered Tern","spChlidhyb",
"White-winged Tern","spChlidleu",
"Arctic Tern","spStern2par","rarity"
"Antarctic Tern","spStern2vit","rarity"
"Common Tern","spStern2hir1",
"White-fronted Tern","spStern2str",
"Greater Crested Tern","spThala1ber",
"Sabine's Gull","spXemasab","rarity"
"Silver Gull","spChroinov",
"Laughing Gull","spLeuco3atr","rarity"
"Franklin's Gull","spLeuco3pip","rarity"
"Pacific Gull","spLaruspac",
"Kelp Gull","spLarusdom",
"Long-tailed Jaeger","spSterclon",
"Parasitic Jaeger","spStercpar",
"Pomarine Jaeger","spStercpom",
"Brown Skua","spStercant",
"South Polar Skua","spStercmac","rarity"
"Red-tailed Tropicbird","spPhaet2rub","rarity"
"King Penguin","spApten1pat","rarity"
"Little Penguin","spEudypmin",
"Macaroni Penguin","spEudyp1chr","rarity"
"Northern Rockhopper Penguin","spEudyp1mos","rarity"
"Fiordland Penguin","spEudyp1pac","rarity"
"Snares Penguin","spEudyp1rob","rarity"
"Erect-crested Penguin","spEudyp1scl","rarity"
"Wilson's Storm Petrel","spOceanoce",
"Grey-backed Storm Petrel","spGarroner",
"White-faced Storm Petrel","spPelagmar",
"Black-bellied Storm Petrel","spFregetro","rarity"
"Northern Royal Albatross","spDiomesan","rarity"
"Southern Royal Albatross","spDiomeepo",
"Snowy Albatross","spDiomeexu",
"Antipodean Albatross","spDiomeant",
"Amsterdam Albatross","spDiomeams","rarity"
"Sooty Albatross","spPhoeb1fus",
"Light-mantled Albatross","spPhoeb1pal","rarity"
"Indian Yellow-nosed Albatross","spThala2car",
"Grey-headed Albatross","spThala2chr",
"Buller's Albatross","spThala2bul",
"Shy Albatross","spThala2cau",
"Salvin's Albatross","spThala2sal",
"Black-browed Albatross","spThala2mel",
"Campbell Albatross","spThala2imp",
"Leach's Storm Petrel","spHydro5leu","rarity"
"Southern Giant Petrel","spMacro3gig",
"Northern Giant Petrel","spMacro3hal",
"Southern Fulmar","spFulmagla1",
"Antarctic Petrel","spThala3ant","rarity"
"Pintado Petrel","spDapticap",
"Snow Petrel","spPagodniv","rarity"
"Blue Petrel","spHalobcae","rarity"
"Broad-billed Prion","spPachy1vit","rarity"
"Salvin's Prion","spPachy1sal","rarity"
"Antarctic Prion","spPachy1des","rarity"
"Slender-billed Prion","spPachy1bel",
"Fairy Prion","spPachy1tur",
"Kerguelen Petrel","spAphrobre","rarity"
"Great-winged Petrel","spPtero3mac",
"White-headed Petrel","spPtero3les",
"Grey-faced Petrel","spPtero3gou","rarity"
"Soft-plumaged Petrel","spPtero3mol",
"Mottled Petrel","spPtero3ine","rarity"
"Gould's Petrel","spPtero3leu","rarity"
"Cook's Petrel","spPtero3coo","rarity"
"Grey Petrel","spProcecin","rarity"
"White-chinned Petrel","spProceaeq",
"Westland Petrel","spProcewes","rarity"
"Wedge-tailed Shearwater","spArdenpac","rarity"
"Buller's Shearwater","spArdenbul","rarity"
"Sooty Shearwater","spArdengri",
"Short-tailed Shearwater","spArdenten",
"Flesh-footed Shearwater","spArdencar",
"Great Shearwater","spArdengra","rarity"
"Manx Shearwater","spPuffipuf","rarity"
"Fluttering Shearwater","spPuffigav",
"Hutton's Shearwater","spPuffihut",
"Little Shearwater","spPuffiass","rarity"
"Subantarctic Shearwater","spPuffiele","rarity"
"South Georgia Diving Petrel","spPelecgeo","rarity"
"Common Diving Petrel","spPelecuri",
"Black-necked Stork","spEphipasi","rarity"
"Lesser Frigatebird","spFregaari","rarity"
"Australasian Gannet","spMorusser",
"Australasian Darter","spAnhinnov",
"Little Pied Cormorant","spMicro5mel",
"Black-faced Cormorant","spPhala2fus",
"Australian Pied Cormorant","spPhala2var",
"Little Black Cormorant","spPhala2sul",
"Great Cormorant","spPhala2car",
"Australian White Ibis","spThresmol",
"Straw-necked Ibis","spThresspi",
"Glossy Ibis","spPlegafal",
"Royal Spoonbill","spPlatareg",
"Yellow-billed Spoonbill","spPlatafla",
"Australasian Bittern","spBotaupoi",
"Black-backed Bittern","spBotaudub","rarity"
"Nankeen Night Heron","spNycti6cal",
"Pacific Reef Heron","spEgretsac",
"Little Egret","spEgretgar",
"Pied Heron","spEgretpic","rarity"
"White-faced Heron","spEgretnov",
"White-necked Heron","spArdeapac",
"Great Egret","spArdeaalb",
"Plumed Egret","spArdeaplu",
"Eastern Cattle Egret","spArdeacor",
"Australian Pelican","spPelec1con",
"Osprey","spPandihal",
"Black-shouldered Kite","spElanuaxi",
"Letter-winged Kite","spElanuscr",
"Black-breasted Buzzard","spHamirmel",
"Square-tailed Kite","spLopho7isu",
"Little Eagle","spHieramor",
"Wedge-tailed Eagle","spAquilaud",
"Collared Sparrowhawk","spTachy3cir",
"Grey Goshawk","spTachy3nov","rarity"
"Brown Goshawk","spTachy3fas",
"Spotted Harrier","spCircuass",
"Swamp Harrier","spCircuapp",
"Black Kite","spMilvumig",
"Whistling Kite","spHaliasph",
"White-bellied Sea Eagle","spIcthyleu",
"Australian Masked Owl","spTytonov","rarity"
"Eastern Barn Owl","spTytojav",
"Eastern Grass Owl","spTytolon","rarity"
"Powerful Owl","spNinoxstr",
"Barking Owl","spNinoxcon",
"Australian Boobook","spNinoxboo",
"Oriental Dollarbird","spEurysori",
"Laughing Kookaburra","spDacelnov",
"Sacred Kingfisher","spTodirsan",
"Red-backed Kingfisher","spTodirpyr",
"Azure Kingfisher","spCeyxazu",
"Rainbow Bee-eater","spMerop1orn",
"Nankeen Kestrel","spFalcocen",
"Australian Hobby","spFalcolon",
"Brown Falcon","spFalcober",
"Grey Falcon","spFalcohyp",
"Black Falcon","spFalcosub1",
"Peregrine Falcon","spFalcoper",
"Yellow-tailed Black Cockatoo","spZandafun",
"Red-tailed Black Cockatoo","spCalyp1ban",
"Glossy Black Cockatoo","spCalyp1lat",
"Cockatiel","spNymphhol",
"Gang-gang Cockatoo","spCallo1fim","introduced"
"Galah","spEolopros",
"Pink Cockatoo","spCacatlea",
"Little Corella","spCacatsan",
"Long-billed Corella","spCacatten",
"Sulphur-crested Cockatoo","spCacatgal",
"Regent Parrot","spPolyt1ant",
"Princess Parrot","spPolyt1ale","rarity"
"Red-winged Parrot","spAprosery","rarity"
"Red-rumped Parrot","spPsephhae",
"Eastern Bluebonnet","spNorthhae",
"Naretha Bluebonnet","spNorthnar",
"Mulga Parrot","spPseph1var",
"Crimson Rosella","spPlatyele",
"Eastern Rosella","spPlatyexi",
"Australian Ringneck","spBarnazon",
"Swift Parrot","spLathadis","rarity"
"Ground Parrot","spPezop1wal","rarity"
"Night Parrot","spPezop1occ","rarity"
"Bourke's Parrot","spNeopsbou",
"Blue-winged Parrot","spNeoph1chr",
"Elegant Parrot","spNeoph1ele",
"Rock Parrot","spNeoph1pet",
"Orange-bellied Parrot","spNeoph1chr1","rarity"
"Scarlet-chested Parrot","spNeoph1spl",
"Varied Lorikeet","spPsitt6ver","rarity"
"Purple-crowned Lorikeet","spParvipor",
"Little Lorikeet","spParvipus",
"Musk Lorikeet","spGloss1con",
"Rainbow Lorikeet","spTrich1mol",
"Budgerigar","spMelopund",
"Western Bowerbird","spChlam1gut",
"Spotted Bowerbird","spChlam1mac","rarity"
"White-throated Treecreeper","spCormoleu",
"White-browed Treecreeper","spClimaaff",
"Rufous Treecreeper","spClimaruf",
"Brown Treecreeper","spClimapic",
"Purple-backed Fairywren","spMalurass",
"Blue-breasted Fairywren","spMalurpul",
"Superb Fairywren","spMalurcya1",
"Splendid Fairywren","spMalurspl",
"White-winged Fairywren","spMalurleu",
"Southern Emu-wren","spStipimal",
"Mallee Emu-wren","spStipimal1",
"Rufous-crowned Emu-wren","spStipiruf",
"Grey Grasswren","spAmytobar",
"Short-tailed Grasswren","spAmytomer","endemic"
"Sandhill Grasswren","spAmytoowe",
"Striated Grasswren","spAmytostr",
"Eyrean Grasswren","spAmytogoy",
"Western Grasswren","spAmytotex",
"Thick-billed Grasswren","spAmytomod",
"Dusky Grasswren","spAmytopur",
"Eastern Spinebill","spAcant1ten",
"Gibberbird","spAshbylov",
"Crimson Chat","spEpthitri",
"Orange Chat","spEpthiaur",
"Yellow Chat","spEpthicro","rarity"
"White-fronted Chat","spEpthialb",
"Grey Honeyeater","spConop2whi","rarity"
"Tawny-crowned Honeyeater","spGlicimel",
"Pied Honeyeater","spCerth2var",
"Black Honeyeater","spSugomnig",
"Scarlet Myzomela","spMyzomsan","rarity"
"Little Friarbird","spPhile1cit",
"Noisy Friarbird","spPhile1cor","rarity"
"Striped Honeyeater","spPlect1lan",
"Painted Honeyeater","spGrantpic","rarity"
"Crescent Honeyeater","spPhylipyr",
"New Holland Honeyeater","spPhylinov",
"Brown Honeyeater","spLichmind",
"White-eared Honeyeater","spNesop1leu",
"Blue-faced Honeyeater","spEntomcya",
"Black-chinned Honeyeater","spMelit1gul",
"Brown-headed Honeyeater","spMelit1bre",
"White-naped Honeyeater","spMelit1lun",
"White-fronted Honeyeater","spPurnealb",
"Yellow-tufted Honeyeater","spLichemel",
"Purple-gaped Honeyeater","spLichecra",
"Singing Honeyeater","spGavicvir",
"Grey-headed Honeyeater","spPtilo4kea",
"Grey-fronted Honeyeater","spPtilo4plu",
"Yellow-plumed Honeyeater","spPtilo4orn",
"White-plumed Honeyeater","spPtilo4pen",
"Yellow-faced Honeyeater","spCaligchr",
"Little Wattlebird","spAntho2chr",
"Red Wattlebird","spAntho2car",
"Regent Honeyeater","spAntho2phr","extinct"
"Spiny-cheeked Honeyeater","spAcant2ruf",
"Noisy Miner","spManormel1",
"Yellow-throated Miner","spManorfla",
"Black-eared Miner","spManormel2",
"Rufous Bristlebird","spDasyobro",
"Spotted Pardalote","spPardapun",
"Red-browed Pardalote","spPardarub",
"Striated Pardalote","spPardastr",
"Redthroat","spPyrrh2bru",
"Shy Heathwren","spHylaccau",
"Chestnut-rumped Heathwren","spHylacpyr",
"Striated Fieldwren","spCalamful",
"Rufous Fieldwren","spCalamcam",
"Weebill","spSmicrbre",
"White-browed Scrubwren","spSeric1fro",
"Spotted Scrubwren","spSeric1mac",
"Southern Whiteface","spAphelleu",
"Banded Whiteface","spAphelnig",
"Chestnut-breasted Whiteface","spAphelpec","endemic"
"Yellow-rumped Thornbill","spAcant4chr",
"Yellow Thornbill","spAcant4nan",
"Striated Thornbill","spAcant4lin",
"Inland Thornbill","spAcant4api",
"Brown Thornbill","spAcant4pus",
"Slaty-backed Thornbill","spAcant4rob",
"Slender-billed Thornbill","spAcant4ire",
"Chestnut-rumped Thornbill","spAcant4uro",
"Buff-rumped Thornbill","spAcant4reg",
"White-throated Gerygone","spGerygoli",
"Western Gerygone","spGerygfus",
"Grey-crowned Babbler","spPomattem","rarity"
"White-browed Babbler","spPomatsup",
"Chestnut-crowned Babbler","spPomatruf",
"Western Whipbird","spPsoph1nig",
"Chirruping Wedgebill","spPsoph1cri",
"Chiming Wedgebill","spPsoph1occ",
"Spotted Quail-thrush","spCincl1pun","rarity"
"Chestnut Quail-thrush","spCincl1cas",
"Copperback Quail-thrush","spCincl1cla",
"Cinnamon Quail-thrush","spCincl1cin",
"Nullarbor Quail-thrush","spCincl1ali",
"Western Quail-thrush","spCincl1mar","rarity"
"White-breasted Woodswallow","spArtam1leu",
"Masked Woodswallow","spArtam1per",
"White-browed Woodswallow","spArtam1sup",
"Black-faced Woodswallow","spArtam1cin",
"Dusky Woodswallow","spArtam1cya",
"Little Woodswallow","spArtam1min",
"Australian Magpie","spGymno8tib",
"Grey Butcherbird","spCracttor",
"Pied Butcherbird","spCractnig",
"Pied Currawong","spStrep2gra",
"Grey Currawong","spStrep2ver",
"Ground Cuckooshrike","spCorac2max",
"Black-faced Cuckooshrike","spCorac2nov",
"White-bellied Cuckooshrike","spCorac2pap",
"Sahul Cicadabird","spEdoliten","rarity"
"White-winged Triller","spLalagtri",
"Varied Sittella","spDaphochr",
"Crested Bellbird","spOreoigut",
"Eastern Shriketit","spFalcu1fro",
"Olive Whistler","spPachy4oli",
"Red-lored Whistler","spPachy4ruf",
"Gilbert's Whistler","spPachy4ino",
"Australian Golden Whistler","spPachy4pec",
"Western Whistler","spPachy4ful",
"Rufous Whistler","spPachy4ruf1",
"Grey Shrikethrush","spColluhar",
"Olive-backed Oriole","spOriol1sag",
"Spangled Drongo","spDicrubra","rarity"
"Willie Wagtail","spRhipileu",
"Grey Fantail","spRhipialb4",
"Australian Rufous Fantail","spRhipiruf2","rarity"
"Black-faced Monarch","spMonarmel","rarity"
"Magpie-lark","spGrall2cya",
"Leaden Flycatcher","spMyiagrub","rarity"
"Satin Flycatcher","spMyiagcya",
"Restless Flycatcher","spMyiaginq",
"Torresian Crow","spCorvuorr",
"Little Crow","spCorvuben",
"Forest Raven","spCorvutas",
"Little Raven","spCorvumel",
"Australian Raven","spCorvucor2",
"White-winged Chough","spCorcomel",
"Apostlebird","spStrut1cin",
"Red-capped Robin","spPetro1goo",
"Rose Robin","spPetro1ros","rarity"
"Pink Robin","spPetro1rod","rarity"
"Flame Robin","spPetro1pho",
"Scarlet Robin","spPetro1boo",
"Jacky Winter","spMicro15fas",
"Southern Scrub Robin","spDrymo3bru",
"Hooded Robin","spMelan6cuc",
"Eastern Yellow Robin","spEopsaaus",
"Western Yellow Robin","spEopsagri",
"Singing Bush Lark","spMirafjav",
"Eurasian Skylark","spAlaudarv","introduced"
"White-backed Swallow","spCheraleu",
"Welcome Swallow","spHirun2neo",
"Barn Swallow","spHirun2rus","rarity"
"Fairy Martin","spPetro2ari",
"Tree Martin","spPetro2nig",
"Australian Reed Warbler","spAcroc1aus",
"Spinifexbird","spPoodycar","rarity"
"Little Grassbird","spPoodygra",
"Brown Songlark","spCincl2cru",
"Rufous Songlark","spCincl2mat",
"Golden-headed Cisticola","spCistiexi1",
"Silvereye","spZoste1lat",
"Common Starling","spSturn2vul","introduced"
"Bassian Thrush","spZoothlun",
"Common Blackbird","spTurdumer","introduced"
"Mistletoebird","spDicaehir",
"House Sparrow","spPassedom","introduced"
"Diamond Firetail","spStagogut",
"Beautiful Firetail","spStagobel",
"Red-browed Finch","spNeoch1tem",
"Painted Finch","spEmblepic",
"Plum-headed Finch","spAidemmod","rarity"
"Australian Zebra Finch","spTaeni2cas",
"Eastern Yellow Wagtail","spMotactsc","rarity"
"Citrine Wagtail","spMotaccit","rarity"
"Grey Wagtail","spMotaccin","rarity"
"Australian Pipit","spAnthuaus",
"European Greenfinch","spChlor10chl","introduced"
"European Goldfinch","spCarducar","introduced"
