"Name","ID","Status"
"Arctic Tern","spStern2par","rarity"
"Antarctic Tern","spStern2vit",
"Kelp Gull","spLarusdom",
"Parasitic Jaeger","spStercpar",
"Brown Skua","spStercant",
"South Polar Skua","spStercmac",
"King Penguin","spApten1pat",
"Adelie Penguin","spPygosade",
"Chinstrap Penguin","spPygosant",
"Gentoo Penguin","spPygospap","rarity"
"Macaroni Penguin","spEudyp1chr",
"Wilson's Storm Petrel","spOceanoce",
"Black-bellied Storm Petrel","spFregetro",
"Northern Royal Albatross","spDiomesan",
"Snowy Albatross","spDiomeexu",
"Sooty Albatross","spPhoeb1fus",
"Light-mantled Albatross","spPhoeb1pal",
"Atlantic Yellow-nosed Albatross","spThala2chl",
"Grey-headed Albatross","spThala2chr",
"Black-browed Albatross","spThala2mel",
"Southern Giant Petrel","spMacro3gig",
"Northern Giant Petrel","spMacro3hal",
"Southern Fulmar","spFulmagla1",
"Antarctic Petrel","spThala3ant",
"Pintado Petrel","spDapticap",
"Snow Petrel","spPagodniv",
"Blue Petrel","spHalobcae",
"Antarctic Prion","spPachy1des",
"Slender-billed Prion","spPachy1bel",
"Fairy Prion","spPachy1tur",
"Kerguelen Petrel","spAphrobre",
"Great-winged Petrel","spPtero3mac","rarity"
"White-headed Petrel","spPtero3les",
"Soft-plumaged Petrel","spPtero3mol",
"White-chinned Petrel","spProceaeq",
"Great Shearwater","spArdengra",
"Common Diving Petrel","spPelecuri",
