"Name","ID","Status"
"Fulvous Whistling Duck","spDendrbic","rarity"
"Brant Goose","spBrantber",
"Canada Goose","spBrantcan",
"Barnacle Goose","spBrantleu","rarity"
"Cackling Goose","spBranthut",
"Ross's Goose","spAnser1ros","rarity"
"Snow Goose","spAnser1cae",
"Pink-footed Goose","spAnser1bra","rarity"
"Greater White-fronted Goose","spAnser1alb",
"Tundra Swan","spCygnucol","rarity"
"Wood Duck","spAixspo",
"Garganey","spSpatuque","rarity"
"Blue-winged Teal","spSpatudis",
"Northern Shoveler","spSpatucly",
"Gadwall","spMarecstr",
"Eurasian Wigeon","spMarecpen",
"American Wigeon","spMarecame",
"Mallard","spAnaspla",
"American Black Duck","spAnasrub",
"Northern Pintail","spAnasacu",
"Green-winged Teal","spAnascar",
"Canvasback","spAythyval","rarity"
"Redhead","spAythyame",
"Ring-necked Duck","spAythycol",
"Tufted Duck","spAythyful","rarity"
"Greater Scaup","spAythymar",
"Lesser Scaup","spAythyaff",
"King Eider","spSomatspe",
"Common Eider","spSomatmol",
"Harlequin Duck","spHistrhis",
"Surf Scoter","spMelanper",
"White-winged Scoter","spMelandeg",
"Black Scoter","spMelaname",
"Long-tailed Duck","spClanghye",
"Bufflehead","spBucepalb",
"Common Goldeneye","spBucepcla",
"Barrow's Goldeneye","spBucepisl",
"Hooded Merganser","spLopho1cuc",
"Common Merganser","spMergumer",
"Red-breasted Merganser","spMerguser",
"Ruddy Duck","spOxyurjam",
"Ruffed Grouse","spBonasumb",
"Sharp-tailed Grouse","spTympapha",
"Spruce Grouse","spCanaccan","extinct"
"Grey Partridge","spPerdiper","introduced"
"Common Pheasant","spPhasicol","introduced"
"Common Nighthawk","spChordmin",
"Eastern Whip-poor-will","spAntrovoc","rarity"
"Chimney Swift","spChaetpel","rarity"
"Ruby-throated Hummingbird","spArchicol",
"Yellow-billed Cuckoo","spCoccy1ame",
"Black-billed Cuckoo","spCoccy1ery",
"Rock Dove","spColumliv","introduced"
"Passenger Pigeon","spEctopmig","extinct"
"Mourning Dove","spZenaimac",
"White-winged Dove","spZenaiasi","rarity"
"King Rail","spRalluele","rarity"
"Virginia Rail","spRallulim",
"Sora","spPorzacar",
"Common Gallinule","spGalli3gal","rarity"
"American Coot","spFulicame",
"Purple Gallinule","spPorph1mar","rarity"
"Yellow Rail","spCotur1nov","rarity"
"Sandhill Crane","spAntigcan",
"Pied-billed Grebe","spPodilpod",
"Red-necked Grebe","spPodic1gri",
"Horned Grebe","spPodic1aur",
"Black-necked Grebe","spPodic1nig","rarity"
"American Oystercatcher","spHaema1pal","rarity"
"Black-necked Stilt","spHiman1mex","rarity"
"American Avocet","spRecurame","rarity"
"Grey Plover","spPluvi1squ",
"American Golden Plover","spPluvi1dom",
"Killdeer","spCharavoc",
"Common Ringed Plover","spCharahia","rarity"
"Semipalmated Plover","spCharasem",
"Piping Plover","spCharamel",
"Northern Lapwing","spVanelvan","rarity"
"Upland Sandpiper","spBartrlon",
"Hudsonian Whimbrel","spNumenhud",
"Eskimo Curlew","spNumenbor","extinct"
"Black-tailed Godwit","spLimoslim","rarity"
"Hudsonian Godwit","spLimoshae",
"Marbled Godwit","spLimosfed","rarity"
"Long-billed Dowitcher","spLimnosco",
"Short-billed Dowitcher","spLimnogri",
"American Woodcock","spScolomin",
"Wilson's Snipe","spGalli5del",
"Wilson's Phalarope","spPhala1tri",
"Red Phalarope","spPhala1ful","rarity"
"Red-necked Phalarope","spPhala1lob",
"Spotted Sandpiper","spActitmac",
"Solitary Sandpiper","spTringsol",
"Lesser Yellowlegs","spTringfla",
"Willet","spTringsem",
"Greater Yellowlegs","spTringmel",
"Ruddy Turnstone","spArenaint",
"Red Knot","spCalidcan",
"Ruff","spCalidpug",
"Sharp-tailed Sandpiper","spCalidacu","rarity"
"Stilt Sandpiper","spCalidhim",
"Curlew Sandpiper","spCalidfer","rarity"
"Buff-breasted Sandpiper","spCalidsub1","rarity"
"Sanderling","spCalidalb",
"Dunlin","spCalidalp",
"Purple Sandpiper","spCalidmar",
"Baird's Sandpiper","spCalidbai",
"Little Stint","spCalidmin","rarity"
"Least Sandpiper","spCalidmin1",
"White-rumped Sandpiper","spCalidfus",
"Pectoral Sandpiper","spCalidmel",
"Western Sandpiper","spCalidmau","rarity"
"Semipalmated Sandpiper","spCalidpus",
"Black Skimmer","spRynchnig","rarity"
"Caspian Tern","spHydro3cas",
"Black Tern","spChlidnig","rarity"
"Forster's Tern","spStern2for","rarity"
"Arctic Tern","spStern2par",
"Common Tern","spStern2hir1",
"Royal Tern","spThala1max","rarity"
"Little Gull","spHydro4min",
"Black-legged Kittiwake","spRissatri",
"Ivory Gull","spPagopebu","rarity"
"Sabine's Gull","spXemasab","rarity"
"Bonaparte's Gull","spChroiphi",
"Black-headed Gull","spChroirid",
"Laughing Gull","spLeuco3atr","rarity"
"Franklin's Gull","spLeuco3pip","rarity"
"Common Gull","spLaruscan","rarity"
"Ring-billed Gull","spLarusdel",
"Great Black-backed Gull","spLarusmar",
"Glaucous Gull","spLarushyp",
"Lesser Black-backed Gull","spLarusfus",
"American Herring Gull","spLarussmi",
"Iceland Gull","spLarusgla1",
"Long-tailed Jaeger","spSterclon","rarity"
"Parasitic Jaeger","spStercpar",
"Pomarine Jaeger","spStercpom",
"Great Skua","spStercsku","rarity"
"Atlantic Puffin","spFratearc","rarity"
"Black Guillemot","spCepphgry",
"Razorbill","spAlcator",
"Little Auk","spAlleall",
"Thick-billed Murre","spUrialom",
"Common Murre","spUriaaal",
"Red-throated Loon","spGaviaste",
"Pacific Loon","spGaviapac","rarity"
"Common Loon","spGaviaimm",
"Wilson's Storm Petrel","spOceanoce",
"Leach's Storm Petrel","spHydro5leu",
"Northern Fulmar","spFulmagla",
"Sooty Shearwater","spArdengri",
"Great Shearwater","spArdengra",
"Northern Gannet","spMorusbas",
"Great Cormorant","spPhala2car",
"Double-crested Cormorant","spNanno1aur",
"American White Ibis","spEudocalb","rarity"
"Glossy Ibis","spPlegafal","rarity"
"American Bittern","spBotaulen",
"Least Bittern","spBotauexi","rarity"
"Yellow-crowned Night Heron","spNyctavio","rarity"
"Black-crowned Night Heron","spNycti6nyc","rarity"
"Little Blue Heron","spEgretcae","rarity"
"Tricolored Heron","spEgrettri","rarity"
"Snowy Egret","spEgretthu","rarity"
"Green Heron","spButorvir","rarity"
"Great Egret","spArdeaalb",
"Western Cattle Egret","spArdeaibi",
"Grey Heron","spArdeacin","rarity"
"Great Blue Heron","spArdeaher",
"American White Pelican","spPelec1ery","rarity"
"Brown Pelican","spPelec1occ","rarity"
"Black Vulture","spCoragatr","rarity"
"Turkey Vulture","spCathaaur",
"Osprey","spPandihal",
"Swallow-tailed Kite","spElanofor","rarity"
"Golden Eagle","spAquilchr","rarity"
"Sharp-shinned Hawk","spAccipstr",
"Cooper's Hawk","spAsturcoo",
"American Goshawk","spAsturatr",
"Northern Harrier","spCircuhud",
"Bald Eagle","spHalia1leu1",
"Broad-winged Hawk","spButeo1pla1",
"Red-shouldered Hawk","spButeo1lin","rarity"
"Swainson's Hawk","spButeo1swa","rarity"
"Red-tailed Hawk","spButeo1jam",
"Rough-legged Buzzard","spButeo1lag",
"American Barn Owl","spTytofur","rarity"
"Boreal Owl","spAegolfun","rarity"
"Northern Saw-whet Owl","spAegolaca",
"Northern Hawk-Owl","spSurni1ulu","rarity"
"Long-eared Owl","spAsiootu",
"Short-eared Owl","spAsiofla",
"Snowy Owl","spBubosca",
"Great Horned Owl","spBubovir",
"Eastern Screech Owl","spMegasasi","rarity"
"Barred Owl","spStrixvar",
"Great Grey Owl","spStrixneb","rarity"
"Belted Kingfisher","spMegac1alc",
"Red-headed Woodpecker","spMelan2ery","rarity"
"Red-bellied Woodpecker","spMelan2car",
"Yellow-bellied Sapsucker","spSphyrvar",
"American Three-toed Woodpecker","spPicoidor","rarity"
"Black-backed Woodpecker","spPicoiarc",
"Downy Woodpecker","spDryobpub",
"Hairy Woodpecker","spLeuco6vil",
"Northern Flicker","spColapaur1",
"Pileated Woodpecker","spDryocpil",
"Crested Caracara","spCaracpla","rarity"
"American Kestrel","spFalcospa",
"Merlin","spFalcocol",
"Gyrfalcon","spFalcorus",
"Peregrine Falcon","spFalcoper",
"Eastern Phoebe","spSayorpho",
"Say's Phoebe","spSayorsay","rarity"
"Olive-sided Flycatcher","spContocoo",
"Eastern Wood Pewee","spContovir",
"Yellow-bellied Flycatcher","spEmpidfla",
"Willow Flycatcher","spEmpidtra","rarity"
"Alder Flycatcher","spEmpidaln",
"Least Flycatcher","spEmpidmin",
"Western Kingbird","spTyran3ver","rarity"
"Scissor-tailed Flycatcher","spTyran3for","rarity"
"Fork-tailed Flycatcher","spTyran3sav","rarity"
"Eastern Kingbird","spTyran3tyr",
"Great Crested Flycatcher","spMyiarcri","rarity"
"Red-eyed Vireo","spVireo1oli",
"Philadelphia Vireo","spVireo1phi",
"Warbling Vireo","spVireo1gil","rarity"
"Yellow-throated Vireo","spVireo1fla1","rarity"
"Blue-headed Vireo","spVireo1sol",
"White-eyed Vireo","spVireo1gri","rarity"
"Loggerhead Shrike","spLaniulud","rarity"
"Northern Shrike","spLaniubor",
"Canada Jay","spPeris1can",
"Blue Jay","spCyano8cri",
"American Crow","spCorvubra",
"Northern Raven","spCorvucor3",
"Bohemian Waxwing","spBombygar",
"Cedar Waxwing","spBombyced",
"Boreal Chickadee","spPoeci2hud",
"Black-capped Chickadee","spPoeci2atr",
"Horned Lark","spEremo1alp",
"Sand Martin","spRiparrip",
"Tree Swallow","spTachy4bic",
"Purple Martin","spPrognsub","rarity"
"Northern Rough-winged Swallow","spStelg1ser","rarity"
"Barn Swallow","spHirun2rus",
"American Cliff Swallow","spPetro2pyr","rarity"
"Cave Swallow","spPetro2ful","rarity"
"Ruby-crowned Kinglet","spCorthcal",
"Golden-crowned Kinglet","spRegulsat",
"Rock Wren","spSalpiobs","rarity"
"Sedge Wren","spCistoste","rarity"
"Marsh Wren","spCistopal","rarity"
"Carolina Wren","spThryo2lud","rarity"
"Winter Wren","spTroglhie",
"Northern House Wren","spTroglaed","rarity"
"Blue-grey Gnatcatcher","spPolio5cae",
"White-breasted Nuthatch","spSitta1car",
"Red-breasted Nuthatch","spSitta1can",
"Brown Creeper","spCerth4ame",
"Grey Catbird","spDumet1car",
"Northern Mockingbird","spMimuspol",
"Brown Thrasher","spToxosruf","rarity"
"Common Starling","spSturn2vul","introduced"
"Eastern Bluebird","spSialisia",
"Townsend's Solitaire","spMyadetow","rarity"
"Varied Thrush","spIxorenae","rarity"
"Wood Thrush","spHyloc2mus","rarity"
"Swainson's Thrush","spCatha1ust",
"Hermit Thrush","spCatha1gut",
"Grey-cheeked Thrush","spCatha1min",
"Bicknell's Thrush","spCatha1bic","rarity"
"Veery","spCatha1fus1",
"Fieldfare","spTurdupil","rarity"
"American Robin","spTurdumig",
"Northern Wheatear","spOenanoen","rarity"
"House Sparrow","spPassedom","introduced"
"American Pipit","spAnthurub",
"Evening Grosbeak","spHespe1ves",
"Pine Grosbeak","spPinicenu",
"Purple Finch","spHaemopur",
"House Finch","spHaemomex","rarity"
"Redpoll","spAcant5fla",
"Red Crossbill","spLoxiacur",
"Two-barred Crossbill","spLoxialeu",
"American Goldfinch","spSpinutri",
"Pine Siskin","spSpinupin",
"Lapland Longspur","spCalcalap",
"Snow Bunting","spPlect2niv",
"Grasshopper Sparrow","spAmmodsav","rarity"
"Lark Sparrow","spChond1gra","rarity"
"Chipping Sparrow","spSpizepas",
"Clay-colored Sparrow","spSpizepal","rarity"
"Field Sparrow","spSpizepus","rarity"
"Red Fox Sparrow","spPasse1ili",
"American Tree Sparrow","spSpize1arb",
"Dark-eyed Junco","spJuncohye",
"White-crowned Sparrow","spZonotleu",
"Harris's Sparrow","spZonotque","rarity"
"White-throated Sparrow","spZonotalb",
"Vesper Sparrow","spPooecgra","rarity"
"Nelson's Sparrow","spAmmosnel",
"Henslow's Sparrow","spCentr2hen","rarity"
"Savannah Sparrow","spPasse2san",
"Song Sparrow","spMelosmel",
"Lincoln's Sparrow","spMeloslin",
"Swamp Sparrow","spMelosgeo",
"Spotted Towhee","spPipil1mac","rarity"
"Eastern Towhee","spPipil1ery",
"Yellow-breasted Chat","spIctervir","rarity"
"Yellow-headed Blackbird","spXanth2xan","rarity"
"Bobolink","spDolicory",
"Eastern Meadowlark","spSturn3mag","rarity"
"Bullock's Oriole","spIcter1bul","rarity"
"Baltimore Oriole","spIcter1gal",
"Orchard Oriole","spIcter1spu","rarity"
"Red-winged Blackbird","spAgela1pho",
"Brown-headed Cowbird","spMolotate",
"Rusty Blackbird","spEuphacar",
"Brewer's Blackbird","spEuphacya","rarity"
"Common Grackle","spQuiscqui",
"Ovenbird","spSeiuraur",
"Worm-eating Warbler","spHelmiver","rarity"
"Northern Waterthrush","spParkenov",
"Blue-winged Warbler","spVermicya","rarity"
"Black-and-white Warbler","spMniotvar",
"Swainson's Warbler","spLimno3swa","rarity"
"Tennessee Warbler","spLeiot1per",
"Orange-crowned Warbler","spLeiot1cel","rarity"
"Nashville Warbler","spLeiot1ruf",
"Mourning Warbler","spGeothphi",
"Common Yellowthroat","spGeothtri",
"Hooded Warbler","spSetop1cit","rarity"
"American Redstart","spSetop1rut",
"Cape May Warbler","spSetop1tig",
"Northern Parula","spSetop1ame",
"Magnolia Warbler","spSetop1mag",
"Bay-breasted Warbler","spSetop1cas",
"Blackburnian Warbler","spSetop1fus",
"American Yellow Warbler","spSetop1aes",
"Chestnut-sided Warbler","spSetop1pen",
"Blackpoll Warbler","spSetop1str",
"Black-throated Blue Warbler","spSetop1cae",
"Palm Warbler","spSetop1pal",
"Pine Warbler","spSetop1pin","rarity"
"Myrtle Warbler","spSetop1cor",
"Yellow-throated Warbler","spSetop1dom","rarity"
"Prairie Warbler","spSetop1dis","rarity"
"Black-throated Grey Warbler","spSetop1nig","rarity"
"Black-throated Green Warbler","spSetop1vir",
"Canada Warbler","spCardecan",
"Wilson's Warbler","spCardepus",
"Summer Tanager","spPiranrub","rarity"
"Scarlet Tanager","spPiranoli","rarity"
"Western Tanager","spPiranlud","rarity"
"Rose-breasted Grosbeak","spPheuclud",
"Black-headed Grosbeak","spPheucmel","rarity"
"Northern Cardinal","spCardicar",
"Dickcissel","spSpiza1ame","rarity"
"Blue Grosbeak","spPasse3cae","rarity"
"Indigo Bunting","spPasse3cya",
"Painted Bunting","spPasse3cir","rarity"
