"Name","ID","Status"
"Red-breasted Goose","spBrantruf","rarity"
"Greylag Goose","spAnser1ans",
"Greater White-fronted Goose","spAnser1alb",
"Lesser White-fronted Goose","spAnser1ery","rarity"
"Mute Swan","spCygnuolo",
"Tundra Swan","spCygnucol","rarity"
"Whooper Swan","spCygnucyg","rarity"
"Egyptian Goose","spAlopoaeg","rarity"
"Common Shelduck","spTadortad",
"Ruddy Shelduck","spTadorfer",
"Garganey","spSpatuque",
"Northern Shoveler","spSpatucly",
"Gadwall","spMarecstr",
"Eurasian Wigeon","spMarecpen",
"Mallard","spAnaspla",
"Northern Pintail","spAnasacu",
"Eurasian Teal","spAnascre",
"Marbled Duck","spMarmaang","rarity"
"Red-crested Pochard","spNetta1ruf",
"Common Pochard","spAythyfer",
"Ferruginous Duck","spAythynyr",
"Tufted Duck","spAythyful",
"Greater Scaup","spAythymar","rarity"
"Common Scoter","spMelannig","rarity"
"Common Goldeneye","spBucepcla","rarity"
"Smew","spMergealb","rarity"
"Common Merganser","spMergumer","rarity"
"Red-breasted Merganser","spMerguser",
"Ruddy Duck","spOxyurjam","rarity"
"White-headed Duck","spOxyurleu","rarity"
"Black Francolin","spFrancfra",
"Common Quail","spCoturcot",
"Chukar Partridge","spAlect1chu",
"European Nightjar","spCaprieur",
"Alpine Swift","spTachy1mel",
"Common Swift","spApusapu",
"Pallid Swift","spApuspal",
"Little Swift","spApusaff","rarity"
"Great Bustard","spOtistar","rarity"
"Asian Houbara","spChlammac","rarity"
"Little Bustard","spTetra4tet","rarity"
"Great Spotted Cuckoo","spClamagla",
"Diederik Cuckoo","spChrys3cap","rarity"
"Common Cuckoo","spCuculcan",
"Pin-tailed Sandgrouse","spPtero2alc","rarity"
"Black-bellied Sandgrouse","spPtero2ori","rarity"
"Rock Dove","spColumliv",
"Stock Dove","spColumoen",
"Common Wood Pigeon","spColumpal",
"European Turtle Dove","spStrep1tur",
"Oriental Turtle Dove","spStrep1ori","rarity"
"Eurasian Collared Dove","spStrep1dec",
"Laughing Dove","spSpilosen",
"Namaqua Dove","spOenacap","rarity"
"Water Rail","spRalluaqu",
"Corn Crake","spCrexcre",
"Spotted Crake","spPorzapor",
"Common Moorhen","spGalli3chl",
"Eurasian Coot","spFulicatr",
"Allen's Gallinule","spPorph1all","rarity"
"Grey-headed Swamphen","spPorph1pol","rarity"
"Baillon's Crake","spZaporpus","rarity"
"Little Crake","spZaporpar",
"Demoiselle Crane","spGrusvir",
"Common Crane","spGrusgru",
"Little Grebe","spTachy2ruf1",
"Red-necked Grebe","spPodic1gri","rarity"
"Great Crested Grebe","spPodic1cri",
"Horned Grebe","spPodic1aur","rarity"
"Black-necked Grebe","spPodic1nig",
"Greater Flamingo","spPhoenros",
"Eurasian Stone-curlew","spBurhioed",
"Eurasian Oystercatcher","spHaema1ost",
"Black-winged Stilt","spHiman1him",
"Pied Avocet","spRecuravo",
"Grey Plover","spPluvi1squ",
"European Golden Plover","spPluvi1apr",
"Pacific Golden Plover","spPluvi1ful","rarity"
"Eurasian Dotterel","spEudro1mor","rarity"
"Common Ringed Plover","spCharahia",
"Little Ringed Plover","spCharadub",
"Northern Lapwing","spVanelvan",
"Spur-winged Lapwing","spVanelspi",
"Sociable Lapwing","spVanelgre","rarity"
"White-tailed Lapwing","spVanelleu","rarity"
"Caspian Plover","spAnarhasi","rarity"
"Tibetan Sand Plover","spAnarhatr","rarity"
"Greater Sand Plover","spAnarhles",
"Kittlitz's Plover","spAnarhpec","rarity"
"Kentish Plover","spAnarhale",
"Eurasian Whimbrel","spNumenpha",
"Slender-billed Curlew","spNumenten","extinct"
"Eurasian Curlew","spNumenarq",
"Bar-tailed Godwit","spLimoslap","rarity"
"Black-tailed Godwit","spLimoslim",
"Jack Snipe","spLymnomin",
"Eurasian Woodcock","spScolorus",
"Great Snipe","spGalli5med",
"Common Snipe","spGalli5gal",
"Red Phalarope","spPhala1ful","rarity"
"Red-necked Phalarope","spPhala1lob",
"Terek Sandpiper","spXenuscin","rarity"
"Common Sandpiper","spActithyp",
"Green Sandpiper","spTringoch",
"Marsh Sandpiper","spTringsta",
"Wood Sandpiper","spTringgla",
"Common Redshank","spTringtot",
"Spotted Redshank","spTringery",
"Common Greenshank","spTringneb",
"Ruddy Turnstone","spArenaint",
"Red Knot","spCalidcan",
"Ruff","spCalidpug",
"Broad-billed Sandpiper","spCalidfal",
"Curlew Sandpiper","spCalidfer",
"Temminck's Stint","spCalidtem",
"Sanderling","spCalidalb",
"Dunlin","spCalidalp",
"Baird's Sandpiper","spCalidbai","rarity"
"Little Stint","spCalidmin",
"Pectoral Sandpiper","spCalidmel","rarity"
"Cream-colored Courser","spCursocur",
"Oriental Pratincole","spGlaremal","rarity"
"Black-winged Pratincole","spGlarenor","rarity"
"Collared Pratincole","spGlarepra",
"Little Tern","spStern1alb",
"Gull-billed Tern","spGelocnil",
"Caspian Tern","spHydro3cas",
"Whiskered Tern","spChlidhyb",
"Black Tern","spChlidnig",
"White-winged Tern","spChlidleu",
"Arctic Tern","spStern2par","rarity"
"Common Tern","spStern2hir1",
"Sandwich Tern","spThala1san",
"Little Gull","spHydro4min",
"Black-legged Kittiwake","spRissatri","rarity"
"Slender-billed Gull","spChroigen",
"Black-headed Gull","spChroirid",
"Franklin's Gull","spLeuco3pip","rarity"
"Pallas's Gull","spIchthich",
"Audouin's Gull","spIchthaud",
"Mediterranean Gull","spIchthmel",
"White-eyed Gull","spIchthleu","rarity"
"Common Gull","spLaruscan",
"Caspian Gull","spLaruscac",
"European Herring Gull","spLarusarg","rarity"
"Yellow-legged Gull","spLarusmic",
"Armenian Gull","spLarusarm",
"Great Black-backed Gull","spLarusmar","rarity"
"Lesser Black-backed Gull","spLarusfus",
"Parasitic Jaeger","spStercpar","rarity"
"Pomarine Jaeger","spStercpom","rarity"
"Red-throated Loon","spGaviaste","rarity"
"Black-throated Loon","spGaviaarc","rarity"
"European Storm Petrel","spHydro5pel","rarity"
"Scopoli's Shearwater","spCalondio",
"Yelkouan Shearwater","spPuffiyel",
"Black Stork","spCiconnig",
"White Stork","spCiconcic",
"Northern Gannet","spMorusbas","rarity"
"Pygmy Cormorant","spMicro5pyg","rarity"
"Great Cormorant","spPhala2car",
"European Shag","spGulosari",
"Glossy Ibis","spPlegafal",
"Eurasian Spoonbill","spPlataleu",
"Eurasian Bittern","spBotauste",
"Little Bittern","spBotaumin",
"Black-crowned Night Heron","spNycti6nyc",
"Little Egret","spEgretgar",
"Little Heron","spButoratr","rarity"
"Squacco Heron","spArdeo1ral",
"Great Egret","spArdeaalb",
"Western Cattle Egret","spArdeaibi",
"Grey Heron","spArdeacin",
"Purple Heron","spArdeapur",
"Great White Pelican","spPelec1ono",
"Dalmatian Pelican","spPelec1cri","rarity"
"Osprey","spPandihal",
"Black-winged Kite","spElanucae","rarity"
"Bearded Vulture","spGypaebar","rarity"
"Egyptian Vulture","spNeophper",
"European Honey Buzzard","spPerniapi",
"Cinereous Vulture","spAegypmon","rarity"
"Griffon Vulture","spGypsful",
"Bateleur","spTerateca","rarity"
"Short-toed Snake Eagle","spCircagal",
"Lesser Spotted Eagle","spClang1pom",
"Greater Spotted Eagle","spClang1cla","rarity"
"Booted Eagle","spHierapen",
"Eastern Imperial Eagle","spAquilhel","rarity"
"Golden Eagle","spAquilchr","rarity"
"Bonelli's Eagle","spAquilfas",
"Levant Sparrowhawk","spTachy3bre","rarity"
"Eurasian Sparrowhawk","spAccipnis",
"Eurasian Goshawk","spAsturgen",
"Pallid Harrier","spCircumac",
"Hen Harrier","spCircucya",
"Montagu's Harrier","spCircupyg",
"Western Marsh Harrier","spCircuaer",
"Red Kite","spMilvumil","rarity"
"Black Kite","spMilvumig",
"White-tailed Eagle","spHalia1alb","rarity"
"Rough-legged Buzzard","spButeo1lag","rarity"
"Common Buzzard","spButeo1but",
"Long-legged Buzzard","spButeo1ruf1",
"Western Barn Owl","spTytoalb",
"Little Owl","spAthennoc",
"Eurasian Scops Owl","spOtussco",
"Cyprus Scops Owl","spOtuscyp","endemic"
"Long-eared Owl","spAsiootu",
"Short-eared Owl","spAsiofla",
"Eurasian Hoopoe","spUpupaepo",
"European Roller","spCoracgar",
"White-throated Kingfisher","spHalcysmy","rarity"
"Common Kingfisher","spAlcedatt",
"Pied Kingfisher","spCerylrud",
"Blue-cheeked Bee-eater","spMerop1per",
"European Bee-eater","spMerop1api",
"Eurasian Wryneck","spJynxtor",
"Lesser Kestrel","spFalconau",
"Common Kestrel","spFalcotin",
"Red-footed Falcon","spFalcoves",
"Amur Falcon","spFalcoamu","rarity"
"Eleonora's Falcon","spFalcoele",
"Sooty Falcon","spFalcocon","rarity"
"Merlin","spFalcocol",
"Eurasian Hobby","spFalcosub",
"Lanner Falcon","spFalcobia","rarity"
"Saker Falcon","spFalcoche",
"Peregrine Falcon","spFalcoper",
"Eurasian Golden Oriole","spOriol1ori",
"Great Grey Shrike","spLaniuexc1","rarity"
"Masked Shrike","spLaniunub",
"Lesser Grey Shrike","spLaniumin",
"Woodchat Shrike","spLaniusen",
"Isabelline Shrike","spLaniuisa",
"Red-backed Shrike","spLaniucol2",
"Red-tailed Shrike","spLaniupho","rarity"
"Eurasian Jay","spGarrugla",
"Eurasian Magpie","spPicapic",
"Western Jackdaw","spColoemon",
"House Crow","spCorvuspl","rarity-from-introduced"
"Rook","spCorvufru","rarity"
"Hooded Crow","spCorvucor1",
"Brown-necked Raven","spCorvuruf","rarity"
"Northern Raven","spCorvucor3",
"Bohemian Waxwing","spBombygar","rarity"
"Grey Hypocolius","spHypoc3amp","rarity"
"Coal Tit","spPeripate",
"Eurasian Blue Tit","spCyanicae","rarity"
"Great Tit","spParusmaj",
"Eurasian Penduline Tit","spRemizpen",
"Bearded Reedling","spPanurbia","rarity"
"Desert Lark","spAmmom1des","rarity"
"Bar-tailed Lark","spAmmom1cin","rarity"
"Woodlark","spLulluarb",
"Oriental Skylark","spAlaudgul","rarity"
"Eurasian Skylark","spAlaudarv",
"Crested Lark","spGalercri",
"Horned Lark","spEremo1alp","rarity"
"Temminck's Lark","spEremo1bil","rarity"
"Greater Short-toed Lark","spCalanbra",
"Bimaculated Lark","spMelan9bim",
"Calandra Lark","spMelan9cal",
"Dupont's Lark","spChers1dup","rarity"
"Dunn's Lark","spEremadun","rarity"
"Turkestan Short-toed Lark","spAlaud1hei",
"Brown-throated Martin","spRiparpal","rarity"
"Sand Martin","spRiparrip",
"Eurasian Crag Martin","spPtyonrup",
"Barn Swallow","spHirun2rus",
"Western House Martin","spDelicurb",
"European Red-rumped Swallow","spCecroruf",
"Cetti's Warbler","spCetticet",
"Wood Warbler","spPhyll5sib",
"Eastern Bonelli's Warbler","spPhyll5ori",
"Hume's Leaf Warbler","spPhyll5hum","rarity"
"Yellow-browed Warbler","spPhyll5ino","rarity"
"Dusky Warbler","spPhyll5fus","rarity"
"Willow Warbler","spPhyll5tro",
"Mountain Chiffchaff","spPhyll5sin","rarity"
"Common Chiffchaff","spPhyll5col",
"Basra Reed Warbler","spAcroc1gri","rarity"
"Great Reed Warbler","spAcroc1aru",
"Moustached Warbler","spAcroc1mel",
"Sedge Warbler","spAcroc1sch",
"Paddyfield Warbler","spAcroc1agr","rarity"
"Blyth's Reed Warbler","spAcroc1dum","rarity"
"Common Reed Warbler","spAcroc1sci",
"Marsh Warbler","spAcroc1pal1","rarity"
"Eastern Olivaceous Warbler","spIdunapal",
"Upcher's Warbler","spHippolan","rarity"
"Olive-tree Warbler","spHippooli","rarity"
"Icterine Warbler","spHippoict",
"River Warbler","spLocusflu","rarity"
"Savi's Warbler","spLocuslus",
"Common Grasshopper Warbler","spLocusnae","rarity"
"Zitting Cisticola","spCistijun",
"Graceful Prinia","spPrinigra","rarity"
"Eurasian Blackcap","spSylvi3atr",
"Garden Warbler","spSylvi3bor",
"Barred Warbler","spCurrunis",
"Lesser Whitethroat","spCurrucur",
"Eastern Orphean Warbler","spCurrucra",
"African Desert Warbler","spCurrudes","rarity"
"Asian Desert Warbler","spCurrunan","rarity"
"Menetries's Warbler","spCurrumys","rarity"
"Rüppell's Warbler","spCurrurup",
"Cyprus Warbler","spCurrumel",
"Sardinian Warbler","spCurrumel1",
"Eastern Subalpine Warbler","spCurrucan",
"Common Whitethroat","spCurrucom",
"Spectacled Warbler","spCurrucon",
"Common Firecrest","spRegulign","rarity"
"Goldcrest","spRegulreg",
"Eurasian Wren","spTrogltro",
"Wallcreeper","spTichomur",
"Short-toed Treecreeper","spCerth4bra",
"Rosy Starling","spPastoros",
"Common Starling","spSturn2vul",
"Song Thrush","spTurduphi",
"Mistle Thrush","spTurduvis",
"Redwing","spTurduili",
"Common Blackbird","spTurdumer",
"Fieldfare","spTurdupil",
"Ring Ouzel","spTurdutor","rarity"
"Naumann's Thrush","spTurdunau","rarity"
"Rufous-tailed Scrub Robin","spCerco3gal",
"Spotted Flycatcher","spMusci3str",
"European Robin","spErithrub",
"White-throated Robin","spIranigut","rarity"
"Thrush Nightingale","spLuscilus",
"Common Nightingale","spLuscimeg",
"Bluethroat","spLuscisve",
"Red-breasted Flycatcher","spFicedpar","rarity"
"Semicollared Flycatcher","spFicedsem",
"European Pied Flycatcher","spFicedhyp1",
"Collared Flycatcher","spFicedalb1",
"Red-flanked Bluetail","spTarsicya","rarity"
"Black Redstart","spPhoen5och",
"Common Redstart","spPhoen5pho",
"Common Rock Thrush","spMontisax",
"Blue Rock Thrush","spMontisol",
"Whinchat","spSaxicrub",
"Pied Bush Chat","spSaxiccap","rarity"
"Siberian Stonechat","spSaxicmau","rarity"
"European Stonechat","spSaxicrub1",
"Northern Wheatear","spOenanoen",
"Isabelline Wheatear","spOenanisa",
"Hooded Wheatear","spOenanmon","rarity"
"Desert Wheatear","spOenandes",
"Pied Wheatear","spOenanple","rarity"
"Eastern Black-eared Wheatear","spOenanmel",
"Cyprus Wheatear","spOenancyp",
"Finsch's Wheatear","spOenanfin","rarity"
"Mourning Wheatear","spOenanlug","rarity"
"Kurdish Wheatear","spOenanxan","rarity"
"White-crowned Wheatear","spOenanleu","rarity"
"White-throated Dipper","spCincl5cin",
"Pale Rockfinch","spCarpo3bra","rarity"
"Rock Sparrow","spPetro3pet","rarity"
"White-winged Snowfinch","spMonti1niv","rarity"
"Eurasian Tree Sparrow","spPassemon","rarity"
"Spanish Sparrow","spPassehis",
"House Sparrow","spPassedom",
"Dead Sea Sparrow","spPassemoa","rarity"
"Dunnock","spPrunemod",
"Western Yellow Wagtail","spMotacfla",
"Eastern Yellow Wagtail","spMotactsc","rarity"
"Citrine Wagtail","spMotaccit",
"Grey Wagtail","spMotaccin",
"White Wagtail","spMotacalb",
"Richard's Pipit","spAnthuric",
"Blyth's Pipit","spAnthugod","rarity"
"Tawny Pipit","spAnthucam",
"Long-billed Pipit","spAnthusim","rarity"
"Meadow Pipit","spAnthupra",
"Tree Pipit","spAnthutri",
"Olive-backed Pipit","spAnthuhod","rarity"
"Red-throated Pipit","spAnthucer",
"Siberian Pipit","spAnthujap","rarity"
"Water Pipit","spAnthuspi",
"Eurasian Chaffinch","spFringcoe",
"Brambling","spFringmon",
"Hawfinch","spCocco1coc",
"Eurasian Bullfinch","spPyrrh4pyr","rarity"
"Crimson-winged Finch","spRhodo3san","rarity"
"Trumpeter Finch","spBucangit","rarity"
"Common Rosefinch","spCarpo4ery","rarity"
"European Greenfinch","spChlor10chl",
"Desert Finch","spRhodo4obs","rarity"
"Common Linnet","spLinarcan",
"Redpoll","spAcant5fla","rarity"
"Red Crossbill","spLoxiacur",
"European Goldfinch","spCarducar",
"Red-fronted Serin","spSerinpus","rarity"
"European Serin","spSerinser",
"Eurasian Siskin","spSpinuspi",
"Corn Bunting","spEmbercal",
"Yellowhammer","spEmbercit","rarity"
"Pine Bunting","spEmberleu","rarity"
"Rock Bunting","spEmbercia","rarity"
"Cinereous Bunting","spEmbercin","rarity"
"Ortolan Bunting","spEmberhor",
"Cretzschmar's Bunting","spEmbercae",
"Striolated Bunting","spEmberstr","rarity"
"Little Bunting","spEmberpus","rarity"
"Rustic Bunting","spEmberrus","rarity"
"Yellow-breasted Bunting","spEmberaur","rarity"
"Black-headed Bunting","spEmbermel",
"Common Reed Bunting","spEmbersch",
