"Name","ID","Status"
"Brant Goose","spBrantber",
"Canada Goose","spBrantcan","introduced"
"Barnacle Goose","spBrantleu",
"Cackling Goose","spBranthut","rarity"
"Snow Goose","spAnser1cae","rarity"
"Greylag Goose","spAnser1ans",
"Taiga Bean Goose","spAnser1fab","rarity"
"Pink-footed Goose","spAnser1bra",
"Tundra Bean Goose","spAnser1ser","rarity"
"Greater White-fronted Goose","spAnser1alb",
"Mute Swan","spCygnuolo","rarity"
"Tundra Swan","spCygnucol","rarity"
"Whooper Swan","spCygnucyg",
"Common Shelduck","spTadortad","rarity"
"Mandarin Duck","spAixgal","introduced"
"Garganey","spSpatuque","rarity"
"Blue-winged Teal","spSpatudis","rarity"
"Northern Shoveler","spSpatucly","rarity"
"Gadwall","spMarecstr","rarity"
"Eurasian Wigeon","spMarecpen",
"American Wigeon","spMarecame","rarity"
"Mallard","spAnaspla",
"American Black Duck","spAnasrub","rarity"
"Northern Pintail","spAnasacu",
"Eurasian Teal","spAnascre",
"Green-winged Teal","spAnascar","rarity"
"Common Pochard","spAythyfer","rarity"
"Ferruginous Duck","spAythynyr","rarity"
"Ring-necked Duck","spAythycol","rarity"
"Tufted Duck","spAythyful",
"Greater Scaup","spAythymar",
"Lesser Scaup","spAythyaff","rarity"
"Steller's Eider","spPolysste","rarity"
"King Eider","spSomatspe",
"Common Eider","spSomatmol",
"Harlequin Duck","spHistrhis","rarity"
"Surf Scoter","spMelanper","rarity"
"Velvet Scoter","spMelanfus","rarity"
"White-winged Scoter","spMelandeg","rarity"
"Common Scoter","spMelannig",
"Long-tailed Duck","spClanghye",
"Bufflehead","spBucepalb","rarity"
"Common Goldeneye","spBucepcla",
"Barrow's Goldeneye","spBucepisl","rarity"
"Smew","spMergealb","rarity"
"Hooded Merganser","spLopho1cuc","rarity"
"Common Merganser","spMergumer",
"Red-breasted Merganser","spMerguser",
"Ruddy Duck","spOxyurjam","rarity"
"Willow Ptarmigan","spLagoplag","introduced"
"Rock Ptarmigan","spLagopmut","introduced"
"Common Quail","spCoturcot","rarity"
"Common Nighthawk","spChordmin","rarity"
"European Nightjar","spCaprieur","rarity"
"White-throated Needletail","spHiruncau","rarity"
"Common Swift","spApusapu",
"Common Cuckoo","spCuculcan","rarity"
"Rock Dove","spColumliv",
"Stock Dove","spColumoen","rarity"
"Common Wood Pigeon","spColumpal",
"European Turtle Dove","spStrep1tur",
"Oriental Turtle Dove","spStrep1ori","rarity"
"Eurasian Collared Dove","spStrep1dec",
"Mourning Dove","spZenaimac","rarity"
"Water Rail","spRalluaqu",
"Corn Crake","spCrexcre","rarity"
"Spotted Crake","spPorzapor","rarity"
"Common Moorhen","spGalli3chl",
"Eurasian Coot","spFulicatr",
"American Coot","spFulicame","rarity"
"Baillon's Crake","spZaporpus","rarity"
"Sandhill Crane","spAntigcan","rarity"
"Common Crane","spGrusgru",
"Little Grebe","spTachy2ruf1","rarity"
"Pied-billed Grebe","spPodilpod","rarity"
"Red-necked Grebe","spPodic1gri","rarity"
"Great Crested Grebe","spPodic1cri","rarity"
"Horned Grebe","spPodic1aur",
"Eurasian Stone-curlew","spBurhioed","rarity"
"Eurasian Oystercatcher","spHaema1ost",
"Pied Avocet","spRecuravo","rarity"
"Grey Plover","spPluvi1squ","rarity"
"European Golden Plover","spPluvi1apr",
"Eurasian Dotterel","spEudro1mor","rarity"
"Killdeer","spCharavoc","rarity"
"Common Ringed Plover","spCharahia",
"Semipalmated Plover","spCharasem","rarity"
"Little Ringed Plover","spCharadub","rarity"
"Northern Lapwing","spVanelvan",
"Eurasian Whimbrel","spNumenpha",
"Eurasian Curlew","spNumenarq",
"Bar-tailed Godwit","spLimoslap","rarity"
"Black-tailed Godwit","spLimoslim",
"Long-billed Dowitcher","spLimnosco","rarity"
"Jack Snipe","spLymnomin",
"Eurasian Woodcock","spScolorus",
"Common Snipe","spGalli5gal",
"Red Phalarope","spPhala1ful",
"Red-necked Phalarope","spPhala1lob",
"Common Sandpiper","spActithyp",
"Green Sandpiper","spTringoch","rarity"
"Wood Sandpiper","spTringgla","rarity"
"Common Redshank","spTringtot",
"Lesser Yellowlegs","spTringfla","rarity"
"Spotted Redshank","spTringery","rarity"
"Common Greenshank","spTringneb","rarity"
"Greater Yellowlegs","spTringmel","rarity"
"Ruddy Turnstone","spArenaint",
"Red Knot","spCalidcan",
"Ruff","spCalidpug","rarity"
"Broad-billed Sandpiper","spCalidfal","rarity"
"Curlew Sandpiper","spCalidfer","rarity"
"Buff-breasted Sandpiper","spCalidsub1","rarity"
"Sanderling","spCalidalb",
"Dunlin","spCalidalp",
"Purple Sandpiper","spCalidmar",
"Baird's Sandpiper","spCalidbai","rarity"
"Little Stint","spCalidmin","rarity"
"White-rumped Sandpiper","spCalidfus","rarity"
"Pectoral Sandpiper","spCalidmel","rarity"
"Little Tern","spStern1alb","rarity"
"Caspian Tern","spHydro3cas","rarity"
"Black Tern","spChlidnig","rarity"
"White-winged Tern","spChlidleu","rarity"
"Arctic Tern","spStern2par",
"Common Tern","spStern2hir1",
"Sandwich Tern","spThala1san","rarity"
"Little Gull","spHydro4min","rarity"
"Ross's Gull","spRhodo2ros","rarity"
"Black-legged Kittiwake","spRissatri",
"Ivory Gull","spPagopebu","rarity"
"Sabine's Gull","spXemasab","rarity"
"Black-headed Gull","spChroirid",
"Franklin's Gull","spLeuco3pip","rarity"
"Mediterranean Gull","spIchthmel","rarity"
"Common Gull","spLaruscan",
"Ring-billed Gull","spLarusdel","rarity"
"Caspian Gull","spLaruscac","rarity"
"European Herring Gull","spLarusarg",
"Great Black-backed Gull","spLarusmar",
"Glaucous Gull","spLarushyp",
"Lesser Black-backed Gull","spLarusfus",
"Iceland Gull","spLarusgla1",
"Long-tailed Jaeger","spSterclon",
"Parasitic Jaeger","spStercpar",
"Pomarine Jaeger","spStercpom",
"Great Skua","spStercsku",
"South Polar Skua","spStercmac","rarity"
"Tufted Puffin","spFratecir","rarity"
"Atlantic Puffin","spFratearc",
"Black Guillemot","spCepphgry",
"Razorbill","spAlcator",
"Little Auk","spAlleall",
"Thick-billed Murre","spUrialom",
"Common Murre","spUriaaal",
"Red-throated Loon","spGaviaste",
"Black-throated Loon","spGaviaarc","rarity"
"Common Loon","spGaviaimm",
"Yellow-billed Loon","spGaviaada","rarity"
"Wilson's Storm Petrel","spOceanoce","rarity"
"Atlantic Yellow-nosed Albatross","spThala2chl","rarity"
"Black-browed Albatross","spThala2mel","rarity"
"European Storm Petrel","spHydro5pel",
"Leach's Storm Petrel","spHydro5leu",
"Northern Fulmar","spFulmagla",
"Desertas Petrel","spPtero3des","rarity"
"Cory's Shearwater","spCalonbor",
"Scopoli's Shearwater","spCalondio","rarity"
"Sooty Shearwater","spArdengri",
"Great Shearwater","spArdengra","rarity"
"Manx Shearwater","spPuffipuf",
"Northern Gannet","spMorusbas",
"Great Cormorant","spPhala2car",
"European Shag","spGulosari",
"Glossy Ibis","spPlegafal","rarity"
"Eurasian Spoonbill","spPlataleu","rarity"
"Eurasian Bittern","spBotauste","rarity"
"American Bittern","spBotaulen","rarity"
"Little Bittern","spBotaumin","rarity"
"Black-crowned Night Heron","spNycti6nyc","rarity"
"Little Egret","spEgretgar","rarity"
"Great Egret","spArdeaalb","rarity"
"Western Cattle Egret","spArdeaibi","rarity"
"Grey Heron","spArdeacin",
"Purple Heron","spArdeapur","rarity"
"Osprey","spPandihal","rarity"
"European Honey Buzzard","spPerniapi","rarity"
"Eurasian Sparrowhawk","spAccipnis","rarity"
"Hen Harrier","spCircucya","rarity"
"Northern Harrier","spCircuhud","rarity"
"Western Marsh Harrier","spCircuaer","rarity"
"Red Kite","spMilvumil","rarity"
"Black Kite","spMilvumig","rarity"
"White-tailed Eagle","spHalia1alb","rarity"
"Rough-legged Buzzard","spButeo1lag","rarity"
"Common Buzzard","spButeo1but","rarity"
"Eurasian Scops Owl","spOtussco","rarity"
"Long-eared Owl","spAsiootu",
"Short-eared Owl","spAsiofla",
"Snowy Owl","spBubosca","rarity"
"Eurasian Hoopoe","spUpupaepo","rarity"
"European Roller","spCoracgar","rarity"
"Olive Bee-eater","spMerop1sup","rarity"
"European Bee-eater","spMerop1api","rarity"
"Eurasian Wryneck","spJynxtor","rarity"
"Great Spotted Woodpecker","spDendr5maj",
"Lesser Kestrel","spFalconau","rarity"
"Common Kestrel","spFalcotin",
"Amur Falcon","spFalcoamu","rarity"
"Merlin","spFalcocol",
"Eurasian Hobby","spFalcosub","rarity"
"Gyrfalcon","spFalcorus","rarity"
"Peregrine Falcon","spFalcoper","rarity"
"Eurasian Golden Oriole","spOriol1ori","rarity"
"Great Grey Shrike","spLaniuexc1","rarity"
"Lesser Grey Shrike","spLaniumin","rarity"
"Isabelline Shrike","spLaniuisa","rarity"
"Red-backed Shrike","spLaniucol2","rarity"
"Eurasian Magpie","spPicapic","rarity"
"Western Jackdaw","spColoemon",
"Rook","spCorvufru",
"Carrion Crow","spCorvucor","rarity"
"Hooded Crow","spCorvucor1",
"Northern Raven","spCorvucor3",
"Bohemian Waxwing","spBombygar",
"Eurasian Blue Tit","spCyanicae","rarity"
"Great Tit","spParusmaj","rarity"
"Woodlark","spLulluarb","rarity"
"Eurasian Skylark","spAlaudarv",
"Horned Lark","spEremo1alp","rarity"
"Calandra Lark","spMelan9cal","rarity"
"Sand Martin","spRiparrip",
"Barn Swallow","spHirun2rus",
"Western House Martin","spDelicurb",
"European Red-rumped Swallow","spCecroruf","rarity"
"Wood Warbler","spPhyll5sib","rarity"
"Western Bonelli's Warbler","spPhyll5bon","rarity"
"Eastern Bonelli's Warbler","spPhyll5ori","rarity"
"Hume's Leaf Warbler","spPhyll5hum","rarity"
"Yellow-browed Warbler","spPhyll5ino",
"Pallas's Leaf Warbler","spPhyll5pro","rarity"
"Radde's Warbler","spPhyll5sch","rarity"
"Dusky Warbler","spPhyll5fus","rarity"
"Willow Warbler","spPhyll5tro",
"Common Chiffchaff","spPhyll5col",
"Green Warbler","spPhyll5nit","rarity"
"Greenish Warbler","spPhyll5tro1","rarity"
"Arctic Warbler","spPhyll5bor1","rarity"
"Great Reed Warbler","spAcroc1aru","rarity"
"Sedge Warbler","spAcroc1sch","rarity"
"Paddyfield Warbler","spAcroc1agr","rarity"
"Blyth's Reed Warbler","spAcroc1dum","rarity"
"Common Reed Warbler","spAcroc1sci",
"Marsh Warbler","spAcroc1pal1","rarity"
"Booted Warbler","spIdunacal","rarity"
"Melodious Warbler","spHippopol","rarity"
"Icterine Warbler","spHippoict","rarity"
"Lanceolated Warbler","spLocuslan","rarity"
"Common Grasshopper Warbler","spLocusnae","rarity"
"Eurasian Blackcap","spSylvi3atr",
"Garden Warbler","spSylvi3bor",
"Barred Warbler","spCurrunis",
"Lesser Whitethroat","spCurrucur",
"Rüppell's Warbler","spCurrurup","rarity"
"Moltoni's Warbler","spCurrusub1","rarity"
"Eastern Subalpine Warbler","spCurrucan","rarity"
"Common Whitethroat","spCurrucom",
"Common Firecrest","spRegulign","rarity"
"Goldcrest","spRegulreg",
"Eurasian Wren","spTrogltro",
"Eurasian Treecreeper","spCerth4fam","rarity"
"Rosy Starling","spPastoros","rarity"
"Common Starling","spSturn2vul",
"White's Thrush","spZoothaur","rarity"
"Song Thrush","spTurduphi",
"Mistle Thrush","spTurduvis","rarity"
"Redwing","spTurduili",
"Common Blackbird","spTurdumer",
"Fieldfare","spTurdupil",
"Ring Ouzel","spTurdutor",
"Dusky Thrush","spTurdueun","rarity"
"Spotted Flycatcher","spMusci3str",
"European Robin","spErithrub",
"Thrush Nightingale","spLuscilus","rarity"
"Common Nightingale","spLuscimeg","rarity"
"Bluethroat","spLuscisve","rarity"
"Siberian Rubythroat","spCalli2cal","rarity"
"Red-breasted Flycatcher","spFicedpar","rarity"
"European Pied Flycatcher","spFicedhyp1",
"Collared Flycatcher","spFicedalb1","rarity"
"Red-flanked Bluetail","spTarsicya","rarity"
"Black Redstart","spPhoen5och","rarity"
"Common Redstart","spPhoen5pho",
"Whinchat","spSaxicrub",
"Siberian Stonechat","spSaxicmau","rarity"
"European Stonechat","spSaxicrub1","rarity"
"Northern Wheatear","spOenanoen",
"White-throated Dipper","spCincl5cin","rarity"
"Eurasian Tree Sparrow","spPassemon","rarity"
"House Sparrow","spPassedom",
"Dunnock","spPrunemod",
"Western Yellow Wagtail","spMotacfla",
"Citrine Wagtail","spMotaccit","rarity"
"Grey Wagtail","spMotaccin","rarity"
"White Wagtail","spMotacalb",
"Richard's Pipit","spAnthuric","rarity"
"Meadow Pipit","spAnthupra",
"Tree Pipit","spAnthutri",
"Olive-backed Pipit","spAnthuhod","rarity"
"Pechora Pipit","spAnthugus","rarity"
"Red-throated Pipit","spAnthucer","rarity"
"American Pipit","spAnthurub","rarity"
"European Rock Pipit","spAnthupet",
"Eurasian Chaffinch","spFringcoe",
"Brambling","spFringmon",
"Hawfinch","spCocco1coc","rarity"
"Eurasian Bullfinch","spPyrrh4pyr",
"Common Rosefinch","spCarpo4ery","rarity"
"European Greenfinch","spChlor10chl","rarity"
"Twite","spLinarfla","rarity"
"Common Linnet","spLinarcan","rarity"
"Redpoll","spAcant5fla","rarity"
"Parrot Crossbill","spLoxiapyt","rarity"
"Red Crossbill","spLoxiacur",
"Two-barred Crossbill","spLoxialeu","rarity"
"European Goldfinch","spCarducar","rarity"
"Eurasian Siskin","spSpinuspi",
"Lapland Longspur","spCalcalap","rarity"
"Snow Bunting","spPlect2niv",
"Corn Bunting","spEmbercal","rarity"
"Yellowhammer","spEmbercit","rarity"
"Ortolan Bunting","spEmberhor","rarity"
"Little Bunting","spEmberpus",
"Rustic Bunting","spEmberrus","rarity"
"Black-headed Bunting","spEmbermel","rarity"
"Common Reed Bunting","spEmbersch",
"White-crowned Sparrow","spZonotleu","rarity"
"Black-and-white Warbler","spMniotvar","rarity"
"Tennessee Warbler","spLeiot1per","rarity"
"American Yellow Warbler","spSetop1aes","rarity"
"Blackpoll Warbler","spSetop1str","rarity"
