"Name","ID","Status"
"Black-bellied Whistling Duck","spDendraut","rarity"
"West Indian Whistling Duck","spDendrarb","rarity"
"Fulvous Whistling Duck","spDendrbic","rarity"
"Blue-winged Teal","spSpatudis",
"Northern Shoveler","spSpatucly","rarity"
"Gadwall","spMarecstr","rarity"
"American Wigeon","spMarecame","rarity"
"White-cheeked Pintail","spAnasbah","rarity"
"Green-winged Teal","spAnascar","rarity"
"Ring-necked Duck","spAythycol","rarity"
"Lesser Scaup","spAythyaff","rarity"
"Masked Duck","spNomondom","rarity"
"Ruddy Duck","spOxyurjam","rarity"
"Rufous-vented Chachalaca","spOrtalruf","introduced"
"Red Junglefowl","spGallugal","escaped"
"Common Nighthawk","spChordmin","rarity"
"Antillean Nighthawk","spChordgun","rarity"
"American Black Swift","spCypsenig",
"White-collared Swift","spStrepzon",
"Grey-rumped Swift","spChaetcin",
"Rufous-breasted Hermit","spGlauchir",
"Ruby-topaz Hummingbird","spChrys1mos","rarity"
"Green-throated Carib","spEulamhol",
"Purple-throated Carib","spEulamjug",
"Antillean Crested Hummingbird","spOrthocri",
"Smooth-billed Ani","spCrotoani",
"Dark-billed Cuckoo","spCoccy1mel","rarity"
"Yellow-billed Cuckoo","spCoccy1ame","rarity"
"Mangrove Cuckoo","spCoccy1min",
"Rock Dove","spColumliv","introduced"
"Scaly-naped Pigeon","spPatag1squ",
"Eurasian Collared Dove","spStrep1dec","introduced"
"African Collared Dove","spStrep1ros","escaped"
"Common Ground Dove","spColum1pas",
"Ruddy Quail-Dove","spGeotrmon",
"Grenada Dove","spLepto1wel","endemic"
"Eared Dove","spZenaiaur",
"Zenaida Dove","spZenaiaur1",
"Sora","spPorzacar",
"Common Gallinule","spGalli3gal",
"American Coot","spFulicame","rarity"
"Purple Gallinule","spPorph1mar","rarity"
"Least Grebe","spTachy2dom","rarity"
"Pied-billed Grebe","spPodilpod",
"American Flamingo","spPhoenrub","rarity"
"American Oystercatcher","spHaema1pal","rarity"
"Black-necked Stilt","spHiman1mex","rarity"
"Grey Plover","spPluvi1squ",
"American Golden Plover","spPluvi1dom",
"Killdeer","spCharavoc","rarity"
"Semipalmated Plover","spCharasem",
"Southern Lapwing","spVanelchi","rarity"
"Wilson's Plover","spAnarhwil",
"Collared Plover","spAnarhcol",
"Wattled Jacana","spJacanjac","rarity"
"Upland Sandpiper","spBartrlon","rarity"
"Hudsonian Whimbrel","spNumenhud",
"Eskimo Curlew","spNumenbor","extinct"
"Hudsonian Godwit","spLimoshae","rarity"
"Marbled Godwit","spLimosfed","rarity"
"Short-billed Dowitcher","spLimnogri",
"Wilson's Snipe","spGalli5del",
"Wilson's Phalarope","spPhala1tri","rarity"
"Spotted Sandpiper","spActitmac",
"Solitary Sandpiper","spTringsol",
"Lesser Yellowlegs","spTringfla",
"Willet","spTringsem",
"Greater Yellowlegs","spTringmel",
"Ruddy Turnstone","spArenaint",
"Red Knot","spCalidcan","rarity"
"Ruff","spCalidpug","rarity"
"Stilt Sandpiper","spCalidhim",
"Curlew Sandpiper","spCalidfer","rarity"
"Buff-breasted Sandpiper","spCalidsub1","rarity"
"Sanderling","spCalidalb",
"Baird's Sandpiper","spCalidbai","rarity"
"Least Sandpiper","spCalidmin1",
"White-rumped Sandpiper","spCalidfus","rarity"
"Pectoral Sandpiper","spCalidmel",
"Western Sandpiper","spCalidmau",
"Semipalmated Sandpiper","spCalidpus",
"Black Skimmer","spRynchnig","rarity"
"Brown Noddy","spAnoussto",
"Sooty Tern","spOnychfus",
"Bridled Tern","spOnychana",
"Least Tern","spStern1ant","rarity"
"Large-billed Tern","spPhaet1sim","rarity"
"Gull-billed Tern","spGelocnil","rarity"
"Black Tern","spChlidnig","rarity"
"Common Tern","spStern2hir1",
"Roseate Tern","spStern2dou",
"Cabot's Tern","spThala1acu",
"Royal Tern","spThala1max",
"Black-headed Gull","spChroirid","rarity"
"Laughing Gull","spLeuco3atr",
"Franklin's Gull","spLeuco3pip","rarity"
"Lesser Black-backed Gull","spLarusfus","rarity"
"Parasitic Jaeger","spStercpar",
"Red-billed Tropicbird","spPhaet2aet",
"White-tailed Tropicbird","spPhaet2lep",
"Wilson's Storm Petrel","spOceanoce",
"Great Shearwater","spArdengra","rarity"
"Sargasso Shearwater","spPuffilhe",
"Jabiru","spJabirmyc","rarity"
"Magnificent Frigatebird","spFregamag",
"Northern Gannet","spMorusbas","rarity"
"Red-footed Booby","spSulasul",
"Brown Booby","spSulaleu",
"Masked Booby","spSuladac","rarity"
"Anhinga","spAnhinanh","rarity"
"Scarlet Ibis","spEudocrub","rarity"
"Glossy Ibis","spPlegafal","rarity"
"Yellow-crowned Night Heron","spNyctavio",
"Black-crowned Night Heron","spNycti6nyc",
"Little Blue Heron","spEgretcae",
"Tricolored Heron","spEgrettri",
"Snowy Egret","spEgretthu",
"Little Egret","spEgretgar","rarity"
"Striated Heron","spButorstr","rarity"
"Green Heron","spButorvir",
"Great Egret","spArdeaalb",
"Western Cattle Egret","spArdeaibi",
"Great Blue Heron","spArdeaher",
"Brown Pelican","spPelec1occ",
"Black Vulture","spCoragatr","rarity"
"Osprey","spPandihal",
"Hook-billed Kite","spChondunc",
"Black Kite","spMilvumig","rarity"
"Snail Kite","spRostr1soc","rarity"
"Common Black Hawk","spButeoant",
"Broad-winged Hawk","spButeo1pla1",
"Ashy-faced Owl","spTytogla",
"Belted Kingfisher","spMegac1alc",
"Yellow-headed Caracara","spMilvachi","rarity"
"American Kestrel","spFalcospa",
"Aplomado Falcon","spFalcofem","rarity"
"Merlin","spFalcocol",
"Bat Falcon","spFalcoruf","rarity"
"Peregrine Falcon","spFalcoper",
"Orange-winged Amazon","spAmazo1ama","introduced"
"Yellow-bellied Elaenia","spElaenfla",
"Caribbean Elaenia","spElaenmar",
"Euler's Flycatcher","spLathreul",
"Pied Water Tyrant","spFluvipic","rarity"
"Tropical Kingbird","spTyran3mel",
"Fork-tailed Flycatcher","spTyran3sav","rarity"
"Grey Kingbird","spTyran3dom",
"Grenada Flycatcher","spMyiarnug",
"Red-eyed Vireo","spVireo1oli","rarity"
"Black-whiskered Vireo","spVireo1alt",
"Yellow-throated Vireo","spVireo1fla1","rarity"
"Sand Martin","spRiparrip","rarity"
"White-winged Swallow","spTachy4alb1","rarity"
"Caribbean Martin","spProgndom",
"Barn Swallow","spHirun2rus",
"American Cliff Swallow","spPetro2pyr","rarity"
"Grenada Wren","spTroglgre","endemic"
"Tropical Mockingbird","spMimusgil",
"Scaly-breasted Thrasher","spAllenfus",
"Pearly-eyed Thrasher","spMarga3fus","rarity"
"Brown Trembler","spCincl3ruf",
"Cocoa Thrush","spTurdufum",
"Spectacled Thrush","spTurdunud",
"Lesser Antillean Euphonia","spChlor11fla",
"Bobolink","spDolicory","rarity"
"Yellow Oriole","spIcter1nig","rarity"
"Baltimore Oriole","spIcter1gal","rarity"
"Venezuelan Troupial","spIcter1ict",
"Shiny Cowbird","spMolotbon",
"Carib Grackle","spQuisclug",
"Northern Waterthrush","spParkenov",
"Black-and-white Warbler","spMniotvar","rarity"
"Prothonotary Warbler","spProtocit",
"American Redstart","spSetop1rut",
"Cape May Warbler","spSetop1tig","rarity"
"Northern Parula","spSetop1ame",
"Blackburnian Warbler","spSetop1fus","rarity"
"Mangrove Warbler","spSetop1pet",
"Blackpoll Warbler","spSetop1str",
"Prairie Warbler","spSetop1dis","rarity"
"Summer Tanager","spPiranrub","rarity"
"Scarlet Tanager","spPiranoli","rarity"
"Bananaquit","spCoerefla",
"Lesser Antillean Bullfinch","spLoxignoc",
"Black-faced Grassquit","spMelan13bic",
"Blue-black Grassquit","spVolatjac",
"Yellow-bellied Seedeater","spSporo1nig",
"Grassland Yellow Finch","spSicallut",
"Palm Tanager","spThraupal","rarity"
"Lesser Antillean Tanager","spStilpcuc",
