"Name","ID","Status"
"Wandering Whistling Duck","spDendrarc",
"Lesser Whistling Duck","spDendrjav",
"White-winged Duck","spAsarcscu",
"Cotton Pygmy Goose","spNettacor",
"Garganey","spSpatuque",
"Pacific Black Duck","spAnassup",
"Northern Pintail","spAnasacu",
"Sunda Teal","spAnasgib",
"Hardhead","spAythyaus","rarity"
"Chestnut-bellied Partridge","spArborjav","endemic"
"Grey-breasted Partridge","spArborori","endemic"
"Green Peafowl","spPavomut",
"Green Junglefowl","spGalluvar",
"Red Junglefowl","spGallugal",
"King Quail","spSynoichi",
"Grey Nightjar","spCaprijot",
"Large-tailed Nightjar","spCaprimac",
"Savanna Nightjar","spCapriaff",
"Salvadori's Nightjar","spCapripul",
"Javan Frogmouth","spBatrajav","endemic"
"Sunda Frogmouth","spBatracor",
"Grey-rumped Treeswift","spHemiplon",
"Giant Swiftlet","spHydro1gig",
"Cave Swiftlet","spCollolin",
"Volcano Swiftlet","spAerodvul","endemic"
"Mossy-nest Swiftlet","spAerodsal",
"Black-nest Swiftlet","spAerodmax",
"Edible-nest Swiftlet","spAerodfuc",
"Silver-rumped Spinetail","spRhaphleu",
"White-throated Needletail","spHiruncau",
"Silver-backed Needletail","spHiruncoc",
"Brown-backed Needletail","spHirungig",
"Asian Palm Swift","spCypsibal",
"Pacific Swift","spApuspac",
"House Swift","spApusnip",
"Sunda Coucal","spCentr1nig","endemic"
"Greater Coucal","spCentr1sin",
"Lesser Coucal","spCentr1ben",
"Red-billed Malkoha","spZancljav",
"Chestnut-breasted Malkoha","spPhaencur",
"Green-billed Malkoha","spPhaentri",
"Chestnut-winged Cuckoo","spClamacor",
"Asian Koel","spEudynsco",
"Violet Cuckoo","spChrys3xan",
"Horsfield's Bronze Cuckoo","spChalc1bas",
"Little Bronze Cuckoo","spChalc1min",
"Banded Bay Cuckoo","spCacomson",
"Plaintive Cuckoo","spCacommer",
"Sunda Brush Cuckoo","spCacomsep",
"Square-tailed Drongo-Cuckoo","spSurnilug",
"Moustached Hawk-Cuckoo","spHierovag",
"Large Hawk-Cuckoo","spHierospa",
"Malaysian Hawk-Cuckoo","spHierofug",
"Hodgson's Hawk-Cuckoo","spHieronis",
"Indian Cuckoo","spCuculmic",
"Himalayan Cuckoo","spCuculsat",
"Oriental Cuckoo","spCuculopt",
"Sunda Cuckoo","spCucullep",
"Common Cuckoo","spCuculcan","rarity"
"Rock Dove","spColumliv","introduced"
"Sunda Collared Dove","spStrep1bit",
"Spotted Dove","spSpilochi",
"Barred Cuckoo-Dove","spMacro2unc",
"Ruddy Cuckoo-Dove","spMacro2emi",
"Little Cuckoo-Dove","spMacro2ruf1",
"Common Emerald Dove","spChalc2ind",
"Zebra Dove","spGeopestr",
"Nicobar Pigeon","spCaloenic",
"Little Green Pigeon","spTreroola",
"Pink-necked Green Pigeon","spTrerover",
"Orange-breasted Green Pigeon","spTrerobic",
"Thick-billed Green Pigeon","spTrerocur",
"Grey-cheeked Green Pigeon","spTrerogri",
"Large Green Pigeon","spTrerocap",
"Sumatran Green Pigeon","spTrerooxy",
"Wedge-tailed Green Pigeon","spTrerosph",
"Banded Fruit Dove","spPtilicin",
"Pink-headed Fruit Dove","spPtilipor",
"Jambu Fruit Dove","spPtilijam",
"Black-naped Fruit Dove","spPtilimel",
"Green Imperial Pigeon","spDuculaen",
"Pink-headed Imperial Pigeon","spDuculros",
"Mountain Imperial Pigeon","spDuculbad",
"Dark-backed Imperial Pigeon","spDucullac",
"Pied Imperial Pigeon","spDuculbic",
"Masked Finfoot","spHelio3per","rarity"
"Slaty-breasted Rail","spLewinstr",
"Common Moorhen","spGalli3chl",
"Eurasian Coot","spFulicatr",
"Black-backed Swamphen","spPorph1ind",
"Ruddy-breasted Crake","spZaporfus",
"Band-bellied Crake","spZaporpay",
"Baillon's Crake","spZaporpus",
"Slaty-legged Crake","spRalli1eur",
"Red-legged Crake","spRalli1fas",
"White-browed Crake","spPoliocin",
"Watercock","spGalli4cin",
"White-breasted Waterhen","spAmaur1pho",
"Tricolored Grebe","spTachy2tri",
"Australasian Grebe","spTachy2nov",
"Barred Buttonquail","spTurnisus",
"Common Buttonquail","spTurnisyl",
"Beach Stone-curlew","spEsacumag",
"Black-winged Stilt","spHiman1him","rarity"
"Pied Stilt","spHiman1leu",
"Grey Plover","spPluvi1squ",
"Pacific Golden Plover","spPluvi1ful",
"Common Ringed Plover","spCharahia","rarity"
"Little Ringed Plover","spCharadub",
"Long-billed Plover","spCharapla","rarity"
"Javan Lapwing","spVanelmac",
"Oriental Plover","spAnarhver",
"Tibetan Sand Plover","spAnarhatr",
"Siberian Sand Plover","spAnarhmon",
"Greater Sand Plover","spAnarhles",
"Malaysian Plover","spAnarhper",
"Javan Plover","spAnarhjav",
"Kentish Plover","spAnarhale",
"Greater Painted-snipe","spRostrben",
"Pheasant-tailed Jacana","spHydro2chi",
"Bronze-winged Jacana","spMetopind",
"Eurasian Whimbrel","spNumenpha",
"Little Curlew","spNumenmin",
"Far Eastern Curlew","spNumenmad",
"Eurasian Curlew","spNumenarq",
"Bar-tailed Godwit","spLimoslap",
"Black-tailed Godwit","spLimoslim",
"Asian Dowitcher","spLimnosem",
"Long-billed Dowitcher","spLimnosco","rarity"
"Javan Woodcock","spScolosat",
"Swinhoe's Snipe","spGalli5meg",
"Pin-tailed Snipe","spGalli5ste",
"Common Snipe","spGalli5gal",
"Red-necked Phalarope","spPhala1lob",
"Terek Sandpiper","spXenuscin",
"Common Sandpiper","spActithyp",
"Green Sandpiper","spTringoch",
"Grey-tailed Tattler","spTringbre",
"Marsh Sandpiper","spTringsta",
"Wood Sandpiper","spTringgla",
"Common Redshank","spTringtot",
"Nordmann's Greenshank","spTringgut",
"Common Greenshank","spTringneb",
"Ruddy Turnstone","spArenaint",
"Great Knot","spCalidten",
"Red Knot","spCalidcan",
"Ruff","spCalidpug",
"Broad-billed Sandpiper","spCalidfal",
"Sharp-tailed Sandpiper","spCalidacu",
"Curlew Sandpiper","spCalidfer",
"Long-toed Stint","spCalidsub",
"Red-necked Stint","spCalidruf",
"Sanderling","spCalidalb",
"Little Stint","spCalidmin","rarity"
"Pectoral Sandpiper","spCalidmel","rarity"
"Australian Pratincole","spStiltisa",
"Oriental Pratincole","spGlaremal",
"White Tern","spGygisalb",
"Brown Noddy","spAnoussto",
"Black Noddy","spAnousmin",
"Aleutian Tern","spOnychale",
"Sooty Tern","spOnychfus",
"Bridled Tern","spOnychana",
"Little Tern","spStern1alb",
"Gull-billed Tern","spGelocnil",
"Caspian Tern","spHydro3cas","rarity"
"Whiskered Tern","spChlidhyb",
"White-winged Tern","spChlidleu",
"Common Tern","spStern2hir1",
"Black-naped Tern","spStern2sum",
"Roseate Tern","spStern2dou",
"Lesser Crested Tern","spThala1ben",
"Greater Crested Tern","spThala1ber",
"Long-tailed Jaeger","spSterclon",
"Parasitic Jaeger","spStercpar",
"Pomarine Jaeger","spStercpom",
"Red-tailed Tropicbird","spPhaet2rub",
"White-tailed Tropicbird","spPhaet2lep",
"Wilson's Storm Petrel","spOceanoce",
"Swinhoe's Storm Petrel","spHydro5mon",
"Antarctic Prion","spPachy1des",
"Streaked Shearwater","spCalonleu",
"Wedge-tailed Shearwater","spArdenpac",
"Bulwer's Petrel","spBulwebul",
"Lesser Adjutant","spLepto2jav",
"Milky Stork","spMyctecin",
"Black-necked Stork","spEphipasi",
"Asian Woolly-necked Stork","spCiconepi",
"Lesser Frigatebird","spFregaari",
"Great Frigatebird","spFregamin",
"Christmas Frigatebird","spFregaand",
"Abbott's Booby","spPapasabb",
"Red-footed Booby","spSulasul",
"Brown Booby","spSulaleu",
"Masked Booby","spSuladac",
"Oriental Darter","spAnhinmel",
"Little Cormorant","spMicro5nig",
"Little Pied Cormorant","spMicro5mel",
"Little Black Cormorant","spPhala2sul",
"Black-headed Ibis","spThresmel",
"Australian White Ibis","spThresmol","rarity"
"Glossy Ibis","spPlegafal",
"Royal Spoonbill","spPlatareg","rarity"
"Black Bittern","spBotaufla",
"Cinnamon Bittern","spBotaucin",
"Von Schrenck's Bittern","spBotaueur",
"Yellow Bittern","spBotausin",
"Black-crowned Night Heron","spNycti6nyc",
"Nankeen Night Heron","spNycti6cal",
"Malayan Night Heron","spGorsamel",
"Pacific Reef Heron","spEgretsac",
"Chinese Egret","spEgreteul",
"Little Egret","spEgretgar",
"Pied Heron","spEgretpic","rarity"
"White-faced Heron","spEgretnov",
"Little Heron","spButoratr",
"Javan Pond Heron","spArdeo1spe",
"Great Egret","spArdeaalb",
"Medium Egret","spArdeaint",
"Eastern Cattle Egret","spArdeacor",
"Grey Heron","spArdeacin",
"Purple Heron","spArdeapur",
"Great-billed Heron","spArdeasum",
"Great White Pelican","spPelec1ono","rarity"
"Spot-billed Pelican","spPelec1phi","rarity"
"Australian Pelican","spPelec1con","rarity"
"Osprey","spPandihal",
"Black-winged Kite","spElanucae",
"Black Baza","spAviceleu",
"Crested Honey Buzzard","spPernipti",
"Crested Serpent Eagle","spSpilo1che",
"Short-toed Snake Eagle","spCircagal",
"Javan Hawk-Eagle","spNisaebar",
"Changeable Hawk-Eagle","spNisaecir",
"Rufous-bellied Eagle","spLopho8kie",
"Black Eagle","spIctinmal",
"Booted Eagle","spHierapen",
"Crested Goshawk","spLopho9tri",
"Besra","spTachy3vir",
"Japanese Sparrowhawk","spTachy3gul",
"Chinese Sparrowhawk","spTachy3sol",
"Eurasian Sparrowhawk","spAccipnis","rarity"
"Eastern Marsh Harrier","spCircuspi","rarity"
"Black Kite","spMilvumig","rarity"
"Brahminy Kite","spHaliaind",
"White-bellied Sea Eagle","spIcthyleu",
"Grey-headed Fish Eagle","spIcthyich",
"Rufous-winged Buzzard","spButasliv",
"Grey-faced Buzzard","spButasind",
"Eastern Buzzard","spButeo1jap","rarity"
"Eastern Barn Owl","spTytojav",
"Oriental Bay Owl","spPhodibad",
"Brown Boobook","spNinoxscu",
"Javan Owlet","spGlauc1cas",
"Reddish Scops Owl","spOtusruf",
"Javan Scops Owl","spOtusang","endemic"
"Sunda Scops Owl","spOtuslem",
"Buffy Fish Owl","spKetupket",
"Barred Eagle-Owl","spKetupsum",
"Spotted Wood Owl","spStrixsel",
"Brown Wood Owl","spStrixlep",
"Javan Trogon","spApalhrei","endemic"
"Orange-breasted Trogon","spHarpa1ore",
"Rhinoceros Hornbill","spBucerrhi",
"Oriental Pied Hornbill","spAnthr1alb",
"Wreathed Hornbill","spRhytiund",
"Oriental Dollarbird","spEurysori",
"Banded Kingfisher","spLacedpul",
"Stork-billed Kingfisher","spPelarcap",
"Ruddy Kingfisher","spHalcycor",
"White-throated Kingfisher","spHalcysmy",
"Javan Kingfisher","spHalcycya",
"Black-capped Kingfisher","spHalcypil",
"Collared Kingfisher","spTodirchl",
"Sacred Kingfisher","spTodirsan",
"Cerulean Kingfisher","spAlcedcoe",
"Javan Blue-banded Kingfisher","spAlcedeur","endemic"
"Blue-eared Kingfisher","spAlcedmen",
"Common Kingfisher","spAlcedatt",
"Rufous-backed Dwarf Kingfisher","spCeyxruf",
"Blue-tailed Bee-eater","spMerop1phi",
"Rainbow Bee-eater","spMerop1orn",
"Blue-throated Bee-eater","spMerop1vir1",
"Chestnut-headed Bee-eater","spMerop1les",
"Fire-tufted Barbet","spPsilo1pyr",
"Lineated Barbet","spPsilo1lin",
"Brown-throated Barbet","spPsilo1cor","endemic"
"Black-banded Barbet","spPsilo1jav","endemic"
"Flame-fronted Barbet","spPsilo1arm",
"Yellow-eared Barbet","spPsilo1aus",
"Coppersmith Barbet","spPsilo1hae",
"Rufous Piculet","spSasiaabn",
"Grey-and-buff Woodpecker","spHemiccon",
"Sunda Pygmy Woodpecker","spYungimol",
"Freckle-breasted Woodpecker","spDendr5ana",
"White-bellied Woodpecker","spDryocjav",
"Banded Woodpecker","spChrys4min",
"Checker-throated Woodpecker","spChrys4men",
"Crimson-winged Woodpecker","spPicuspun",
"Laced Woodpecker","spPicusvit",
"Common Flameback","spDinopjav",
"Orange-backed Woodpecker","spChrys5val",
"Javan Flameback","spChrys5str",
"Greater Flameback","spChrys5gut",
"Rufous Woodpecker","spMicro9bra",
"Zebra Woodpecker","spMeigltri","endemic"
"Great Slaty Woodpecker","spMullepul",
"Black-thighed Falconet","spMicro10fri",
"Spotted Kestrel","spFalcomol",
"Nankeen Kestrel","spFalcocen",
"Eurasian Hobby","spFalcosub","rarity"
"Oriental Hobby","spFalcosev",
"Peregrine Falcon","spFalcoper",
"Palm Cockatoo","spProboate","escaped"
"Tanimbar Corella","spCacatgof","escaped"
"Yellow-crested Cockatoo","spCacatsul","escaped"
"Sulphur-crested Cockatoo","spCacatgal","escaped"
"Red-breasted Parakeet","spPsitt4ale",
"Blue-crowned Hanging Parrot","spLoricgal",
"Yellow-throated Hanging Parrot","spLoricpus",
"Banded Broadbill","spEuryljav",
"Javan Banded Pitta","spHydro6gua",
"Western Hooded Pitta","spPittasor",
"Fairy Pitta","spPittanym","rarity"
"Brown Honeyeater","spLichmind","escaped"
"Golden-bellied Gerygone","spGerygsul",
"Black-winged Flycatcher-shrike","spHemip2hir",
"Large Woodshrike","spTephrvir",
"Maroon-breasted Philentoma","spPhile3vel",
"White-breasted Woodswallow","spArtam1leu",
"Common Iora","spAegittip",
"Small Minivet","spPericcin",
"Sunda Minivet","spPericmin",
"Scarlet Minivet","spPericspe",
"Bar-bellied Cuckooshrike","spCorac2str",
"Oriental Cuckooshrike","spCorac2jav",
"Sunda Cuckooshrike","spCorac2lar1",
"White-shouldered Triller","spLalagsue",
"Pied Triller","spLalagnig",
"Lesser Cuckooshrike","spLalagfim",
"Mangrove Whistler","spPachy4cin",
"Tenggara Whistler","spPachy4cal",
"Pied Shrike-babbler","spPterufla","endemic"
"Trilling Shrike-babbler","spPteruaen","endemic"
"Javan Oriole","spOriol1cru","endemic"
"Dark-throated Oriole","spOriol1xan1",
"Black-naped Oriole","spOriol1chi",
"Lesser Racket-tailed Drongo","spDicrurem",
"Crow-billed Drongo","spDicruann",
"Greater Racket-tailed Drongo","spDicrupar",
"Hair-crested Drongo","spDicruhot",
"Ashy Drongo","spDicruleu",
"Black Drongo","spDicrumac",
"White-bellied Fantail","spRhipieur","endemic"
"Malaysian Pied Fantail","spRhipijav",
"Rufous-tailed Fantail","spRhipipho","endemic"
"Black-naped Monarch","spHypot1azu",
"Blyth's Paradise Flycatcher","spTerpsaff",
"Amur Paradise Flycatcher","spTerpsinc","rarity"
"Black Paradise Flycatcher","spTerpsatr","rarity"
"Crested Jayshrike","spPlaty3gal",
"Tiger Shrike","spLaniutig",
"Brown Shrike","spLaniucri",
"Long-tailed Shrike","spLaniusch",
"Javan Green Magpie","spCissatha","endemic"
"Racket-tailed Treepie","spCrypstem",
"House Crow","spCorvuspl","introduced"
"Piping Crow","spCorvutyp",
"Sunda Crow","spCorvuenc",
"Large-billed Crow","spCorvumac",
"Grey-headed Canary-flycatcher","spCulic1cey",
"Cinereous Tit","spParuscin",
"Singing Bush Lark","spMirafjav",
"Brown-cheeked Bulbul","spAlophbre",
"Javan Bulbul","spIxosvir","endemic"
"Black-headed Bulbul","spBrach3mel",
"Scaly-breasted Bulbul","spIxodisqu",
"Ruby-throated Bulbul","spRubigdis",
"Cream-vented Bulbul","spPycno2sim",
"Olive-winged Bulbul","spPycno2plu",
"Asian Red-eyed Bulbul","spPycno2bru",
"Straw-headed Bulbul","spPycno2zey",
"Orange-spotted Bulbul","spPycno2bim",
"Yellow-vented Bulbul","spPycno2goi",
"Sooty-headed Bulbul","spPycno2aur",
"Pacific Swallow","spHirun2jav",
"Barn Swallow","spHirun2rus",
"Asian House Martin","spDelicdas",
"Eastern Red-rumped Swallow","spCecrodau",
"Pygmy Cupwing","spPnoeppus",
"Yellow-bellied Warbler","spAbrossup",
"Mountain Tailorbird","spPhyll4cuc",
"Aberrant Bush Warbler","spHororfla",
"Javan Tesia","spTesiasup","endemic"
"Pygmy Bushtit","spAegit1exi","endemic"
"Yellow-browed Warbler","spPhyll5ino","rarity"
"Eastern Crowned Warbler","spPhyll5cor",
"Kamchatka Leaf Warbler","spPhyll5exa",
"Arctic Warbler","spPhyll5bor1",
"Sunda Warbler","spPhyll5gra",
"Mountain Leaf Warbler","spPhyll5tri",
"Oriental Reed Warbler","spAcroc1ori",
"Clamorous Reed Warbler","spAcroc1ste",
"Black-browed Reed Warbler","spAcroc1bis","rarity"
"Pallas's Grasshopper Warbler","spHelopcer",
"Lanceolated Warbler","spLocuslan",
"Javan Bush Warbler","spLocusmon",
"Striated Grassbird","spMegal1pal",
"Zitting Cisticola","spCistijun",
"Golden-headed Cisticola","spCistiexi1",
"Brown Prinia","spPrinipol",
"Bar-winged Prinia","spPrinifam",
"Yellow-bellied Prinia","spPrinifla",
"Plain Prinia","spPriniino",
"Common Tailorbird","spOrtho3sut",
"Ashy Tailorbird","spOrtho3ruf",
"Olive-backed Tailorbird","spOrtho3sep",
"Javan Heleia","spHeleijav",
"Warbling White-eye","spZoste1jap",
"Lemon-bellied White-eye","spZoste1chl1",
"Javan White-eye","spZoste1fla2",
"Sangkar White-eye","spZoste1mel1",
"Chestnut-capped Babbler","spTimalpil",
"Grey-cheeked Tit-Babbler","spMixorfla","endemic"
"Kangean Tit-Babbler","spMixorpri","endemic"
"Bold-striped Tit-Babbler","spMixorbor",
"Crescent-chested Babbler","spCyano10mel",
"Javan Scimitar Babbler","spPomat1mon",
"White-breasted Babbler","spStachgra","endemic"
"White-bibbed Babbler","spStachtho","endemic"
"Large Wren-Babbler","spTurdimac",
"Scaly-crowned Babbler","spMalac3cin",
"Javan Black-capped Babbler","spPellocap","endemic"
"Temminck's Babbler","spPellopyr",
"Abbott's Babbler","spMalac4abb",
"Horsfield's Babbler","spMalac4sep",
"Eyebrowed Wren-Babbler","spNapotepi",
"Javan Fulvetta","spAlcippyr","endemic"
"Spotted Crocias","spLaniealb","endemic"
"Rufous-fronted Laughingthrush","spGarru1ruf","endemic"
"Asian Fairy-bluebird","spIrenapue",
"Blue Nuthatch","spSitta1azu",
"Velvet-fronted Nuthatch","spSitta1fro",
"Asian Glossy Starling","spAplonpan",
"Short-tailed Starling","spAplonmin",
"Common Hill Myna","spGracurel",
"Javan Myna","spAcridjav","endemic"
"Common Myna","spAcridtri","escaped"
"Black-winged Myna","spAcridmel",
"Javan Pied Myna","spGracu1jal",
"Daurian Starling","spAgropstu",
"Javan Cochoa","spCochoazu","endemic"
"Sunda Thrush","spZoothand",
"Scaly Thrush","spZoothdau",
"Siberian Thrush","spGeokisib",
"Orange-headed Thrush","spGeokicit",
"Chestnut-capped Thrush","spGeokiint",
"Eyebrowed Thrush","spTurduobs",
"Sundaic Island Thrush","spTurdujav",
"Oriental Magpie-Robin","spCopsysau",
"Rufous-tailed Shama","spCopsypyr",
"Larwo Shama","spCopsyomi","endemic"
"Kangean Shama","spCopsynig1","endemic"
"White-rumped Shama","spCopsymal",
"Grey-streaked Flycatcher","spMusci3gri",
"Dark-sided Flycatcher","spMusci3sib",
"Ferruginous Flycatcher","spMusci3fer",
"Asian Brown Flycatcher","spMusci3dau",
"Blue-and-white Flycatcher","spCyano11cya",
"Zappey's Flycatcher","spCyano11cum",
"Indigo Flycatcher","spEumyiind",
"Pale Blue Flycatcher","spCyornuni",
"Brown-chested Jungle Flycatcher","spCyornbru",
"Grey-chested Jungle Flycatcher","spCyornumb",
"Mangrove Blue Flycatcher","spCyornruf2",
"Javan Blue Flycatcher","spCyornban","endemic"
"Fulvous-chested Jungle Flycatcher","spCyornoli",
"Javan Blue Robin","spMyiomdia","endemic"
"White-crowned Forktail","spEnicules",
"Sunda Forktail","spEnicuvel",
"Blue Whistling Thrush","spMyophcae",
"Javan Whistling Thrush","spMyophgla",
"Lesser Shortwing","spBrach4leu",
"Javan Shortwing","spBrach4mon","endemic"
"Siberian Blue Robin","spLarvicya","rarity"
"Yellow-rumped Flycatcher","spFicedzan",
"Narcissus Flycatcher","spFicednar",
"Snowy-browed Flycatcher","spFicedhyp",
"Mugimaki Flycatcher","spFicedmug",
"Little Pied Flycatcher","spFicedwes",
"Rufous-chested Flycatcher","spFiceddum",
"Pied Bush Chat","spSaxiccap",
"Amur Stonechat","spSaxicste",
"Greater Green Leafbird","spChlor7son",
"Javan Leafbird","spChlor7coc","endemic"
"Crimson-breasted Flowerpecker","spPrion3per",
"Yellow-vented Flowerpecker","spPachy7chr",
"Thick-billed Flowerpecker","spPachy7agi",
"Orange-bellied Flowerpecker","spDicaetri",
"Plain Flowerpecker","spDicaemin",
"Red-chested Flowerpecker","spDicaemau",
"Javan Flowerpecker","spDicaesan",
"Scarlet-headed Flowerpecker","spDicaetro",
"Ruby-cheeked Sunbird","spChalc4sin",
"Brown-throated Sunbird","spAnthr2mal",
"Van Hasselt's Sunbird","spLepto9bra",
"Copper-throated Sunbird","spLepto9cal",
"Ornate Sunbird","spCinny2orn",
"White-flanked Sunbird","spAetho1exi","endemic"
"Crimson Sunbird","spAetho1sip",
"Javan Sunbird","spAetho1mys","endemic"
"Little Spiderhunter","spArachlon",
"Long-billed Spiderhunter","spArachrob",
"Yellow-eared Spiderhunter","spArachchr",
"Streaky-breasted Spiderhunter","spArachaff",
"Eurasian Tree Sparrow","spPassemon",
"Asian Golden Weaver","spPloce2hyp",
"Streaked Weaver","spPloce2man",
"Baya Weaver","spPloce2phi",
"Java Sparrow","spPaddaory",
"Scaly-breasted Munia","spLonchpun",
"Black-faced Munia","spLonchmol",
"White-bellied Munia","spLonchleu",
"Javan Munia","spLonchleu1",
"White-capped Munia","spLonchfer",
"White-headed Munia","spLonchmaj",
"Pin-tailed Parrotfinch","spEryth6pra",
"Tawny-breasted Parrotfinch","spEryth6hyp",
"Red Avadavat","spAmandama",
"Forest Wagtail","spDendr12ind",
"Eastern Yellow Wagtail","spMotactsc",
"Grey Wagtail","spMotaccin",
"White Wagtail","spMotacalb","rarity"
"Paddyfield Pipit","spAnthuruf",
"Indonesian Serin","spChrys7est",
