"Name","ID","Status"
"Magpie Goose","spAnsersem","rarity"
"Plumed Whistling Duck","spDendreyt","rarity"
"Wandering Whistling Duck","spDendrarc",
"Lesser Whistling Duck","spDendrjav",
"Radjah Shelduck","spRadjarad",
"Cotton Pygmy Goose","spNettacor","rarity"
"Green Pygmy Goose","spNettapul",
"Garganey","spSpatuque",
"Pacific Black Duck","spAnassup",
"Sunda Teal","spAnasgib",
"Grey Teal","spAnasgra","rarity"
"Hardhead","spAythyaus",
"Orange-footed Scrubfowl","spMegaprei",
"Green Junglefowl","spGalluvar",
"Red Junglefowl","spGallugal",
"Brown Quail","spSynoiyps",
"King Quail","spSynoichi",
"Spotted Nightjar","spEurosarg","rarity"
"Large-tailed Nightjar","spCaprimac",
"Mees's Nightjar","spCaprimee","endemic"
"Timor Nightjar","spCapririt",
"Savanna Nightjar","spCapriaff",
"Grey-rumped Treeswift","spHemiplon",
"Tenggara Swiftlet","spCollosum","endemic"
"Drab Swiftlet","spColloneg",
"Cave Swiftlet","spCollolin",
"Mossy-nest Swiftlet","spAerodsal",
"Edible-nest Swiftlet","spAerodfuc",
"White-throated Needletail","spHiruncau",
"Brown-backed Needletail","spHirungig",
"Asian Palm Swift","spCypsibal",
"Pacific Swift","spApuspac",
"House Swift","spApusnip",
"Greater Coucal","spCentr1sin",
"Lesser Coucal","spCentr1ben",
"Pheasant Coucal","spCentr1pha",
"Chestnut-breasted Malkoha","spPhaencur",
"Green-billed Malkoha","spPhaentri",
"Chestnut-winged Cuckoo","spClamacor","rarity"
"Asian Koel","spEudynsco",
"Pacific Koel","spEudynori",
"Channel-billed Cuckoo","spScythnov",
"Horsfield's Bronze Cuckoo","spChalc1bas",
"Black-eared Cuckoo","spChalc1osc","rarity"
"Shining Bronze Cuckoo","spChalc1luc",
"Little Bronze Cuckoo","spChalc1min",
"Pallid Cuckoo","spHeter2pal",
"Banded Bay Cuckoo","spCacomson",
"Plaintive Cuckoo","spCacommer",
"Sunda Brush Cuckoo","spCacomsep",
"Sahul Brush Cuckoo","spCacomvar",
"Square-tailed Drongo-Cuckoo","spSurnilug",
"Large Hawk-Cuckoo","spHierospa",
"Himalayan Cuckoo","spCuculsat",
"Oriental Cuckoo","spCuculopt",
"Sunda Cuckoo","spCucullep",
"Rock Dove","spColumliv","introduced"
"Metallic Pigeon","spColumvit",
"Sunda Collared Dove","spStrep1bit",
"Spotted Dove","spSpilochi",
"Barred Cuckoo-Dove","spMacro2unc",
"Ruddy Cuckoo-Dove","spMacro2emi",
"Timor Cuckoo-Dove","spMacro2mag",
"Little Cuckoo-Dove","spMacro2ruf1",
"Black Cuckoo-Dove","spTuracmod",
"Common Emerald Dove","spChalc2ind",
"Pacific Emerald Dove","spChalc2lon",
"Zebra Dove","spGeopestr",
"Barred Dove","spGeopemau",
"Nicobar Pigeon","spCaloenic",
"Wetar Ground Dove","spPampuhoe",
"Pink-necked Green Pigeon","spTrerover",
"Orange-breasted Green Pigeon","spTrerobic",
"Grey-cheeked Green Pigeon","spTrerogri",
"Sumba Green Pigeon","spTrerotey","endemic"
"Flores Green Pigeon","spTreroflo","endemic"
"Timor Green Pigeon","spTreropsi",
"Wedge-tailed Green Pigeon","spTrerosph",
"Banded Fruit Dove","spPtilicin",
"Red-naped Fruit Dove","spPtilidoh","endemic"
"Pink-headed Fruit Dove","spPtilipor",
"Wallace's Fruit Dove","spPtiliwal",
"Rose-crowned Fruit Dove","spPtilireg",
"Black-naped Fruit Dove","spPtilimel",
"Green Imperial Pigeon","spDuculaen",
"Elegant Imperial Pigeon","spDuculcon",
"Pink-headed Imperial Pigeon","spDuculros",
"Dark-backed Imperial Pigeon","spDucullac",
"Timor Imperial Pigeon","spDuculcin",
"Pied Imperial Pigeon","spDuculbic",
"Slaty-breasted Rail","spLewinstr",
"Lewin's Rail","spLewinpec",
"Buff-banded Rail","spHypotphi",
"Dusky Moorhen","spGalli3ten",
"Common Moorhen","spGalli3chl",
"Eurasian Coot","spFulicatr","rarity"
"Black-backed Swamphen","spPorph1ind","rarity"
"Australasian Swamphen","spPorph1mel",
"Ruddy-breasted Crake","spZaporfus",
"Baillon's Crake","spZaporpus",
"Spotless Crake","spZaportab",
"Slaty-legged Crake","spRalli1eur","rarity"
"Red-legged Crake","spRalli1fas",
"Red-necked Crake","spRalli1tri",
"White-browed Crake","spPoliocin",
"Watercock","spGalli4cin",
"White-breasted Waterhen","spAmaur1pho",
"Tricolored Grebe","spTachy2tri",
"Australasian Grebe","spTachy2nov",
"Red-backed Buttonquail","spTurnimac",
"Barred Buttonquail","spTurnisus",
"Common Buttonquail","spTurnisyl",
"Sumba Buttonquail","spTurnieve","endemic"
"Beach Stone-curlew","spEsacumag",
"Pied Oystercatcher","spHaema1lon","rarity"
"Sooty Oystercatcher","spHaema1ful","rarity"
"Pied Stilt","spHiman1leu",
"Grey Plover","spPluvi1squ",
"Pacific Golden Plover","spPluvi1ful",
"Common Ringed Plover","spCharahia","rarity"
"Black-fronted Dotterel","spCharamel1","rarity"
"Little Ringed Plover","spCharadub",
"Masked Lapwing","spVanelmil",
"Red-kneed Dotterel","spEryth1cin","rarity"
"Oriental Plover","spAnarhver",
"Tibetan Sand Plover","spAnarhatr",
"Siberian Sand Plover","spAnarhmon",
"Greater Sand Plover","spAnarhles",
"Red-capped Plover","spAnarhruf",
"Malaysian Plover","spAnarhper",
"Javan Plover","spAnarhjav",
"Kentish Plover","spAnarhale",
"Greater Painted-snipe","spRostrben",
"Pheasant-tailed Jacana","spHydro2chi",
"Comb-crested Jacana","spIredigal",
"Eurasian Whimbrel","spNumenpha",
"Little Curlew","spNumenmin",
"Far Eastern Curlew","spNumenmad",
"Eurasian Curlew","spNumenarq",
"Bar-tailed Godwit","spLimoslap",
"Black-tailed Godwit","spLimoslim",
"Asian Dowitcher","spLimnosem",
"Swinhoe's Snipe","spGalli5meg",
"Pin-tailed Snipe","spGalli5ste",
"Common Snipe","spGalli5gal",
"Red-necked Phalarope","spPhala1lob",
"Terek Sandpiper","spXenuscin",
"Common Sandpiper","spActithyp",
"Green Sandpiper","spTringoch","rarity"
"Grey-tailed Tattler","spTringbre",
"Marsh Sandpiper","spTringsta",
"Wood Sandpiper","spTringgla",
"Common Redshank","spTringtot",
"Lesser Yellowlegs","spTringfla","rarity"
"Nordmann's Greenshank","spTringgut","rarity"
"Spotted Redshank","spTringery","rarity"
"Common Greenshank","spTringneb",
"Ruddy Turnstone","spArenaint",
"Great Knot","spCalidten",
"Red Knot","spCalidcan",
"Ruff","spCalidpug","rarity"
"Broad-billed Sandpiper","spCalidfal",
"Sharp-tailed Sandpiper","spCalidacu",
"Curlew Sandpiper","spCalidfer",
"Temminck's Stint","spCalidtem","rarity"
"Long-toed Stint","spCalidsub",
"Red-necked Stint","spCalidruf",
"Buff-breasted Sandpiper","spCalidsub1","rarity"
"Sanderling","spCalidalb",
"Little Stint","spCalidmin","rarity"
"Pectoral Sandpiper","spCalidmel","rarity"
"Australian Pratincole","spStiltisa",
"Oriental Pratincole","spGlaremal",
"White Tern","spGygisalb","rarity"
"Brown Noddy","spAnoussto",
"Black Noddy","spAnousmin","rarity"
"Aleutian Tern","spOnychale",
"Sooty Tern","spOnychfus",
"Bridled Tern","spOnychana",
"Little Tern","spStern1alb",
"Gull-billed Tern","spGelocnil",
"Australian Tern","spGelocmac",
"Caspian Tern","spHydro3cas",
"Whiskered Tern","spChlidhyb",
"White-winged Tern","spChlidleu",
"Common Tern","spStern2hir1",
"Black-naped Tern","spStern2sum",
"Roseate Tern","spStern2dou",
"Lesser Crested Tern","spThala1ben",
"Greater Crested Tern","spThala1ber",
"Silver Gull","spChroinov","rarity"
"Black-headed Gull","spChroirid","rarity"
"Slaty-backed Gull","spLarussch","rarity"
"Long-tailed Jaeger","spSterclon",
"Parasitic Jaeger","spStercpar",
"Pomarine Jaeger","spStercpom",
"Red-billed Tropicbird","spPhaet2aet","rarity"
"Red-tailed Tropicbird","spPhaet2rub",
"White-tailed Tropicbird","spPhaet2lep",
"Wilson's Storm Petrel","spOceanoce",
"White-faced Storm Petrel","spPelagmar","rarity"
"Swinhoe's Storm Petrel","spHydro5mon",
"Matsudaira's Storm Petrel","spHydro5mat",
"Tahiti Petrel","spPseudros",
"Streaked Shearwater","spCalonleu",
"Wedge-tailed Shearwater","spArdenpac",
"Heinroth's Shearwater","spPuffihei","rarity"
"Bulwer's Petrel","spBulwebul",
"Lesser Adjutant","spLepto2jav",
"Milky Stork","spMyctecin",
"Asian Woolly-necked Stork","spCiconepi",
"Lesser Frigatebird","spFregaari",
"Great Frigatebird","spFregamin",
"Christmas Frigatebird","spFregaand",
"Abbott's Booby","spPapasabb","rarity"
"Red-footed Booby","spSulasul",
"Brown Booby","spSulaleu",
"Masked Booby","spSuladac",
"Australasian Darter","spAnhinnov",
"Oriental Darter","spAnhinmel",
"Little Cormorant","spMicro5nig",
"Little Pied Cormorant","spMicro5mel",
"Little Black Cormorant","spPhala2sul",
"Australian White Ibis","spThresmol",
"Glossy Ibis","spPlegafal",
"Royal Spoonbill","spPlatareg",
"Black Bittern","spBotaufla",
"Cinnamon Bittern","spBotaucin",
"Yellow Bittern","spBotausin",
"Black-crowned Night Heron","spNycti6nyc",
"Nankeen Night Heron","spNycti6cal",
"Pacific Reef Heron","spEgretsac",
"Chinese Egret","spEgreteul","rarity"
"Little Egret","spEgretgar",
"Pied Heron","spEgretpic",
"White-faced Heron","spEgretnov",
"Little Heron","spButoratr",
"Javan Pond Heron","spArdeo1spe",
"Great Egret","spArdeaalb",
"Medium Egret","spArdeaint",
"Eastern Cattle Egret","spArdeacor",
"Grey Heron","spArdeacin",
"Purple Heron","spArdeapur",
"Great-billed Heron","spArdeasum",
"Australian Pelican","spPelec1con",
"Osprey","spPandihal",
"Black-winged Kite","spElanucae",
"Pacific Baza","spAvicesub",
"Crested Honey Buzzard","spPernipti",
"Crested Serpent Eagle","spSpilo1che",
"Short-toed Snake Eagle","spCircagal",
"Javan Hawk-Eagle","spNisaebar",
"Changeable Hawk-Eagle","spNisaecir",
"Flores Hawk-Eagle","spNisaeflo","endemic"
"Rufous-bellied Eagle","spLopho8kie",
"Black Eagle","spIctinmal",
"Booted Eagle","spHierapen","rarity"
"Bonelli's Eagle","spAquilfas",
"Crested Goshawk","spLopho9tri","rarity"
"Besra","spTachy3vir",
"Japanese Sparrowhawk","spTachy3gul",
"Chinese Sparrowhawk","spTachy3sol",
"Variable Goshawk","spTachy3hio",
"Brown Goshawk","spTachy3fas",
"Spotted Harrier","spCircuass",
"Swamp Harrier","spCircuapp","rarity"
"Black Kite","spMilvumig",
"Brahminy Kite","spHaliaind",
"White-bellied Sea Eagle","spIcthyleu",
"Grey-faced Buzzard","spButasind",
"Eastern Buzzard","spButeo1jap","rarity"
"Eastern Barn Owl","spTytojav",
"Eastern Grass Owl","spTytolon",
"Sumba Boobook","spNinoxrud","endemic"
"Rote Boobook","spNinoxrot","endemic"
"Timor Boobook","spNinoxfus",
"Alor Boobook","spNinoxple","endemic"
"Brown Boobook","spNinoxscu",
"Least Boobook","spNinoxsum","endemic"
"Javan Owlet","spGlauc1cas",
"Flores Scops Owl","spOtusalf","endemic"
"Moluccan Scops Owl","spOtusmag",
"Sunda Scops Owl","spOtuslem",
"Wallace's Scops Owl","spOtussil","endemic"
"Rinjani Scops Owl","spOtusjol","endemic"
"Buffy Fish Owl","spKetupket",
"Barred Eagle-Owl","spKetupsum",
"Oriental Pied Hornbill","spAnthr1alb",
"Wreathed Hornbill","spRhytiund",
"Sumba Hornbill","spRhytieve","endemic"
"Oriental Dollarbird","spEurysori",
"White-rumped Kingfisher","spCaridful","endemic"
"Stork-billed Kingfisher","spPelarcap",
"Ruddy Kingfisher","spHalcycor","rarity"
"Javan Kingfisher","spHalcycya",
"Forest Kingfisher","spTodirmac",
"Collared Kingfisher","spTodirchl",
"Sacred Kingfisher","spTodirsan",
"Cinnamon-banded Kingfisher","spTodiraus",
"Cerulean Kingfisher","spAlcedcoe",
"Blue-eared Kingfisher","spAlcedmen",
"Common Kingfisher","spAlcedatt",
"Rufous-backed Dwarf Kingfisher","spCeyxruf",
"Blue-tailed Bee-eater","spMerop1phi",
"Rainbow Bee-eater","spMerop1orn",
"Chestnut-headed Bee-eater","spMerop1les",
"Lineated Barbet","spPsilo1lin",
"Flame-fronted Barbet","spPsilo1arm",
"Yellow-eared Barbet","spPsilo1aus",
"Coppersmith Barbet","spPsilo1hae",
"Sunda Pygmy Woodpecker","spYungimol",
"Freckle-breasted Woodpecker","spDendr5ana",
"White-bellied Woodpecker","spDryocjav",
"Laced Woodpecker","spPicusvit",
"Common Flameback","spDinopjav",
"Javan Flameback","spChrys5str",
"Black-thighed Falconet","spMicro10fri",
"Spotted Kestrel","spFalcomol",
"Nankeen Kestrel","spFalcocen",
"Eurasian Hobby","spFalcosub","rarity"
"Oriental Hobby","spFalcosev","rarity"
"Australian Hobby","spFalcolon",
"Peregrine Falcon","spFalcoper",
"Yellow-crested Cockatoo","spCacatsul",
"Citron-crested Cockatoo","spCacatcit","endemic"
"Jonquil Parrot","spAprosjon",
"Sumba Eclectus","spEcleccor","endemic"
"Red-cheeked Parrot","spGeoffgeo",
"Great-billed Parrot","spTanygmeg",
"Red-breasted Parakeet","spPsitt4ale",
"Iris Lorikeet","spSaudairi",
"Olive-headed Lorikeet","spTrich1eut",
"Marigold Lorikeet","spTrich1cap",
"Leaf Lorikeet","spTrich1web","endemic"
"Sunset Lorikeet","spTrich1for","endemic"
"Yellow-throated Hanging Parrot","spLoricpus",
"Wallace's Hanging Parrot","spLoricflo","endemic"
"Javan Banded Pitta","spHydro6gua",
"Ornate Pitta","spPittacon","endemic"
"Elegant Pitta","spPittaele",
"Scaly-crowned Honeyeater","spSugomlom","endemic"
"Alor Myzomela","spMyzompra","endemic"
"Sumba Myzomela","spMyzomdam","endemic"
"Rote Myzomela","spMyzomiri","endemic"
"Black-breasted Myzomela","spMyzomvul",
"Little Friarbird","spPhile1cit",
"Timor Friarbird","spPhile1ino",
"Helmeted Friarbird","spPhile1buc",
"Brown Honeyeater","spLichmind",
"Scaly-breasted Honeyeater","spLichmsqu",
"Flame-eared Honeyeater","spLichmfla",
"Streak-breasted Honeyeater","spTerriret",
"Plain Gerygone","spGerygino",
"Rufous-sided Gerygone","spGerygdor",
"Golden-bellied Gerygone","spGerygsul",
"Black-winged Flycatcher-shrike","spHemip2hir",
"White-breasted Woodswallow","spArtam1leu",
"Black-faced Woodswallow","spArtam1cin",
"Common Iora","spAegittip",
"Small Minivet","spPericcin",
"Little Minivet","spPericlan","endemic"
"Scarlet Minivet","spPericspe",
"Black-faced Cuckooshrike","spCorac2nov",
"Wallacean Cuckooshrike","spCorac2per",
"Bar-bellied Cuckooshrike","spCorac2str",
"Oriental Cuckooshrike","spCorac2jav",
"Pale-shouldered Cicadabird","spEdolidoh","endemic"
"Timor Cicadabird","spEdolitim",
"White-shouldered Triller","spLalagsue",
"Pied Triller","spLalagnig",
"Lesser Cuckooshrike","spLalagfim",
"Mangrove Whistler","spPachy4cin",
"Fawn-breasted Whistler","spPachy4orp",
"Tenggara Whistler","spPachy4cal",
"Bare-throated Whistler","spPachy4nud","endemic"
"Wallacean Whistler","spPachy4arc",
"Green Figbird","spSphecvir",
"Olive-backed Oriole","spOriol1sag",
"Timor Oriole","spOriol1mel",
"Green Oriole","spOriol1fla",
"Dark-throated Oriole","spOriol1xan1","rarity"
"Black-naped Oriole","spOriol1chi",
"Greater Racket-tailed Drongo","spDicrupar",
"Hair-crested Drongo","spDicruhot",
"Wallacean Drongo","spDicruden",
"Ashy Drongo","spDicruleu",
"Black Drongo","spDicrumac",
"Malaysian Pied Fantail","spRhipijav",
"Brown-capped Fantail","spRhipidil","endemic"
"Northern Fantail","spRhipiruf",
"Supertramp Fantail","spRhipisem1",
"Black-naped Monarch","spHypot1azu",
"Tenggara Paradise Flycatcher","spTerpsflo","endemic"
"Flores Monarch","spSymposac","endemic"
"Spectacled Monarch","spSympotri",
"Island Monarch","spMonarcin",
"Magpie-lark","spGrall2cya",
"Broad-billed Flycatcher","spMyiagruf",
"Tiger Shrike","spLaniutig","rarity"
"Brown Shrike","spLaniucri",
"Long-tailed Shrike","spLaniusch",
"Racket-tailed Treepie","spCrypstem",
"Sunda Crow","spCorvuenc",
"Flores Crow","spCorvuflo","endemic"
"Large-billed Crow","spCorvumac",
"Grey-headed Canary-flycatcher","spCulic1cey",
"Cinereous Tit","spParuscin",
"Singing Bush Lark","spMirafjav",
"Brown-cheeked Bulbul","spAlophbre",
"Black-headed Bulbul","spBrach3mel",
"Ruby-throated Bulbul","spRubigdis",
"Olive-winged Bulbul","spPycno2plu",
"Orange-spotted Bulbul","spPycno2bim",
"Yellow-vented Bulbul","spPycno2goi",
"Sooty-headed Bulbul","spPycno2aur",
"Pacific Swallow","spHirun2jav",
"Barn Swallow","spHirun2rus",
"Asian House Martin","spDelicdas",
"Eastern Red-rumped Swallow","spCecrodau",
"Fairy Martin","spPetro2ari",
"Tree Martin","spPetro2nig",
"Pygmy Cupwing","spPnoeppus",
"Yellow-bellied Warbler","spAbrossup",
"Mountain Tailorbird","spPhyll4cuc",
"Aberrant Bush Warbler","spHororfla",
"Russet-capped Tesia","spTesiaeve","endemic"
"Timor Stubtail","spUrospsub",
"Kamchatka Leaf Warbler","spPhyll5exa",
"Arctic Warbler","spPhyll5bor1",
"Sunda Warbler","spPhyll5gra",
"Yellow-breasted Warbler","spPhyll5mon",
"Mountain Leaf Warbler","spPhyll5tri",
"Flores Leaf Warbler","spPhyll5flo","endemic"
"Timor Leaf Warbler","spPhyll5pre",
"Rote Leaf Warbler","spPhyll5rot","endemic"
"Oriental Reed Warbler","spAcroc1ori",
"Clamorous Reed Warbler","spAcroc1ste",
"Australian Reed Warbler","spAcroc1aus",
"Black-browed Reed Warbler","spAcroc1bis","rarity"
"Pallas's Grasshopper Warbler","spHelopcer","rarity"
"Middendorff's Grasshopper Warbler","spHelopoch",
"Lanceolated Warbler","spLocuslan","rarity"
"Javan Bush Warbler","spLocusmon",
"Buff-banded Thicketbird","spCincl2biv",
"Tawny Grassbird","spCincl2tim",
"Striated Grassbird","spMegal1pal",
"Zitting Cisticola","spCistijun",
"Golden-headed Cisticola","spCistiexi1",
"Bar-winged Prinia","spPrinifam",
"Plain Prinia","spPriniino",
"Olive-backed Tailorbird","spOrtho3sep",
"Javan Heleia","spHeleijav",
"Eyebrowed Heleia","spHeleisup","endemic"
"Crested Heleia","spHeleidoh","endemic"
"Timor Heleia","spHeleimue",
"Thick-billed Heleia","spHeleicra","endemic"
"Yellow-spectacled Heleia","spHeleiwal","endemic"
"Warbling White-eye","spZoste1jap",
"Lemon-bellied White-eye","spZoste1chl1",
"Ashy-bellied White-eye","spZoste1cit",
"Sangkar White-eye","spZoste1mel1",
"Crescent-chested Babbler","spCyano10mel",
"Javan Scimitar Babbler","spPomat1mon",
"Horsfield's Babbler","spMalac4sep",
"Velvet-fronted Nuthatch","spSitta1fro","escaped"
"Asian Glossy Starling","spAplonpan",
"Short-tailed Starling","spAplonmin",
"Common Hill Myna","spGracurel",
"Tenggara Hill Myna","spGracuven","endemic"
"Javan Myna","spAcridjav","introduced"
"Common Myna","spAcridtri","introduced"
"Black-winged Myna","spAcridmel",
"Javan Pied Myna","spGracu1jal",
"Daurian Starling","spAgropstu","rarity"
"Chestnut-cheeked Starling","spAgropphi","rarity"
"Bali Myna","spLeuco8rot","endemic"
"Sunda Thrush","spZoothand",
"Scaly Thrush","spZoothdau",
"Siberian Thrush","spGeokisib","rarity"
"Orange-headed Thrush","spGeokicit",
"Orange-sided Thrush","spGeokiper",
"Chestnut-capped Thrush","spGeokiint",
"Chestnut-backed Thrush","spGeokidoh",
"Eyebrowed Thrush","spTurduobs",
"Wallacean Island Thrush","spTurdusch",
"Oriental Magpie-Robin","spCopsysau",
"Grey-streaked Flycatcher","spMusci3gri",
"Sumba Brown Flycatcher","spMusci3seg","endemic"
"Asian Brown Flycatcher","spMusci3dau",
"Blue-and-white Flycatcher","spCyano11cya","rarity"
"Zappey's Flycatcher","spCyano11cum","rarity"
"Timor Blue Flycatcher","spEumyihya",
"Flores Jungle Flycatcher","spEumyiosc","endemic"
"Sumba Jungle Flycatcher","spEumyistr","endemic"
"Mangrove Blue Flycatcher","spCyornruf2",
"Fulvous-chested Jungle Flycatcher","spCyornoli",
"White-crowned Forktail","spEnicules",
"Javan Whistling Thrush","spMyophgla",
"Lesser Shortwing","spBrach4leu",
"Flores Shortwing","spBrach4flo","endemic"
"Yellow-rumped Flycatcher","spFicedzan",
"Narcissus Flycatcher","spFicednar",
"Snowy-browed Flycatcher","spFicedhyp",
"Mugimaki Flycatcher","spFicedmug",
"Little Pied Flycatcher","spFicedwes",
"Rufous-chested Flycatcher","spFiceddum",
"Sumba Flycatcher","spFicedhar","endemic"
"Black-banded Flycatcher","spFicedtim",
"White-bellied Bush Chat","spSaxicgut",
"Pied Bush Chat","spSaxiccap",
"Amur Stonechat","spSaxicste",
"Greater Green Leafbird","spChlor7son",
"Yellow-vented Flowerpecker","spPachy7chr",
"Thick-billed Flowerpecker","spPachy7agi",
"Golden-rumped Flowerpecker","spDicaeann","endemic"
"Orange-bellied Flowerpecker","spDicaetri",
"Plain Flowerpecker","spDicaemin",
"Black-fronted Flowerpecker","spDicaeign","endemic"
"Red-chested Flowerpecker","spDicaemau",
"Javan Flowerpecker","spDicaesan",
"Flores Flowerpecker","spDicaerho","endemic"
"Sumba Flowerpecker","spDicaewil","endemic"
"Timor Flowerpecker","spDicaehan",
"Scarlet-headed Flowerpecker","spDicaetro",
"Brown-throated Sunbird","spAnthr2mal",
"Ornate Sunbird","spCinny2orn",
"Apricot-breasted Sunbird","spCinny2bue","endemic"
"Flame-breasted Sunbird","spCinny2sol",
"Little Spiderhunter","spArachlon",
"Streaky-breasted Spiderhunter","spArachaff",
"Eurasian Tree Sparrow","spPassemon",
"Streaked Weaver","spPloce2man",
"Baya Weaver","spPloce2phi",
"Sunda Zebra Finch","spTaeni2gut",
"Java Sparrow","spPaddaory",
"Timor Sparrow","spPaddafus",
"Scaly-breasted Munia","spLonchpun",
"Black-faced Munia","spLonchmol",
"Javan Munia","spLonchleu1",
"White-capped Munia","spLonchfer",
"White-headed Munia","spLonchmaj",
"Pale-headed Munia","spLonchpal",
"Five-colored Munia","spLonchqui",
"Tawny-breasted Parrotfinch","spEryth6hyp",
"Tricolored Parrotfinch","spEryth6tri",
"Mount Mutis Parrotfinch (undescribed)","spEryth6sp.",
"Red Avadavat","spAmandama",
"Forest Wagtail","spDendr12ind","rarity"
"Eastern Yellow Wagtail","spMotactsc",
"Grey Wagtail","spMotaccin",
"White Wagtail","spMotacalb","rarity"
"Paddyfield Pipit","spAnthuruf",
"Pechora Pipit","spAnthugus",
