"Name","ID","Status"
"Wandering Whistling Duck","spDendrarc",
"Lesser Whistling Duck","spDendrjav",
"White-winged Duck","spAsarcscu",
"Cotton Pygmy Goose","spNettacor",
"Green Pygmy Goose","spNettapul",
"Garganey","spSpatuque",
"Pacific Black Duck","spAnassup",
"Northern Pintail","spAnasacu",
"Sunda Teal","spAnasgib",
"Tufted Duck","spAythyful","rarity"
"Ferruginous Partridge","spCalopocu",
"Crested Partridge","spRollurou",
"Black Partridge","spMelan1nig",
"Red-billed Partridge","spArborrub","endemic"
"Roll's Partridge","spArborrol","endemic"
"Sumatran Partridge","spArborsum","endemic"
"Long-billed Partridge","spRhizolon",
"Malayan Crestless Fireback","spLophuery",
"Salvadori's Pheasant","spLophuino","endemic"
"Malayan Crested Fireback","spLophuruf",
"Bornean Crested Fireback","spLophuign",
"Great Argus","spArgusarg",
"Chestnut-necklaced Partridge","spTropicha",
"Bronze-tailed Peacock-Pheasant","spPolypcha","endemic"
"Red Junglefowl","spGallugal",
"King Quail","spSynoichi",
"Malaysian Eared Nightjar","spLyncotem",
"Great Eared Nightjar","spLyncomac",
"Grey Nightjar","spCaprijot",
"Large-tailed Nightjar","spCaprimac",
"Savanna Nightjar","spCapriaff",
"Bonaparte's Nightjar","spCapricon",
"Salvadori's Nightjar","spCapripul",
"Large Frogmouth","spBatraaur",
"Gould's Frogmouth","spBatraste",
"Sumatran Frogmouth","spBatrapol","endemic"
"Blyth's Frogmouth","spBatraaff",
"Sunda Frogmouth","spBatracor",
"Grey-rumped Treeswift","spHemiplon",
"Whiskered Treeswift","spHemipcom",
"Giant Swiftlet","spHydro1gig",
"Plume-toed Swiftlet","spColloaff",
"Cave Swiftlet","spCollolin",
"Himalayan Swiftlet","spAerodbre",
"Mossy-nest Swiftlet","spAerodsal",
"Black-nest Swiftlet","spAerodmax",
"Edible-nest Swiftlet","spAerodfuc",
"Silver-rumped Spinetail","spRhaphleu",
"White-throated Needletail","spHiruncau","rarity"
"Silver-backed Needletail","spHiruncoc",
"Brown-backed Needletail","spHirungig",
"Asian Palm Swift","spCypsibal",
"Pacific Swift","spApuspac",
"House Swift","spApusnip",
"Short-toed Coucal","spCentr1rec",
"Greater Coucal","spCentr1sin",
"Lesser Coucal","spCentr1ben",
"Sumatran Ground Cuckoo","spCarpovir","endemic"
"Raffles's Malkoha","spRhinochl",
"Red-billed Malkoha","spZancljav",
"Chestnut-breasted Malkoha","spPhaencur",
"Mentawai Malkoha","spPhaenoen","endemic"
"Chestnut-bellied Malkoha","spPhaensum",
"Black-bellied Malkoha","spPhaendia",
"Green-billed Malkoha","spPhaentri",
"Chestnut-winged Cuckoo","spClamacor",
"Asian Koel","spEudynsco",
"Asian Emerald Cuckoo","spChrys3mac",
"Violet Cuckoo","spChrys3xan",
"Horsfield's Bronze Cuckoo","spChalc1bas",
"Little Bronze Cuckoo","spChalc1min",
"Banded Bay Cuckoo","spCacomson",
"Plaintive Cuckoo","spCacommer",
"Sunda Brush Cuckoo","spCacomsep",
"Square-tailed Drongo-Cuckoo","spSurnilug",
"Moustached Hawk-Cuckoo","spHierovag",
"Large Hawk-Cuckoo","spHierospa",
"Dark Hawk-Cuckoo","spHieroboc",
"Malaysian Hawk-Cuckoo","spHierofug",
"Hodgson's Hawk-Cuckoo","spHieronis",
"Indian Cuckoo","spCuculmic",
"Himalayan Cuckoo","spCuculsat",
"Oriental Cuckoo","spCuculopt",
"Sunda Cuckoo","spCucullep",
"Rock Dove","spColumliv","introduced"
"Silvery Pigeon","spColumarg",
"Spotted Dove","spSpilochi",
"Barred Cuckoo-Dove","spMacro2unc",
"Ruddy Cuckoo-Dove","spMacro2emi",
"Enggano Cuckoo-Dove","spMacro2cin","endemic"
"Barusan Cuckoo-Dove","spMacro2mod","endemic"
"Little Cuckoo-Dove","spMacro2ruf1",
"Common Emerald Dove","spChalc2ind",
"Zebra Dove","spGeopestr",
"Nicobar Pigeon","spCaloenic",
"Cinnamon-headed Green Pigeon","spTreroful",
"Little Green Pigeon","spTreroola",
"Pink-necked Green Pigeon","spTrerover",
"Thick-billed Green Pigeon","spTrerocur",
"Large Green Pigeon","spTrerocap",
"Sumatran Green Pigeon","spTrerooxy",
"Wedge-tailed Green Pigeon","spTrerosph",
"Pink-headed Fruit Dove","spPtilipor",
"Jambu Fruit Dove","spPtilijam",
"Green Imperial Pigeon","spDuculaen",
"Enggano Imperial Pigeon","spDuculoen","endemic"
"Mountain Imperial Pigeon","spDuculbad",
"Pied Imperial Pigeon","spDuculbic",
"Masked Finfoot","spHelio3per",
"Slaty-breasted Rail","spLewinstr",
"Common Moorhen","spGalli3chl",
"Grey-headed Swamphen","spPorph1pol",
"Black-backed Swamphen","spPorph1ind",
"Ruddy-breasted Crake","spZaporfus",
"Band-bellied Crake","spZaporpay",
"Baillon's Crake","spZaporpus",
"Slaty-legged Crake","spRalli1eur",
"Red-legged Crake","spRalli1fas",
"White-browed Crake","spPoliocin",
"Watercock","spGalli4cin",
"White-breasted Waterhen","spAmaur1pho",
"Little Grebe","spTachy2ruf1","rarity"
"Barred Buttonquail","spTurnisus",
"Beach Stone-curlew","spEsacumag",
"Eurasian Oystercatcher","spHaema1ost","rarity"
"Black-winged Stilt","spHiman1him",
"Pied Stilt","spHiman1leu",
"Grey Plover","spPluvi1squ",
"Pacific Golden Plover","spPluvi1ful",
"Little Ringed Plover","spCharadub",
"Grey-headed Lapwing","spVanelcin","rarity"
"Red-wattled Lapwing","spVanelind","rarity"
"Javan Lapwing","spVanelmac",
"Oriental Plover","spAnarhver",
"Tibetan Sand Plover","spAnarhatr",
"Greater Sand Plover","spAnarhles",
"Malaysian Plover","spAnarhper",
"Javan Plover","spAnarhjav",
"Kentish Plover","spAnarhale",
"White-faced Plover","spAnarhdea",
"Greater Painted-snipe","spRostrben",
"Pheasant-tailed Jacana","spHydro2chi",
"Bronze-winged Jacana","spMetopind",
"Eurasian Whimbrel","spNumenpha",
"Far Eastern Curlew","spNumenmad",
"Eurasian Curlew","spNumenarq",
"Bar-tailed Godwit","spLimoslap",
"Black-tailed Godwit","spLimoslim",
"Asian Dowitcher","spLimnosem",
"Javan Woodcock","spScolosat",
"Pin-tailed Snipe","spGalli5ste",
"Common Snipe","spGalli5gal",
"Red-necked Phalarope","spPhala1lob",
"Terek Sandpiper","spXenuscin",
"Common Sandpiper","spActithyp",
"Green Sandpiper","spTringoch",
"Marsh Sandpiper","spTringsta",
"Wood Sandpiper","spTringgla",
"Common Redshank","spTringtot",
"Lesser Yellowlegs","spTringfla","rarity"
"Nordmann's Greenshank","spTringgut",
"Spotted Redshank","spTringery",
"Common Greenshank","spTringneb",
"Ruddy Turnstone","spArenaint",
"Great Knot","spCalidten",
"Red Knot","spCalidcan",
"Ruff","spCalidpug",
"Broad-billed Sandpiper","spCalidfal",
"Curlew Sandpiper","spCalidfer",
"Long-toed Stint","spCalidsub",
"Red-necked Stint","spCalidruf",
"Spoon-billed Sandpiper","spCalidpyg","rarity"
"Sanderling","spCalidalb",
"Australian Pratincole","spStiltisa",
"Oriental Pratincole","spGlaremal",
"White Tern","spGygisalb",
"Brown Noddy","spAnoussto",
"Black Noddy","spAnousmin",
"Aleutian Tern","spOnychale",
"Sooty Tern","spOnychfus",
"Bridled Tern","spOnychana",
"Little Tern","spStern1alb",
"Gull-billed Tern","spGelocnil",
"Caspian Tern","spHydro3cas",
"Whiskered Tern","spChlidhyb",
"White-winged Tern","spChlidleu",
"Common Tern","spStern2hir1",
"Black-naped Tern","spStern2sum",
"Roseate Tern","spStern2dou",
"Lesser Crested Tern","spThala1ben",
"Greater Crested Tern","spThala1ber",
"Sabine's Gull","spXemasab","rarity"
"Black-headed Gull","spChroirid",
"Brown-headed Gull","spChroibru","rarity"
"Long-tailed Jaeger","spSterclon","rarity"
"Parasitic Jaeger","spStercpar","rarity"
"Pomarine Jaeger","spStercpom",
"South Polar Skua","spStercmac","rarity"
"Red-tailed Tropicbird","spPhaet2rub",
"White-tailed Tropicbird","spPhaet2lep",
"Wilson's Storm Petrel","spOceanoce",
"White-faced Storm Petrel","spPelagmar","rarity"
"Swinhoe's Storm Petrel","spHydro5mon",
"Barau's Petrel","spPtero3bar","rarity"
"Streaked Shearwater","spCalonleu",
"Wedge-tailed Shearwater","spArdenpac",
"Flesh-footed Shearwater","spArdencar",
"Bulwer's Petrel","spBulwebul",
"Jouanin's Petrel","spBulwefal",
"Asian Openbill","spAnastosc","rarity"
"Lesser Adjutant","spLepto2jav",
"Milky Stork","spMyctecin",
"Black-necked Stork","spEphipasi",
"Asian Woolly-necked Stork","spCiconepi",
"Storm's Stork","spCiconsto",
"Lesser Frigatebird","spFregaari",
"Great Frigatebird","spFregamin",
"Christmas Frigatebird","spFregaand",
"Abbott's Booby","spPapasabb",
"Red-footed Booby","spSulasul",
"Brown Booby","spSulaleu",
"Masked Booby","spSuladac",
"Oriental Darter","spAnhinmel",
"Little Cormorant","spMicro5nig",
"Little Black Cormorant","spPhala2sul",
"Great Cormorant","spPhala2car",
"Black-headed Ibis","spThresmel",
"Glossy Ibis","spPlegafal",
"Royal Spoonbill","spPlatareg",
"Black Bittern","spBotaufla",
"Cinnamon Bittern","spBotaucin",
"Von Schrenck's Bittern","spBotaueur",
"Yellow Bittern","spBotausin",
"Black-crowned Night Heron","spNycti6nyc",
"Malayan Night Heron","spGorsamel",
"Pacific Reef Heron","spEgretsac",
"Chinese Egret","spEgreteul",
"Little Egret","spEgretgar",
"Little Heron","spButoratr",
"Chinese Pond Heron","spArdeo1bac",
"Javan Pond Heron","spArdeo1spe",
"Great Egret","spArdeaalb",
"Medium Egret","spArdeaint",
"Eastern Cattle Egret","spArdeacor",
"Grey Heron","spArdeacin",
"Purple Heron","spArdeapur",
"Great-billed Heron","spArdeasum",
"Spot-billed Pelican","spPelec1phi",
"Osprey","spPandihal",
"Black-winged Kite","spElanucae",
"Jerdon's Baza","spAvicejer",
"Black Baza","spAviceleu",
"Crested Honey Buzzard","spPernipti",
"Crested Serpent Eagle","spSpilo1che",
"Bat Hawk","spMachealc",
"Wallace's Hawk-Eagle","spNisaenan",
"Blyth's Hawk-Eagle","spNisaealb",
"Changeable Hawk-Eagle","spNisaecir",
"Rufous-bellied Eagle","spLopho8kie",
"Black Eagle","spIctinmal",
"Crested Goshawk","spLopho9tri",
"Besra","spTachy3vir",
"Japanese Sparrowhawk","spTachy3gul",
"Shikra","spTachy3bad",
"Chinese Sparrowhawk","spTachy3sol",
"Pied Harrier","spCircumel","rarity"
"Eastern Marsh Harrier","spCircuspi",
"Black Kite","spMilvumig",
"Brahminy Kite","spHaliaind",
"White-bellied Sea Eagle","spIcthyleu",
"Lesser Fish Eagle","spIcthyhum",
"Grey-headed Fish Eagle","spIcthyich",
"Grey-faced Buzzard","spButasind",
"Eastern Buzzard","spButeo1jap","rarity"
"Eastern Barn Owl","spTytojav",
"Oriental Bay Owl","spPhodibad",
"Brown Boobook","spNinoxscu",
"Sunda Owlet","spTaenisyl",
"Reddish Scops Owl","spOtusruf",
"Mountain Scops Owl","spOtusspi",
"Oriental Scops Owl","spOtussun",
"Simeulue Scops Owl","spOtusumb","endemic"
"Enggano Scops Owl","spOtuseng","endemic"
"Mentawai Scops Owl","spOtusmen1","endemic"
"Rajah Scops Owl","spOtusbro",
"Sunda Scops Owl","spOtuslem",
"Buffy Fish Owl","spKetupket",
"Barred Eagle-Owl","spKetupsum",
"Spotted Wood Owl","spStrixsel",
"Brown Wood Owl","spStrixlep",
"Sumatran Trogon","spApalhmac","endemic"
"Red-naped Trogon","spHarpa1kas",
"Diard's Trogon","spHarpa1dia",
"Cinnamon-rumped Trogon","spHarpa1orr",
"Scarlet-rumped Trogon","spHarpa1duv",
"Orange-breasted Trogon","spHarpa1ore",
"Red-headed Trogon","spHarpa1ery",
"Eurasian Hoopoe","spUpupaepo","rarity"
"White-crowned Hornbill","spBerencom",
"Rhinoceros Hornbill","spBucerrhi",
"Great Hornbill","spBucerbic",
"Helmeted Hornbill","spRhino3vig",
"Oriental Pied Hornbill","spAnthr1alb",
"Black Hornbill","spAnthr1mal",
"Bushy-crested Hornbill","spAnorrgal",
"Wreathed Hornbill","spRhytiund",
"Plain-pouched Hornbill","spRhytisub",
"Wrinkled Hornbill","spRhabdcor",
"Oriental Dollarbird","spEurysori",
"Rufous-collared Kingfisher","spActencon",
"Banded Kingfisher","spLacedpul",
"Stork-billed Kingfisher","spPelarcap",
"Ruddy Kingfisher","spHalcycor",
"White-throated Kingfisher","spHalcysmy",
"Black-capped Kingfisher","spHalcypil",
"Collared Kingfisher","spTodirchl",
"Sacred Kingfisher","spTodirsan",
"Cerulean Kingfisher","spAlcedcoe",
"Malaysian Blue-banded Kingfisher","spAlcedpen",
"Blue-eared Kingfisher","spAlcedmen",
"Common Kingfisher","spAlcedatt",
"Black-backed Dwarf Kingfisher","spCeyxeri",
"Rufous-backed Dwarf Kingfisher","spCeyxruf",
"Red-bearded Bee-eater","spNyctyami",
"Blue-tailed Bee-eater","spMerop1phi",
"Blue-throated Bee-eater","spMerop1vir1",
"Chestnut-headed Bee-eater","spMerop1les",
"Fire-tufted Barbet","spPsilo1pyr",
"Golden-whiskered Barbet","spPsilo1chr",
"Red-crowned Barbet","spPsilo1raf",
"Red-throated Barbet","spPsilo1mys",
"Black-browed Barbet","spPsilo1oor",
"Yellow-crowned Barbet","spPsilo1hen",
"Black-eared Barbet","spPsilo1duv",
"Coppersmith Barbet","spPsilo1hae",
"Sooty Barbet","spCalorhay",
"Malaysian Honeyguide","spIndicarc",
"Speckled Piculet","spPicuminn",
"Rufous Piculet","spSasiaabn",
"Grey-and-buff Woodpecker","spHemiccon",
"Grey-capped Pygmy Woodpecker","spYungican",
"Sunda Pygmy Woodpecker","spYungimol",
"Freckle-breasted Woodpecker","spDendr5ana",
"White-bellied Woodpecker","spDryocjav",
"Banded Woodpecker","spChrys4min",
"Checker-throated Woodpecker","spChrys4men",
"Greater Yellownape","spChrys4fla",
"Lesser Yellownape","spPicuschl",
"Crimson-winged Woodpecker","spPicuspun",
"Laced Woodpecker","spPicusvit",
"Sumatran Woodpecker","spPicusded","endemic"
"Common Flameback","spDinopjav",
"Orange-backed Woodpecker","spChrys5val",
"Greater Flameback","spChrys5gut",
"Olive-backed Woodpecker","spGecinraf",
"Maroon Woodpecker","spBlythrub",
"Rufous Woodpecker","spMicro9bra",
"Buff-rumped Woodpecker","spMeiglgra",
"Buff-necked Woodpecker","spMeigltuk",
"Great Slaty Woodpecker","spMullepul",
"Black-thighed Falconet","spMicro10fri",
"Common Kestrel","spFalcotin",
"Eurasian Hobby","spFalcosub","rarity"
"Oriental Hobby","spFalcosev",
"Peregrine Falcon","spFalcoper",
"Blue-rumped Parrot","spPsitt3cya",
"Simeulue Parrot","spPsitt3abb","endemic"
"Red-breasted Parakeet","spPsitt4ale",
"Long-tailed Parakeet","spPsitt4lon",
"Blue-crowned Hanging Parrot","spLoricgal",
"Long-tailed Broadbill","spPsaridal",
"Dusky Broadbill","spCorydsum",
"Silver-breasted Broadbill","spSerillun",
"Black-and-red Broadbill","spCymbimac",
"Banded Broadbill","spEuryljav",
"Black-and-yellow Broadbill","spEuryloch",
"Green Broadbill","spCalyp2vir",
"Giant Pitta","spHydro6cae",
"Schneider's Pitta","spHydro6sch","endemic"
"Malayan Banded Pitta","spHydro6ire",
"Graceful Pitta","spEryth3ven","endemic"
"Garnet Pitta","spEryth3gra",
"Blue-winged Pitta","spPittamol",
"Mangrove Pitta","spPittameg",
"Western Hooded Pitta","spPittasor",
"Golden-bellied Gerygone","spGerygsul",
"Bar-winged Flycatcher-shrike","spHemip2pic",
"Black-winged Flycatcher-shrike","spHemip2hir",
"Large Woodshrike","spTephrvir",
"Rufous-winged Philentoma","spPhile3pyr",
"Maroon-breasted Philentoma","spPhile3vel",
"White-breasted Woodswallow","spArtam1leu",
"Common Iora","spAegittip",
"Green Iora","spAegitvir",
"Fiery Minivet","spPericign",
"Grey-chinned Minivet","spPericsol",
"Sunda Minivet","spPericmin",
"Scarlet Minivet","spPericspe",
"Ashy Minivet","spPericdiv",
"Bar-bellied Cuckooshrike","spCorac2str",
"Sunda Cuckooshrike","spCorac2lar1",
"Pied Triller","spLalagnig",
"Lesser Cuckooshrike","spLalagfim",
"Mangrove Whistler","spPachy4cin",
"White-browed Shrike-babbler","spPteruaer",
"White-bellied Erpornis","spErporzan",
"Black-and-crimson Oriole","spOriol1con",
"Black-hooded Oriole","spOriol1xan",
"Dark-throated Oriole","spOriol1xan1",
"Black-naped Oriole","spOriol1chi",
"Bronzed Drongo","spDicruaen",
"Lesser Racket-tailed Drongo","spDicrurem",
"Crow-billed Drongo","spDicruann",
"Greater Racket-tailed Drongo","spDicrupar",
"Sumatran Drongo","spDicrusum","endemic"
"Hair-crested Drongo","spDicruhot",
"Ashy Drongo","spDicruleu",
"White-throated Fantail","spRhipialb1",
"Malaysian Pied Fantail","spRhipijav",
"Spotted Fantail","spRhipiper",
"Black-naped Monarch","spHypot1azu",
"Blyth's Paradise Flycatcher","spTerpsaff",
"Amur Paradise Flycatcher","spTerpsinc",
"Black Paradise Flycatcher","spTerpsatr",
"Crested Jayshrike","spPlaty3gal",
"Tiger Shrike","spLaniutig",
"Brown Shrike","spLaniucri",
"Long-tailed Shrike","spLaniusch",
"Malayan Black Magpie","spPlaty4leu",
"Common Green Magpie","spCissachi",
"Sumatran Treepie","spDendr11occ","endemic"
"House Crow","spCorvuspl","introduced"
"Sunda Crow","spCorvuenc",
"Large-billed Crow","spCorvumac",
"Rail-babbler","spEupet1mac",
"Grey-headed Canary-flycatcher","spCulic1cey",
"Sultan Tit","spMelan7sul",
"Cinereous Tit","spParuscin",
"Hairy-backed Bulbul","spTrich3cri",
"Hook-billed Bulbul","spSetorcri",
"Yellow-bellied Bulbul","spAlophpha",
"Grey-cheeked Bulbul","spAlophtep",
"Ochraceous Bulbul","spAlophoch",
"Finsch's Bulbul","spIolefin",
"Buff-vented Bulbul","spIolecry",
"Cinereous Bulbul","spHemixcin",
"Cream-striped Bulbul","spIxosleu","endemic"
"Sumatran Bulbul","spIxossum","endemic"
"Streaked Bulbul","spIxosmal",
"Puff-backed Bulbul","spEupti1eut",
"Black-and-white Bulbul","spMicro16mel",
"Black-headed Bulbul","spBrach3mel",
"Blue-wattled Bulbul","spBrach3nie",
"Spectacled Bulbul","spIxodiery",
"Grey-bellied Bulbul","spIxodicya",
"Scaly-breasted Bulbul","spIxodisqu",
"Ruby-throated Bulbul","spRubigdis",
"Cream-vented Bulbul","spPycno2sim",
"Olive-winged Bulbul","spPycno2plu",
"Asian Red-eyed Bulbul","spPycno2bru",
"Straw-headed Bulbul","spPycno2zey",
"Spot-necked Bulbul","spPycno2tym","endemic"
"Aceh Bulbul","spPycno2sno","endemic"
"Orange-spotted Bulbul","spPycno2bim",
"Yellow-vented Bulbul","spPycno2goi",
"Sooty-headed Bulbul","spPycno2aur","introduced"
"Pacific Swallow","spHirun2jav",
"Barn Swallow","spHirun2rus",
"Asian House Martin","spDelicdas",
"Eastern Red-rumped Swallow","spCecrodau",
"Pygmy Cupwing","spPnoeppus",
"Yellow-bellied Warbler","spAbrossup",
"Mountain Tailorbird","spPhyll4cuc",
"Aberrant Bush Warbler","spHororfla",
"Yellow-browed Warbler","spPhyll5ino",
"Eastern Crowned Warbler","spPhyll5cor",
"Kamchatka Leaf Warbler","spPhyll5exa",
"Arctic Warbler","spPhyll5bor1",
"Chestnut-crowned Warbler","spPhyll5cas",
"Sunda Warbler","spPhyll5gra",
"Yellow-breasted Warbler","spPhyll5mon",
"Mountain Leaf Warbler","spPhyll5tri",
"Oriental Reed Warbler","spAcroc1ori",
"Black-browed Reed Warbler","spAcroc1bis",
"Pallas's Grasshopper Warbler","spHelopcer",
"Lanceolated Warbler","spLocuslan",
"Zitting Cisticola","spCistijun",
"Golden-headed Cisticola","spCistiexi1",
"Hill Prinia","spPrinisup",
"Bar-winged Prinia","spPrinifam",
"Yellow-bellied Prinia","spPrinifla",
"Common Tailorbird","spOrtho3sut","rarity"
"Dark-necked Tailorbird","spOrtho3atr",
"Rufous-tailed Tailorbird","spOrtho3ser",
"Ashy Tailorbird","spOrtho3ruf",
"Black-capped White-eye","spZoste1atr",
"Swinhoe's White-eye","spZoste1sim",
"Warbling White-eye","spZoste1jap",
"Lemon-bellied White-eye","spZoste1chl1",
"Pin-striped Tit-Babbler","spMixorgul",
"Bold-striped Tit-Babbler","spMixorbor",
"Fluffy-backed Tit-Babbler","spMacro5pti",
"Golden Babbler","spCyano10chr",
"Chestnut-winged Babbler","spCyano10ery",
"Rufous-fronted Babbler","spCyano10ruf1",
"Black Laughingthrush","spMelan10lug",
"Sunda Scimitar Babbler","spPomat1bor",
"Black-throated Babbler","spStachnig",
"Chestnut-rumped Babbler","spStachmac",
"Grey-throated Babbler","spStachnig1",
"Grey-headed Babbler","spStachpol",
"White-necked Babbler","spStachleu",
"Spot-necked Babbler","spStachstr",
"Large Wren-Babbler","spTurdimac",
"Marbled Wren-Babbler","spTurdimar",
"Sooty-capped Babbler","spMalac3aff",
"Grey-breasted Babbler","spMalac3alb",
"Scaly-crowned Babbler","spMalac3cin",
"Rufous-crowned Babbler","spMalac3mag",
"Moustached Babbler","spMalac3mag1",
"Malayan Black-capped Babbler","spPellonig",
"Mourning Babbler","spPellomal",
"Sumatran Babbler","spPellobue","endemic"
"Malayan Swamp Babbler","spPelloros",
"Ferruginous Babbler","spPellobic",
"Striped Wren-Babbler","spKenopstr",
"Abbott's Babbler","spMalac4abb",
"Horsfield's Babbler","spMalac4sep",
"Rusty-breasted Wren-Babbler","spGypsoruf","endemic"
"Eyebrowed Wren-Babbler","spNapotepi",
"Sumatran Wren-Babbler","spNapotalb","endemic"
"Brown Fulvetta","spAlcipbru",
"Long-tailed Sibia","spHeter8pic",
"Silver-eared Mesia","spLeiotarg",
"Sunda Laughingthrush","spGarru1pal",
"Sumatran Laughingthrush","spGarru1bic","endemic"
"Chestnut-capped Laughingthrush","spPtero6mit",
"Asian Fairy-bluebird","spIrenapue",
"Blue Nuthatch","spSitta1azu",
"Velvet-fronted Nuthatch","spSitta1fro",
"Asian Glossy Starling","spAplonpan",
"Common Hill Myna","spGracurel",
"Nias Hill Myna","spGracurob","endemic"
"Javan Myna","spAcridjav","introduced"
"Common Myna","spAcridtri","escaped"
"Javan Pied Myna","spGracu1jal",
"Daurian Starling","spAgropstu",
"Sumatran Cochoa","spCochobec","endemic"
"Sunda Thrush","spZoothand",
"Scaly Thrush","spZoothdau",
"Siberian Thrush","spGeokisib",
"Orange-headed Thrush","spGeokicit",
"Chestnut-capped Thrush","spGeokiint",
"Enggano Thrush","spGeokileu","endemic"
"Eyebrowed Thrush","spTurduobs",
"Sundaic Island Thrush","spTurdujav",
"Oriental Magpie-Robin","spCopsysau",
"Rufous-tailed Shama","spCopsypyr",
"White-rumped Shama","spCopsymal",
"Grey-streaked Flycatcher","spMusci3gri","rarity"
"Dark-sided Flycatcher","spMusci3sib",
"Ferruginous Flycatcher","spMusci3fer",
"Asian Brown Flycatcher","spMusci3dau",
"Brown-streaked Flycatcher","spMusci3wil",
"White-tailed Flycatcher","spLeuco9con",
"Rufous-vented Niltava","spNiltasum",
"Large Niltava","spNiltagra",
"Zappey's Flycatcher","spCyano11cum",
"Indigo Flycatcher","spEumyiind",
"Verditer Flycatcher","spEumyitha",
"Rufous-browed Flycatcher","spAnthisol",
"Pale Blue Flycatcher","spCyornuni",
"Malaysian Blue Flycatcher","spCyorntur",
"Sunda Blue Flycatcher","spCyorncae",
"Brown-chested Jungle Flycatcher","spCyornbru",
"Grey-chested Jungle Flycatcher","spCyornumb",
"Indochinese Blue Flycatcher","spCyornsum",
"Mangrove Blue Flycatcher","spCyornruf2",
"Fulvous-chested Jungle Flycatcher","spCyornoli",
"Rück's Blue Flycatcher","spCyornruc","endemic"
"Sumatran Blue Robin","spMyiomsum","endemic"
"White-crowned Forktail","spEnicules",
"Chestnut-naped Forktail","spEnicuruf",
"Sunda Forktail","spEnicuvel",
"Shiny Whistling Thrush","spMyophmel","endemic"
"Brown-winged Whistling Thrush","spMyophcas","endemic"
"Blue Whistling Thrush","spMyophcae",
"Lesser Shortwing","spBrach4leu",
"Sumatran Shortwing","spBrach4sat","endemic"
"Siberian Blue Robin","spLarvicya",
"Yellow-rumped Flycatcher","spFicedzan",
"Snowy-browed Flycatcher","spFicedhyp",
"Mugimaki Flycatcher","spFicedmug",
"Pygmy Flycatcher","spFicedhod",
"Little Pied Flycatcher","spFicedwes",
"Rufous-chested Flycatcher","spFiceddum",
"Blue Rock Thrush","spMontisol",
"Amur Stonechat","spSaxicste",
"Greater Green Leafbird","spChlor7son",
"Lesser Green Leafbird","spChlor7cya",
"Blue-winged Leafbird","spChlor7mol",
"Sumatran Leafbird","spChlor7med","endemic"
"Blue-masked Leafbird","spChlor7ven","endemic"
"Yellow-breasted Flowerpecker","spPrion3mac",
"Crimson-breasted Flowerpecker","spPrion3per",
"Scarlet-breasted Flowerpecker","spPrion3tho",
"Yellow-vented Flowerpecker","spPachy7chr",
"Brown-backed Flowerpecker","spPachy7eve",
"Thick-billed Flowerpecker","spPachy7agi",
"Orange-bellied Flowerpecker","spDicaetri",
"Plain Flowerpecker","spDicaemin",
"Sumatran Flowerpecker","spDicaebec","endemic"
"Scarlet-backed Flowerpecker","spDicaecru",
"Scarlet-headed Flowerpecker","spDicaetro",
"Ruby-cheeked Sunbird","spChalc4sin",
"Plain Sunbird","spAnthr2sim",
"Brown-throated Sunbird","spAnthr2mal",
"Red-throated Sunbird","spAnthr2rho",
"Van Hasselt's Sunbird","spLepto9bra",
"Copper-throated Sunbird","spLepto9cal",
"Ornate Sunbird","spCinny2orn",
"Crimson Sunbird","spAetho1sip",
"Temminck's Sunbird","spAetho1tem",
"Purple-naped Spiderhunter","spKurochyp",
"Little Spiderhunter","spArachlon",
"Thick-billed Spiderhunter","spArachcra",
"Long-billed Spiderhunter","spArachrob",
"Spectacled Spiderhunter","spArachfla1",
"Yellow-eared Spiderhunter","spArachchr",
"Grey-breasted Spiderhunter","spArachmod",
"Eurasian Tree Sparrow","spPassemon",
"Asian Golden Weaver","spPloce2hyp",
"Baya Weaver","spPloce2phi",
"Scaly-breasted Munia","spLonchpun",
"White-rumped Munia","spLonchstr",
"White-bellied Munia","spLonchleu",
"Javan Munia","spLonchleu1","introduced"
"Chestnut Munia","spLonchatr",
"White-headed Munia","spLonchmaj",
"Pin-tailed Parrotfinch","spEryth6pra",
"Red Avadavat","spAmandama","rarity"
"Forest Wagtail","spDendr12ind",
"Eastern Yellow Wagtail","spMotactsc",
"Grey Wagtail","spMotaccin",
"Paddyfield Pipit","spAnthuruf",
"Indonesian Serin","spChrys7est",
