"Name","ID","Status"
"Brant Goose","spBrantber",
"Red-breasted Goose","spBrantruf","rarity"
"Canada Goose","spBrantcan","rarity"
"Barnacle Goose","spBrantleu",
"Cackling Goose","spBranthut","rarity"
"Ross's Goose","spAnser1ros","rarity"
"Snow Goose","spAnser1cae","rarity"
"Greylag Goose","spAnser1ans",
"Taiga Bean Goose","spAnser1fab","rarity"
"Pink-footed Goose","spAnser1bra",
"Tundra Bean Goose","spAnser1ser","rarity"
"Greater White-fronted Goose","spAnser1alb",
"Mute Swan","spCygnuolo","rarity"
"Tundra Swan","spCygnucol","rarity"
"Whooper Swan","spCygnucyg",
"Common Shelduck","spTadortad","rarity"
"Ruddy Shelduck","spTadorfer","rarity"
"Wood Duck","spAixspo","rarity"
"Mandarin Duck","spAixgal","introduced"
"Garganey","spSpatuque","rarity"
"Blue-winged Teal","spSpatudis","rarity"
"Northern Shoveler","spSpatucly",
"Gadwall","spMarecstr",
"Eurasian Wigeon","spMarecpen",
"American Wigeon","spMarecame","rarity"
"Mallard","spAnaspla",
"American Black Duck","spAnasrub","rarity"
"Northern Pintail","spAnasacu",
"Eurasian Teal","spAnascre",
"Green-winged Teal","spAnascar","rarity"
"Canvasback","spAythyval","rarity"
"Redhead","spAythyame","rarity"
"Common Pochard","spAythyfer",
"Ring-necked Duck","spAythycol","rarity"
"Tufted Duck","spAythyful",
"Greater Scaup","spAythymar",
"Lesser Scaup","spAythyaff","rarity"
"Steller's Eider","spPolysste","rarity"
"King Eider","spSomatspe",
"Common Eider","spSomatmol",
"Harlequin Duck","spHistrhis",
"Surf Scoter","spMelanper","rarity"
"Velvet Scoter","spMelanfus","rarity"
"White-winged Scoter","spMelandeg","rarity"
"Stejneger's Scoter","spMelanste","rarity"
"Common Scoter","spMelannig",
"Black Scoter","spMelaname","rarity"
"Long-tailed Duck","spClanghye",
"Bufflehead","spBucepalb","rarity"
"Common Goldeneye","spBucepcla",
"Barrow's Goldeneye","spBucepisl",
"Smew","spMergealb","rarity"
"Hooded Merganser","spLopho1cuc","rarity"
"Common Merganser","spMergumer",
"Red-breasted Merganser","spMerguser",
"Ruddy Duck","spOxyurjam","introduced"
"Rock Ptarmigan","spLagopmut",
"Common Quail","spCoturcot","rarity"
"Common Nighthawk","spChordmin","rarity"
"European Nightjar","spCaprieur","rarity"
"White-throated Needletail","spHiruncau","rarity"
"Alpine Swift","spTachy1mel","rarity"
"Common Swift","spApusapu","rarity"
"Pacific Swift","spApuspac","rarity"
"Yellow-billed Cuckoo","spCoccy1ame","rarity"
"Black-billed Cuckoo","spCoccy1ery","rarity"
"Common Cuckoo","spCuculcan","rarity"
"Rock Dove","spColumliv","introduced"
"Stock Dove","spColumoen","rarity"
"Common Wood Pigeon","spColumpal",
"European Turtle Dove","spStrep1tur","rarity"
"Eurasian Collared Dove","spStrep1dec","rarity"
"Mourning Dove","spZenaimac","rarity"
"Water Rail","spRalluaqu","rarity"
"Corn Crake","spCrexcre","rarity"
"Sora","spPorzacar","rarity"
"Spotted Crake","spPorzapor","rarity"
"Common Moorhen","spGalli3chl","rarity"
"Eurasian Coot","spFulicatr","rarity"
"American Coot","spFulicame","rarity"
"Purple Gallinule","spPorph1mar","rarity"
"Sandhill Crane","spAntigcan","rarity"
"Common Crane","spGrusgru","rarity"
"Little Grebe","spTachy2ruf1","rarity"
"Pied-billed Grebe","spPodilpod","rarity"
"Red-necked Grebe","spPodic1gri","rarity"
"Great Crested Grebe","spPodic1cri","rarity"
"Horned Grebe","spPodic1aur","rarity"
"Black-necked Grebe","spPodic1nig","rarity"
"Eurasian Stone-curlew","spBurhioed","rarity"
"Eurasian Oystercatcher","spHaema1ost",
"Black-winged Stilt","spHiman1him","rarity"
"Pied Avocet","spRecuravo","rarity"
"Grey Plover","spPluvi1squ","rarity"
"European Golden Plover","spPluvi1apr",
"Pacific Golden Plover","spPluvi1ful","rarity"
"American Golden Plover","spPluvi1dom","rarity"
"Eurasian Dotterel","spEudro1mor","rarity"
"Killdeer","spCharavoc","rarity"
"Common Ringed Plover","spCharahia",
"Semipalmated Plover","spCharasem","rarity"
"Little Ringed Plover","spCharadub","rarity"
"Northern Lapwing","spVanelvan",
"Greater Sand Plover","spAnarhles","rarity"
"Upland Sandpiper","spBartrlon","rarity"
"Eurasian Whimbrel","spNumenpha",
"Eurasian Curlew","spNumenarq",
"Bar-tailed Godwit","spLimoslap","rarity"
"Black-tailed Godwit","spLimoslim",
"Hudsonian Godwit","spLimoshae","rarity"
"Long-billed Dowitcher","spLimnosco","rarity"
"Short-billed Dowitcher","spLimnogri","rarity"
"Jack Snipe","spLymnomin","rarity"
"Eurasian Woodcock","spScolorus",
"Common Snipe","spGalli5gal",
"Wilson's Snipe","spGalli5del","rarity"
"Wilson's Phalarope","spPhala1tri","rarity"
"Red Phalarope","spPhala1ful",
"Red-necked Phalarope","spPhala1lob",
"Common Sandpiper","spActithyp","rarity"
"Spotted Sandpiper","spActitmac","rarity"
"Green Sandpiper","spTringoch","rarity"
"Solitary Sandpiper","spTringsol","rarity"
"Grey-tailed Tattler","spTringbre","rarity"
"Wood Sandpiper","spTringgla","rarity"
"Common Redshank","spTringtot",
"Lesser Yellowlegs","spTringfla","rarity"
"Spotted Redshank","spTringery","rarity"
"Common Greenshank","spTringneb","rarity"
"Greater Yellowlegs","spTringmel","rarity"
"Ruddy Turnstone","spArenaint",
"Red Knot","spCalidcan",
"Ruff","spCalidpug","rarity"
"Broad-billed Sandpiper","spCalidfal","rarity"
"Stilt Sandpiper","spCalidhim","rarity"
"Curlew Sandpiper","spCalidfer","rarity"
"Temminck's Stint","spCalidtem","rarity"
"Red-necked Stint","spCalidruf","rarity"
"Buff-breasted Sandpiper","spCalidsub1","rarity"
"Sanderling","spCalidalb",
"Dunlin","spCalidalp",
"Purple Sandpiper","spCalidmar",
"Baird's Sandpiper","spCalidbai","rarity"
"Little Stint","spCalidmin","rarity"
"Least Sandpiper","spCalidmin1","rarity"
"White-rumped Sandpiper","spCalidfus","rarity"
"Pectoral Sandpiper","spCalidmel","rarity"
"Western Sandpiper","spCalidmau","rarity"
"Semipalmated Sandpiper","spCalidpus","rarity"
"Black-winged Pratincole","spGlarenor","rarity"
"Collared Pratincole","spGlarepra","rarity"
"Sooty Tern","spOnychfus","rarity"
"Little Tern","spStern1alb","rarity"
"Gull-billed Tern","spGelocnil","rarity"
"Caspian Tern","spHydro3cas","rarity"
"Whiskered Tern","spChlidhyb","rarity"
"Black Tern","spChlidnig","rarity"
"White-winged Tern","spChlidleu","rarity"
"Forster's Tern","spStern2for","rarity"
"Arctic Tern","spStern2par",
"Common Tern","spStern2hir1","rarity"
"Roseate Tern","spStern2dou","rarity"
"Sandwich Tern","spThala1san","rarity"
"Little Gull","spHydro4min","rarity"
"Ross's Gull","spRhodo2ros","rarity"
"Black-legged Kittiwake","spRissatri",
"Ivory Gull","spPagopebu","rarity"
"Sabine's Gull","spXemasab","rarity"
"Bonaparte's Gull","spChroiphi","rarity"
"Black-headed Gull","spChroirid",
"Laughing Gull","spLeuco3atr","rarity"
"Franklin's Gull","spLeuco3pip","rarity"
"Mediterranean Gull","spIchthmel","rarity"
"Common Gull","spLaruscan",
"Ring-billed Gull","spLarusdel","rarity"
"European Herring Gull","spLarusarg",
"Yellow-legged Gull","spLarusmic","rarity"
"Great Black-backed Gull","spLarusmar",
"Glaucous Gull","spLarushyp",
"Lesser Black-backed Gull","spLarusfus",
"American Herring Gull","spLarussmi","rarity"
"Glaucous-winged Gull","spLarusgla","rarity"
"Slaty-backed Gull","spLarussch","rarity"
"Iceland Gull","spLarusgla1",
"Long-tailed Jaeger","spSterclon","rarity"
"Parasitic Jaeger","spStercpar",
"Pomarine Jaeger","spStercpom",
"Great Skua","spStercsku",
"South Polar Skua","spStercmac","rarity"
"Atlantic Puffin","spFratearc",
"Crested Auklet","spAethicri","rarity"
"Black Guillemot","spCepphgry",
"Razorbill","spAlcator",
"Great Auk","spPinguimp","extinct"
"Little Auk","spAlleall",
"Thick-billed Murre","spUrialom",
"Common Murre","spUriaaal",
"Red-throated Loon","spGaviaste",
"Black-throated Loon","spGaviaarc","rarity"
"Common Loon","spGaviaimm",
"Yellow-billed Loon","spGaviaada","rarity"
"Wilson's Storm Petrel","spOceanoce","rarity"
"Atlantic Yellow-nosed Albatross","spThala2chl","rarity"
"Black-browed Albatross","spThala2mel","rarity"
"European Storm Petrel","spHydro5pel",
"Leach's Storm Petrel","spHydro5leu",
"Northern Fulmar","spFulmagla",
"Cory's Shearwater","spCalonbor","rarity"
"Sooty Shearwater","spArdengri",
"Great Shearwater","spArdengra","rarity"
"Manx Shearwater","spPuffipuf",
"Black Stork","spCiconnig","rarity"
"White Stork","spCiconcic","rarity"
"Northern Gannet","spMorusbas",
"Brown Booby","spSulaleu","rarity"
"Great Cormorant","spPhala2car",
"European Shag","spGulosari",
"Glossy Ibis","spPlegafal","rarity"
"Eurasian Spoonbill","spPlataleu","rarity"
"Eurasian Bittern","spBotauste","rarity"
"American Bittern","spBotaulen","rarity"
"Least Bittern","spBotauexi","rarity"
"Little Bittern","spBotaumin","rarity"
"Black-crowned Night Heron","spNycti6nyc","rarity"
"Snowy Egret","spEgretthu","rarity"
"Little Egret","spEgretgar","rarity"
"Green Heron","spButorvir","rarity"
"Squacco Heron","spArdeo1ral","rarity"
"Great Egret","spArdeaalb","rarity"
"Western Cattle Egret","spArdeaibi","rarity"
"Grey Heron","spArdeacin",
"Great Blue Heron","spArdeaher","rarity"
"Purple Heron","spArdeapur","rarity"
"Osprey","spPandihal","rarity"
"European Honey Buzzard","spPerniapi","rarity"
"Booted Eagle","spHierapen","rarity"
"Eurasian Sparrowhawk","spAccipnis","rarity"
"Pallid Harrier","spCircumac","rarity"
"Hen Harrier","spCircucya","rarity"
"Northern Harrier","spCircuhud","rarity"
"Montagu's Harrier","spCircupyg","rarity"
"Western Marsh Harrier","spCircuaer","rarity"
"Red Kite","spMilvumil","rarity"
"Black Kite","spMilvumig","rarity"
"White-tailed Eagle","spHalia1alb",
"Rough-legged Buzzard","spButeo1lag","rarity"
"Common Buzzard","spButeo1but","rarity"
"Eurasian Scops Owl","spOtussco","rarity"
"Long-eared Owl","spAsiootu","rarity"
"Short-eared Owl","spAsiofla",
"Snowy Owl","spBubosca","rarity"
"Eurasian Hoopoe","spUpupaepo","rarity"
"European Roller","spCoracgar","rarity"
"Common Kingfisher","spAlcedatt","rarity"
"Belted Kingfisher","spMegac1alc","rarity"
"European Bee-eater","spMerop1api","rarity"
"Eurasian Wryneck","spJynxtor","rarity"
"Yellow-bellied Sapsucker","spSphyrvar","rarity"
"Great Spotted Woodpecker","spDendr5maj","rarity"
"Common Kestrel","spFalcotin",
"Red-footed Falcon","spFalcoves","rarity"
"Merlin","spFalcocol",
"Eurasian Hobby","spFalcosub","rarity"
"Gyrfalcon","spFalcorus",
"Peregrine Falcon","spFalcoper","rarity"
"Acadian Flycatcher","spEmpidvir","rarity"
"Alder Flycatcher","spEmpidaln","rarity"
"Least Flycatcher","spEmpidmin","rarity"
"Eastern Kingbird","spTyran3tyr","rarity"
"Red-eyed Vireo","spVireo1oli","rarity"
"Eurasian Golden Oriole","spOriol1ori","rarity"
"Great Grey Shrike","spLaniuexc1","rarity"
"Woodchat Shrike","spLaniusen","rarity"
"Isabelline Shrike","spLaniuisa","rarity"
"Red-backed Shrike","spLaniucol2","rarity"
"Western Jackdaw","spColoemon","rarity"
"Rook","spCorvufru","rarity"
"Hooded Crow","spCorvucor1","rarity"
"Northern Raven","spCorvucor3",
"Bohemian Waxwing","spBombygar",
"Cedar Waxwing","spBombyced","rarity"
"Great Tit","spParusmaj","rarity"
"Eurasian Skylark","spAlaudarv","rarity"
"Horned Lark","spEremo1alp","rarity"
"Greater Short-toed Lark","spCalanbra","rarity"
"Sand Martin","spRiparrip","rarity"
"Tree Swallow","spTachy4bic","rarity"
"Barn Swallow","spHirun2rus",
"Western House Martin","spDelicurb",
"European Red-rumped Swallow","spCecroruf","rarity"
"American Cliff Swallow","spPetro2pyr","rarity"
"Wood Warbler","spPhyll5sib","rarity"
"Hume's Leaf Warbler","spPhyll5hum","rarity"
"Yellow-browed Warbler","spPhyll5ino","rarity"
"Willow Warbler","spPhyll5tro",
"Common Chiffchaff","spPhyll5col",
"Arctic Warbler","spPhyll5bor1","rarity"
"Sedge Warbler","spAcroc1sch","rarity"
"Paddyfield Warbler","spAcroc1agr","rarity"
"Blyth's Reed Warbler","spAcroc1dum","rarity"
"Common Reed Warbler","spAcroc1sci","rarity"
"Marsh Warbler","spAcroc1pal1","rarity"
"Sykes's Warbler","spIdunaram","rarity"
"Eastern Olivaceous Warbler","spIdunapal","rarity"
"Melodious Warbler","spHippopol","rarity"
"Icterine Warbler","spHippoict","rarity"
"Lanceolated Warbler","spLocuslan","rarity"
"River Warbler","spLocusflu","rarity"
"Common Grasshopper Warbler","spLocusnae","rarity"
"Eurasian Blackcap","spSylvi3atr",
"Garden Warbler","spSylvi3bor","rarity"
"Barred Warbler","spCurrunis","rarity"
"Lesser Whitethroat","spCurrucur","rarity"
"Eastern Subalpine Warbler","spCurrucan","rarity"
"Common Whitethroat","spCurrucom","rarity"
"Ruby-crowned Kinglet","spCorthcal","rarity"
"Goldcrest","spRegulreg",
"Eurasian Wren","spTrogltro",
"Red-breasted Nuthatch","spSitta1can","rarity"
"Rosy Starling","spPastoros","rarity"
"Common Starling","spSturn2vul",
"Varied Thrush","spIxorenae","rarity"
"Wood Thrush","spHyloc2mus","rarity"
"Swainson's Thrush","spCatha1ust","rarity"
"Hermit Thrush","spCatha1gut","rarity"
"Grey-cheeked Thrush","spCatha1min","rarity"
"White's Thrush","spZoothaur","rarity"
"Song Thrush","spTurduphi","rarity"
"Mistle Thrush","spTurduvis","rarity"
"Redwing","spTurduili",
"Common Blackbird","spTurdumer",
"Fieldfare","spTurdupil",
"Ring Ouzel","spTurdutor","rarity"
"Black-throated Thrush","spTurduatr","rarity"
"American Robin","spTurdumig","rarity"
"Dark-sided Flycatcher","spMusci3sib","rarity"
"Spotted Flycatcher","spMusci3str","rarity"
"European Robin","spErithrub","rarity"
"Thrush Nightingale","spLuscilus","rarity"
"Common Nightingale","spLuscimeg","rarity"
"Bluethroat","spLuscisve","rarity"
"Siberian Rubythroat","spCalli2cal","rarity"
"Red-breasted Flycatcher","spFicedpar","rarity"
"European Pied Flycatcher","spFicedhyp1","rarity"
"Red-flanked Bluetail","spTarsicya","rarity"
"Black Redstart","spPhoen5och","rarity"
"Common Redstart","spPhoen5pho","rarity"
"Whinchat","spSaxicrub","rarity"
"Siberian Stonechat","spSaxicmau","rarity"
"European Stonechat","spSaxicrub1","rarity"
"Northern Wheatear","spOenanoen",
"Pied Wheatear","spOenanple","rarity"
"Eurasian Tree Sparrow","spPassemon","rarity"
"House Sparrow","spPassedom","introduced"
"Dunnock","spPrunemod","rarity"
"Western Yellow Wagtail","spMotacfla","rarity"
"Citrine Wagtail","spMotaccit","rarity"
"Grey Wagtail","spMotaccin","rarity"
"White Wagtail","spMotacalb",
"Tawny Pipit","spAnthucam","rarity"
"Meadow Pipit","spAnthupra",
"Tree Pipit","spAnthutri","rarity"
"Olive-backed Pipit","spAnthuhod","rarity"
"Pechora Pipit","spAnthugus","rarity"
"American Pipit","spAnthurub","rarity"
"European Rock Pipit","spAnthupet","rarity"
"Eurasian Chaffinch","spFringcoe","rarity"
"Brambling","spFringmon",
"Hawfinch","spCocco1coc","rarity"
"Eurasian Bullfinch","spPyrrh4pyr","rarity"
"Common Rosefinch","spCarpo4ery","rarity"
"European Greenfinch","spChlor10chl","rarity"
"Common Linnet","spLinarcan","rarity"
"Redpoll","spAcant5fla",
"Parrot Crossbill","spLoxiapyt","rarity"
"Red Crossbill","spLoxiacur",
"Two-barred Crossbill","spLoxialeu","rarity"
"European Goldfinch","spCarducar","rarity"
"Eurasian Siskin","spSpinuspi",
"Lapland Longspur","spCalcalap","rarity"
"Snow Bunting","spPlect2niv",
"Yellowhammer","spEmbercit","rarity"
"Pine Bunting","spEmberleu","rarity"
"Ortolan Bunting","spEmberhor","rarity"
"Little Bunting","spEmberpus","rarity"
"Rustic Bunting","spEmberrus","rarity"
"Yellow-breasted Bunting","spEmberaur","rarity"
"Black-headed Bunting","spEmbermel","rarity"
"Common Reed Bunting","spEmbersch","rarity"
"Red Fox Sparrow","spPasse1ili","rarity"
"Dark-eyed Junco","spJuncohye","rarity"
"White-crowned Sparrow","spZonotleu","rarity"
"White-throated Sparrow","spZonotalb","rarity"
"Lincoln's Sparrow","spMeloslin","rarity"
"Yellow-headed Blackbird","spXanth2xan","rarity"
"Baltimore Oriole","spIcter1gal","rarity"
"Black-and-white Warbler","spMniotvar","rarity"
"Tennessee Warbler","spLeiot1per","rarity"
"Common Yellowthroat","spGeothtri","rarity"
"American Redstart","spSetop1rut","rarity"
"Cape May Warbler","spSetop1tig","rarity"
"Cerulean Warbler","spSetop1cer","rarity"
"Northern Parula","spSetop1ame","rarity"
"Magnolia Warbler","spSetop1mag","rarity"
"Blackburnian Warbler","spSetop1fus","rarity"
"American Yellow Warbler","spSetop1aes","rarity"
"Blackpoll Warbler","spSetop1str","rarity"
"Black-throated Blue Warbler","spSetop1cae","rarity"
"Palm Warbler","spSetop1pal","rarity"
"Myrtle Warbler","spSetop1cor","rarity"
"Black-throated Green Warbler","spSetop1vir","rarity"
"Canada Warbler","spCardecan","rarity"
"Scarlet Tanager","spPiranoli","rarity"
"Rose-breasted Grosbeak","spPheuclud","rarity"
"Indigo Bunting","spPasse3cya","rarity"
