"Name","ID","Status"
"Black-bellied Whistling Duck","spDendraut","rarity"
"West Indian Whistling Duck","spDendrarb",
"Fulvous Whistling Duck","spDendrbic","rarity"
"Canada Goose","spBrantcan","rarity"
"Wood Duck","spAixspo","rarity"
"Cinnamon Teal","spSpatucya","rarity"
"Blue-winged Teal","spSpatudis",
"Northern Shoveler","spSpatucly",
"Gadwall","spMarecstr","rarity"
"American Wigeon","spMarecame",
"Mallard","spAnaspla","rarity"
"White-cheeked Pintail","spAnasbah","rarity"
"Northern Pintail","spAnasacu","rarity"
"Green-winged Teal","spAnascar",
"Canvasback","spAythyval","rarity"
"Redhead","spAythyame","rarity"
"Ring-necked Duck","spAythycol",
"Greater Scaup","spAythymar","rarity"
"Lesser Scaup","spAythyaff",
"Bufflehead","spBucepalb","rarity"
"Hooded Merganser","spLopho1cuc","rarity"
"Masked Duck","spNomondom",
"Ruddy Duck","spOxyurjam",
"Common Pheasant","spPhasicol","introduced"
"Common Nighthawk","spChordmin",
"Antillean Nighthawk","spChordgun",
"Jamaican Poorwill","spSiphoame","extinct"
"Chuck-will's-widow","spAntrocar",
"Eastern Whip-poor-will","spAntrovoc","rarity"
"Northern Potoo","spNycti4jam",
"American Black Swift","spCypsenig",
"White-collared Swift","spStrepzon",
"Chimney Swift","spChaetpel","rarity"
"Antillean Palm Swift","spTachopho",
"Jamaican Mango","spAnthrman","endemic"
"Ruby-throated Hummingbird","spArchicol","rarity"
"Vervain Hummingbird","spMellimin",
"Red-billed Streamertail","spTrochpol","endemic"
"Black-billed Streamertail","spTrochsci","endemic"
"Smooth-billed Ani","spCrotoani",
"Yellow-billed Cuckoo","spCoccy1ame",
"Mangrove Cuckoo","spCoccy1min",
"Black-billed Cuckoo","spCoccy1ery","rarity"
"Chestnut-bellied Cuckoo","spCoccy1plu","endemic"
"Jamaican Lizard Cuckoo","spCoccy1vet","endemic"
"Rock Dove","spColumliv","introduced"
"White-crowned Pigeon","spPatag1leu",
"Scaly-naped Pigeon","spPatag1squ","rarity"
"Ring-tailed Pigeon","spPatag1car","endemic"
"Plain Pigeon","spPatag1ino",
"Eurasian Collared Dove","spStrep1dec","rarity-from-introduced"
"Common Ground Dove","spColum1pas",
"Crested Quail-Dove","spGeotrver","endemic"
"Ruddy Quail-Dove","spGeotrmon",
"Caribbean Dove","spLepto1jam",
"Mourning Dove","spZenaimac",
"Zenaida Dove","spZenaiaur1",
"White-winged Dove","spZenaiasi",
"Spotted Rail","spPardimac",
"Uniform Crake","spAmaurcon","extinct"
"Clapper Rail","spRallucre",
"King Rail","spRalluele","rarity"
"Sora","spPorzacar",
"Common Gallinule","spGalli3gal",
"American Coot","spFulicame",
"Purple Gallinule","spPorph1mar",
"Black Rail","spLaterjam",
"Yellow-breasted Crake","spLaterfla",
"Limpkin","spAramugua",
"Least Grebe","spTachy2dom",
"Pied-billed Grebe","spPodilpod",
"American Flamingo","spPhoenrub",
"American Oystercatcher","spHaema1pal","rarity"
"Black-necked Stilt","spHiman1mex",
"American Avocet","spRecurame","rarity"
"Grey Plover","spPluvi1squ",
"American Golden Plover","spPluvi1dom",
"Killdeer","spCharavoc",
"Semipalmated Plover","spCharasem",
"Piping Plover","spCharamel","rarity"
"Southern Lapwing","spVanelchi","rarity"
"Wilson's Plover","spAnarhwil",
"Snowy Plover","spAnarhniv","rarity"
"Northern Jacana","spJacanspi",
"Upland Sandpiper","spBartrlon","rarity"
"Hudsonian Whimbrel","spNumenhud",
"Long-billed Curlew","spNumename","rarity"
"Marbled Godwit","spLimosfed","rarity"
"Long-billed Dowitcher","spLimnosco",
"Short-billed Dowitcher","spLimnogri",
"Wilson's Snipe","spGalli5del",
"Wilson's Phalarope","spPhala1tri","rarity"
"Red-necked Phalarope","spPhala1lob","rarity"
"Spotted Sandpiper","spActitmac",
"Solitary Sandpiper","spTringsol",
"Lesser Yellowlegs","spTringfla",
"Willet","spTringsem",
"Greater Yellowlegs","spTringmel",
"Ruddy Turnstone","spArenaint",
"Red Knot","spCalidcan","rarity"
"Ruff","spCalidpug","rarity"
"Stilt Sandpiper","spCalidhim",
"Buff-breasted Sandpiper","spCalidsub1","rarity"
"Sanderling","spCalidalb",
"Dunlin","spCalidalp","rarity"
"Least Sandpiper","spCalidmin1",
"White-rumped Sandpiper","spCalidfus",
"Pectoral Sandpiper","spCalidmel",
"Western Sandpiper","spCalidmau",
"Semipalmated Sandpiper","spCalidpus",
"Black Skimmer","spRynchnig",
"Brown Noddy","spAnoussto",
"Black Noddy","spAnousmin","rarity"
"Sooty Tern","spOnychfus",
"Bridled Tern","spOnychana",
"Least Tern","spStern1ant",
"Gull-billed Tern","spGelocnil",
"Caspian Tern","spHydro3cas",
"Black Tern","spChlidnig",
"Forster's Tern","spStern2for","rarity"
"Common Tern","spStern2hir1","rarity"
"Roseate Tern","spStern2dou",
"Cabot's Tern","spThala1acu",
"Royal Tern","spThala1max",
"Black-legged Kittiwake","spRissatri","rarity"
"Bonaparte's Gull","spChroiphi","rarity"
"Black-headed Gull","spChroirid","rarity"
"Laughing Gull","spLeuco3atr",
"Ring-billed Gull","spLarusdel",
"Lesser Black-backed Gull","spLarusfus","rarity"
"American Herring Gull","spLarussmi",
"Long-tailed Jaeger","spSterclon","rarity"
"Parasitic Jaeger","spStercpar","rarity"
"Pomarine Jaeger","spStercpom","rarity"
"Red-billed Tropicbird","spPhaet2aet","rarity"
"White-tailed Tropicbird","spPhaet2lep",
"Leach's Storm Petrel","spHydro5leu","rarity"
"Black-capped Petrel","spPtero3has","rarity"
"Jamaican Petrel","spPtero3car","extinct"
"Sooty Shearwater","spArdengri","rarity"
"Sargasso Shearwater","spPuffilhe","rarity"
"Wood Stork","spMycteame","rarity"
"Magnificent Frigatebird","spFregamag",
"Red-footed Booby","spSulasul",
"Brown Booby","spSulaleu",
"Masked Booby","spSuladac",
"Anhinga","spAnhinanh","rarity"
"Neotropic Cormorant","spNanno1bra","rarity"
"Double-crested Cormorant","spNanno1aur","rarity"
"American White Ibis","spEudocalb",
"Scarlet Ibis","spEudocrub","rarity"
"Glossy Ibis","spPlegafal",
"Roseate Spoonbill","spPlataaja","rarity"
"American Bittern","spBotaulen","rarity"
"Least Bittern","spBotauexi",
"Yellow-crowned Night Heron","spNyctavio",
"Black-crowned Night Heron","spNycti6nyc",
"Little Blue Heron","spEgretcae",
"Tricolored Heron","spEgrettri",
"Reddish Egret","spEgretruf",
"Snowy Egret","spEgretthu",
"Little Egret","spEgretgar","rarity"
"Green Heron","spButorvir",
"Great Egret","spArdeaalb",
"Western Cattle Egret","spArdeaibi",
"Great Blue Heron","spArdeaher",
"American White Pelican","spPelec1ery","rarity"
"Brown Pelican","spPelec1occ",
"Black Vulture","spCoragatr","rarity"
"Turkey Vulture","spCathaaur",
"Osprey","spPandihal",
"Swallow-tailed Kite","spElanofor","rarity"
"Sharp-shinned Hawk","spAccipstr","rarity"
"Northern Harrier","spCircuhud","rarity"
"Mississippi Kite","spIctin1mis","rarity"
"Broad-winged Hawk","spButeo1pla1","rarity"
"Red-tailed Hawk","spButeo1jam",
"American Barn Owl","spTytofur",
"Jamaican Owl","spAsiogra","endemic"
"Belted Kingfisher","spMegac1alc",
"Jamaican Tody","spTodustod","endemic"
"Jamaican Woodpecker","spMelan2rad","endemic"
"Yellow-bellied Sapsucker","spSphyrvar",
"Crested Caracara","spCaracpla","rarity"
"Yellow-headed Caracara","spMilvachi","rarity"
"American Kestrel","spFalcospa",
"Merlin","spFalcocol",
"Peregrine Falcon","spFalcoper",
"Black-billed Amazon","spAmazo1agi","endemic"
"Yellow-billed Amazon","spAmazo1col","endemic"
"Yellow-naped Amazon","spAmazo1aur","escaped"
"Green-rumped Parrotlet","spForpupas","introduced"
"Olive-throated Parakeet","spEupsinan",
"Rose-ringed Parakeet","spPsitt4kra","escaped"
"Jamaican Elaenia","spMyiop1cot","endemic"
"Greater Antillean Elaenia","spElaenfal",
"Western Wood Pewee","spContosor","rarity"
"Eastern Wood Pewee","spContovir","rarity"
"Jamaican Pewee","spContopal","endemic"
"Yellow-bellied Flycatcher","spEmpidfla","rarity"
"Willow Flycatcher","spEmpidtra","rarity"
"Fork-tailed Flycatcher","spTyran3sav","rarity"
"Eastern Kingbird","spTyran3tyr","rarity"
"Grey Kingbird","spTyran3dom",
"Loggerhead Kingbird","spTyran3cau",
"Sad Flycatcher","spMyiarbar","endemic"
"Great Crested Flycatcher","spMyiarcri","rarity"
"Rufous-tailed Flycatcher","spMyiarval","endemic"
"Stolid Flycatcher","spMyiarsto",
"Jamaican Becard","spPachy2nig","endemic"
"Red-eyed Vireo","spVireo1oli",
"Black-whiskered Vireo","spVireo1alt",
"Philadelphia Vireo","spVireo1phi","rarity"
"Warbling Vireo","spVireo1gil","rarity"
"Yellow-throated Vireo","spVireo1fla1","rarity"
"Blue-headed Vireo","spVireo1sol","rarity"
"Blue Mountain Vireo","spVireo1osb","endemic"
"White-eyed Vireo","spVireo1gri",
"Jamaican Vireo","spVireo1mod","endemic"
"Jamaican Crow","spCorvujam","endemic"
"Cedar Waxwing","spBombyced",
"Sand Martin","spRiparrip",
"Tree Swallow","spTachy4bic",
"Golden Swallow","spTachy4euc",
"Purple Martin","spPrognsub","rarity"
"Caribbean Martin","spProgndom",
"Northern Rough-winged Swallow","spStelg1ser",
"Barn Swallow","spHirun2rus",
"American Cliff Swallow","spPetro2pyr","rarity"
"Cave Swallow","spPetro2ful",
"Ruby-crowned Kinglet","spCorthcal","rarity"
"Grey Catbird","spDumet1car",
"Northern Mockingbird","spMimuspol",
"Bahama Mockingbird","spMimusgun",
"Pearly-eyed Thrasher","spMarga3fus","rarity"
"Common Starling","spSturn2vul","introduced"
"Rufous-throated Solitaire","spMyadegen",
"Wood Thrush","spHyloc2mus","rarity"
"Swainson's Thrush","spCatha1ust",
"Grey-cheeked Thrush","spCatha1min","rarity"
"Bicknell's Thrush","spCatha1bic",
"Veery","spCatha1fus1",
"American Robin","spTurdumig","rarity"
"White-chinned Thrush","spTurduaur","endemic"
"White-eyed Thrush","spTurdujam","endemic"
"House Sparrow","spPassedom","introduced"
"Yellow-crowned Bishop","spEupleafe","introduced"
"Scaly-breasted Munia","spLonchpun","introduced"
"Tricolored Munia","spLonchmal","introduced"
"Chestnut Munia","spLonchatr","introduced"
"American Pipit","spAnthurub","rarity"
"Hispaniolan Crossbill","spLoxiameg","rarity"
"Jamaican Euphonia","spEuphojam","endemic"
"Grasshopper Sparrow","spAmmodsav",
"Dark-eyed Junco","spJuncohye","rarity"
"White-crowned Sparrow","spZonotleu","rarity"
"Savannah Sparrow","spPasse2san","rarity"
"Lincoln's Sparrow","spMeloslin",
"Jamaican Spindalis","spSpindnig","endemic"
"Yellow-breasted Chat","spIctervir","rarity"
"Bobolink","spDolicory",
"Jamaican Oriole","spIcter1leu",
"Baltimore Oriole","spIcter1gal",
"Orchard Oriole","spIcter1spu","rarity"
"Jamaican Blackbird","spNesop2nig","endemic"
"Shiny Cowbird","spMolotbon",
"Greater Antillean Grackle","spQuiscnig",
"Great-tailed Grackle","spQuiscmex",
"Ovenbird","spSeiuraur",
"Worm-eating Warbler","spHelmiver",
"Louisiana Waterthrush","spParkemot",
"Northern Waterthrush","spParkenov",
"Golden-winged Warbler","spVermichr","rarity"
"Blue-winged Warbler","spVermicya",
"Black-and-white Warbler","spMniotvar",
"Prothonotary Warbler","spProtocit",
"Swainson's Warbler","spLimno3swa",
"Tennessee Warbler","spLeiot1per",
"Orange-crowned Warbler","spLeiot1cel","rarity"
"Nashville Warbler","spLeiot1ruf","rarity"
"Connecticut Warbler","spOporoagi","rarity"
"Mourning Warbler","spGeothphi","rarity"
"Kentucky Warbler","spGeothfor","rarity"
"Common Yellowthroat","spGeothtri",
"Arrowhead Warbler","spSetop1pha","endemic"
"Hooded Warbler","spSetop1cit",
"American Redstart","spSetop1rut",
"Kirtland's Warbler","spSetop1kir","rarity"
"Cape May Warbler","spSetop1tig",
"Cerulean Warbler","spSetop1cer","rarity"
"Northern Parula","spSetop1ame",
"Magnolia Warbler","spSetop1mag",
"Bay-breasted Warbler","spSetop1cas",
"Blackburnian Warbler","spSetop1fus",
"Mangrove Warbler","spSetop1pet",
"Chestnut-sided Warbler","spSetop1pen",
"Blackpoll Warbler","spSetop1str",
"Black-throated Blue Warbler","spSetop1cae",
"Palm Warbler","spSetop1pal",
"Pine Warbler","spSetop1pin","rarity"
"Myrtle Warbler","spSetop1cor",
"Audubon's Warbler","spSetop1aud","rarity"
"Yellow-throated Warbler","spSetop1dom",
"Prairie Warbler","spSetop1dis",
"Black-throated Green Warbler","spSetop1vir",
"Canada Warbler","spCardecan","rarity"
"Wilson's Warbler","spCardepus","rarity"
"Summer Tanager","spPiranrub",
"Scarlet Tanager","spPiranoli",
"Rose-breasted Grosbeak","spPheuclud",
"Dickcissel","spSpiza1ame","rarity"
"Blue Grosbeak","spPasse3cae","rarity"
"Indigo Bunting","spPasse3cya",
"Painted Bunting","spPasse3cir","rarity"
"Bananaquit","spCoerefla",
"Yellow-faced Grassquit","spTiarioli",
"Orangequit","spEuneocam","endemic"
"Greater Antillean Bullfinch","spMelop1vio",
"Yellow-shouldered Grassquit","spLoxipano","endemic"
"Black-faced Grassquit","spMelan13bic",
"Saffron Finch","spSicalfla","introduced"
