"Name","ID","Status"
"Lesser Whistling Duck","spDendrjav",
"Knob-billed Duck","spSarkimel",
"White-winged Duck","spAsarcscu",
"Cotton Pygmy Goose","spNettacor",
"Garganey","spSpatuque",
"Northern Shoveler","spSpatucly","rarity"
"Eurasian Wigeon","spMarecpen","rarity"
"Indian Spot-billed Duck","spAnaspoe",
"Northern Pintail","spAnasacu",
"Eurasian Teal","spAnascre",
"Ferruginous Duck","spAythynyr","rarity"
"Tufted Duck","spAythyful","rarity"
"Greater Scaup","spAythymar","rarity"
"Chestnut-headed Partridge","spArborcam",
"Bar-backed Partridge","spArborbru",
"Orange-necked Partridge","spArbordav",
"Silver Pheasant","spLophunyc",
"Siamese Fireback","spLophudia",
"Green Peafowl","spPavomut",
"Green-legged Partridge","spTropichl",
"Germain's Peacock-Pheasant","spPolypger",
"Grey Peacock-Pheasant","spPolypbic",
"Red Junglefowl","spGallugal",
"Chinese Francolin","spFrancpin",
"King Quail","spSynoichi",
"Rain Quail","spCoturcor",
"Great Eared Nightjar","spLyncomac",
"Grey Nightjar","spCaprijot",
"Large-tailed Nightjar","spCaprimac",
"Indian Nightjar","spCapriasi",
"Savanna Nightjar","spCapriaff",
"Blyth's Frogmouth","spBatraaff",
"Crested Treeswift","spHemipcor",
"Himalayan Swiftlet","spAerodbre",
"Edible-nest Swiftlet","spAerodfuc",
"White-throated Needletail","spHiruncau",
"Silver-backed Needletail","spHiruncoc",
"Brown-backed Needletail","spHirungig",
"Asian Palm Swift","spCypsibal",
"Pacific Swift","spApuspac",
"Cook's Swift","spApuscoo",
"House Swift","spApusnip",
"Bengal Florican","spHoubaben",
"Greater Coucal","spCentr1sin",
"Lesser Coucal","spCentr1ben",
"Coral-billed Ground Cuckoo","spCarporen",
"Green-billed Malkoha","spPhaentri",
"Chestnut-winged Cuckoo","spClamacor",
"Jacobin Cuckoo","spClamajac","rarity"
"Asian Koel","spEudynsco",
"Asian Emerald Cuckoo","spChrys3mac",
"Violet Cuckoo","spChrys3xan",
"Little Bronze Cuckoo","spChalc1min",
"Banded Bay Cuckoo","spCacomson",
"Plaintive Cuckoo","spCacommer",
"Square-tailed Drongo-Cuckoo","spSurnilug",
"Large Hawk-Cuckoo","spHierospa",
"Hodgson's Hawk-Cuckoo","spHieronis",
"Indian Cuckoo","spCuculmic",
"Himalayan Cuckoo","spCuculsat",
"Rock Dove","spColumliv","introduced"
"Pale-capped Pigeon","spColumpun",
"Oriental Turtle Dove","spStrep1ori",
"Red Collared Dove","spStrep1tra",
"Spotted Dove","spSpilochi",
"Barred Cuckoo-Dove","spMacro2unc",
"Common Emerald Dove","spChalc2ind",
"Zebra Dove","spGeopestr","introduced"
"Nicobar Pigeon","spCaloenic",
"Pink-necked Green Pigeon","spTrerover",
"Orange-breasted Green Pigeon","spTrerobic",
"Ashy-headed Green Pigeon","spTreropha",
"Thick-billed Green Pigeon","spTrerocur",
"Yellow-footed Green Pigeon","spTreropho",
"Pin-tailed Green Pigeon","spTreroapi",
"Yellow-vented Green Pigeon","spTrerosei",
"Wedge-tailed Green Pigeon","spTrerosph",
"Green Imperial Pigeon","spDuculaen",
"Mountain Imperial Pigeon","spDuculbad",
"Pied Imperial Pigeon","spDuculbic",
"Masked Finfoot","spHelio3per",
"Brown-cheeked Rail","spRalluind","rarity"
"Slaty-breasted Rail","spLewinstr",
"Common Moorhen","spGalli3chl",
"Eurasian Coot","spFulicatr",
"Grey-headed Swamphen","spPorph1pol",
"Ruddy-breasted Crake","spZaporfus",
"Baillon's Crake","spZaporpus",
"Slaty-legged Crake","spRalli1eur",
"Red-legged Crake","spRalli1fas","rarity"
"White-browed Crake","spPoliocin",
"Watercock","spGalli4cin",
"White-breasted Waterhen","spAmaur1pho",
"Sarus Crane","spAntigant",
"Demoiselle Crane","spGrusvir","rarity"
"Common Crane","spGrusgru","rarity"
"Little Grebe","spTachy2ruf1",
"Greater Flamingo","spPhoenros","extinct"
"Yellow-legged Buttonquail","spTurnitan",
"Barred Buttonquail","spTurnisus",
"Common Buttonquail","spTurnisyl",
"Great Stone-curlew","spEsacurec",
"Indian Stone-curlew","spBurhiind",
"Black-winged Stilt","spHiman1him",
"Grey Plover","spPluvi1squ",
"Pacific Golden Plover","spPluvi1ful",
"Little Ringed Plover","spCharadub",
"River Lapwing","spVanelduv",
"Grey-headed Lapwing","spVanelcin",
"Red-wattled Lapwing","spVanelind",
"Oriental Plover","spAnarhver",
"Tibetan Sand Plover","spAnarhatr",
"Siberian Sand Plover","spAnarhmon",
"Greater Sand Plover","spAnarhles",
"Malaysian Plover","spAnarhper",
"Kentish Plover","spAnarhale",
"White-faced Plover","spAnarhdea",
"Greater Painted-snipe","spRostrben",
"Pheasant-tailed Jacana","spHydro2chi",
"Bronze-winged Jacana","spMetopind",
"Eurasian Whimbrel","spNumenpha",
"Far Eastern Curlew","spNumenmad","rarity"
"Eurasian Curlew","spNumenarq",
"Bar-tailed Godwit","spLimoslap",
"Black-tailed Godwit","spLimoslim",
"Asian Dowitcher","spLimnosem","rarity"
"Long-billed Dowitcher","spLimnosco","rarity"
"Jack Snipe","spLymnomin","rarity"
"Eurasian Woodcock","spScolorus",
"Pin-tailed Snipe","spGalli5ste",
"Common Snipe","spGalli5gal",
"Red-necked Phalarope","spPhala1lob",
"Terek Sandpiper","spXenuscin",
"Common Sandpiper","spActithyp",
"Green Sandpiper","spTringoch",
"Grey-tailed Tattler","spTringbre",
"Marsh Sandpiper","spTringsta",
"Wood Sandpiper","spTringgla",
"Common Redshank","spTringtot",
"Nordmann's Greenshank","spTringgut","rarity"
"Spotted Redshank","spTringery",
"Common Greenshank","spTringneb",
"Ruddy Turnstone","spArenaint",
"Great Knot","spCalidten","rarity"
"Red Knot","spCalidcan","rarity"
"Ruff","spCalidpug",
"Broad-billed Sandpiper","spCalidfal",
"Sharp-tailed Sandpiper","spCalidacu","rarity"
"Curlew Sandpiper","spCalidfer",
"Temminck's Stint","spCalidtem",
"Long-toed Stint","spCalidsub",
"Red-necked Stint","spCalidruf",
"Spoon-billed Sandpiper","spCalidpyg","rarity"
"Sanderling","spCalidalb","rarity"
"Dunlin","spCalidalp","rarity"
"Little Stint","spCalidmin","rarity"
"Small Pratincole","spGlarelac",
"Oriental Pratincole","spGlaremal",
"Indian Skimmer","spRynchalb","extinct"
"Brown Noddy","spAnoussto",
"Aleutian Tern","spOnychale","rarity"
"Bridled Tern","spOnychana",
"Little Tern","spStern1alb",
"Gull-billed Tern","spGelocnil",
"Caspian Tern","spHydro3cas",
"Whiskered Tern","spChlidhyb",
"White-winged Tern","spChlidleu",
"River Tern","spStern2aur",
"Common Tern","spStern2hir1",
"Black-naped Tern","spStern2sum",
"Black-bellied Tern","spStern2acu","extinct"
"Lesser Crested Tern","spThala1ben",
"Greater Crested Tern","spThala1ber",
"Slender-billed Gull","spChroigen","rarity"
"Black-headed Gull","spChroirid",
"Brown-headed Gull","spChroibru",
"Black-tailed Gull","spLaruscra","rarity"
"Lesser Black-backed Gull","spLarusfus","rarity"
"Long-tailed Jaeger","spSterclon",
"Parasitic Jaeger","spStercpar",
"Pomarine Jaeger","spStercpom",
"Bulwer's Petrel","spBulwebul","rarity"
"Asian Openbill","spAnastosc",
"Lesser Adjutant","spLepto2jav",
"Greater Adjutant","spLepto2dub",
"Painted Stork","spMycteleu",
"Milky Stork","spMyctecin",
"Black-necked Stork","spEphipasi",
"Asian Woolly-necked Stork","spCiconepi",
"Black Stork","spCiconnig","rarity"
"Lesser Frigatebird","spFregaari",
"Christmas Frigatebird","spFregaand",
"Red-footed Booby","spSulasul","rarity"
"Oriental Darter","spAnhinmel",
"Little Cormorant","spMicro5nig",
"Indian Cormorant","spPhala2fus1",
"Great Cormorant","spPhala2car",
"Black-headed Ibis","spThresmel",
"White-shouldered Ibis","spPseud1dav",
"Giant Ibis","spPseud1gig",
"Glossy Ibis","spPlegafal",
"Eurasian Spoonbill","spPlataleu","rarity"
"Black-faced Spoonbill","spPlatamin","rarity"
"Eurasian Bittern","spBotauste",
"Black Bittern","spBotaufla",
"Cinnamon Bittern","spBotaucin",
"Von Schrenck's Bittern","spBotaueur","rarity"
"Yellow Bittern","spBotausin",
"Black-crowned Night Heron","spNycti6nyc",
"Malayan Night Heron","spGorsamel",
"Pacific Reef Heron","spEgretsac",
"Chinese Egret","spEgreteul","rarity"
"Little Egret","spEgretgar",
"White-eared Night Heron","spOroanmag","rarity"
"Little Heron","spButoratr",
"Chinese Pond Heron","spArdeo1bac",
"Javan Pond Heron","spArdeo1spe",
"Great Egret","spArdeaalb",
"Medium Egret","spArdeaint",
"Eastern Cattle Egret","spArdeacor",
"Grey Heron","spArdeacin",
"Purple Heron","spArdeapur",
"Great-billed Heron","spArdeasum",
"Great White Pelican","spPelec1ono","rarity"
"Spot-billed Pelican","spPelec1phi",
"Osprey","spPandihal",
"Black-winged Kite","spElanucae",
"Jerdon's Baza","spAvicejer",
"Black Baza","spAviceleu",
"Crested Honey Buzzard","spPernipti",
"Red-headed Vulture","spSarco1cal",
"Cinereous Vulture","spAegypmon","rarity"
"Himalayan Vulture","spGypshim","rarity"
"White-rumped Vulture","spGypsben",
"Slender-billed Vulture","spGypsten",
"Crested Serpent Eagle","spSpilo1che",
"Short-toed Snake Eagle","spCircagal",
"Mountain Hawk-Eagle","spNisaenip",
"Changeable Hawk-Eagle","spNisaecir",
"Rufous-bellied Eagle","spLopho8kie",
"Black Eagle","spIctinmal",
"Indian Spotted Eagle","spClang1has",
"Greater Spotted Eagle","spClang1cla",
"Booted Eagle","spHierapen","rarity"
"Steppe Eagle","spAquilnip","rarity"
"Eastern Imperial Eagle","spAquilhel","rarity"
"Crested Goshawk","spLopho9tri",
"Besra","spTachy3vir",
"Japanese Sparrowhawk","spTachy3gul",
"Shikra","spTachy3bad",
"Chinese Sparrowhawk","spTachy3sol",
"Eurasian Goshawk","spAsturgen","rarity"
"Hen Harrier","spCircucya","rarity"
"Pied Harrier","spCircumel",
"Western Marsh Harrier","spCircuaer","rarity"
"Eastern Marsh Harrier","spCircuspi",
"Black Kite","spMilvumig",
"Brahminy Kite","spHaliaind",
"Pallas's Fish Eagle","spHalia1leu","rarity"
"White-bellied Sea Eagle","spIcthyleu",
"Lesser Fish Eagle","spIcthyhum",
"Grey-headed Fish Eagle","spIcthyich",
"Rufous-winged Buzzard","spButasliv",
"Grey-faced Buzzard","spButasind",
"Common Buzzard","spButeo1but",
"Eastern Buzzard","spButeo1jap",
"Eastern Barn Owl","spTytojav",
"Eastern Grass Owl","spTytolon","rarity"
"Oriental Bay Owl","spPhodibad",
"Northern Boobook","spNinoxjap","rarity"
"Brown Boobook","spNinoxscu",
"Collared Owlet","spTaenibro",
"Spotted Owlet","spAthenbra",
"Asian Barred Owlet","spGlauc1cuc",
"Mountain Scops Owl","spOtusspi",
"Oriental Scops Owl","spOtussun",
"Collared Scops Owl","spOtuslet",
"Short-eared Owl","spAsiofla","rarity"
"Brown Fish Owl","spKetupzey",
"Buffy Fish Owl","spKetupket",
"Spot-bellied Eagle-Owl","spKetupnip",
"Spotted Wood Owl","spStrixsel",
"Brown Wood Owl","spStrixlep",
"Orange-breasted Trogon","spHarpa1ore",
"Red-headed Trogon","spHarpa1ery",
"Eurasian Hoopoe","spUpupaepo",
"Great Hornbill","spBucerbic",
"Oriental Pied Hornbill","spAnthr1alb",
"Austen's Brown Hornbill","spAnorraus",
"Wreathed Hornbill","spRhytiund",
"Indochinese Roller","spCoracaff",
"Oriental Dollarbird","spEurysori",
"Banded Kingfisher","spLacedpul",
"Stork-billed Kingfisher","spPelarcap",
"Ruddy Kingfisher","spHalcycor",
"White-throated Kingfisher","spHalcysmy",
"Black-capped Kingfisher","spHalcypil",
"Collared Kingfisher","spTodirchl",
"Blue-eared Kingfisher","spAlcedmen",
"Common Kingfisher","spAlcedatt",
"Black-backed Dwarf Kingfisher","spCeyxeri",
"Crested Kingfisher","spMegac1lug",
"Pied Kingfisher","spCerylrud",
"Blue-bearded Bee-eater","spNyctyath",
"Asian Green Bee-eater","spMerop1ori",
"Blue-tailed Bee-eater","spMerop1phi",
"Blue-throated Bee-eater","spMerop1vir1",
"Chestnut-headed Bee-eater","spMerop1les",
"Red-vented Barbet","spPsilo1lag",
"Lineated Barbet","spPsilo1lin",
"Green-eared Barbet","spPsilo1fai",
"Indochinese Barbet","spPsilo1ann",
"Moustached Barbet","spPsilo1inc",
"Blue-eared Barbet","spPsilo1cya",
"Coppersmith Barbet","spPsilo1hae",
"Eurasian Wryneck","spJynxtor","rarity"
"Speckled Piculet","spPicuminn",
"White-browed Piculet","spSasiaoch",
"Heart-spotted Woodpecker","spHemiccan",
"Grey-capped Pygmy Woodpecker","spYungican",
"Yellow-crowned Woodpecker","spLeiopmah",
"Rufous-bellied Woodpecker","spDendr5hyp",
"Freckle-breasted Woodpecker","spDendr5ana",
"White-bellied Woodpecker","spDryocjav",
"Greater Yellownape","spChrys4fla",
"Lesser Yellownape","spPicuschl",
"Laced Woodpecker","spPicusvit",
"Streak-throated Woodpecker","spPicusxan",
"Red-collared Woodpecker","spPicusrab",
"Black-headed Woodpecker","spPicusery",
"Grey-headed Woodpecker","spPicuscan",
"Common Flameback","spDinopjav",
"Greater Flameback","spChrys5gut",
"Pale-headed Woodpecker","spGecingra",
"Bamboo Woodpecker","spGecinvir",
"Bay Woodpecker","spBlythpyr",
"Rufous Woodpecker","spMicro9bra",
"Black-and-buff Woodpecker","spMeigljug",
"Great Slaty Woodpecker","spMullepul",
"Collared Falconet","spMicro10cae",
"White-rumped Falcon","spNeohiins",
"Lesser Kestrel","spFalconau","rarity"
"Common Kestrel","spFalcotin",
"Merlin","spFalcocol","rarity"
"Oriental Hobby","spFalcosev",
"Peregrine Falcon","spFalcoper",
"Grey-headed Parakeet","spPsitt4fin",
"Blossom-headed Parakeet","spPsitt4ros",
"Red-breasted Parakeet","spPsitt4ale",
"Alexandrine Parakeet","spPsitt4eup",
"Rose-ringed Parakeet","spPsitt4kra","escaped"
"Vernal Hanging Parrot","spLoricver",
"Long-tailed Broadbill","spPsaridal",
"Dusky Broadbill","spCorydsum",
"Silver-breasted Broadbill","spSerillun",
"Black-and-red Broadbill","spCymbimac",
"Banded Broadbill","spEuryljav",
"Eared Pitta","spHydro6pha",
"Rusty-naped Pitta","spHydro6oat","rarity"
"Blue-rumped Pitta","spHydro6sor",
"Blue Pitta","spHydro6cya",
"Bar-bellied Pitta","spHydro6ell",
"Blue-winged Pitta","spPittamol",
"Western Hooded Pitta","spPittasor",
"Fairy Pitta","spPittanym","rarity"
"Golden-bellied Gerygone","spGerygsul",
"Bar-winged Flycatcher-shrike","spHemip2pic",
"Large Woodshrike","spTephrvir",
"Common Woodshrike","spTephrpon",
"Ashy Woodswallow","spArtam1fus",
"Common Iora","spAegittip",
"Great Iora","spAegitlaf",
"Small Minivet","spPericcin",
"Grey-chinned Minivet","spPericsol",
"Scarlet Minivet","spPericspe",
"Ashy Minivet","spPericdiv",
"Swinhoe's Minivet","spPericcan",
"Rosy Minivet","spPericros",
"Oriental Cuckooshrike","spCorac2jav",
"Black-winged Cuckooshrike","spLalagmel1",
"Indochinese Cuckooshrike","spLalagpol",
"Mangrove Whistler","spPachy4cin",
"White-browed Shrike-babbler","spPteruaer",
"Clicking Shrike-babbler","spPteruint","rarity"
"White-bellied Erpornis","spErporzan",
"Maroon Oriole","spOriol1tra",
"Silver Oriole","spOriol1mel1",
"Black-hooded Oriole","spOriol1xan",
"Black-naped Oriole","spOriol1chi",
"Bronzed Drongo","spDicruaen",
"Lesser Racket-tailed Drongo","spDicrurem",
"Crow-billed Drongo","spDicruann",
"Greater Racket-tailed Drongo","spDicrupar",
"Hair-crested Drongo","spDicruhot",
"Ashy Drongo","spDicruleu",
"Black Drongo","spDicrumac",
"White-throated Fantail","spRhipialb1",
"White-browed Fantail","spRhipiaur",
"Malaysian Pied Fantail","spRhipijav",
"Black-naped Monarch","spHypot1azu",
"Blyth's Paradise Flycatcher","spTerpsaff",
"Amur Paradise Flycatcher","spTerpsinc",
"Black Paradise Flycatcher","spTerpsatr","rarity"
"Burmese Shrike","spLaniucol1",
"Tiger Shrike","spLaniutig",
"Brown Shrike","spLaniucri",
"Long-tailed Shrike","spLaniusch","rarity"
"Grey-backed Shrike","spLaniutep",
"Eurasian Jay","spGarrugla",
"Red-billed Blue Magpie","spUrociery",
"Common Green Magpie","spCissachi",
"Indochinese Green Magpie","spCissahyp",
"Rufous Treepie","spDendr11vag",
"Racket-tailed Treepie","spCrypstem",
"Ratchet-tailed Treepie","spTemnutem",
"Eastern Jungle Crow","spCorvulev",
"Grey-headed Canary-flycatcher","spCulic1cey",
"Sultan Tit","spMelan7sul","rarity"
"Cinereous Tit","spParuscin",
"Singing Bush Lark","spMirafjav",
"Indochinese Bush Lark","spPloceery",
"Oriental Skylark","spAlaudgul",
"Ochraceous Bulbul","spAlophoch",
"Puff-throated Bulbul","spAlophpal",
"Grey-eyed Bulbul","spIolepro",
"Ashy Bulbul","spHemixfla",
"Mountain Bulbul","spIxosmcc",
"Black Bulbul","spHypsileu",
"Black-headed Bulbul","spBrach3mel",
"Black-crested Bulbul","spRubigfla",
"Olive-winged Bulbul","spPycno2plu","rarity"
"Streak-eared Bulbul","spPycno2con",
"Stripe-throated Bulbul","spPycno2fin",
"Red-whiskered Bulbul","spPycno2joc",
"Yellow-vented Bulbul","spPycno2goi",
"Sooty-headed Bulbul","spPycno2aur",
"Grey-throated Martin","spRiparchi",
"Sand Martin","spRiparrip",
"Pale Martin","spRipardil",
"Dusky Crag Martin","spPtyoncon","rarity"
"Pacific Swallow","spHirun2jav",
"Barn Swallow","spHirun2rus",
"Wire-tailed Swallow","spHirun2smi",
"Siberian House Martin","spDeliclag",
"Asian House Martin","spDelicdas",
"Eastern Red-rumped Swallow","spCecrodau",
"Pygmy Cupwing","spPnoeppus",
"Yellow-bellied Warbler","spAbrossup",
"Mountain Tailorbird","spPhyll4cuc",
"Grey-bellied Tesia","spTesiacya",
"Asian Stubtail","spUrospsqu",
"Black-throated Bushtit","spAegit1con",
"Hume's Leaf Warbler","spPhyll5hum","rarity"
"Yellow-browed Warbler","spPhyll5ino",
"Yellow-streaked Warbler","spPhyll5arm","rarity"
"Radde's Warbler","spPhyll5sch",
"Dusky Warbler","spPhyll5fus",
"Buff-throated Warbler","spPhyll5sub1","rarity"
"Eastern Crowned Warbler","spPhyll5cor",
"Alström's Warbler","spPhyll5sor",
"Martens's Warbler","spPhyll5ome","rarity"
"Two-barred Warbler","spPhyll5plu",
"Sakhalin Leaf Warbler","spPhyll5bor","rarity"
"Pale-legged Leaf Warbler","spPhyll5ten",
"Kamchatka Leaf Warbler","spPhyll5exa","rarity"
"Arctic Warbler","spPhyll5bor1",
"Chestnut-crowned Warbler","spPhyll5cas",
"Sulphur-breasted Warbler","spPhyll5ric",
"Yellow-vented Warbler","spPhyll5can1","rarity"
"Blyth's Leaf Warbler","spPhyll5reg","rarity"
"Claudia's Leaf Warbler","spPhyll5cla","rarity"
"Davison's Leaf Warbler","spPhyll5int1",
"Oriental Reed Warbler","spAcroc1ori",
"Black-browed Reed Warbler","spAcroc1bis",
"Blunt-winged Warbler","spAcroc1con",
"Manchurian Reed Warbler","spAcroc1tan",
"Blyth's Reed Warbler","spAcroc1dum","rarity"
"Thick-billed Warbler","spArund1aed",
"Pallas's Grasshopper Warbler","spHelopcer",
"Lanceolated Warbler","spLocuslan",
"Baikal Bush Warbler","spLocusdav","rarity"
"Striated Grassbird","spMegal1pal",
"Zitting Cisticola","spCistijun",
"Golden-headed Cisticola","spCistiexi1",
"Brown Prinia","spPrinipol",
"Annam Prinia","spPriniroc",
"Rufescent Prinia","spPriniruf",
"Grey-breasted Prinia","spPrinihod",
"Yellow-bellied Prinia","spPrinifla",
"Plain Prinia","spPriniino",
"Common Tailorbird","spOrtho3sut",
"Dark-necked Tailorbird","spOrtho3atr",
"Cambodian Tailorbird","spOrtho3cha","endemic"
"Ashy Tailorbird","spOrtho3ruf",
"Yellow-eyed Babbler","spChrys6sin","rarity"
"Black-headed Parrotbill","spParad3mar",
"Black-chinned Yuhina","spYuhinnig",
"Chestnut-flanked White-eye","spZoste1ery",
"Swinhoe's White-eye","spZoste1sim",
"Hume's White-eye","spZoste1aur","rarity"
"Chestnut-capped Babbler","spTimalpil",
"Grey-faced Tit-Babbler","spMixorkel",
"Pin-striped Tit-Babbler","spMixorgul",
"Rufous-capped Babbler","spCyano10ruf","rarity"
"Rufous-fronted Babbler","spCyano10ruf1","rarity"
"Red-billed Scimitar Babbler","spPomat1och",
"White-browed Scimitar Babbler","spPomat1sch",
"Large Scimitar Babbler","spEryth5hyp",
"Grey-throated Babbler","spStachnig1",
"Chinese Grassbird","spGramistr",
"Scaly-crowned Babbler","spMalac3cin",
"Collared Babbler","spGamps1tor",
"Rufous-throated Fulvetta","spSchoe2ruf",
"Puff-throated Babbler","spPelloruf",
"Spot-throated Babbler","spPelloalb","rarity"
"Buff-breasted Babbler","spPellotic",
"Abbott's Babbler","spMalac4abb",
"Streaked Wren-Babbler","spGypsobre",
"Black-browed Fulvetta","spAlcipgro",
"Mountain Fulvetta","spAlcipper",
"Blue-winged Minla","spActincya",
"Silver-eared Mesia","spLeiotarg",
"Orange-breasted Laughingthrush","spGarru1ann","rarity"
"Lesser Necklaced Laughingthrush","spGarru1mon",
"White-crested Laughingthrush","spGarru1leu",
"Cambodian Laughingthrush","spGarru1fer","endemic"
"White-cheeked Laughingthrush","spPtero6vas",
"Black-throated Laughingthrush","spPtero6chi",
"Asian Fairy-bluebird","spIrenapue",
"Velvet-fronted Nuthatch","spSitta1fro",
"Burmese Nuthatch","spSitta1neg",
"Asian Glossy Starling","spAplonpan","rarity"
"Golden-crested Myna","spAmpel3cor",
"Common Hill Myna","spGracurel",
"Great Myna","spAcridgra",
"Common Myna","spAcridtri",
"Vinous-breasted Myna","spAcridleu",
"Red-billed Starling","spSpodiser","rarity"
"Black-collared Starling","spGracu1nig",
"Siamese Pied Myna","spGracu1flo",
"Daurian Starling","spAgropstu",
"Chestnut-cheeked Starling","spAgropphi","rarity"
"White-shouldered Starling","spSturnsin",
"Chestnut-tailed Starling","spSturnmal",
"Brahminy Starling","spSturnpag","rarity"
"Rosy Starling","spPastoros","rarity"
"Common Starling","spSturn2vul","rarity"
"Green Cochoa","spCochovir",
"Dark-sided Thrush","spZoothmar",
"White's Thrush","spZoothaur",
"Scaly Thrush","spZoothdau",
"Siberian Thrush","spGeokisib","rarity"
"Orange-headed Thrush","spGeokicit",
"Chinese Blackbird","spTurduman","rarity"
"Japanese Thrush","spTurducar","rarity"
"Eyebrowed Thrush","spTurduobs",
"Dusky Thrush","spTurdueun","rarity"
"Naumann's Thrush","spTurdunau","rarity"
"Oriental Magpie-Robin","spCopsysau",
"White-rumped Shama","spCopsymal",
"Dark-sided Flycatcher","spMusci3sib",
"Ferruginous Flycatcher","spMusci3fer","rarity"
"Asian Brown Flycatcher","spMusci3dau",
"Brown-streaked Flycatcher","spMusci3wil",
"White-tailed Flycatcher","spLeuco9con","rarity"
"Fujian Niltava","spNiltadav","rarity"
"Chinese Vivid Niltava","spNiltaoat","rarity"
"Large Niltava","spNiltagra",
"Blue-and-white Flycatcher","spCyano11cya",
"Zappey's Flycatcher","spCyano11cum","rarity"
"Verditer Flycatcher","spEumyitha",
"Rufous-browed Flycatcher","spAnthisol",
"Pale Blue Flycatcher","spCyornuni",
"Hainan Blue Flycatcher","spCyornhai",
"Large Blue Flycatcher","spCyornmag","rarity"
"Indochinese Blue Flycatcher","spCyornsum",
"Hill Blue Flycatcher","spCyornwhi",
"Bluethroat","spLuscisve",
"White-tailed Robin","spMyiomleu",
"Siberian Rubythroat","spCalli2cal",
"Slaty-backed Forktail","spEnicusch",
"White-crowned Forktail","spEnicules",
"Blue Whistling Thrush","spMyophcae",
"Lesser Shortwing","spBrach4leu",
"Siberian Blue Robin","spLarvicya",
"Rufous-tailed Robin","spLarvisib","rarity"
"Rufous-headed Robin","spLarviruf","rarity"
"Yellow-rumped Flycatcher","spFicedzan",
"Green-backed Flycatcher","spFicedeli","rarity"
"Narcissus Flycatcher","spFicednar",
"Snowy-browed Flycatcher","spFicedhyp",
"Mugimaki Flycatcher","spFicedmug",
"Slaty-backed Flycatcher","spFicederi","rarity"
"Pygmy Flycatcher","spFicedhod","rarity"
"Little Pied Flycatcher","spFicedwes",
"Taiga Flycatcher","spFicedalb",
"Himalayan Bluetail","spTarsiruf","rarity"
"White-throated Rock Thrush","spMontigul",
"Blue Rock Thrush","spMontisol",
"Grey Bush Chat","spSaxicfer",
"Pied Bush Chat","spSaxiccap",
"Amur Stonechat","spSaxicste",
"Blue-winged Leafbird","spChlor7mol",
"Golden-fronted Leafbird","spChlor7aur",
"Yellow-vented Flowerpecker","spPachy7chr",
"Thick-billed Flowerpecker","spPachy7agi",
"Plain Flowerpecker","spDicaemin",
"Cambodian Flowerpecker","spDicaecam",
"Scarlet-backed Flowerpecker","spDicaecru",
"Ruby-cheeked Sunbird","spChalc4sin",
"Brown-throated Sunbird","spAnthr2mal",
"Van Hasselt's Sunbird","spLepto9bra",
"Copper-throated Sunbird","spLepto9cal",
"Purple Sunbird","spCinny2asi",
"Ornate Sunbird","spCinny2orn",
"Black-throated Sunbird","spAetho1sat",
"Crimson Sunbird","spAetho1sip",
"Purple-naped Spiderhunter","spKurochyp",
"Little Spiderhunter","spArachlon",
"Streaked Spiderhunter","spArachmag",
"Eurasian Tree Sparrow","spPassemon",
"Plain-backed Sparrow","spPassefla",
"House Sparrow","spPassedom",
"Asian Golden Weaver","spPloce2hyp",
"Streaked Weaver","spPloce2man",
"Baya Weaver","spPloce2phi",
"Scaly-breasted Munia","spLonchpun",
"White-rumped Munia","spLonchstr",
"Chestnut Munia","spLonchatr",
"Pin-tailed Parrotfinch","spEryth6pra",
"Red Avadavat","spAmandama",
"Forest Wagtail","spDendr12ind",
"Eastern Yellow Wagtail","spMotactsc",
"Citrine Wagtail","spMotaccit","rarity"
"Grey Wagtail","spMotaccin",
"White Wagtail","spMotacalb",
"Mekong Wagtail","spMotacsam",
"Richard's Pipit","spAnthuric",
"Paddyfield Pipit","spAnthuruf",
"Olive-backed Pipit","spAnthuhod",
"Red-throated Pipit","spAnthucer",
"Common Rosefinch","spCarpo4ery","rarity"
"Chestnut-eared Bunting","spEmberfuc",
"Little Bunting","spEmberpus","rarity"
"Yellow-breasted Bunting","spEmberaur",
"Chestnut Bunting","spEmberrut","rarity"
"Black-headed Bunting","spEmbermel","rarity"
"Red-headed Bunting","spEmberbru","rarity"
"Black-faced Bunting","spEmberspo","rarity"
