"Name","ID","Status"
"Northern Shoveler","spSpatucly","rarity"
"American Wigeon","spMarecame","rarity"
"Mallard","spAnaspla",
"Northern Pintail","spAnasacu",
"Eurasian Teal","spAnascre",
"Red Junglefowl","spGallugal","introduced"
"Long-tailed Koel","spUrodytai",
"Rock Dove","spColumliv","introduced"
"Pacific Imperial Pigeon","spDuculpac",
"Grey Plover","spPluvi1squ",
"Pacific Golden Plover","spPluvi1ful",
"Common Ringed Plover","spCharahia","rarity"
"Bristle-thighed Curlew","spNumentah",
"Eurasian Whimbrel","spNumenpha",
"Bar-tailed Godwit","spLimoslap",
"Black-tailed Godwit","spLimoslim","rarity"
"Red Phalarope","spPhala1ful","rarity"
"Common Sandpiper","spActithyp",
"Grey-tailed Tattler","spTringbre",
"Wandering Tattler","spTringinc",
"Willet","spTringsem","rarity"
"Kiritimati Sandpiper","spProsocan","extinct"
"Ruddy Turnstone","spArenaint",
"Sharp-tailed Sandpiper","spCalidacu",
"Long-toed Stint","spCalidsub","rarity"
"Sanderling","spCalidalb",
"Pectoral Sandpiper","spCalidmel",
"White Tern","spGygisalb",
"Brown Noddy","spAnoussto",
"Black Noddy","spAnousmin",
"Blue Noddy","spAnouscer",
"Sooty Tern","spOnychfus",
"Spectacled Tern","spOnychlun",
"Little Tern","spStern1alb","rarity"
"Black-naped Tern","spStern2sum",
"Greater Crested Tern","spThala1ber",
"Laughing Gull","spLeuco3atr",
"Franklin's Gull","spLeuco3pip",
"Ring-billed Gull","spLarusdel",
"Kelp Gull","spLarusdom","rarity"
"Glaucous-winged Gull","spLarusgla","rarity"
"Red-tailed Tropicbird","spPhaet2rub",
"White-tailed Tropicbird","spPhaet2lep",
"Wilson's Storm Petrel","spOceanoce",
"White-faced Storm Petrel","spPelagmar",
"Polynesian Storm Petrel","spNesofful",
"Leach's Storm Petrel","spHydro5leu",
"Band-rumped Storm Petrel","spHydro5cas",
"Providence Petrel","spPtero3sol",
"Murphy's Petrel","spPtero3ult",
"Juan Fernandez Petrel","spPtero3ext",
"Kermadec Petrel","spPtero3neg",
"Herald Petrel","spPtero3her",
"Phoenix Petrel","spPtero3alb",
"Mottled Petrel","spPtero3ine",
"White-necked Petrel","spPtero3cer",
"Black-winged Petrel","spPtero3nig",
"Gould's Petrel","spPtero3leu",
"Collared Petrel","spPtero3bre",
"Cook's Petrel","spPtero3coo",
"Pycroft's Petrel","spPtero3pyc",
"Tahiti Petrel","spPseudros",
"Black Petrel","spProcepar",
"Streaked Shearwater","spCalonleu","rarity"
"Wedge-tailed Shearwater","spArdenpac",
"Buller's Shearwater","spArdenbul",
"Sooty Shearwater","spArdengri",
"Short-tailed Shearwater","spArdenten",
"Pink-footed Shearwater","spArdencre","rarity"
"Christmas Shearwater","spPuffinat",
"Tropical Shearwater","spPuffibai",
"Bulwer's Petrel","spBulwebul",
"Lesser Frigatebird","spFregaari",
"Great Frigatebird","spFregamin",
"Red-footed Booby","spSulasul",
"Brown Booby","spSulaleu",
"Masked Booby","spSuladac",
"Nazca Booby","spSulagra","rarity"
"Pacific Reef Heron","spEgretsac",
"Kuhl's Lorikeet","spVinikuh",
"Bokikokiko","spAcroc1aeq","endemic"
