"Name","ID","Status"
"Common Ostrich","spStrutcam","extinct"
"Greylag Goose","spAnser1ans","rarity"
"Greater White-fronted Goose","spAnser1alb","rarity"
"Tundra Swan","spCygnucol","rarity"
"Common Shelduck","spTadortad",
"Ruddy Shelduck","spTadorfer","rarity"
"Garganey","spSpatuque",
"Blue-winged Teal","spSpatudis","rarity"
"Northern Shoveler","spSpatucly",
"Gadwall","spMarecstr",
"Eurasian Wigeon","spMarecpen",
"Mallard","spAnaspla",
"Cape Teal","spAnascap",
"Northern Pintail","spAnasacu",
"Eurasian Teal","spAnascre",
"Marbled Duck","spMarmaang",
"Red-crested Pochard","spNetta1ruf",
"Common Pochard","spAythyfer",
"Ferruginous Duck","spAythynyr",
"Tufted Duck","spAythyful",
"Common Scoter","spMelannig",
"Smew","spMergealb","rarity"
"Red-breasted Merganser","spMerguser",
"White-headed Duck","spOxyurleu","rarity"
"Common Quail","spCoturcot",
"Barbary Partridge","spAlect1bar",
"European Nightjar","spCaprieur",
"Egyptian Nightjar","spCapriaeg","rarity"
"Alpine Swift","spTachy1mel",
"Common Swift","spApusapu",
"Pallid Swift","spApuspal",
"Little Swift","spApusaff",
"African Houbara","spChlamund",
"Little Bustard","spTetra4tet",
"Great Spotted Cuckoo","spClamagla","rarity"
"Common Cuckoo","spCuculcan",
"Pin-tailed Sandgrouse","spPtero2alc",
"Spotted Sandgrouse","spPtero2sen",
"Black-bellied Sandgrouse","spPtero2ori",
"Crowned Sandgrouse","spPtero2cor",
"Rock Dove","spColumliv",
"Stock Dove","spColumoen","rarity"
"European Turtle Dove","spStrep1tur",
"Eurasian Collared Dove","spStrep1dec",
"Laughing Dove","spSpilosen",
"Water Rail","spRalluaqu",
"Corn Crake","spCrexcre","rarity"
"Spotted Crake","spPorzapor",
"Common Moorhen","spGalli3chl",
"Eurasian Coot","spFulicatr",
"Baillon's Crake","spZaporpus","rarity"
"Little Crake","spZaporpar",
"Striped Crake","spAenigmar","rarity"
"Common Crane","spGrusgru",
"Little Grebe","spTachy2ruf1",
"Great Crested Grebe","spPodic1cri",
"Horned Grebe","spPodic1aur","rarity"
"Black-necked Grebe","spPodic1nig",
"Greater Flamingo","spPhoenros",
"Common Buttonquail","spTurnisyl","rarity"
"Eurasian Stone-curlew","spBurhioed",
"Eurasian Oystercatcher","spHaema1ost",
"Black-winged Stilt","spHiman1him",
"Pied Avocet","spRecuravo",
"Grey Plover","spPluvi1squ",
"European Golden Plover","spPluvi1apr",
"Eurasian Dotterel","spEudro1mor",
"Common Ringed Plover","spCharahia",
"Little Ringed Plover","spCharadub",
"Northern Lapwing","spVanelvan",
"White-tailed Lapwing","spVanelleu","rarity"
"Tibetan Sand Plover","spAnarhatr","rarity"
"Greater Sand Plover","spAnarhles",
"Kentish Plover","spAnarhale",
"Egyptian Plover","spPluvi2aeg","rarity"
"Eurasian Whimbrel","spNumenpha",
"Slender-billed Curlew","spNumenten","extinct"
"Eurasian Curlew","spNumenarq",
"Bar-tailed Godwit","spLimoslap","rarity"
"Black-tailed Godwit","spLimoslim",
"Jack Snipe","spLymnomin",
"Eurasian Woodcock","spScolorus",
"Great Snipe","spGalli5med",
"Common Snipe","spGalli5gal",
"Terek Sandpiper","spXenuscin","rarity"
"Common Sandpiper","spActithyp",
"Green Sandpiper","spTringoch",
"Marsh Sandpiper","spTringsta",
"Wood Sandpiper","spTringgla",
"Common Redshank","spTringtot",
"Spotted Redshank","spTringery",
"Common Greenshank","spTringneb",
"Ruddy Turnstone","spArenaint",
"Red Knot","spCalidcan","rarity"
"Ruff","spCalidpug",
"Broad-billed Sandpiper","spCalidfal",
"Curlew Sandpiper","spCalidfer",
"Temminck's Stint","spCalidtem",
"Sanderling","spCalidalb",
"Dunlin","spCalidalp",
"Little Stint","spCalidmin",
"Cream-colored Courser","spCursocur",
"Black-winged Pratincole","spGlarenor",
"Collared Pratincole","spGlarepra",
"Little Tern","spStern1alb",
"Gull-billed Tern","spGelocnil",
"Caspian Tern","spHydro3cas",
"Whiskered Tern","spChlidhyb",
"Black Tern","spChlidnig",
"White-winged Tern","spChlidleu",
"Common Tern","spStern2hir1",
"Roseate Tern","spStern2dou",
"Sandwich Tern","spThala1san",
"Lesser Crested Tern","spThala1ben",
"Little Gull","spHydro4min",
"Slender-billed Gull","spChroigen",
"Black-headed Gull","spChroirid",
"Pallas's Gull","spIchthich",
"Audouin's Gull","spIchthaud",
"Mediterranean Gull","spIchthmel",
"Common Gull","spLaruscan",
"Yellow-legged Gull","spLarusmic",
"Armenian Gull","spLarusarm","rarity"
"Great Black-backed Gull","spLarusmar","rarity"
"Lesser Black-backed Gull","spLarusfus",
"Parasitic Jaeger","spStercpar","rarity"
"Great Skua","spStercsku","rarity"
"Scopoli's Shearwater","spCalondio",
"Yelkouan Shearwater","spPuffiyel",
"Black Stork","spCiconnig","rarity"
"White Stork","spCiconcic",
"Northern Gannet","spMorusbas",
"Great Cormorant","spPhala2car",
"European Shag","spGulosari",
"Glossy Ibis","spPlegafal",
"Eurasian Spoonbill","spPlataleu",
"Eurasian Bittern","spBotauste",
"Little Bittern","spBotaumin",
"Black-crowned Night Heron","spNycti6nyc",
"Little Egret","spEgretgar",
"Squacco Heron","spArdeo1ral",
"Great Egret","spArdeaalb",
"Western Cattle Egret","spArdeaibi",
"Grey Heron","spArdeacin",
"Purple Heron","spArdeapur",
"Great White Pelican","spPelec1ono","rarity"
"Osprey","spPandihal",
"Black-winged Kite","spElanucae",
"Egyptian Vulture","spNeophper",
"European Honey Buzzard","spPerniapi",
"Lappet-faced Vulture","spTorgotra","rarity"
"Griffon Vulture","spGypsful","rarity"
"Short-toed Snake Eagle","spCircagal",
"Lesser Spotted Eagle","spClang1pom","rarity"
"Greater Spotted Eagle","spClang1cla","rarity"
"Booted Eagle","spHierapen",
"Eastern Imperial Eagle","spAquilhel","rarity"
"Golden Eagle","spAquilchr",
"Bonelli's Eagle","spAquilfas",
"Eurasian Sparrowhawk","spAccipnis",
"Eurasian Goshawk","spAsturgen","rarity"
"Pallid Harrier","spCircumac",
"Hen Harrier","spCircucya",
"Montagu's Harrier","spCircupyg",
"Western Marsh Harrier","spCircuaer",
"Red Kite","spMilvumil","rarity"
"Black Kite","spMilvumig",
"Rough-legged Buzzard","spButeo1lag","rarity"
"Common Buzzard","spButeo1but",
"Long-legged Buzzard","spButeo1ruf1",
"Western Barn Owl","spTytoalb",
"Little Owl","spAthennoc",
"Eurasian Scops Owl","spOtussco",
"Short-eared Owl","spAsiofla",
"Eurasian Eagle-Owl","spBubobub",
"Pharaoh Eagle-Owl","spBuboasc",
"Eurasian Hoopoe","spUpupaepo",
"Abyssinian Roller","spCoracaby","rarity"
"European Roller","spCoracgar",
"Common Kingfisher","spAlcedatt",
"Blue-cheeked Bee-eater","spMerop1per",
"European Bee-eater","spMerop1api",
"Eurasian Wryneck","spJynxtor",
"Lesser Kestrel","spFalconau",
"Common Kestrel","spFalcotin",
"Red-footed Falcon","spFalcoves",
"Eleonora's Falcon","spFalcoele",
"Sooty Falcon","spFalcocon",
"Merlin","spFalcocol",
"Eurasian Hobby","spFalcosub",
"Lanner Falcon","spFalcobia",
"Saker Falcon","spFalcoche",
"Peregrine Falcon","spFalcoper",
"Rose-ringed Parakeet","spPsitt4kra",
"Eurasian Golden Oriole","spOriol1ori",
"Great Grey Shrike","spLaniuexc1",
"Masked Shrike","spLaniunub","rarity"
"Lesser Grey Shrike","spLaniumin",
"Woodchat Shrike","spLaniusen",
"Red-backed Shrike","spLaniucol2",
"Carrion Crow","spCorvucor","rarity"
"Pied Crow","spCorvualb","rarity"
"Brown-necked Raven","spCorvuruf",
"Northern Raven","spCorvucor3",
"Fan-tailed Raven","spCorvurhi","rarity"
"African Blue Tit","spCyaniten",
"Greater Hoopoe-Lark","spAlaemala",
"Thick-billed Lark","spRamph4clo",
"Desert Lark","spAmmom1des",
"Bar-tailed Lark","spAmmom1cin",
"Woodlark","spLulluarb",
"Eurasian Skylark","spAlaudarv",
"Thekla's Lark","spGalerthe",
"Crested Lark","spGalercri",
"Temminck's Lark","spEremo1bil",
"Greater Short-toed Lark","spCalanbra",
"Calandra Lark","spMelan9cal",
"Dupont's Lark","spChers1dup",
"Mediterranean Short-toed Lark","spAlaud1ruf",
"Sand Martin","spRiparrip",
"Eurasian Crag Martin","spPtyonrup",
"Pale Crag Martin","spPtyonobs",
"Barn Swallow","spHirun2rus",
"Western House Martin","spDelicurb",
"European Red-rumped Swallow","spCecroruf",
"Streaked Scrub Warbler","spScoto1inq",
"Wood Warbler","spPhyll5sib",
"Western Bonelli's Warbler","spPhyll5bon",
"Eastern Bonelli's Warbler","spPhyll5ori",
"Yellow-browed Warbler","spPhyll5ino","rarity"
"Willow Warbler","spPhyll5tro",
"Common Chiffchaff","spPhyll5col",
"Great Reed Warbler","spAcroc1aru",
"Moustached Warbler","spAcroc1mel","rarity"
"Aquatic Warbler","spAcroc1pal","rarity"
"Sedge Warbler","spAcroc1sch",
"Common Reed Warbler","spAcroc1sci",
"Eastern Olivaceous Warbler","spIdunapal",
"Olive-tree Warbler","spHippooli",
"Melodious Warbler","spHippopol","rarity"
"Icterine Warbler","spHippoict",
"Savi's Warbler","spLocuslus",
"Common Grasshopper Warbler","spLocusnae",
"Zitting Cisticola","spCistijun",
"Eurasian Blackcap","spSylvi3atr",
"Garden Warbler","spSylvi3bor",
"Lesser Whitethroat","spCurrucur",
"Western Orphean Warbler","spCurruhor",
"African Desert Warbler","spCurrudes",
"Asian Desert Warbler","spCurrunan",
"Tristram's Warbler","spCurrudes1",
"Rüppell's Warbler","spCurrurup",
"Sardinian Warbler","spCurrumel1",
"Eastern Subalpine Warbler","spCurrucan",
"Common Whitethroat","spCurrucom",
"Spectacled Warbler","spCurrucon",
"Marmora's Warbler","spCurrusar",
"Dartford Warbler","spCurruund","rarity"
"Fulvous Babbler","spArgyaful",
"Common Firecrest","spRegulign",
"Eurasian Wren","spTrogltro",
"Rosy Starling","spPastoros","rarity"
"Common Starling","spSturn2vul",
"Spotless Starling","spSturn2uni","rarity"
"Song Thrush","spTurduphi",
"Mistle Thrush","spTurduvis",
"Redwing","spTurduili","rarity"
"Common Blackbird","spTurdumer",
"Fieldfare","spTurdupil",
"Ring Ouzel","spTurdutor",
"Rufous-tailed Scrub Robin","spCerco3gal",
"Spotted Flycatcher","spMusci3str",
"European Robin","spErithrub",
"Thrush Nightingale","spLuscilus","rarity"
"Common Nightingale","spLuscimeg",
"Bluethroat","spLuscisve",
"Red-breasted Flycatcher","spFicedpar",
"Semicollared Flycatcher","spFicedsem","rarity"
"European Pied Flycatcher","spFicedhyp1",
"Collared Flycatcher","spFicedalb1",
"Black Redstart","spPhoen5och",
"Common Redstart","spPhoen5pho",
"Moussier's Redstart","spPhoen5mou",
"Common Rock Thrush","spMontisax",
"Blue Rock Thrush","spMontisol",
"Whinchat","spSaxicrub",
"European Stonechat","spSaxicrub1",
"Northern Wheatear","spOenanoen",
"Isabelline Wheatear","spOenanisa",
"Desert Wheatear","spOenandes",
"Western Black-eared Wheatear","spOenanhis",
"Pied Wheatear","spOenanple","rarity"
"Red-rumped Wheatear","spOenanmoe",
"Maghreb Wheatear","spOenanhal",
"White-crowned Wheatear","spOenanleu",
"Black Wheatear","spOenanleu1",
"Rock Sparrow","spPetro3pet",
"Spanish Sparrow","spPassehis",
"House Sparrow","spPassedom",
"Desert Sparrow","spPassesim",
"Dunnock","spPrunemod",
"Western Yellow Wagtail","spMotacfla",
"Grey Wagtail","spMotaccin",
"White Wagtail","spMotacalb",
"Tawny Pipit","spAnthucam",
"Meadow Pipit","spAnthupra",
"Tree Pipit","spAnthutri",
"Red-throated Pipit","spAnthucer",
"Water Pipit","spAnthuspi",
"Eurasian Chaffinch","spFringcoe",
"African Chaffinch","spFringspo",
"Hawfinch","spCocco1coc",
"Trumpeter Finch","spBucangit",
"European Greenfinch","spChlor10chl",
"Common Linnet","spLinarcan",
"European Goldfinch","spCarducar",
"European Serin","spSerinser",
"Eurasian Siskin","spSpinuspi",
"Corn Bunting","spEmbercal",
"Ortolan Bunting","spEmberhor",
"Cretzschmar's Bunting","spEmbercae","rarity"
"House Bunting","spEmbersah",
"Black-headed Bunting","spEmbermel","rarity"
"Common Reed Bunting","spEmbersch",
