"Name","ID","Status"
"Brant Goose","spBrantber","rarity"
"Cackling Goose","spBranthut","rarity"
"Snow Goose","spAnser1cae","rarity"
"Garganey","spSpatuque","rarity"
"Northern Shoveler","spSpatucly",
"Eurasian Wigeon","spMarecpen","rarity"
"Mallard","spAnaspla","introduced"
"Northern Pintail","spAnasacu",
"Eurasian Teal","spAnascre",
"Green-winged Teal","spAnascar","rarity"
"Canvasback","spAythyval","rarity"
"Tufted Duck","spAythyful","rarity"
"Red Junglefowl","spGallugal","introduced"
"Pacific Swift","spApuspac",
"Long-tailed Koel","spUrodytai",
"Rock Dove","spColumliv","introduced"
"Crimson-crowned Fruit Dove","spPtilipor1","extinct"
"Micronesian Imperial Pigeon","spDuculoce",
"White-browed Crake","spPoliocin","rarity"
"Black-winged Stilt","spHiman1him","rarity"
"Grey Plover","spPluvi1squ",
"Pacific Golden Plover","spPluvi1ful",
"Common Ringed Plover","spCharahia","rarity"
"Semipalmated Plover","spCharasem","rarity"
"Siberian Sand Plover","spAnarhmon",
"Greater Sand Plover","spAnarhles","rarity"
"Bristle-thighed Curlew","spNumentah",
"Eurasian Whimbrel","spNumenpha",
"Hudsonian Whimbrel","spNumenhud","rarity"
"Little Curlew","spNumenmin","rarity"
"Bar-tailed Godwit","spLimoslap",
"Black-tailed Godwit","spLimoslim",
"Hudsonian Godwit","spLimoshae","rarity"
"Long-billed Dowitcher","spLimnosco","rarity"
"Latham's Snipe","spGalli5har","rarity"
"Common Snipe","spGalli5gal","rarity"
"Spotted Sandpiper","spActitmac","rarity"
"Grey-tailed Tattler","spTringbre",
"Wandering Tattler","spTringinc",
"Marsh Sandpiper","spTringsta","rarity"
"Wood Sandpiper","spTringgla",
"Lesser Yellowlegs","spTringfla","rarity"
"Common Greenshank","spTringneb","rarity"
"Greater Yellowlegs","spTringmel","rarity"
"Ruddy Turnstone","spArenaint",
"Red Knot","spCalidcan","rarity"
"Ruff","spCalidpug",
"Sharp-tailed Sandpiper","spCalidacu",
"Curlew Sandpiper","spCalidfer","rarity"
"Red-necked Stint","spCalidruf","rarity"
"Buff-breasted Sandpiper","spCalidsub1","rarity"
"Sanderling","spCalidalb",
"Dunlin","spCalidalp","rarity"
"Little Stint","spCalidmin","rarity"
"Pectoral Sandpiper","spCalidmel",
"Oriental Pratincole","spGlaremal","rarity"
"White Tern","spGygisalb",
"Brown Noddy","spAnoussto",
"Lesser Noddy","spAnousten",
"Black Noddy","spAnousmin",
"Blue Noddy","spAnouscer",
"Sooty Tern","spOnychfus",
"Bridled Tern","spOnychana",
"Spectacled Tern","spOnychlun",
"Little Tern","spStern1alb",
"Gull-billed Tern","spGelocnil","rarity"
"White-winged Tern","spChlidleu","rarity"
"Common Tern","spStern2hir1",
"Black-naped Tern","spStern2sum",
"Greater Crested Tern","spThala1ber",
"Laughing Gull","spLeuco3atr","rarity"
"Franklin's Gull","spLeuco3pip","rarity"
"Ring-billed Gull","spLarusdel","rarity"
"Pomarine Jaeger","spStercpom",
"Red-tailed Tropicbird","spPhaet2rub",
"White-tailed Tropicbird","spPhaet2lep",
"Wilson's Storm Petrel","spOceanoce",
"Laysan Albatross","spPhoebimm",
"Black-browed Albatross","spThala2mel",
"Leach's Storm Petrel","spHydro5leu",
"Band-rumped Storm Petrel","spHydro5cas",
"Kermadec Petrel","spPtero3neg",
"Mottled Petrel","spPtero3ine",
"White-necked Petrel","spPtero3cer",
"Black-winged Petrel","spPtero3nig",
"Bonin Petrel","spPtero3hyp",
"Stejneger's Petrel","spPtero3lon",
"Wedge-tailed Shearwater","spArdenpac",
"Buller's Shearwater","spArdenbul",
"Sooty Shearwater","spArdengri",
"Short-tailed Shearwater","spArdenten",
"Flesh-footed Shearwater","spArdencar",
"Christmas Shearwater","spPuffinat",
"Bulwer's Petrel","spBulwebul",
"Lesser Frigatebird","spFregaari",
"Great Frigatebird","spFregamin",
"Red-footed Booby","spSulasul",
"Brown Booby","spSulaleu",
"Masked Booby","spSuladac",
"Pacific Reef Heron","spEgretsac",
"Eastern Cattle Egret","spArdeacor",
"Short-eared Owl","spAsiofla",
"Sacred Kingfisher","spTodirsan","rarity"
"Red-vented Bulbul","spPycno2caf","introduced"
"Barn Swallow","spHirun2rus",
"Eurasian Tree Sparrow","spPassemon","introduced"
