"Name","ID","Status"
"West Indian Whistling Duck","spDendrarb","rarity"
"Muscovy Duck","spCairimos","escaped"
"Blue-winged Teal","spSpatudis",
"Northern Pintail","spAnasacu","rarity"
"Green-winged Teal","spAnascar","rarity"
"Red Junglefowl","spGallugal","escaped"
"Common Nighthawk","spChordmin",
"Antillean Nighthawk","spChordgun",
"American Black Swift","spCypsenig",
"Green-throated Carib","spEulamhol",
"Purple-throated Carib","spEulamjug",
"Antillean Crested Hummingbird","spOrthocri",
"Smooth-billed Ani","spCrotoani",
"Yellow-billed Cuckoo","spCoccy1ame",
"Mangrove Cuckoo","spCoccy1min",
"Rock Dove","spColumliv","introduced"
"White-crowned Pigeon","spPatag1leu","rarity"
"Scaly-naped Pigeon","spPatag1squ",
"Eurasian Collared Dove","spStrep1dec","rarity-from-introduced"
"Common Ground Dove","spColum1pas",
"Bridled Quail-Dove","spGeotrmys",
"Zenaida Dove","spZenaiaur1",
"White-winged Dove","spZenaiasi",
"Sora","spPorzacar",
"Common Gallinule","spGalli3gal",
"American Coot","spFulicame",
"Purple Gallinule","spPorph1mar",
"Pied-billed Grebe","spPodilpod",
"American Oystercatcher","spHaema1pal","rarity"
"Black-necked Stilt","spHiman1mex",
"Grey Plover","spPluvi1squ",
"American Golden Plover","spPluvi1dom",
"Killdeer","spCharavoc",
"Semipalmated Plover","spCharasem",
"Wilson's Plover","spAnarhwil",
"Upland Sandpiper","spBartrlon",
"Hudsonian Whimbrel","spNumenhud",
"Hudsonian Godwit","spLimoshae","rarity"
"Short-billed Dowitcher","spLimnogri",
"Wilson's Snipe","spGalli5del","rarity"
"Spotted Sandpiper","spActitmac",
"Solitary Sandpiper","spTringsol",
"Lesser Yellowlegs","spTringfla",
"Willet","spTringsem",
"Greater Yellowlegs","spTringmel",
"Ruddy Turnstone","spArenaint",
"Red Knot","spCalidcan",
"Ruff","spCalidpug","rarity"
"Stilt Sandpiper","spCalidhim","rarity"
"Sanderling","spCalidalb",
"Least Sandpiper","spCalidmin1",
"White-rumped Sandpiper","spCalidfus",
"Pectoral Sandpiper","spCalidmel",
"Semipalmated Sandpiper","spCalidpus",
"Brown Noddy","spAnoussto",
"Sooty Tern","spOnychfus","rarity"
"Bridled Tern","spOnychana",
"Least Tern","spStern1ant","rarity"
"Forster's Tern","spStern2for","rarity"
"Common Tern","spStern2hir1",
"Roseate Tern","spStern2dou","rarity"
"Cabot's Tern","spThala1acu","rarity"
"Royal Tern","spThala1max",
"Laughing Gull","spLeuco3atr",
"Red-billed Tropicbird","spPhaet2aet",
"White-tailed Tropicbird","spPhaet2lep",
"Sargasso Shearwater","spPuffilhe","rarity"
"Magnificent Frigatebird","spFregamag",
"Red-footed Booby","spSulasul","rarity"
"Brown Booby","spSulaleu",
"Masked Booby","spSuladac","rarity"
"Glossy Ibis","spPlegafal",
"American Bittern","spBotaulen","rarity"
"Yellow-crowned Night Heron","spNyctavio",
"Black-crowned Night Heron","spNycti6nyc","rarity"
"Little Blue Heron","spEgretcae",
"Tricolored Heron","spEgrettri","rarity"
"Reddish Egret","spEgretruf","rarity"
"Snowy Egret","spEgretthu",
"Green Heron","spButorvir",
"Great Egret","spArdeaalb",
"Western Cattle Egret","spArdeaibi",
"Grey Heron","spArdeacin","rarity"
"Great Blue Heron","spArdeaher","rarity"
"Brown Pelican","spPelec1occ",
"Osprey","spPandihal","rarity"
"Red-tailed Hawk","spButeo1jam",
"Ringed Kingfisher","spMegac1tor","rarity"
"Belted Kingfisher","spMegac1alc",
"American Kestrel","spFalcospa",
"Merlin","spFalcocol","rarity"
"Peregrine Falcon","spFalcoper",
"Caribbean Elaenia","spElaenmar",
"Grey Kingbird","spTyran3dom",
"Black-whiskered Vireo","spVireo1alt",
"Yellow-throated Vireo","spVireo1fla1","rarity"
"Sand Martin","spRiparrip","rarity"
"Caribbean Martin","spProgndom",
"Barn Swallow","spHirun2rus",
"Scaly-breasted Thrasher","spAllenfus",
"Pearly-eyed Thrasher","spMarga3fus",
"Brown Trembler","spCincl3ruf",
"Forest Thrush","spTurdulhe",
"House Sparrow","spPassedom","introduced"
"Lesser Antillean Euphonia","spChlor11fla","rarity"
"Bobolink","spDolicory","rarity"
"Montserrat Oriole","spIcter1obe","endemic"
"Carib Grackle","spQuisclug",
"Ovenbird","spSeiuraur",
"Louisiana Waterthrush","spParkemot",
"Northern Waterthrush","spParkenov",
"Black-and-white Warbler","spMniotvar",
"Prothonotary Warbler","spProtocit","rarity"
"Common Yellowthroat","spGeothtri","rarity"
"Hooded Warbler","spSetop1cit","rarity"
"American Redstart","spSetop1rut",
"Cape May Warbler","spSetop1tig",
"Northern Parula","spSetop1ame",
"American Yellow Warbler","spSetop1aes",
"Mangrove Warbler","spSetop1pet",
"Chestnut-sided Warbler","spSetop1pen","rarity"
"Yellow-throated Warbler","spSetop1dom","rarity"
"Prairie Warbler","spSetop1dis",
"Scarlet Tanager","spPiranoli","rarity"
"Indigo Bunting","spPasse3cya","rarity"
"Bananaquit","spCoerefla",
"Lesser Antillean Bullfinch","spLoxignoc",
"Black-faced Grassquit","spMelan13bic",
