"Name","ID","Status"
"Brant Goose","spBrantber",
"Red-breasted Goose","spBrantruf","rarity"
"Canada Goose","spBrantcan","rarity-from-introduced"
"Barnacle Goose","spBrantleu",
"Cackling Goose","spBranthut","rarity"
"Bar-headed Goose","spAnser1ind","introduced"
"Ross's Goose","spAnser1ros","rarity"
"Snow Goose","spAnser1cae","rarity"
"Greylag Goose","spAnser1ans",
"Taiga Bean Goose","spAnser1fab",
"Pink-footed Goose","spAnser1bra",
"Tundra Bean Goose","spAnser1ser",
"Greater White-fronted Goose","spAnser1alb",
"Lesser White-fronted Goose","spAnser1ery",
"Mute Swan","spCygnuolo",
"Tundra Swan","spCygnucol",
"Whooper Swan","spCygnucyg",
"Egyptian Goose","spAlopoaeg","introduced"
"Common Shelduck","spTadortad",
"Ruddy Shelduck","spTadorfer","rarity"
"Mandarin Duck","spAixgal","introduced"
"Baikal Teal","spSibirfor","rarity"
"Garganey","spSpatuque",
"Blue-winged Teal","spSpatudis","rarity"
"Northern Shoveler","spSpatucly",
"Gadwall","spMarecstr",
"Eurasian Wigeon","spMarecpen",
"American Wigeon","spMarecame","rarity"
"Mallard","spAnaspla",
"American Black Duck","spAnasrub","rarity"
"Northern Pintail","spAnasacu",
"Eurasian Teal","spAnascre",
"Green-winged Teal","spAnascar",
"Red-crested Pochard","spNetta1ruf","rarity"
"Common Pochard","spAythyfer",
"Ferruginous Duck","spAythynyr","rarity"
"Ring-necked Duck","spAythycol","rarity"
"Tufted Duck","spAythyful",
"Greater Scaup","spAythymar",
"Lesser Scaup","spAythyaff","rarity"
"Steller's Eider","spPolysste",
"Spectacled Eider","spSomatfis","rarity"
"King Eider","spSomatspe",
"Common Eider","spSomatmol",
"Harlequin Duck","spHistrhis","rarity"
"Surf Scoter","spMelanper","rarity"
"Velvet Scoter","spMelanfus",
"White-winged Scoter","spMelandeg","rarity"
"Stejneger's Scoter","spMelanste","rarity"
"Common Scoter","spMelannig",
"Black Scoter","spMelaname","rarity"
"Long-tailed Duck","spClanghye",
"Bufflehead","spBucepalb","rarity"
"Common Goldeneye","spBucepcla",
"Barrow's Goldeneye","spBucepisl","rarity"
"Smew","spMergealb",
"Common Merganser","spMergumer",
"Red-breasted Merganser","spMerguser",
"Ruddy Duck","spOxyurjam","rarity-from-introduced"
"Hazel Grouse","spTetra1bon",
"Willow Ptarmigan","spLagoplag",
"Rock Ptarmigan","spLagopmut",
"Western Capercaillie","spTetra2uro",
"Black Grouse","spLyrurtet",
"Grey Partridge","spPerdiper","extinct"
"Common Pheasant","spPhasicol","introduced"
"Common Quail","spCoturcot",
"Chukar Partridge","spAlect1chu","introduced"
"European Nightjar","spCaprieur",
"White-throated Needletail","spHiruncau","rarity"
"Chimney Swift","spChaetpel","rarity"
"Alpine Swift","spTachy1mel","rarity"
"Common Swift","spApusapu",
"Pallid Swift","spApuspal","rarity"
"White-rumped Swift","spApuscaf","rarity"
"Great Bustard","spOtistar","rarity"
"Little Bustard","spTetra4tet","rarity"
"Great Spotted Cuckoo","spClamagla","rarity"
"Yellow-billed Cuckoo","spCoccy1ame","rarity"
"Common Cuckoo","spCuculcan",
"Pallas's Sandgrouse","spSyrrhpar","rarity"
"Rock Dove","spColumliv","introduced"
"Stock Dove","spColumoen",
"Common Wood Pigeon","spColumpal",
"European Turtle Dove","spStrep1tur",
"Oriental Turtle Dove","spStrep1ori","rarity"
"Eurasian Collared Dove","spStrep1dec",
"Water Rail","spRalluaqu",
"Corn Crake","spCrexcre",
"Sora","spPorzacar","rarity"
"Spotted Crake","spPorzapor",
"Common Moorhen","spGalli3chl",
"Eurasian Coot","spFulicatr",
"Purple Gallinule","spPorph1mar","rarity"
"Grey-headed Swamphen","spPorph1pol","rarity"
"Little Crake","spZaporpar","rarity"
"Sandhill Crane","spAntigcan","rarity"
"Demoiselle Crane","spGrusvir","rarity"
"Common Crane","spGrusgru",
"Little Grebe","spTachy2ruf1",
"Pied-billed Grebe","spPodilpod","rarity"
"Red-necked Grebe","spPodic1gri",
"Great Crested Grebe","spPodic1cri",
"Horned Grebe","spPodic1aur",
"Black-necked Grebe","spPodic1nig","rarity"
"Eurasian Stone-curlew","spBurhioed","rarity"
"Eurasian Oystercatcher","spHaema1ost",
"Black-winged Stilt","spHiman1him","rarity"
"Pied Avocet","spRecuravo",
"Grey Plover","spPluvi1squ",
"European Golden Plover","spPluvi1apr",
"Pacific Golden Plover","spPluvi1ful","rarity"
"American Golden Plover","spPluvi1dom","rarity"
"Eurasian Dotterel","spEudro1mor",
"Killdeer","spCharavoc","rarity"
"Common Ringed Plover","spCharahia",
"Semipalmated Plover","spCharasem","rarity"
"Little Ringed Plover","spCharadub",
"Northern Lapwing","spVanelvan",
"Grey-headed Lapwing","spVanelcin","rarity"
"White-tailed Lapwing","spVanelleu","rarity"
"Caspian Plover","spAnarhasi","rarity"
"Oriental Plover","spAnarhver","rarity"
"Tibetan Sand Plover","spAnarhatr","rarity"
"Siberian Sand Plover","spAnarhmon","rarity"
"Greater Sand Plover","spAnarhles","rarity"
"Kittlitz's Plover","spAnarhpec","rarity"
"Kentish Plover","spAnarhale","rarity"
"Upland Sandpiper","spBartrlon","rarity"
"Eurasian Whimbrel","spNumenpha",
"Hudsonian Whimbrel","spNumenhud","rarity"
"Little Curlew","spNumenmin","rarity"
"Eurasian Curlew","spNumenarq",
"Bar-tailed Godwit","spLimoslap",
"Black-tailed Godwit","spLimoslim",
"Hudsonian Godwit","spLimoshae","rarity"
"Long-billed Dowitcher","spLimnosco","rarity"
"Short-billed Dowitcher","spLimnogri","rarity"
"Jack Snipe","spLymnomin",
"Eurasian Woodcock","spScolorus",
"Great Snipe","spGalli5med",
"Common Snipe","spGalli5gal",
"Wilson's Phalarope","spPhala1tri","rarity"
"Red Phalarope","spPhala1ful",
"Red-necked Phalarope","spPhala1lob",
"Terek Sandpiper","spXenuscin","rarity"
"Common Sandpiper","spActithyp",
"Spotted Sandpiper","spActitmac","rarity"
"Green Sandpiper","spTringoch",
"Solitary Sandpiper","spTringsol","rarity"
"Marsh Sandpiper","spTringsta",
"Wood Sandpiper","spTringgla",
"Common Redshank","spTringtot",
"Lesser Yellowlegs","spTringfla","rarity"
"Willet","spTringsem","rarity"
"Spotted Redshank","spTringery",
"Common Greenshank","spTringneb",
"Greater Yellowlegs","spTringmel","rarity"
"Ruddy Turnstone","spArenaint",
"Great Knot","spCalidten","rarity"
"Red Knot","spCalidcan",
"Ruff","spCalidpug",
"Broad-billed Sandpiper","spCalidfal",
"Sharp-tailed Sandpiper","spCalidacu","rarity"
"Stilt Sandpiper","spCalidhim","rarity"
"Curlew Sandpiper","spCalidfer",
"Temminck's Stint","spCalidtem",
"Long-toed Stint","spCalidsub","rarity"
"Red-necked Stint","spCalidruf","rarity"
"Buff-breasted Sandpiper","spCalidsub1","rarity"
"Sanderling","spCalidalb",
"Dunlin","spCalidalp",
"Purple Sandpiper","spCalidmar",
"Baird's Sandpiper","spCalidbai","rarity"
"Little Stint","spCalidmin",
"White-rumped Sandpiper","spCalidfus","rarity"
"Pectoral Sandpiper","spCalidmel",
"Western Sandpiper","spCalidmau","rarity"
"Semipalmated Sandpiper","spCalidpus","rarity"
"Cream-colored Courser","spCursocur","rarity"
"Oriental Pratincole","spGlaremal","rarity"
"Black-winged Pratincole","spGlarenor","rarity"
"Collared Pratincole","spGlarepra","rarity"
"Bridled Tern","spOnychana","rarity"
"Little Tern","spStern1alb",
"Gull-billed Tern","spGelocnil","rarity"
"Caspian Tern","spHydro3cas",
"Whiskered Tern","spChlidhyb","rarity"
"Black Tern","spChlidnig",
"White-winged Tern","spChlidleu","rarity"
"Arctic Tern","spStern2par",
"Common Tern","spStern2hir1",
"Roseate Tern","spStern2dou","rarity"
"Sandwich Tern","spThala1san",
"Royal Tern","spThala1max","rarity"
"Little Gull","spHydro4min",
"Ross's Gull","spRhodo2ros","rarity"
"Black-legged Kittiwake","spRissatri",
"Ivory Gull","spPagopebu","rarity"
"Sabine's Gull","spXemasab",
"Bonaparte's Gull","spChroiphi","rarity"
"Black-headed Gull","spChroirid",
"Laughing Gull","spLeuco3atr","rarity"
"Franklin's Gull","spLeuco3pip","rarity"
"Pallas's Gull","spIchthich","rarity"
"Mediterranean Gull","spIchthmel","rarity"
"Common Gull","spLaruscan",
"Ring-billed Gull","spLarusdel","rarity"
"Caspian Gull","spLaruscac","rarity"
"European Herring Gull","spLarusarg",
"Yellow-legged Gull","spLarusmic","rarity"
"Great Black-backed Gull","spLarusmar",
"Glaucous Gull","spLarushyp",
"Lesser Black-backed Gull","spLarusfus",
"American Herring Gull","spLarussmi","rarity"
"Glaucous-winged Gull","spLarusgla","rarity"
"Iceland Gull","spLarusgla1",
"Long-tailed Jaeger","spSterclon",
"Parasitic Jaeger","spStercpar",
"Pomarine Jaeger","spStercpom",
"Great Skua","spStercsku",
"Tufted Puffin","spFratecir","rarity"
"Atlantic Puffin","spFratearc",
"Horned Puffin","spFratecor","rarity"
"Black Guillemot","spCepphgry",
"Razorbill","spAlcator",
"Little Auk","spAlleall",
"Thick-billed Murre","spUrialom",
"Common Murre","spUriaaal",
"Red-throated Loon","spGaviaste",
"Black-throated Loon","spGaviaarc",
"Pacific Loon","spGaviapac","rarity"
"Common Loon","spGaviaimm",
"Yellow-billed Loon","spGaviaada",
"Wilson's Storm Petrel","spOceanoce","rarity"
"Atlantic Yellow-nosed Albatross","spThala2chl","rarity"
"Black-browed Albatross","spThala2mel","rarity"
"European Storm Petrel","spHydro5pel",
"Swinhoe's Storm Petrel","spHydro5mon","rarity"
"Leach's Storm Petrel","spHydro5leu",
"Northern Fulmar","spFulmagla",
"Pintado Petrel","spDapticap","rarity"
"Soft-plumaged Petrel","spPtero3mol","rarity"
"Scopoli's Shearwater","spCalondio","rarity"
"Sooty Shearwater","spArdengri",
"Great Shearwater","spArdengra","rarity"
"Manx Shearwater","spPuffipuf",
"Balearic Shearwater","spPuffimau","rarity"
"Sargasso Shearwater","spPuffilhe","rarity"
"Barolo Shearwater","spPuffibar","rarity"
"Black Stork","spCiconnig","rarity"
"White Stork","spCiconcic","rarity"
"Northern Gannet","spMorusbas",
"Great Cormorant","spPhala2car",
"European Shag","spGulosari",
"Glossy Ibis","spPlegafal","rarity"
"Eurasian Spoonbill","spPlataleu","rarity"
"Eurasian Bittern","spBotauste","rarity"
"American Bittern","spBotaulen","rarity"
"Little Bittern","spBotaumin","rarity"
"Black-crowned Night Heron","spNycti6nyc","rarity"
"Little Egret","spEgretgar","rarity"
"Squacco Heron","spArdeo1ral","rarity"
"Great Egret","spArdeaalb",
"Western Cattle Egret","spArdeaibi","rarity"
"Grey Heron","spArdeacin",
"Purple Heron","spArdeapur","rarity"
"Osprey","spPandihal",
"Egyptian Vulture","spNeophper","rarity"
"European Honey Buzzard","spPerniapi",
"Griffon Vulture","spGypsful","rarity"
"Short-toed Snake Eagle","spCircagal","rarity"
"Lesser Spotted Eagle","spClang1pom","rarity"
"Greater Spotted Eagle","spClang1cla","rarity"
"Booted Eagle","spHierapen","rarity"
"Steppe Eagle","spAquilnip","rarity"
"Eastern Imperial Eagle","spAquilhel","rarity"
"Golden Eagle","spAquilchr",
"Eurasian Sparrowhawk","spAccipnis",
"Eurasian Goshawk","spAsturgen",
"Pallid Harrier","spCircumac","rarity"
"Hen Harrier","spCircucya",
"Northern Harrier","spCircuhud","rarity"
"Montagu's Harrier","spCircupyg","rarity"
"Western Marsh Harrier","spCircuaer",
"Red Kite","spMilvumil",
"Black Kite","spMilvumig","rarity"
"Pallas's Fish Eagle","spHalia1leu","rarity"
"White-tailed Eagle","spHalia1alb",
"Rough-legged Buzzard","spButeo1lag",
"Common Buzzard","spButeo1but",
"Long-legged Buzzard","spButeo1ruf1","rarity"
"Western Barn Owl","spTytoalb","rarity"
"Boreal Owl","spAegolfun",
"Northern Hawk-Owl","spSurni1ulu",
"Eurasian Pygmy Owl","spGlauc1pas",
"Eurasian Scops Owl","spOtussco","rarity"
"Long-eared Owl","spAsiootu",
"Short-eared Owl","spAsiofla",
"Snowy Owl","spBubosca",
"Eurasian Eagle-Owl","spBubobub",
"Tawny Owl","spStrixalu",
"Ural Owl","spStrixura",
"Great Grey Owl","spStrixneb",
"Eurasian Hoopoe","spUpupaepo",
"European Roller","spCoracgar","rarity"
"Common Kingfisher","spAlcedatt",
"Blue-cheeked Bee-eater","spMerop1per","rarity"
"European Bee-eater","spMerop1api","rarity"
"Eurasian Wryneck","spJynxtor",
"Eurasian Three-toed Woodpecker","spPicoitri",
"Middle Spotted Woodpecker","spDendr3med","rarity"
"Lesser Spotted Woodpecker","spDryobmin",
"Great Spotted Woodpecker","spDendr5maj",
"White-backed Woodpecker","spDendr5leu1",
"Black Woodpecker","spDryocmar",
"European Green Woodpecker","spPicusvir1",
"Grey-headed Woodpecker","spPicuscan",
"Lesser Kestrel","spFalconau","rarity"
"Common Kestrel","spFalcotin",
"Red-footed Falcon","spFalcoves","rarity"
"Merlin","spFalcocol",
"Eurasian Hobby","spFalcosub",
"Gyrfalcon","spFalcorus",
"Peregrine Falcon","spFalcoper",
"Alder Flycatcher","spEmpidaln","rarity"
"Red-eyed Vireo","spVireo1oli","rarity"
"Eurasian Golden Oriole","spOriol1ori",
"Great Grey Shrike","spLaniuexc1",
"Northern Shrike","spLaniubor","rarity"
"Masked Shrike","spLaniunub","rarity"
"Lesser Grey Shrike","spLaniumin","rarity"
"Woodchat Shrike","spLaniusen","rarity"
"Isabelline Shrike","spLaniuisa","rarity"
"Red-backed Shrike","spLaniucol2",
"Red-tailed Shrike","spLaniupho","rarity"
"Brown Shrike","spLaniucri","rarity"
"Siberian Jay","spPeris1inf",
"Eurasian Jay","spGarrugla",
"Eurasian Magpie","spPicapic",
"Northern Nutcracker","spNucifcar",
"Western Jackdaw","spColoemon",
"Rook","spCorvufru",
"Carrion Crow","spCorvucor",
"Hooded Crow","spCorvucor1",
"Northern Raven","spCorvucor3",
"Bohemian Waxwing","spBombygar",
"Coal Tit","spPeripate",
"Crested Tit","spLopho15cri",
"Grey-headed Chickadee","spPoeci2cin",
"Marsh Tit","spPoeci2pal",
"Willow Tit","spPoeci2mon",
"Eurasian Blue Tit","spCyanicae",
"Great Tit","spParusmaj",
"Eurasian Penduline Tit","spRemizpen","rarity"
"Bearded Reedling","spPanurbia",
"Woodlark","spLulluarb",
"White-winged Lark","spAlaudleu","rarity"
"Eurasian Skylark","spAlaudarv",
"Crested Lark","spGalercri","rarity"
"Horned Lark","spEremo1alp",
"Greater Short-toed Lark","spCalanbra","rarity"
"Bimaculated Lark","spMelan9bim","rarity"
"Calandra Lark","spMelan9cal","rarity"
"Mediterranean Short-toed Lark","spAlaud1ruf","rarity"
"Sand Martin","spRiparrip",
"Eurasian Crag Martin","spPtyonrup","rarity"
"Barn Swallow","spHirun2rus",
"Western House Martin","spDelicurb",
"European Red-rumped Swallow","spCecroruf","rarity"
"Eastern Red-rumped Swallow","spCecrodau","rarity"
"Long-tailed Tit","spAegit1cau",
"Wood Warbler","spPhyll5sib",
"Western Bonelli's Warbler","spPhyll5bon","rarity"
"Eastern Bonelli's Warbler","spPhyll5ori","rarity"
"Hume's Leaf Warbler","spPhyll5hum","rarity"
"Yellow-browed Warbler","spPhyll5ino",
"Pallas's Leaf Warbler","spPhyll5pro","rarity"
"Radde's Warbler","spPhyll5sch","rarity"
"Dusky Warbler","spPhyll5fus","rarity"
"Willow Warbler","spPhyll5tro",
"Common Chiffchaff","spPhyll5col",
"Eastern Crowned Warbler","spPhyll5cor","rarity"
"Green Warbler","spPhyll5nit","rarity"
"Two-barred Warbler","spPhyll5plu","rarity"
"Greenish Warbler","spPhyll5tro1","rarity"
"Arctic Warbler","spPhyll5bor1",
"Great Reed Warbler","spAcroc1aru","rarity"
"Aquatic Warbler","spAcroc1pal","rarity"
"Sedge Warbler","spAcroc1sch",
"Paddyfield Warbler","spAcroc1agr","rarity"
"Blyth's Reed Warbler","spAcroc1dum",
"Common Reed Warbler","spAcroc1sci",
"Marsh Warbler","spAcroc1pal1",
"Thick-billed Warbler","spArund1aed","rarity"
"Booted Warbler","spIdunacal","rarity"
"Sykes's Warbler","spIdunaram","rarity"
"Eastern Olivaceous Warbler","spIdunapal","rarity"
"Melodious Warbler","spHippopol","rarity"
"Icterine Warbler","spHippoict",
"Pallas's Grasshopper Warbler","spHelopcer","rarity"
"Lanceolated Warbler","spLocuslan","rarity"
"River Warbler","spLocusflu","rarity"
"Savi's Warbler","spLocuslus","rarity"
"Common Grasshopper Warbler","spLocusnae",
"Eurasian Blackcap","spSylvi3atr",
"Garden Warbler","spSylvi3bor",
"Barred Warbler","spCurrunis",
"Lesser Whitethroat","spCurrucur",
"Eastern Orphean Warbler","spCurrucra","rarity"
"Asian Desert Warbler","spCurrunan","rarity"
"Sardinian Warbler","spCurrumel1","rarity"
"Western Subalpine Warbler","spCurruibe","rarity"
"Eastern Subalpine Warbler","spCurrucan","rarity"
"Common Whitethroat","spCurrucom",
"Common Firecrest","spRegulign","rarity"
"Goldcrest","spRegulreg",
"Eurasian Wren","spTrogltro",
"Eurasian Nuthatch","spSitta1eur",
"Eurasian Treecreeper","spCerth4fam",
"Daurian Starling","spAgropstu","rarity"
"Rosy Starling","spPastoros",
"Common Starling","spSturn2vul",
"Swainson's Thrush","spCatha1ust","rarity"
"Grey-cheeked Thrush","spCatha1min","rarity"
"Veery","spCatha1fus1","rarity"
"White's Thrush","spZoothaur","rarity"
"Siberian Thrush","spGeokisib","rarity"
"Song Thrush","spTurduphi",
"Mistle Thrush","spTurduvis",
"Redwing","spTurduili",
"Common Blackbird","spTurdumer",
"Eyebrowed Thrush","spTurduobs","rarity"
"Fieldfare","spTurdupil",
"Ring Ouzel","spTurdutor",
"Black-throated Thrush","spTurduatr","rarity"
"Dusky Thrush","spTurdueun","rarity"
"Naumann's Thrush","spTurdunau","rarity"
"American Robin","spTurdumig","rarity"
"Rufous-tailed Scrub Robin","spCerco3gal","rarity"
"Dark-sided Flycatcher","spMusci3sib","rarity"
"Spotted Flycatcher","spMusci3str",
"European Robin","spErithrub",
"White-throated Robin","spIranigut","rarity"
"Thrush Nightingale","spLuscilus",
"Common Nightingale","spLuscimeg","rarity"
"Bluethroat","spLuscisve",
"Siberian Rubythroat","spCalli2cal","rarity"
"Mugimaki Flycatcher","spFicedmug","rarity"
"Red-breasted Flycatcher","spFicedpar",
"Taiga Flycatcher","spFicedalb","rarity"
"European Pied Flycatcher","spFicedhyp1",
"Collared Flycatcher","spFicedalb1","rarity"
"Red-flanked Bluetail","spTarsicya","rarity"
"Black Redstart","spPhoen5och",
"Common Redstart","spPhoen5pho",
"Common Rock Thrush","spMontisax","rarity"
"Whinchat","spSaxicrub",
"Amur Stonechat","spSaxicste","rarity"
"Siberian Stonechat","spSaxicmau","rarity"
"European Stonechat","spSaxicrub1",
"Northern Wheatear","spOenanoen",
"Isabelline Wheatear","spOenanisa","rarity"
"Desert Wheatear","spOenandes","rarity"
"Western Black-eared Wheatear","spOenanhis","rarity"
"Pied Wheatear","spOenanple","rarity"
"Eastern Black-eared Wheatear","spOenanmel","rarity"
"White-throated Dipper","spCincl5cin",
"Eurasian Tree Sparrow","spPassemon",
"Spanish Sparrow","spPassehis","rarity"
"House Sparrow","spPassedom",
"Alpine Accentor","spPrunecol","rarity"
"Siberian Accentor","spPrunemon","rarity"
"Black-throated Accentor","spPruneatr","rarity"
"Dunnock","spPrunemod",
"Western Yellow Wagtail","spMotacfla",
"Eastern Yellow Wagtail","spMotactsc","rarity"
"Citrine Wagtail","spMotaccit",
"Grey Wagtail","spMotaccin",
"White Wagtail","spMotacalb",
"Richard's Pipit","spAnthuric",
"Blyth's Pipit","spAnthugod","rarity"
"Tawny Pipit","spAnthucam","rarity"
"Meadow Pipit","spAnthupra",
"Tree Pipit","spAnthutri",
"Olive-backed Pipit","spAnthuhod","rarity"
"Pechora Pipit","spAnthugus","rarity"
"Red-throated Pipit","spAnthucer",
"Siberian Pipit","spAnthujap","rarity"
"American Pipit","spAnthurub","rarity"
"Water Pipit","spAnthuspi","rarity"
"European Rock Pipit","spAnthupet",
"Eurasian Chaffinch","spFringcoe",
"Brambling","spFringmon",
"Evening Grosbeak","spHespe1ves","rarity"
"Hawfinch","spCocco1coc",
"Pine Grosbeak","spPinicenu",
"Eurasian Bullfinch","spPyrrh4pyr",
"Trumpeter Finch","spBucangit","rarity"
"Mongolian Finch","spBucanmon","rarity"
"Common Rosefinch","spCarpo4ery",
"European Greenfinch","spChlor10chl",
"Twite","spLinarfla",
"Common Linnet","spLinarcan",
"Redpoll","spAcant5fla",
"Parrot Crossbill","spLoxiapyt",
"Red Crossbill","spLoxiacur",
"Two-barred Crossbill","spLoxialeu",
"European Goldfinch","spCarducar",
"European Serin","spSerinser","rarity"
"Eurasian Siskin","spSpinuspi",
"Lapland Longspur","spCalcalap",
"Snow Bunting","spPlect2niv",
"Corn Bunting","spEmbercal","rarity"
"Yellowhammer","spEmbercit",
"Pine Bunting","spEmberleu","rarity"
"Grey-necked Bunting","spEmberbuc","rarity"
"Ortolan Bunting","spEmberhor",
"Cretzschmar's Bunting","spEmbercae","rarity"
"Little Bunting","spEmberpus",
"Yellow-browed Bunting","spEmberchr","rarity"
"Rustic Bunting","spEmberrus",
"Yellow-breasted Bunting","spEmberaur","rarity"
"Chestnut Bunting","spEmberrut","rarity"
"Black-headed Bunting","spEmbermel","rarity"
"Red-headed Bunting","spEmberbru","rarity"
"Black-faced Bunting","spEmberspo","rarity"
"Pallas's Reed Bunting","spEmberpal","rarity"
"Common Reed Bunting","spEmbersch",
"Dark-eyed Junco","spJuncohye","rarity"
"White-crowned Sparrow","spZonotleu","rarity"
"White-throated Sparrow","spZonotalb","rarity"
"Savannah Sparrow","spPasse2san","rarity"
"Song Sparrow","spMelosmel","rarity"
"Bobolink","spDolicory","rarity"
"Baltimore Oriole","spIcter1gal","rarity"
"Brown-headed Cowbird","spMolotate","rarity"
"Ovenbird","spSeiuraur","rarity"
"Black-and-white Warbler","spMniotvar","rarity"
"Common Yellowthroat","spGeothtri","rarity"
"Cape May Warbler","spSetop1tig","rarity"
"Blackpoll Warbler","spSetop1str","rarity"
"Myrtle Warbler","spSetop1cor","rarity"
"Rose-breasted Grosbeak","spPheuclud","rarity"
"Dickcissel","spSpiza1ame","rarity"
