"Name","ID","Status"
"Fulvous Whistling Duck","spDendrbic","rarity"
"Lesser Whistling Duck","spDendrjav",
"Bar-headed Goose","spAnser1ind",
"Greylag Goose","spAnser1ans",
"Taiga Bean Goose","spAnser1fab","rarity"
"Tundra Bean Goose","spAnser1ser","rarity"
"Greater White-fronted Goose","spAnser1alb","rarity"
"Tundra Swan","spCygnucol","rarity"
"Whooper Swan","spCygnucyg","rarity"
"Knob-billed Duck","spSarkimel",
"Common Shelduck","spTadortad",
"Ruddy Shelduck","spTadorfer",
"Mandarin Duck","spAixgal","rarity"
"Cotton Pygmy Goose","spNettacor",
"Baikal Teal","spSibirfor","rarity"
"Garganey","spSpatuque",
"Northern Shoveler","spSpatucly",
"Gadwall","spMarecstr",
"Falcated Duck","spMarecfal",
"Eurasian Wigeon","spMarecpen",
"Indian Spot-billed Duck","spAnaspoe",
"Eastern Spot-billed Duck","spAnaszon","rarity"
"Mallard","spAnaspla",
"Northern Pintail","spAnasacu",
"Eurasian Teal","spAnascre",
"Red-crested Pochard","spNetta1ruf",
"Common Pochard","spAythyfer",
"Baer's Pochard","spAythybae",
"Ferruginous Duck","spAythynyr",
"Tufted Duck","spAythyful",
"Greater Scaup","spAythymar","rarity"
"Long-tailed Duck","spClanghye","rarity"
"Common Goldeneye","spBucepcla",
"Smew","spMergealb","rarity"
"Common Merganser","spMergumer",
"Red-breasted Merganser","spMerguser","rarity"
"Hill Partridge","spArbortor",
"Rufous-throated Partridge","spArborruf1",
"Snow Partridge","spLerwaler",
"Blood Pheasant","spIthagcru",
"Satyr Tragopan","spTragosat",
"Himalayan Monal","spLopho2imp",
"Koklass Pheasant","spPucramac",
"Tibetan Partridge","spPerdihod",
"Cheer Pheasant","spCatrewal",
"Kalij Pheasant","spLophuleu",
"Indian Peafowl","spPavocri",
"Red Junglefowl","spGallugal",
"Grey Francolin","spOrtygpon",
"Swamp Francolin","spOrtyggul",
"Black Francolin","spFrancfra",
"Tibetan Snowcock","spTetra3tib",
"Himalayan Snowcock","spTetra3him",
"King Quail","spSynoichi",
"Common Quail","spCoturcot",
"Rain Quail","spCoturcor","rarity"
"Chukar Partridge","spAlect1chu",
"Jungle Bush Quail","spPerdi1asi",
"Grey Nightjar","spCaprijot",
"Large-tailed Nightjar","spCaprimac",
"Indian Nightjar","spCapriasi",
"Savanna Nightjar","spCapriaff",
"Crested Treeswift","spHemipcor",
"Himalayan Swiftlet","spAerodbre",
"White-rumped Spinetail","spZoonasyl",
"White-throated Needletail","spHiruncau",
"Silver-backed Needletail","spHiruncoc",
"Asian Palm Swift","spCypsibal",
"Alpine Swift","spTachy1mel",
"Common Swift","spApusapu",
"Pacific Swift","spApuspac",
"Blyth's Swift","spApusleu",
"Little Swift","spApusaff",
"House Swift","spApusnip",
"Bengal Florican","spHoubaben",
"Lesser Florican","spSypheind","rarity"
"Greater Coucal","spCentr1sin",
"Lesser Coucal","spCentr1ben",
"Sirkeer Malkoha","spTaccoles",
"Green-billed Malkoha","spPhaentri",
"Chestnut-winged Cuckoo","spClamacor",
"Jacobin Cuckoo","spClamajac",
"Asian Koel","spEudynsco",
"Asian Emerald Cuckoo","spChrys3mac",
"Banded Bay Cuckoo","spCacomson",
"Plaintive Cuckoo","spCacommer","rarity"
"Grey-bellied Cuckoo","spCacompas",
"Fork-tailed Drongo-Cuckoo","spSurnidic",
"Large Hawk-Cuckoo","spHierospa",
"Common Hawk-Cuckoo","spHierovar",
"Hodgson's Hawk-Cuckoo","spHieronis","rarity"
"Lesser Cuckoo","spCuculpol",
"Indian Cuckoo","spCuculmic",
"Himalayan Cuckoo","spCuculsat",
"Common Cuckoo","spCuculcan",
"Rock Dove","spColumliv",
"Hill Pigeon","spColumrup",
"Snow Pigeon","spColumleu",
"Common Wood Pigeon","spColumpal",
"Speckled Wood Pigeon","spColumhod",
"Ashy Wood Pigeon","spColumpul",
"Oriental Turtle Dove","spStrep1ori",
"Eurasian Collared Dove","spStrep1dec",
"Red Collared Dove","spStrep1tra",
"Spotted Dove","spSpilochi",
"Laughing Dove","spSpilosen",
"Barred Cuckoo-Dove","spMacro2unc",
"Common Emerald Dove","spChalc2ind",
"Orange-breasted Green Pigeon","spTrerobic",
"Ashy-headed Green Pigeon","spTreropha",
"Thick-billed Green Pigeon","spTrerocur",
"Yellow-footed Green Pigeon","spTreropho",
"Pin-tailed Green Pigeon","spTreroapi",
"Wedge-tailed Green Pigeon","spTrerosph",
"Green Imperial Pigeon","spDuculaen",
"Mountain Imperial Pigeon","spDuculbad",
"Water Rail","spRalluaqu",
"Brown-cheeked Rail","spRalluind",
"Slaty-breasted Rail","spLewinstr","rarity"
"Spotted Crake","spPorzapor","rarity"
"Common Moorhen","spGalli3chl",
"Eurasian Coot","spFulicatr",
"Grey-headed Swamphen","spPorph1pol",
"Ruddy-breasted Crake","spZaporfus",
"Black-tailed Crake","spZaporbic","rarity"
"Brown Crake","spZaporako",
"Baillon's Crake","spZaporpus",
"Slaty-legged Crake","spRalli1eur","rarity"
"Watercock","spGalli4cin",
"White-breasted Waterhen","spAmaur1pho",
"Sarus Crane","spAntigant",
"Demoiselle Crane","spGrusvir",
"Common Crane","spGrusgru",
"Black-necked Crane","spGrusnig","rarity"
"Little Grebe","spTachy2ruf1",
"Great Crested Grebe","spPodic1cri",
"Black-necked Grebe","spPodic1nig",
"Greater Flamingo","spPhoenros","rarity"
"Yellow-legged Buttonquail","spTurnitan",
"Barred Buttonquail","spTurnisus",
"Common Buttonquail","spTurnisyl",
"Great Stone-curlew","spEsacurec",
"Indian Stone-curlew","spBurhiind",
"Eurasian Oystercatcher","spHaema1ost","rarity"
"Ibisbill","spIbidostr",
"Black-winged Stilt","spHiman1him",
"Pied Avocet","spRecuravo",
"Grey Plover","spPluvi1squ","rarity"
"Pacific Golden Plover","spPluvi1ful",
"Little Ringed Plover","spCharadub",
"Long-billed Plover","spCharapla",
"Northern Lapwing","spVanelvan",
"River Lapwing","spVanelduv",
"Yellow-wattled Lapwing","spVanelmal",
"Grey-headed Lapwing","spVanelcin",
"Red-wattled Lapwing","spVanelind",
"White-tailed Lapwing","spVanelleu","rarity"
"Tibetan Sand Plover","spAnarhatr",
"Greater Sand Plover","spAnarhles","rarity"
"Kentish Plover","spAnarhale",
"Greater Painted-snipe","spRostrben",
"Pheasant-tailed Jacana","spHydro2chi",
"Bronze-winged Jacana","spMetopind",
"Eurasian Whimbrel","spNumenpha",
"Eurasian Curlew","spNumenarq",
"Black-tailed Godwit","spLimoslim",
"Jack Snipe","spLymnomin",
"Eurasian Woodcock","spScolorus",
"Solitary Snipe","spGalli5sol",
"Wood Snipe","spGalli5nem",
"Swinhoe's Snipe","spGalli5meg","rarity"
"Pin-tailed Snipe","spGalli5ste",
"Common Snipe","spGalli5gal",
"Red-necked Phalarope","spPhala1lob","rarity"
"Terek Sandpiper","spXenuscin","rarity"
"Common Sandpiper","spActithyp",
"Green Sandpiper","spTringoch",
"Marsh Sandpiper","spTringsta",
"Wood Sandpiper","spTringgla",
"Common Redshank","spTringtot",
"Spotted Redshank","spTringery",
"Common Greenshank","spTringneb",
"Ruddy Turnstone","spArenaint","rarity"
"Ruff","spCalidpug",
"Curlew Sandpiper","spCalidfer",
"Temminck's Stint","spCalidtem",
"Long-toed Stint","spCalidsub","rarity"
"Sanderling","spCalidalb","rarity"
"Dunlin","spCalidalp",
"Little Stint","spCalidmin",
"Indian Courser","spCursocor",
"Small Pratincole","spGlarelac",
"Oriental Pratincole","spGlaremal",
"Indian Skimmer","spRynchalb",
"Sooty Tern","spOnychfus","rarity"
"Little Tern","spStern1alb",
"Gull-billed Tern","spGelocnil",
"Caspian Tern","spHydro3cas",
"Whiskered Tern","spChlidhyb",
"White-winged Tern","spChlidleu",
"River Tern","spStern2aur",
"Common Tern","spStern2hir1",
"Black-bellied Tern","spStern2acu",
"Slender-billed Gull","spChroigen","rarity"
"Black-headed Gull","spChroirid",
"Brown-headed Gull","spChroibru",
"Pallas's Gull","spIchthich",
"Common Gull","spLaruscan","rarity"
"Lesser Black-backed Gull","spLarusfus","rarity"
"Red-throated Loon","spGaviaste","rarity"
"Asian Openbill","spAnastosc",
"Lesser Adjutant","spLepto2jav",
"Greater Adjutant","spLepto2dub",
"Painted Stork","spMycteleu",
"Black-necked Stork","spEphipasi",
"Asian Woolly-necked Stork","spCiconepi",
"Black Stork","spCiconnig",
"White Stork","spCiconcic",
"Oriental Darter","spAnhinmel",
"Little Cormorant","spMicro5nig",
"Great Cormorant","spPhala2car",
"Black-headed Ibis","spThresmel",
"Red-naped Ibis","spPseud1pap",
"Glossy Ibis","spPlegafal","rarity"
"Eurasian Spoonbill","spPlataleu",
"Eurasian Bittern","spBotauste",
"Black Bittern","spBotaufla",
"Cinnamon Bittern","spBotaucin",
"Little Bittern","spBotaumin",
"Yellow Bittern","spBotausin",
"Black-crowned Night Heron","spNycti6nyc",
"Malayan Night Heron","spGorsamel","rarity"
"Little Egret","spEgretgar",
"Little Heron","spButoratr",
"Indian Pond Heron","spArdeo1gra",
"Chinese Pond Heron","spArdeo1bac","rarity"
"Great Egret","spArdeaalb",
"Medium Egret","spArdeaint",
"Eastern Cattle Egret","spArdeacor",
"Grey Heron","spArdeacin",
"Purple Heron","spArdeapur",
"White-bellied Heron","spArdeains","extinct"
"Great White Pelican","spPelec1ono","rarity"
"Spot-billed Pelican","spPelec1phi",
"Osprey","spPandihal",
"Black-winged Kite","spElanucae",
"Bearded Vulture","spGypaebar",
"Egyptian Vulture","spNeophper",
"Jerdon's Baza","spAvicejer","rarity"
"Black Baza","spAviceleu",
"Crested Honey Buzzard","spPernipti",
"Red-headed Vulture","spSarco1cal",
"Cinereous Vulture","spAegypmon",
"Himalayan Vulture","spGypshim",
"White-rumped Vulture","spGypsben",
"Indian Vulture","spGypsind","rarity"
"Slender-billed Vulture","spGypsten",
"Griffon Vulture","spGypsful",
"Crested Serpent Eagle","spSpilo1che",
"Short-toed Snake Eagle","spCircagal",
"Mountain Hawk-Eagle","spNisaenip",
"Changeable Hawk-Eagle","spNisaecir",
"Rufous-bellied Eagle","spLopho8kie",
"Black Eagle","spIctinmal",
"Indian Spotted Eagle","spClang1has",
"Lesser Spotted Eagle","spClang1pom",
"Greater Spotted Eagle","spClang1cla",
"Booted Eagle","spHierapen",
"Steppe Eagle","spAquilnip",
"Tawny Eagle","spAquilrap",
"Eastern Imperial Eagle","spAquilhel",
"Golden Eagle","spAquilchr",
"Bonelli's Eagle","spAquilfas",
"Crested Goshawk","spLopho9tri",
"Besra","spTachy3vir",
"Shikra","spTachy3bad",
"Eurasian Sparrowhawk","spAccipnis",
"Eurasian Goshawk","spAsturgen",
"Pallid Harrier","spCircumac",
"Hen Harrier","spCircucya",
"Montagu's Harrier","spCircupyg",
"Pied Harrier","spCircumel",
"Western Marsh Harrier","spCircuaer",
"Red Kite","spMilvumil","rarity"
"Black Kite","spMilvumig",
"Brahminy Kite","spHaliaind",
"Pallas's Fish Eagle","spHalia1leu",
"White-tailed Eagle","spHalia1alb",
"Lesser Fish Eagle","spIcthyhum",
"Grey-headed Fish Eagle","spIcthyich",
"White-eyed Buzzard","spButastee",
"Common Buzzard","spButeo1but",
"Long-legged Buzzard","spButeo1ruf1",
"Upland Buzzard","spButeo1hem",
"Himalayan Buzzard","spButeo1ref",
"Eastern Barn Owl","spTytojav",
"Eastern Grass Owl","spTytolon",
"Brown Boobook","spNinoxscu",
"Collared Owlet","spTaenibro",
"Little Owl","spAthennoc",
"Spotted Owlet","spAthenbra",
"Asian Barred Owlet","spGlauc1cuc",
"Jungle Owlet","spGlauc1rad",
"Mountain Scops Owl","spOtusspi",
"Oriental Scops Owl","spOtussun",
"Indian Scops Owl","spOtusbak",
"Collared Scops Owl","spOtuslet",
"Long-eared Owl","spAsiootu","rarity"
"Short-eared Owl","spAsiofla",
"Eurasian Eagle-Owl","spBubobub",
"Indian Eagle-Owl","spBuboben",
"Brown Fish Owl","spKetupzey",
"Tawny Fish Owl","spKetupfla",
"Spot-bellied Eagle-Owl","spKetupnip",
"Dusky Eagle-Owl","spKetupcor",
"Mottled Wood Owl","spStrixoce",
"Brown Wood Owl","spStrixlep",
"Himalayan Owl","spStrixniv",
"Red-headed Trogon","spHarpa1ery",
"Eurasian Hoopoe","spUpupaepo",
"Great Hornbill","spBucerbic",
"Oriental Pied Hornbill","spAnthr1alb",
"Indian Grey Hornbill","spOcycebir",
"Rufous-necked Hornbill","spAceronip","extinct"
"Indian Roller","spCoracben",
"Indochinese Roller","spCoracaff",
"Oriental Dollarbird","spEurysori",
"Stork-billed Kingfisher","spPelarcap",
"Ruddy Kingfisher","spHalcycor",
"White-throated Kingfisher","spHalcysmy",
"Black-capped Kingfisher","spHalcypil",
"Blue-eared Kingfisher","spAlcedmen",
"Common Kingfisher","spAlcedatt",
"Blyth's Kingfisher","spAlcedher",
"Crested Kingfisher","spMegac1lug",
"Pied Kingfisher","spCerylrud",
"Blue-bearded Bee-eater","spNyctyath",
"Asian Green Bee-eater","spMerop1ori",
"Blue-tailed Bee-eater","spMerop1phi",
"Chestnut-headed Bee-eater","spMerop1les",
"Great Barbet","spPsilo1vir",
"Brown-headed Barbet","spPsilo1zey",
"Lineated Barbet","spPsilo1lin",
"Golden-throated Barbet","spPsilo1fra",
"Blue-throated Barbet","spPsilo1asi",
"Blue-eared Barbet","spPsilo1cya",
"Coppersmith Barbet","spPsilo1hae",
"Yellow-rumped Honeyguide","spIndicxan",
"Eurasian Wryneck","spJynxtor",
"Speckled Piculet","spPicuminn",
"White-browed Piculet","spSasiaoch",
"Brown-capped Pygmy Woodpecker","spYunginan",
"Grey-capped Pygmy Woodpecker","spYungican",
"Brown-fronted Woodpecker","spDendr3aur",
"Yellow-crowned Woodpecker","spLeiopmah",
"Crimson-naped Woodpecker","spDryobcat",
"Rufous-bellied Woodpecker","spDendr5hyp",
"Fulvous-breasted Woodpecker","spDendr5mac",
"Darjeeling Woodpecker","spDendr5dar",
"Himalayan Woodpecker","spDendr5him",
"Greater Yellownape","spChrys4fla",
"Lesser Yellownape","spPicuschl",
"Streak-throated Woodpecker","spPicusxan",
"Scaly-bellied Woodpecker","spPicussqu",
"Grey-headed Woodpecker","spPicuscan",
"Himalayan Flameback","spDinopsho",
"Black-rumped Flameback","spDinopben",
"Greater Flameback","spChrys5gut",
"White-naped Woodpecker","spChrys5fes",
"Pale-headed Woodpecker","spGecingra",
"Bay Woodpecker","spBlythpyr",
"Rufous Woodpecker","spMicro9bra",
"Great Slaty Woodpecker","spMullepul",
"Collared Falconet","spMicro10cae",
"Lesser Kestrel","spFalconau",
"Common Kestrel","spFalcotin",
"Red-necked Falcon","spFalcochi",
"Amur Falcon","spFalcoamu",
"Merlin","spFalcocol",
"Eurasian Hobby","spFalcosub",
"Oriental Hobby","spFalcosev",
"Laggar Falcon","spFalcojug",
"Saker Falcon","spFalcoche",
"Peregrine Falcon","spFalcoper",
"Slaty-headed Parakeet","spPsitt4him",
"Blossom-headed Parakeet","spPsitt4ros",
"Plum-headed Parakeet","spPsitt4cya",
"Red-breasted Parakeet","spPsitt4ale",
"Alexandrine Parakeet","spPsitt4eup",
"Rose-ringed Parakeet","spPsitt4kra",
"Vernal Hanging Parrot","spLoricver","rarity"
"Long-tailed Broadbill","spPsaridal",
"Grey-lored Broadbill","spSerilrub",
"Blue-naped Pitta","spHydro6nip",
"Indian Pitta","spPittabra",
"Western Hooded Pitta","spPittasor",
"Bar-winged Flycatcher-shrike","spHemip2pic",
"Large Woodshrike","spTephrvir",
"Common Woodshrike","spTephrpon",
"Ashy Woodswallow","spArtam1fus",
"Common Iora","spAegittip",
"White-bellied Minivet","spPericery","rarity"
"Small Minivet","spPericcin",
"Grey-chinned Minivet","spPericsol",
"Short-billed Minivet","spPericbre",
"Long-tailed Minivet","spPericeth",
"Scarlet Minivet","spPericspe",
"Ashy Minivet","spPericdiv","rarity"
"Swinhoe's Minivet","spPericcan","rarity"
"Rosy Minivet","spPericros",
"Oriental Cuckooshrike","spCorac2jav",
"Black-winged Cuckooshrike","spLalagmel1",
"Black-headed Cuckooshrike","spLalagmel2",
"Green Shrike-babbler","spPteruxan",
"Black-eared Shrike-babbler","spPterumel",
"Black-headed Shrike-babbler","spPteruruf",
"White-browed Shrike-babbler","spPteruaer",
"White-bellied Erpornis","spErporzan",
"Maroon Oriole","spOriol1tra",
"Black-hooded Oriole","spOriol1xan",
"Indian Golden Oriole","spOriol1kun",
"Black-naped Oriole","spOriol1chi",
"Slender-billed Oriole","spOriol1ten",
"Bronzed Drongo","spDicruaen",
"Lesser Racket-tailed Drongo","spDicrurem",
"Crow-billed Drongo","spDicruann",
"Greater Racket-tailed Drongo","spDicrupar",
"Hair-crested Drongo","spDicruhot",
"Ashy Drongo","spDicruleu",
"White-bellied Drongo","spDicrucae",
"Black Drongo","spDicrumac",
"White-throated Fantail","spRhipialb1",
"White-browed Fantail","spRhipiaur",
"Black-naped Monarch","spHypot1azu",
"Indian Paradise Flycatcher","spTerpspar",
"Blyth's Paradise Flycatcher","spTerpsaff",
"Great Grey Shrike","spLaniuexc1",
"Lesser Grey Shrike","spLaniumin","rarity"
"Bay-backed Shrike","spLaniuvit",
"Isabelline Shrike","spLaniuisa","rarity"
"Red-tailed Shrike","spLaniupho","rarity"
"Brown Shrike","spLaniucri",
"Long-tailed Shrike","spLaniusch",
"Grey-backed Shrike","spLaniutep",
"Eurasian Jay","spGarrugla",
"Black-headed Jay","spGarrulan",
"Yellow-billed Blue Magpie","spUrocifla",
"Red-billed Blue Magpie","spUrociery",
"Common Green Magpie","spCissachi",
"Rufous Treepie","spDendr11vag",
"Grey Treepie","spDendr11for",
"Southern Nutcracker","spNucifhem",
"Red-billed Chough","spPyrrh3pyr",
"Alpine Chough","spPyrrh3gra",
"Western Jackdaw","spColoemon","rarity"
"House Crow","spCorvuspl",
"Large-billed Crow","spCorvumac",
"Eastern Jungle Crow","spCorvulev",
"Indian Jungle Crow","spCorvucul",
"Northern Raven","spCorvucor3",
"Bohemian Waxwing","spBombygar","rarity"
"Yellow-bellied Fantail","spCheli2hyp",
"Grey-headed Canary-flycatcher","spCulic1cey",
"Fire-capped Tit","spCepha1fla",
"Yellow-browed Tit","spSylvi1mod",
"Sultan Tit","spMelan7sul",
"Rufous-naped Tit","spPeripruf",
"Rufous-vented Tit","spPeriprub",
"Coal Tit","spPeripate",
"Grey-crested Tit","spLopho15dic",
"White-browed Tit","spPoeci2sup","rarity"
"Ground Tit","spPseud14hum",
"Cinereous Tit","spParuscin",
"Green-backed Tit","spParusmon",
"Himalayan Black-lored Tit","spMachlxan",
"Yellow-cheeked Tit","spMachlspi",
"Rufous-tailed Lark","spAmmom1pho","rarity"
"Ashy-crowned Sparrow-Lark","spEremogri",
"Singing Bush Lark","spMirafjav","rarity"
"Bengal Bush Lark","spPloceass",
"Oriental Skylark","spAlaudgul",
"Eurasian Skylark","spAlaudarv","rarity"
"Crested Lark","spGalercri",
"Horned Lark","spEremo1alp",
"Hume's Short-toed Lark","spCalanacu",
"Mongolian Short-toed Lark","spCalanduk",
"Greater Short-toed Lark","spCalanbra",
"Sand Lark","spAlaud1ray",
"White-throated Bulbul","spAlophfla",
"Striated Bulbul","spAlcurstr",
"Ashy Bulbul","spHemixfla",
"Mountain Bulbul","spIxosmcc",
"Black Bulbul","spHypsileu",
"Black-crested Bulbul","spRubigfla",
"Red-whiskered Bulbul","spPycno2joc",
"Red-vented Bulbul","spPycno2caf",
"Himalayan Bulbul","spPycno2leu2",
"Grey-throated Martin","spRiparchi",
"Sand Martin","spRiparrip",
"Pale Martin","spRipardil",
"Eurasian Crag Martin","spPtyonrup",
"Barn Swallow","spHirun2rus",
"Wire-tailed Swallow","spHirun2smi",
"Western House Martin","spDelicurb",
"Asian House Martin","spDelicdas",
"Nepal House Martin","spDelicnip",
"Eastern Red-rumped Swallow","spCecrodau",
"Streak-throated Swallow","spPetro2flu","rarity"
"Scaly-breasted Cupwing","spPnoepalb",
"Nepal Cupwing","spPnoepimm",
"Pygmy Cupwing","spPnoeppus",
"Yellow-bellied Warbler","spAbrossup",
"Rufous-faced Warbler","spAbrosalb","rarity"
"Black-faced Warbler","spAbrossch",
"Mountain Tailorbird","spPhyll4cuc","rarity"
"Broad-billed Warbler","spTickehod",
"Brown-flanked Bush Warbler","spHororfor",
"Hume's Bush Warbler","spHororbru",
"Aberrant Bush Warbler","spHororfla",
"Grey-bellied Tesia","spTesiacya",
"Slaty-bellied Tesia","spTesiaoli",
"Chestnut-crowned Bush Warbler","spCettimaj",
"Grey-sided Bush Warbler","spCettibru",
"Chestnut-headed Tesia","spCetticas",
"Asian Stubtail","spUrospsqu","rarity"
"Pale-footed Bush Warbler","spHemit1pal",
"White-browed Tit-warbler","spLepto8sop",
"Black-throated Bushtit","spAegit1con",
"White-throated Bushtit","spAegit1niv",
"Rufous-fronted Bushtit","spAegit1iou",
"Buff-barred Warbler","spPhyll5pul",
"Ashy-throated Warbler","spPhyll5mac",
"Hume's Leaf Warbler","spPhyll5hum",
"Yellow-browed Warbler","spPhyll5ino",
"Lemon-rumped Warbler","spPhyll5chl",
"Tytler's Leaf Warbler","spPhyll5tyt",
"Radde's Warbler","spPhyll5sch","rarity"
"Sulphur-bellied Warbler","spPhyll5gri",
"Tickell's Leaf Warbler","spPhyll5aff",
"Smoky Warbler","spPhyll5ful",
"Dusky Warbler","spPhyll5fus",
"Mountain Chiffchaff","spPhyll5sin","rarity"
"Common Chiffchaff","spPhyll5col",
"Grey-cheeked Warbler","spPhyll5pol",
"Green-crowned Warbler","spPhyll5bur",
"Whistler's Warbler","spPhyll5whi",
"Green Warbler","spPhyll5nit",
"Greenish Warbler","spPhyll5tro1",
"Large-billed Leaf Warbler","spPhyll5mag",
"Chestnut-crowned Warbler","spPhyll5cas",
"Yellow-vented Warbler","spPhyll5can1",
"Western Crowned Warbler","spPhyll5occ",
"Blyth's Leaf Warbler","spPhyll5reg",
"Grey-hooded Warbler","spPhyll5xan1",
"Oriental Reed Warbler","spAcroc1ori","rarity"
"Clamorous Reed Warbler","spAcroc1ste",
"Black-browed Reed Warbler","spAcroc1bis","rarity"
"Moustached Warbler","spAcroc1mel","rarity"
"Blunt-winged Warbler","spAcroc1con",
"Paddyfield Warbler","spAcroc1agr",
"Blyth's Reed Warbler","spAcroc1dum",
"Thick-billed Warbler","spArund1aed",
"Booted Warbler","spIdunacal",
"Pallas's Grasshopper Warbler","spHelopcer","rarity"
"Lanceolated Warbler","spLocuslan","rarity"
"Brown Bush Warbler","spLocuslut","rarity"
"Common Grasshopper Warbler","spLocusnae","rarity"
"Chinese Bush Warbler","spLocustac",
"Baikal Bush Warbler","spLocusdav","rarity"
"West Himalayan Bush Warbler","spLocuskas",
"Spotted Bush Warbler","spLocustho",
"Bristled Grassbird","spSchoe1str",
"Striated Grassbird","spMegal1pal",
"Zitting Cisticola","spCistijun",
"Golden-headed Cisticola","spCistiexi1",
"Himalayan Prinia","spPrinicri",
"Black-throated Prinia","spPriniatr",
"Grey-crowned Prinia","spPrinicin",
"Grey-breasted Prinia","spPrinihod",
"Delicate Prinia","spPrinilep",
"Jungle Prinia","spPrinisyl",
"Yellow-bellied Prinia","spPrinifla",
"Ashy Prinia","spPrinisoc",
"Plain Prinia","spPriniino",
"Common Tailorbird","spOrtho3sut",
"Lesser Whitethroat","spCurrucur",
"Eastern Orphean Warbler","spCurrucra","rarity"
"Fire-tailed Myzornis","spMyzorpyr",
"Golden-breasted Fulvetta","spLiopachr",
"Yellow-eyed Babbler","spChrys6sin",
"Jerdon's Babbler","spChrys6alt",
"White-browed Fulvetta","spFulvevin",
"Great Parrotbill","spParad3aem",
"Brown Parrotbill","spParad3uni",
"Fulvous Parrotbill","spSuthoful",
"Black-throated Parrotbill","spSuthonip",
"Black-chinned Yuhina","spYuhinnig",
"Whiskered Yuhina","spYuhinfla",
"White-naped Yuhina","spYuhinbak",
"Stripe-throated Yuhina","spYuhingul",
"Rufous-vented Yuhina","spYuhinocc",
"Indian White-eye","spZoste1pal",
"Chestnut-capped Babbler","spTimalpil",
"Tawny-bellied Babbler","spDumethyp",
"Pin-striped Tit-Babbler","spMixorgul",
"Golden Babbler","spCyano10chr",
"Black-chinned Babbler","spCyano10pyr",
"Rufous-capped Babbler","spCyano10ruf",
"Rufous-throated Wren-Babbler","spSpelacau",
"Black-crowned Scimitar Babbler","spPomat1fer",
"Slender-billed Scimitar Babbler","spPomat1sup",
"Streak-breasted Scimitar Babbler","spPomat1ruf",
"White-browed Scimitar Babbler","spPomat1sch",
"Rusty-cheeked Scimitar Babbler","spEryth5ery",
"Grey-throated Babbler","spStachnig1",
"Sikkim Wedge-billed Babbler","spStachhum",
"Indian Grassbird","spGramiben",
"White-hooded Babbler","spGamps1ruf","rarity"
"Rufous-winged Fulvetta","spSchoe2cas",
"Puff-throated Babbler","spPelloruf",
"Rufous-vented Grass Babbler","spLaticbur",
"Abbott's Babbler","spMalac4abb",
"Nepal Fulvetta","spAlcipnip",
"Striated Laughingthrush","spGrammstr",
"Himalayan Cutia","spCutianip",
"Scaly Laughingthrush","spTroch2sub",
"Blue-winged Laughingthrush","spTroch2squ",
"Streaked Laughingthrush","spTroch2lin",
"Variegated Laughingthrush","spTroch2var",
"Black-faced Laughingthrush","spTroch2aff",
"Chestnut-crowned Laughingthrush","spTroch2ery",
"Long-tailed Sibia","spHeter8pic","rarity"
"Rufous Sibia","spHeter8cap",
"Hoary-throated Barwing","spActinnip",
"Blue-winged Minla","spActincya",
"Bar-throated Minla","spActinstr",
"Rusty-fronted Barwing","spActinege",
"Red-billed Leiothrix","spLeiotlut",
"Silver-eared Mesia","spLeiotarg",
"Red-tailed Minla","spMinlaign",
"Rufous-backed Sibia","spLeiop1ann",
"Red-faced Liocichla","spLiocipho",
"Large Grey Babbler","spArgyamal",
"Slender-billed Babbler","spArgyalon",
"Jungle Babbler","spArgyastr",
"Common Babbler","spArgyacau",
"Striated Babbler","spArgyaear",
"Spiny Babbler","spTurdonip","endemic"
"Lesser Necklaced Laughingthrush","spGarru1mon",
"White-crested Laughingthrush","spGarru1leu",
"Rufous-chinned Laughingthrush","spIanthruf",
"Spotted Laughingthrush","spIanthoce",
"Rufous-necked Laughingthrush","spPtero6ruf",
"Greater Necklaced Laughingthrush","spPtero6pec",
"White-throated Laughingthrush","spPtero6alb",
"Grey-sided Laughingthrush","spPtero6cae",
"Asian Fairy-bluebird","spIrenapue",
"Goldcrest","spRegulreg",
"Spotted Elachura","spElachfor",
"Eurasian Wren","spTrogltro",
"White-cheeked Nuthatch","spSitta1leu",
"Velvet-fronted Nuthatch","spSitta1fro",
"White-tailed Nuthatch","spSitta1him",
"Kashmir Nuthatch","spSitta1cas",
"Indian Nuthatch","spSitta1cas1",
"Chestnut-bellied Nuthatch","spSitta1cin",
"Wallcreeper","spTichomur",
"Hodgson's Treecreeper","spCerth4hod",
"Bar-tailed Treecreeper","spCerth4him",
"Rusty-flanked Treecreeper","spCerth4nip",
"Sikkim Treecreeper","spCerth4dis",
"Spot-winged Starling","spSarogspi",
"Common Hill Myna","spGracurel",
"Great Myna","spAcridgra",
"Jungle Myna","spAcridfus",
"Bank Myna","spAcridgin",
"Common Myna","spAcridtri",
"Indian Pied Myna","spGracu1con",
"Daurian Starling","spAgropstu","rarity"
"Chestnut-tailed Starling","spSturnmal",
"Brahminy Starling","spSturnpag",
"Rosy Starling","spPastoros","rarity"
"Common Starling","spSturn2vul",
"Grandala","spGrandcoe",
"Purple Cochoa","spCochopur",
"Green Cochoa","spCochovir","extinct"
"Long-tailed Thrush","spZoothdix",
"Alpine Thrush","spZoothmol",
"Himalayan Thrush","spZoothsal",
"Long-billed Thrush","spZoothmon",
"Dark-sided Thrush","spZoothmar",
"Scaly Thrush","spZoothdau",
"Pied Thrush","spGeokiwar",
"Orange-headed Thrush","spGeokicit",
"Mistle Thrush","spTurduvis",
"Grey-winged Blackbird","spTurdubou",
"Tickell's Thrush","spTurduuni","rarity"
"Black-breasted Thrush","spTurdudis","rarity"
"Eyebrowed Thrush","spTurduobs",
"Grey-sided Thrush","spTurdufea","rarity"
"Tibetan Blackbird","spTurdumax",
"White-backed Thrush","spTurdukes",
"Black-throated Thrush","spTurduatr",
"Red-throated Thrush","spTurduruf1",
"Dusky Thrush","spTurdueun",
"Naumann's Thrush","spTurdunau","rarity"
"Chestnut Thrush","spTurdurub",
"White-collared Blackbird","spTurdualb",
"Oriental Magpie-Robin","spCopsysau",
"Indian Robin","spCopsyful",
"White-rumped Shama","spCopsymal",
"Dark-sided Flycatcher","spMusci3sib",
"Ferruginous Flycatcher","spMusci3fer",
"Brown-breasted Flycatcher","spMusci3mut","rarity"
"Asian Brown Flycatcher","spMusci3dau",
"Spotted Flycatcher","spMusci3str","rarity"
"Rufous-bellied Niltava","spNiltasun",
"Small Niltava","spNiltamac",
"Large Niltava","spNiltagra",
"Verditer Flycatcher","spEumyitha",
"White-gorgeted Flycatcher","spAnthimon",
"Pale Blue Flycatcher","spCyornuni",
"Blue-throated Blue Flycatcher","spCyornrub",
"Large Blue Flycatcher","spCyornmag",
"Tickell's Blue Flycatcher","spCyorntic",
"Pale-chinned Flycatcher","spCyornpol",
"Bluethroat","spLuscisve",
"White-bellied Redstart","spLuscipha",
"White-tailed Robin","spMyiomleu",
"Firethroat","spCalli2pec","rarity"
"Siberian Rubythroat","spCalli2cal",
"Himalayan Rubythroat","spCalli2pec1",
"Chinese Rubythroat","spCalli2tsc","rarity"
"Little Forktail","spEnicusco",
"Black-backed Forktail","spEnicuimm",
"Slaty-backed Forktail","spEnicusch",
"Spotted Forktail","spEnicumac",
"Blue Whistling Thrush","spMyophcae",
"Himalayan Shortwing","spBrach4cru",
"Rusty-bellied Shortwing","spBrach4hyp",
"Lesser Shortwing","spBrach4leu",
"Siberian Blue Robin","spLarvicya","rarity"
"Indian Blue Robin","spLarvibru",
"Slaty-blue Flycatcher","spFicedtri",
"Snowy-browed Flycatcher","spFicedhyp",
"Slaty-backed Flycatcher","spFicederi",
"Pygmy Flycatcher","spFicedhod",
"Rufous-gorgeted Flycatcher","spFicedstr",
"Sapphire Flycatcher","spFicedsap",
"Ultramarine Flycatcher","spFicedsup",
"Little Pied Flycatcher","spFicedwes",
"Rusty-tailed Flycatcher","spFicedruf",
"Kashmir Flycatcher","spFicedsub",
"Red-breasted Flycatcher","spFicedpar",
"Taiga Flycatcher","spFicedalb",
"White-browed Bush Robin","spTarsiind",
"Golden Bush Robin","spTarsichr",
"Rufous-breasted Bush Robin","spTarsihyp",
"Himalayan Bluetail","spTarsiruf",
"Gould's Shortwing","spHeter9ste",
"Eversmann's Redstart","spPhoen5ery","rarity"
"Blue-fronted Redstart","spPhoen5fro",
"Blue-capped Redstart","spPhoen5coe",
"White-throated Redstart","spPhoen5sch",
"Plumbeous Water Redstart","spPhoen5ful",
"White-capped Redstart","spPhoen5leu",
"Black Redstart","spPhoen5och",
"Daurian Redstart","spPhoen5aur","rarity"
"Hodgson's Redstart","spPhoen5hod",
"Güldenstädt's Redstart","spPhoen5ery1",
"Blue-capped Rock Thrush","spMonticin",
"Chestnut-bellied Rock Thrush","spMontiruf",
"Common Rock Thrush","spMontisax","rarity"
"Blue Rock Thrush","spMontisol",
"Jerdon's Bush Chat","spSaxicjer","rarity"
"Grey Bush Chat","spSaxicfer",
"Pied Bush Chat","spSaxiccap",
"White-throated Bush Chat","spSaxicins",
"White-tailed Stonechat","spSaxicleu",
"Siberian Stonechat","spSaxicmau",
"Northern Wheatear","spOenanoen","rarity"
"Isabelline Wheatear","spOenanisa",
"Desert Wheatear","spOenandes",
"Pied Wheatear","spOenanple","rarity"
"Brown Rock Chat","spOenanfus","rarity"
"Variable Wheatear","spOenanpic",
"Red-tailed Wheatear","spOenanchr","rarity"
"White-throated Dipper","spCincl5cin",
"Brown Dipper","spCincl5pal",
"Golden-fronted Leafbird","spChlor7aur",
"Orange-bellied Leafbird","spChlor7har",
"Yellow-vented Flowerpecker","spPachy7chr",
"Yellow-bellied Flowerpecker","spPachy7mel",
"Thick-billed Flowerpecker","spPachy7agi",
"Pale-billed Flowerpecker","spDicaeery",
"Plain Flowerpecker","spDicaemin",
"Fire-breasted Flowerpecker","spDicaeign1",
"Scarlet-backed Flowerpecker","spDicaecru",
"Ruby-cheeked Sunbird","spChalc4sin",
"Purple Sunbird","spCinny2asi",
"Mrs. Gould's Sunbird","spAetho1gou",
"Green-tailed Sunbird","spAetho1nip",
"Black-throated Sunbird","spAetho1sat",
"Crimson Sunbird","spAetho1sip",
"Fire-tailed Sunbird","spAetho1ign",
"Little Spiderhunter","spArachlon",
"Streaked Spiderhunter","spArachmag",
"White-rumped Snowfinch","spOnych3tac",
"Black-winged Snowfinch","spMonti1ada",
"Rufous-necked Snowfinch","spPyrgiruf",
"Blanford's Snowfinch","spPyrgibla",
"Yellow-throated Sparrow","spGymno10xan",
"Russet Sparrow","spPassecin",
"Eurasian Tree Sparrow","spPassemon",
"Spanish Sparrow","spPassehis","rarity"
"House Sparrow","spPassedom",
"Black-breasted Weaver","spPloce2ben",
"Streaked Weaver","spPloce2man",
"Baya Weaver","spPloce2phi",
"Finn's Weaver","spPloce2meg",
"Indian Silverbill","spEuodimal",
"Scaly-breasted Munia","spLonchpun",
"White-rumped Munia","spLonchstr",
"Tricolored Munia","spLonchmal",
"Chestnut Munia","spLonchatr",
"Red Avadavat","spAmandama",
"Alpine Accentor","spPrunecol",
"Altai Accentor","spPrunehim",
"Robin Accentor","spPrunerub",
"Rufous-breasted Accentor","spPrunestr",
"Brown Accentor","spPruneful",
"Black-throated Accentor","spPruneatr",
"Maroon-backed Accentor","spPruneimm",
"Forest Wagtail","spDendr12ind","rarity"
"Western Yellow Wagtail","spMotacfla",
"Citrine Wagtail","spMotaccit",
"Grey Wagtail","spMotaccin",
"White Wagtail","spMotacalb",
"White-browed Wagtail","spMotacmad",
"Richard's Pipit","spAnthuric",
"Paddyfield Pipit","spAnthuruf",
"Blyth's Pipit","spAnthugod",
"Tawny Pipit","spAnthucam",
"Long-billed Pipit","spAnthusim",
"Tree Pipit","spAnthutri",
"Olive-backed Pipit","spAnthuhod",
"Rosy Pipit","spAnthuros",
"Red-throated Pipit","spAnthucer",
"Siberian Pipit","spAnthujap",
"Water Pipit","spAnthuspi",
"Upland Pipit","spAnthusyl",
"Eurasian Chaffinch","spFringcoe",
"Brambling","spFringmon",
"Black-and-yellow Grosbeak","spMycerict",
"Collared Grosbeak","spMyceraff",
"Spot-winged Grosbeak","spMycermel",
"White-winged Grosbeak","spMycercar",
"Brown Bullfinch","spPyrrh4nip",
"Red-headed Bullfinch","spPyrrh4ery",
"Grey-headed Bullfinch","spPyrrh4ery1","rarity"
"Mongolian Finch","spBucanmon","rarity"
"Blanford's Rosefinch","spAgraprub",
"Spectacled Finch","spCalla1bur",
"Golden-naped Finch","spPyrrh5epa",
"Dark-breasted Rosefinch","spProcanip",
"Plain Mountain Finch","spLeuco10nem",
"Brandt's Mountain Finch","spLeuco10bra",
"Common Rosefinch","spCarpo4ery",
"Scarlet Finch","spCarpo4sip",
"Streaked Rosefinch","spCarpo4rub",
"Great Rosefinch","spCarpo4rub1",
"Himalayan Beautiful Rosefinch","spCarpo4pul",
"Pink-browed Rosefinch","spCarpo4rod",
"Dark-rumped Rosefinch","spCarpo4edw",
"Spot-winged Rosefinch","spCarpo4rod1",
"Vinaceous Rosefinch","spCarpo4vin",
"Himalayan White-browed Rosefinch","spCarpo4thu",
"Red-fronted Rosefinch","spCarpo4pun",
"Crimson-browed Finch","spCarpo4sub",
"Yellow-breasted Greenfinch","spChlor10spi",
"Twite","spLinarfla",
"Common Linnet","spLinarcan","rarity"
"Red Crossbill","spLoxiacur",
"Grey-crowned Goldfinch","spCarducan",
"Red-fronted Serin","spSerinpus",
"Tibetan Serin","spSpinuthi",
"Eurasian Siskin","spSpinuspi","rarity"
"Crested Bunting","spEmberlat",
"Yellowhammer","spEmbercit","rarity"
"Pine Bunting","spEmberleu",
"Rock Bunting","spEmbercia",
"White-capped Bunting","spEmberste","rarity"
"Grey-necked Bunting","spEmberbuc","rarity"
"Striolated Bunting","spEmberstr","rarity"
"Chestnut-eared Bunting","spEmberfuc",
"Little Bunting","spEmberpus",
"Rustic Bunting","spEmberrus","rarity"
"Yellow-breasted Bunting","spEmberaur",
"Chestnut Bunting","spEmberrut","rarity"
"Black-headed Bunting","spEmbermel",
"Red-headed Bunting","spEmberbru","rarity"
"Black-faced Bunting","spEmberspo",
"Pallas's Reed Bunting","spEmberpal","rarity"
"Common Reed Bunting","spEmbersch","rarity"
