"Name","ID","Status"
"Pacific Black Duck","spAnassup","rarity"
"Mallard","spAnaspla","rarity"
"Tongan Megapode","spMegappri","extinct"
"Red Junglefowl","spGallugal","introduced"
"White-rumped Swiftlet","spAerodspo",
"Long-tailed Koel","spUrodytai",
"Crimson-crowned Fruit Dove","spPtilipor1",
"Pacific Imperial Pigeon","spDuculpac",
"Buff-banded Rail","spHypotphi",
"Australasian Swamphen","spPorph1mel",
"Spotless Crake","spZaportab",
"Pacific Golden Plover","spPluvi1ful",
"Double-banded Plover","spAnarhbic","rarity"
"Bristle-thighed Curlew","spNumentah",
"Far Eastern Curlew","spNumenmad","rarity"
"Bar-tailed Godwit","spLimoslap","rarity"
"Wandering Tattler","spTringinc",
"Ruddy Turnstone","spArenaint",
"Sanderling","spCalidalb",
"Pectoral Sandpiper","spCalidmel","rarity"
"White Tern","spGygisalb",
"Brown Noddy","spAnoussto",
"Black Noddy","spAnousmin",
"Sooty Tern","spOnychfus",
"Kelp Gull","spLarusdom","rarity"
"Red-tailed Tropicbird","spPhaet2rub",
"White-tailed Tropicbird","spPhaet2lep",
"Kermadec Petrel","spPtero3neg",
"Herald Petrel","spPtero3her",
"Phoenix Petrel","spPtero3alb","rarity"
"Black-winged Petrel","spPtero3nig",
"Collared Petrel","spPtero3bre",
"Tahiti Petrel","spPseudros",
"White-chinned Petrel","spProceaeq",
"Wedge-tailed Shearwater","spArdenpac",
"Buller's Shearwater","spArdenbul",
"Sooty Shearwater","spArdengri",
"Lesser Frigatebird","spFregaari",
"Great Frigatebird","spFregamin",
"Red-footed Booby","spSulasul",
"Brown Booby","spSulaleu",
"Masked Booby","spSuladac",
"Pacific Reef Heron","spEgretsac",
"White-faced Heron","spEgretnov","rarity"
"Eastern Barn Owl","spTytojav",
"Blue-crowned Lorikeet","spViniaus",
"Polynesian Triller","spLalagmac",
"Polynesian Starling","spAplontab",
