"Name","ID","Status"
"Southern Cassowary","spCasuacas",
"Dwarf Cassowary","spCasuaben",
"Northern Cassowary","spCasuauna",
"Magpie Goose","spAnsersem",
"Spotted Whistling Duck","spDendrgut",
"Plumed Whistling Duck","spDendreyt","rarity"
"Wandering Whistling Duck","spDendrarc",
"Black Swan","spCygnuatr","rarity"
"Radjah Shelduck","spRadjarad",
"Salvadori's Teal","spSalvawai",
"Maned Duck","spChenojub","rarity"
"Cotton Pygmy Goose","spNettacor",
"Green Pygmy Goose","spNettapul",
"Garganey","spSpatuque",
"Northern Shoveler","spSpatucly","rarity"
"Eurasian Wigeon","spMarecpen","rarity"
"Pacific Black Duck","spAnassup",
"Northern Pintail","spAnasacu","rarity"
"Grey Teal","spAnasgra",
"Hardhead","spAythyaus",
"Tufted Duck","spAythyful","rarity"
"Wattled Brushturkey","spAepyparf",
"Black-billed Brushturkey","spTalegfus",
"Collared Brushturkey","spTalegjob",
"Melanesian Megapode","spMegapere",
"New Guinea Scrubfowl","spMegapdec",
"Orange-footed Scrubfowl","spMegaprei",
"Red Junglefowl","spGallugal","introduced"
"Brown Quail","spSynoiyps",
"Snow Mountain Quail","spSynoimon",
"King Quail","spSynoichi",
"White-throated Nightjar","spEurosmys",
"Solomons Nightjar","spEurosnig",
"Papuan Nightjar","spEurospap",
"Archbold's Nightjar","spEurosarc",
"Large-tailed Nightjar","spCaprimac",
"Marbled Frogmouth","spPodaroce",
"Papuan Frogmouth","spPodarpap",
"Solomons Frogmouth","spRigidine",
"Feline Owlet-nightjar","spAegotins",
"Starry Owlet-nightjar","spAegottat",
"Wallace's Owlet-nightjar","spAegotwal",
"Mountain Owlet-nightjar","spAegotalb",
"Barred Owlet-nightjar","spAegotben",
"Karimui Owlet-nightjar","spAegotter","endemic"
"Australian Owlet-nightjar","spAegotcri1",
"Moustached Treeswift","spHemipmys",
"Glossy Swiftlet","spColloesc",
"Mountain Swiftlet","spAerodhir",
"White-rumped Swiftlet","spAerodspo",
"Bare-legged Swiftlet","spAerodnud",
"Mayr's Swiftlet","spAerodori",
"Uniform Swiftlet","spAerodvan",
"Three-toed Swiftlet","spAerodpap",
"Papuan Spinetail","spMearnnov",
"White-throated Needletail","spHiruncau",
"Pacific Swift","spApuspac",
"Australian Bustard","spArdeoaus",
"White-necked Coucal","spCentr1ate","endemic"
"Ivory-billed Coucal","spCentr1men",
"Violaceous Coucal","spCentr1vio","endemic"
"Black-billed Coucal","spCentr1ber",
"Pheasant Coucal","spCentr1pha",
"Dwarf Koel","spMicro2par",
"Pacific Koel","spEudynori",
"Long-tailed Koel","spUrodytai",
"Channel-billed Cuckoo","spScythnov",
"Long-billed Cuckoo","spChalc1meg",
"Horsfield's Bronze Cuckoo","spChalc1bas",
"Rufous-throated Bronze Cuckoo","spChalc1ruf",
"Shining Bronze Cuckoo","spChalc1luc",
"White-eared Bronze Cuckoo","spChalc1mey",
"Little Bronze Cuckoo","spChalc1min",
"Pallid Cuckoo","spHeter2pal",
"White-crowned Cuckoo","spCalieleu",
"Chestnut-breasted Cuckoo","spCacomcas",
"Fan-tailed Cuckoo","spCacomfla",
"Sahul Brush Cuckoo","spCacomvar",
"Manus Brush Cuckoo","spCacombla","endemic"
"Solomons Brush Cuckoo","spCacomadd",
"Oriental Cuckoo","spCuculopt",
"Rock Dove","spColumliv","introduced"
"Metallic Pigeon","spColumvit",
"Yellow-legged Pigeon","spColumpal2",
"Spotted Dove","spSpilochi",
"Amboyna Cuckoo-Dove","spMacro2amb",
"Bar-tailed Cuckoo-Dove","spMacro2nig",
"Spot-breasted Cuckoo-Dove","spMacro2mac1",
"Great Cuckoo-Dove","spReinwrei",
"Pied Cuckoo-Dove","spReinwbro","endemic"
"Crested Cuckoo-Dove","spReinwcra",
"Pacific Emerald Dove","spChalc2lon",
"Stephan's Emerald Dove","spChalc2ste",
"New Guinea Bronzewing","spHenicalb",
"New Britain Bronzewing","spHenicfoe","endemic"
"Thick-billed Ground Pigeon","spTrugoter",
"Peaceful Dove","spGeopepla",
"Bar-shouldered Dove","spGeopehum",
"Nicobar Pigeon","spCaloenic",
"Cinnamon Ground Dove","spGalli1ruf",
"White-breasted Ground Dove","spPampujob",
"Bronze Ground Dove","spPampubec",
"Pheasant Pigeon","spOtidinob",
"Scheepmaker's Crowned Pigeon","spGourasch","endemic"
"Sclater's Crowned Pigeon","spGourascl",
"Victoria Crowned Pigeon","spGouravic",
"Wompoo Fruit Dove","spPtilimag",
"Pink-spotted Fruit Dove","spPtiliper",
"Ornate Fruit Dove","spPtiliorn",
"Orange-fronted Fruit Dove","spPtiliaur",
"Superb Fruit Dove","spPtilisup",
"Rose-crowned Fruit Dove","spPtilireg","rarity"
"Coroneted Fruit Dove","spPtilicor1",
"Beautiful Fruit Dove","spPtilipul",
"White-bibbed Fruit Dove","spPtiliriv",
"Yellow-bibbed Fruit Dove","spPtilisol",
"Claret-breasted Fruit Dove","spPtilivir",
"Orange-bellied Fruit Dove","spPtiliioz",
"Knob-billed Fruit Dove","spPtiliins1","endemic"
"Dwarf Fruit Dove","spPtilinai",
"Pacific Imperial Pigeon","spDuculpac",
"Red-knobbed Imperial Pigeon","spDuculrub",
"Purple-tailed Imperial Pigeon","spDuculruf",
"Finsch's Imperial Pigeon","spDuculfin","endemic"
"Rufescent Imperial Pigeon","spDuculcha",
"Island Imperial Pigeon","spDuculpis",
"Pinon's Imperial Pigeon","spDuculpin",
"Black Imperial Pigeon","spDuculmel","endemic"
"Collared Imperial Pigeon","spDuculmul",
"Zoe's Imperial Pigeon","spDuculzoe",
"Torresian Imperial Pigeon","spDuculspi",
"Yellowish Imperial Pigeon","spDuculsub","endemic"
"Papuan Mountain Pigeon","spGymnoalb",
"Pale Mountain Pigeon","spGymnosol",
"Chestnut Forest Rail","spRallirub",
"Forbes's Forest Rail","spRallifor",
"Mayr's Forest Rail","spRallimay",
"Lewin's Rail","spLewinpec",
"Buff-banded Rail","spHypotphi",
"Pink-legged Rail","spHypotins","endemic"
"Woodford's Rail","spHypotwoo",
"Dusky Moorhen","spGalli3ten",
"Eurasian Coot","spFulicatr",
"Australasian Swamphen","spPorph1mel",
"Baillon's Crake","spZaporpus",
"Spotless Crake","spZaportab",
"Red-necked Crake","spRalli1tri",
"Bare-eyed Rail","spGymno1plu",
"New Guinea Flightless Rail","spMegacine",
"White-browed Crake","spPoliocin",
"Pale-vented Bush-hen","spAmaur1mol",
"Brolga","spAntigrub",
"Tricolored Grebe","spTachy2tri",
"Australasian Grebe","spTachy2nov",
"Red-backed Buttonquail","spTurnimac",
"Beach Stone-curlew","spEsacumag",
"Bush Stone-curlew","spBurhigra",
"Pied Oystercatcher","spHaema1lon",
"Pied Stilt","spHiman1leu",
"Red-necked Avocet","spRecurnov","rarity"
"Grey Plover","spPluvi1squ",
"Pacific Golden Plover","spPluvi1ful",
"Common Ringed Plover","spCharahia","rarity"
"Little Ringed Plover","spCharadub",
"Masked Lapwing","spVanelmil",
"Red-kneed Dotterel","spEryth1cin",
"Oriental Plover","spAnarhver",
"Siberian Sand Plover","spAnarhmon",
"Greater Sand Plover","spAnarhles",
"Comb-crested Jacana","spIredigal",
"Bristle-thighed Curlew","spNumentah","rarity"
"Eurasian Whimbrel","spNumenpha",
"Little Curlew","spNumenmin",
"Far Eastern Curlew","spNumenmad",
"Bar-tailed Godwit","spLimoslap",
"Black-tailed Godwit","spLimoslim",
"Asian Dowitcher","spLimnosem",
"Long-billed Dowitcher","spLimnosco","rarity"
"New Guinea Woodcock","spScoloros",
"Swinhoe's Snipe","spGalli5meg",
"Latham's Snipe","spGalli5har",
"Red-necked Phalarope","spPhala1lob",
"Terek Sandpiper","spXenuscin",
"Common Sandpiper","spActithyp",
"Green Sandpiper","spTringoch","rarity"
"Grey-tailed Tattler","spTringbre",
"Wandering Tattler","spTringinc",
"Marsh Sandpiper","spTringsta",
"Wood Sandpiper","spTringgla",
"Common Redshank","spTringtot","rarity"
"Common Greenshank","spTringneb",
"Ruddy Turnstone","spArenaint",
"Great Knot","spCalidten",
"Red Knot","spCalidcan",
"Ruff","spCalidpug",
"Broad-billed Sandpiper","spCalidfal",
"Sharp-tailed Sandpiper","spCalidacu",
"Curlew Sandpiper","spCalidfer",
"Long-toed Stint","spCalidsub",
"Red-necked Stint","spCalidruf",
"Buff-breasted Sandpiper","spCalidsub1","rarity"
"Sanderling","spCalidalb",
"Baird's Sandpiper","spCalidbai","rarity"
"Little Stint","spCalidmin","rarity"
"Pectoral Sandpiper","spCalidmel",
"Australian Pratincole","spStiltisa",
"Oriental Pratincole","spGlaremal",
"White Tern","spGygisalb",
"Brown Noddy","spAnoussto",
"Black Noddy","spAnousmin",
"Aleutian Tern","spOnychale","rarity"
"Sooty Tern","spOnychfus",
"Bridled Tern","spOnychana",
"Spectacled Tern","spOnychlun",
"Little Tern","spStern1alb",
"Gull-billed Tern","spGelocnil",
"Australian Tern","spGelocmac",
"Caspian Tern","spHydro3cas",
"Whiskered Tern","spChlidhyb",
"Black Tern","spChlidnig","rarity"
"White-winged Tern","spChlidleu",
"Common Tern","spStern2hir1",
"Black-naped Tern","spStern2sum",
"Roseate Tern","spStern2dou",
"Lesser Crested Tern","spThala1ben",
"Greater Crested Tern","spThala1ber",
"Silver Gull","spChroinov",
"Black-headed Gull","spChroirid",
"Black-tailed Gull","spLaruscra","rarity"
"Long-tailed Jaeger","spSterclon",
"Parasitic Jaeger","spStercpar",
"Pomarine Jaeger","spStercpom",
"South Polar Skua","spStercmac",
"Red-tailed Tropicbird","spPhaet2rub",
"White-tailed Tropicbird","spPhaet2lep",
"Wilson's Storm Petrel","spOceanoce",
"White-faced Storm Petrel","spPelagmar","rarity"
"Black-bellied Storm Petrel","spFregetro",
"Laysan Albatross","spPhoebimm","rarity"
"Matsudaira's Storm Petrel","spHydro5mat",
"Leach's Storm Petrel","spHydro5leu","rarity"
"Band-rumped Storm Petrel","spHydro5cas","rarity"
"Southern Giant Petrel","spMacro3gig","rarity"
"Slender-billed Prion","spPachy1bel","rarity"
"Providence Petrel","spPtero3sol","rarity"
"Kermadec Petrel","spPtero3neg","rarity"
"Herald Petrel","spPtero3her","rarity"
"Gould's Petrel","spPtero3leu","rarity"
"Collared Petrel","spPtero3bre","rarity"
"Pycroft's Petrel","spPtero3pyc","rarity"
"Tahiti Petrel","spPseudros",
"Beck's Petrel","spPseudbec","endemic"
"Streaked Shearwater","spCalonleu",
"Wedge-tailed Shearwater","spArdenpac",
"Sooty Shearwater","spArdengri","rarity"
"Short-tailed Shearwater","spArdenten",
"Flesh-footed Shearwater","spArdencar",
"Hutton's Shearwater","spPuffihut","rarity"
"Tropical Shearwater","spPuffibai",
"Heinroth's Shearwater","spPuffihei",
"Bulwer's Petrel","spBulwebul",
"Black-necked Stork","spEphipasi",
"Lesser Frigatebird","spFregaari",
"Great Frigatebird","spFregamin",
"Christmas Frigatebird","spFregaand","rarity"
"Red-footed Booby","spSulasul",
"Brown Booby","spSulaleu",
"Masked Booby","spSuladac",
"Australasian Darter","spAnhinnov",
"Little Pied Cormorant","spMicro5mel",
"Australian Pied Cormorant","spPhala2var","rarity"
"Little Black Cormorant","spPhala2sul",
"Great Cormorant","spPhala2car",
"Australian White Ibis","spThresmol",
"Straw-necked Ibis","spThresspi",
"Glossy Ibis","spPlegafal",
"Royal Spoonbill","spPlatareg",
"Yellow-billed Spoonbill","spPlatafla","rarity"
"Black Bittern","spBotaufla",
"Yellow Bittern","spBotausin",
"Black-backed Bittern","spBotaudub",
"Nankeen Night Heron","spNycti6cal",
"Pacific Reef Heron","spEgretsac",
"Little Egret","spEgretgar",
"Pied Heron","spEgretpic",
"White-faced Heron","spEgretnov",
"Little Heron","spButoratr",
"Forest Bittern","spZonerhel",
"White-necked Heron","spArdeapac","rarity"
"Great Egret","spArdeaalb",
"Plumed Egret","spArdeaplu",
"Eastern Cattle Egret","spArdeacor",
"Great-billed Heron","spArdeasum",
"Australian Pelican","spPelec1con",
"Osprey","spPandihal",
"Black-winged Kite","spElanucae",
"Pacific Baza","spAvicesub",
"Long-tailed Honey Buzzard","spHenic1lon",
"Black Honey Buzzard","spHenic1inf","endemic"
"Bat Hawk","spMachealc",
"Papuan Eagle","spHarpynov",
"Pygmy Eagle","spHierawei",
"Gurney's Eagle","spAquilgur",
"Wedge-tailed Eagle","spAquilaud",
"Collared Sparrowhawk","spTachy3cir",
"New Britain Sparrowhawk","spTachy3bra","endemic"
"Chinese Sparrowhawk","spTachy3sol",
"Grey-headed Goshawk","spTachy3pol",
"New Britain Goshawk","spTachy3pri","endemic"
"Variable Goshawk","spTachy3hio",
"Imitator Goshawk","spTachy3imi",
"Black-mantled Goshawk","spTachy3mel",
"Pied Goshawk","spTachy3alb",
"Slaty-mantled Goshawk","spTachy3lut","endemic"
"Brown Goshawk","spTachy3fas",
"Chestnut-shouldered Goshawk","spEryth2bue",
"Meyer's Goshawk","spAsturmey",
"Doria's Hawk","spMegatdor",
"Pied Harrier","spCircumel",
"Eastern Marsh Harrier","spCircuspi",
"Papuan Harrier","spCircuspi1",
"Swamp Harrier","spCircuapp",
"Black Kite","spMilvumig",
"Brahminy Kite","spHaliaind",
"Whistling Kite","spHaliasph",
"White-bellied Sea Eagle","spIcthyleu",
"Sanford's Sea Eagle","spIcthysan",
"Grey-faced Buzzard","spButasind",
"Greater Sooty Owl","spTytoten",
"Manus Masked Owl","spTytoman","endemic"
"Golden Masked Owl","spTytoaur","endemic"
"Australian Masked Owl","spTytonov",
"Eastern Barn Owl","spTytojav",
"Eastern Grass Owl","spTytolon",
"Papuan Hawk-Owl","spUrogldim",
"Rufous Owl","spNinoxruf",
"Barking Owl","spNinoxcon",
"Australian Boobook","spNinoxboo",
"Manus Boobook","spNinoxmee","endemic"
"Papuan Boobook","spNinoxthe",
"New Britain Boobook","spNinoxodi","endemic"
"New Ireland Boobook","spNinoxvar","endemic"
"West Solomons Owl","spAthenjac",
"Fearful Owl","spAsiosol",
"Blyth's Hornbill","spRhytipli",
"Oriental Dollarbird","spEurysori",
"Moustached Kingfisher","spActenbou",
"Hook-billed Kingfisher","spMelidmac",
"Common Paradise Kingfisher","spTanysgal",
"Little Paradise Kingfisher","spTanyshyd",
"Buff-breasted Paradise Kingfisher","spTanyssyl",
"Black-capped Paradise Kingfisher","spTanysnig","endemic"
"Red-breasted Paradise Kingfisher","spTanysnym",
"Brown-headed Paradise Kingfisher","spTanysdan","endemic"
"Shovel-billed Kookaburra","spDacelrex",
"Spangled Kookaburra","spDaceltyr",
"Rufous-bellied Kookaburra","spDacelgau",
"Blue-winged Kookaburra","spDacellea",
"Blue-black Kingfisher","spTodirnig",
"Forest Kingfisher","spTodirmac",
"White-mantled Kingfisher","spTodiralb","endemic"
"Ultramarine Kingfisher","spTodirleu",
"Torresian Kingfisher","spTodirsor",
"Islet Kingfisher","spTodircol","endemic"
"Melanesian Kingfisher","spTodirtri",
"Beach Kingfisher","spTodirsau",
"Sacred Kingfisher","spTodirsan",
"Yellow-billed Kingfisher","spSymator",
"Mountain Kingfisher","spSymameg",
"Common Kingfisher","spAlcedatt",
"Papuan Dwarf Kingfisher","spCeyxsol",
"Manus Dwarf Kingfisher","spCeyxdis","endemic"
"New Ireland Dwarf Kingfisher","spCeyxmul","endemic"
"New Britain Dwarf Kingfisher","spCeyxsac","endemic"
"North Solomons Dwarf Kingfisher","spCeyxmee",
"Azure Kingfisher","spCeyxazu",
"Bismarck Kingfisher","spCeyxweb","endemic"
"Little Kingfisher","spCeyxpus",
"Blue-tailed Bee-eater","spMerop1phi",
"Rainbow Bee-eater","spMerop1orn",
"Nankeen Kestrel","spFalcocen",
"Oriental Hobby","spFalcosev",
"Australian Hobby","spFalcolon",
"Brown Falcon","spFalcober",
"Peregrine Falcon","spFalcoper",
"Palm Cockatoo","spProboate",
"Solomons Corella","spCacatduc",
"Little Corella","spCacatsan",
"Blue-eyed Cockatoo","spCacatoph","endemic"
"Sulphur-crested Cockatoo","spCacatgal",
"Pesquet's Parrot","spPsitt2ful",
"Yellow-capped Pygmy Parrot","spMicro11kei",
"Buff-faced Pygmy Parrot","spMicro11pus",
"Meek's Pygmy Parrot","spMicro11mee","endemic"
"Finsch's Pygmy Parrot","spMicro11fin",
"Red-breasted Pygmy Parrot","spMicro11bru",
"Papuan King Parrot","spAlistchl",
"Red-winged Parrot","spAprosery",
"Papuan Eclectus","spEclecpol",
"Red-cheeked Parrot","spGeoffgeo",
"Blue-collared Parrot","spGeoffsim",
"Song Parrot","spGeoffhet",
"Brehm's Tiger Parrot","spPsitt5bre",
"Painted Tiger Parrot","spPsitt5pic",
"Modest Tiger Parrot","spPsitt5mod",
"Madarasz's Tiger Parrot","spPsitt5mad",
"Plum-faced Lorikeet","spOreop2arf",
"Pygmy Lorikeet","spCharmwil",
"Red-fronted Lorikeet","spHypocrub",
"Red-flanked Lorikeet","spHypocpla",
"Fairy Lorikeet","spCharm1pul",
"Striated Lorikeet","spSynormul",
"Josephine's Lorikeet","spCharm2jos",
"Stella's Lorikeet","spCharm2ste",
"Duchess Lorikeet","spCharm3mar",
"Meek's Lorikeet","spVinimee",
"Red-chinned Lorikeet","spVinirub","endemic"
"Yellow-billed Lorikeet","spNeops1mus",
"Orange-billed Lorikeet","spNeops1pul",
"White-naped Lory","spLoriualb","endemic"
"Purple-bellied Lory","spLoriuhyp","endemic"
"Black-capped Lory","spLoriulor",
"Dusky Lory","spPseud3fus",
"Cardinal Lory","spPseud3car",
"Brown Lory","spChalc3dui",
"Yellow-streaked Lory","spChalc3sci",
"Goldie's Lorikeet","spGlossgol",
"Coconut Lorikeet","spTrich1hae",
"Large Fig Parrot","spPsitt7des",
"Edwards's Fig Parrot","spPsitt7edw",
"Black-fronted Fig Parrot","spCyclonig",
"Dusky-cheeked Fig Parrot","spCyclomel",
"Double-eyed Fig Parrot","spCyclodio",
"Orange-fronted Hanging Parrot","spLoricaur",
"Bismarck Hanging Parrot","spLoricten","endemic"
"Papuan Pitta","spEryth3mac",
"Bismarck Pitta","spEryth3nov","endemic"
"Louisiade Pitta","spEryth3mee","endemic"
"Eastern Hooded Pitta","spPittanov",
"Noisy Pitta","spPittaver",
"Black-faced Pitta","spPittaane",
"Superb Pitta","spPittasup","endemic"
"Ochre-breasted Catbird","spAilursto",
"Tan-capped Catbird","spAilurgei",
"Huon Catbird","spAilurast","endemic"
"Black-capped Catbird","spAilurmel","endemic"
"Northern Catbird","spAilurjob",
"Black-eared Catbird","spAilurmel1",
"Archbold's Bowerbird","spArchbpap",
"MacGregor's Bowerbird","spAmblymac",
"Huon Bowerbird","spAmblyger","endemic"
"Streaked Bowerbird","spAmblysub","endemic"
"Masked Bowerbird","spSericaur",
"Flame Bowerbird","spSericard",
"Fire-maned Bowerbird","spSericbak","endemic"
"Yellow-breasted Bowerbird","spChlam1lau",
"Fawn-breasted Bowerbird","spChlam1cer",
"Papuan Treecreeper","spCormopla",
"Wallace's Fairywren","spSipodwal",
"Broad-billed Fairywren","spCheno1gra",
"Campbell's Fairywren","spCheno1cam","endemic"
"Emperor Fairywren","spMalurcya",
"White-shouldered Fairywren","spMaluralb",
"Orange-crowned Fairywren","spClyto1ins",
"Green-backed Honeyeater","spGlycifal",
"Sooty Honeyeater","spMeliofus",
"Long-bearded Honeyeater","spMeliopri","endemic"
"Leaden Honeyeater","spPtilo3plu",
"Yellowish-streaked Honeyeater","spPtilo3mee",
"Rufous-backed Honeyeater","spPtilo3gui","endemic"
"Mayr's Honeyeater","spPtilo3may",
"Grey-streaked Honeyeater","spPtilo3per",
"Bougainville Honeyeater","spStresbou","endemic"
"Rufous-banded Honeyeater","spConop2alb",
"Brown-backed Honeyeater","spRamsamod",
"Long-billed Honeyeater","spMelilmeg",
"Olive Straightbill","spTimelful",
"Tawny Straightbill","spTimelgri",
"Common Smoky Honeyeater","spMelipfum",
"Spangled Honeyeater","spMelipate","endemic"
"MacGregor's Honeyeater","spMacgrpul",
"Plain Honeyeater","spPycnoixo",
"Marbled Honeyeater","spPycnocin",
"Streak-headed Honeyeater","spPycnosti",
"Gilliard's Honeyeater","spVoseawhi","endemic"
"White-chinned Myzomela","spMyzomalb","endemic"
"Ashy Myzomela","spMyzomcin","endemic"
"Ruby-throated Myzomela","spMyzomequ",
"Dusky Myzomela","spMyzomobs",
"Red Myzomela","spMyzomcru",
"Reddish Myzomela","spMyzomery","endemic"
"Papuan Black Myzomela","spMyzomnig",
"New Ireland Myzomela","spMyzompul","endemic"
"Red-headed Myzomela","spMyzomery1",
"Mountain Myzomela","spMyzomado",
"Sclater's Myzomela","spMyzomscl","endemic"
"Bismarck Black Myzomela","spMyzompam","endemic"
"Red-capped Myzomela","spMyzomlaf",
"Black-bellied Myzomela","spMyzomery2","endemic"
"Red-collared Myzomela","spMyzomros",
"Long-billed Myzomela","spMyzomlon","endemic"
"Meyer's Friarbird","spPhile1mey",
"Little Friarbird","spPhile1cit",
"Helmeted Friarbird","spPhile1buc",
"New Britain Friarbird","spPhile1coc","endemic"
"New Ireland Friarbird","spPhile1eic","endemic"
"Manus Friarbird","spPhile1alb","endemic"
"Noisy Friarbird","spPhile1cor",
"Spotted Honeyeater","spXanthpol",
"Tawny-breasted Honeyeater","spXanthfla",
"Brown Honeyeater","spLichmind",
"Silver-eared Honeyeater","spLichmalb",
"Blue-faced Honeyeater","spEntomcya",
"White-throated Honeyeater","spMelit1alb",
"Puff-backed Honeyeater","spMelip2aru",
"Mottle-breasted Honeyeater","spMicro14mim",
"Forest Honeyeater","spMicro14mon",
"Mountain Honeyeater","spMicro14ori",
"Scrub Honeyeater","spMicro14alb",
"Mimic Honeyeater","spMicro14ana",
"Tagula Honeyeater","spMicro14vic","endemic"
"Graceful Honeyeater","spMicro14gra",
"Elegant Honeyeater","spMicro14cin","endemic"
"Yellow-gaped Honeyeater","spMicro14fla",
"Varied Honeyeater","spGavicver",
"Yellow-tinted Honeyeater","spPtilo4fla",
"Black-throated Honeyeater","spCaligsub",
"Obscure Honeyeater","spCaligobs",
"Cinnamon-browed Melidectes","spMelid1och",
"Yellow-browed Melidectes","spMelid1ruf",
"Huon Melidectes","spMelid1foe","endemic"
"Belford's Melidectes","spMelid1bel",
"Ornate Melidectes","spMelid1tor",
"Goldenface","spPachy3fla",
"Mountain Mouse-warbler","spOrigmrob",
"Rusty Mouse-warbler","spOrigmmur",
"Tropical Scrubwren","spSeric1bec",
"Large Scrubwren","spSeric1nou",
"Pale-billed Scrubwren","spAethospi",
"Bicolored Scrubwren","spAethonig",
"Buff-faced Scrubwren","spAethoper",
"Grey-green Scrubwren","spAethoarf",
"Papuan Scrubwren","spAethopap",
"Grey Thornbill","spAcant4cin",
"New Guinea Thornbill","spAcant4mur",
"Yellow-bellied Gerygone","spGerygchr",
"Green-backed Gerygone","spGerygchl",
"Fairy Gerygone","spGerygpal",
"Large-billed Gerygone","spGerygmag",
"White-throated Gerygone","spGerygoli",
"Mangrove Gerygone","spGeryglev",
"Brown-breasted Gerygone","spGerygruf",
"Papuan Babbler","spGarriisi",
"Grey-crowned Babbler","spPomattem",
"Papuan Logrunner","spOrtho2nov",
"Loria's Satinbird","spCnemo1lor",
"Crested Satinbird","spCnemo1mac",
"Yellow-breasted Satinbird","spLobopser",
"Obscure Berrypecker","spMelan4arf",
"Mid-mountain Berrypecker","spMelan4lon",
"Black Berrypecker","spMelan4nig",
"Fan-tailed Berrypecker","spMelan4ver",
"Streaked Berrypecker","spMelan4str",
"Thick-billed Berrypecker","spRhamp1cra",
"Spotted Berrypecker","spRhamp1pip","endemic"
"Spectacled Longbill","spOedisili",
"Pygmy Longbill","spOedispyg",
"Yellow-bellied Longbill","spToxornov",
"Slaty-headed Longbill","spToxorpol",
"Tit Berrypecker","spOreocarf",
"Eastern Crested Berrypecker","spParammon",
"Papuan Whipbird","spAndro1vir",
"Spotted Jewel-babbler","spPtilo5leu",
"Blue Jewel-babbler","spPtilo5cae",
"Brown-headed Jewel-babbler","spPtilo5gei","endemic"
"Chestnut-backed Jewel-babbler","spPtilo5cas",
"Painted Quail-thrush","spCincl1aja",
"Yellow-breasted Boatbill","spMacha1fla",
"Black-breasted Boatbill","spMacha1nig",
"White-breasted Woodswallow","spArtam1leu",
"Great Woodswallow","spArtam1max",
"White-backed Woodswallow","spArtam1ins","endemic"
"Black-faced Woodswallow","spArtam1cin",
"Lowland Peltops","spPelto1bla",
"Mountain Peltops","spPelto1mon",
"Black Butcherbird","spMelloquo",
"Australian Magpie","spGymno8tib",
"Black-backed Butcherbird","spCractmen",
"Hooded Butcherbird","spCractcas",
"Tagula Butcherbird","spCractlou","endemic"
"Mottled Berryhunter","spRhagoleu",
"Stout-billed Cuckooshrike","spCorac2cae",
"Hooded Cuckooshrike","spCorac2lon",
"Barred Cuckooshrike","spCorac2lin",
"Black-faced Cuckooshrike","spCorac2nov",
"Boyer's Cuckooshrike","spCorac2boy",
"North Melanesian Cuckooshrike","spCorac2wel",
"White-bellied Cuckooshrike","spCorac2pap",
"Manus Cuckooshrike","spCorac2ing","endemic"
"Golden Cuckooshrike","spCampo1slo",
"Black-bellied Cuckooshrike","spEdolimon",
"Grey-headed Cuckooshrike","spEdolisch",
"Black Cicadabird","spEdolimel",
"Solomons Cicadabird","spEdolihol",
"Admiralty Cicadabird","spEdoliadm","endemic"
"Central Melanesian Cicadabird","spEdoliery",
"Black-shouldered Cicadabird","spEdoliinc",
"Bismarck Cicadabird","spEdolirem","endemic"
"Rossel Cicadabird","spEdoliros","endemic"
"Sahul Cicadabird","spEdoliten",
"White-winged Triller","spLalagtri",
"Black-browed Triller","spLalagatr",
"Varied Triller","spLalagleu2",
"Mussau Triller","spLalagcon","endemic"
"Papuan Sittella","spDaphopap",
"Black Sittella","spDaphomir",
"Wattled Ploughbill","spEulacnig",
"Rufous-naped Bellbird","spAleadruf",
"Piping Bellbird","spOrnorcri",
"Black Pitohui","spMelan5nig",
"Rusty Whistler","spPachy4hyp",
"Brown-backed Whistler","spPachy4mod","endemic"
"Grey Whistler","spPachy4sim",
"Sclater's Whistler","spPachy4sor",
"Bismarck Whistler","spPachy4cit","endemic"
"Oriole Whistler","spPachy4ori",
"Louisiade Whistler","spPachy4col","endemic"
"Mangrove Golden Whistler","spPachy4mel1",
"Bougainville Whistler","spPachy4ric","endemic"
"Lorentz's Whistler","spPachy4lor",
"Regent Whistler","spPachy4sch",
"Golden-backed Whistler","spPachy4aur",
"Black-headed Whistler","spPachy4mon",
"White-bellied Whistler","spPachy4leu","endemic"
"White-bellied Pitohui","spPseud13inc",
"Rusty Pitohui","spPseud13fer",
"Sooty Shrikethrush","spColluten",
"Arafura Shrikethrush","spCollumeg",
"Variable Shrikethrush","spCollufor",
"Tagula Shrikethrush","spColludis","endemic"
"Sepik-Ramu Shrikethrush","spCollutap","endemic"
"Rufous Shrikethrush","spColluruf",
"Grey Shrikethrush","spColluhar",
"Australasian Figbird","spSphecvie",
"Northern Variable Pitohui","spPitohkir",
"Southern Variable Pitohui","spPitohuro",
"Hooded Pitohui","spPitohdic",
"Olive-backed Oriole","spOriol1sag",
"Brown Oriole","spOriol1sza",
"Green Oriole","spOriol1fla",
"Spangled Drongo","spDicrubra",
"Paradise Drongo","spDicrumeg","endemic"
"Willie Wagtail","spRhipileu",
"Northern Fantail","spRhipiruf",
"White-winged Fantail","spRhipicoc",
"Sooty Thicket Fantail","spRhipithr",
"Black Thicket Fantail","spRhipimac",
"White-bellied Thicket Fantail","spRhipileu1",
"Black Fantail","spRhipiatr",
"Chestnut-bellied Fantail","spRhipihyp",
"Friendly Fantail","spRhipialb3",
"Mangrove Fantail","spRhipipha",
"Bougainville Fantail","spRhipidro","endemic"
"Dimorphic Fantail","spRhipibra",
"Rufous-backed Fantail","spRhipiruf1",
"Bismarck Fantail","spRhipidah","endemic"
"Mussau Fantail","spRhipimat","endemic"
"Manus Fantail","spRhipisem","endemic"
"Arafura Fantail","spRhipidry",
"Australian Rufous Fantail","spRhipiruf2",
"Louisiade Fantail","spRhipilou","endemic"
"Drongo Fantail","spChaet2pap",
"Black Monarch","spSympoaxi",
"Spot-winged Monarch","spSympogut",
"Louisiade Monarch","spSympomel","endemic"
"Spectacled Monarch","spSympotri",
"Hooded Monarch","spSympoman",
"Manus Monarch","spSympoinf","endemic"
"Mussau Monarch","spSympomen","endemic"
"Bismarck Monarch","spSympover","endemic"
"Solomons Monarch","spSympobar",
"Rufous Monarch","spSymporub",
"Island Monarch","spMonarcin",
"Black-faced Monarch","spMonarmel",
"Black-winged Monarch","spMonarfra",
"Chestnut-bellied Monarch","spMonarcas",
"Golden Monarch","spCartechr",
"Ochre-collared Monarch","spArsesins",
"Frilled Monarch","spArsestel",
"Magpie-lark","spGrall2cya",
"Torrent-lark","spGrall2bru",
"Leaden Flycatcher","spMyiagrub",
"Steel-blue Flycatcher","spMyiagfer",
"Broad-billed Flycatcher","spMyiagruf",
"Satin Flycatcher","spMyiagcya",
"Shining Flycatcher","spMyiagale",
"Mussau Flycatcher","spMyiagheb","endemic"
"Velvet Flycatcher","spMyiageic","endemic"
"Paperbark Flycatcher","spMyiagnan",
"Long-tailed Shrike","spLaniusch",
"Bougainville Crow","spCorvumee",
"Grey Crow","spCorvutri",
"Torresian Crow","spCorvuorr",
"Bismarck Crow","spCorvuins","endemic"
"Lesser Melampitta","spMelamlug",
"Greater Melampitta","spMegalgig",
"Blue-capped Ifrit","spIfritkow",
"Glossy-mantled Manucode","spManucate",
"Tagula Manucode","spManucalt","endemic"
"Jobi Manucode","spManucjob",
"Crinkle-collared Manucode","spManuccha",
"Curl-crested Manucode","spManuccom","endemic"
"Trumpet Manucode","spPhonyker",
"Short-tailed Paradigalla","spParadbre",
"Splendid Astrapia","spAstraspl",
"Ribbon-tailed Astrapia","spAstramay","endemic"
"Princess Stephanie's Astrapia","spAstraste","endemic"
"Huon Astrapia","spAstrarot","endemic"
"Queen Carola's Parotia","spParotcar",
"Lawes's Parotia","spParotlaw","endemic"
"Eastern Parotia","spParothel","endemic"
"Wahnes's Parotia","spParotwah","endemic"
"King of Saxony Bird-of-paradise","spPterialb",
"Greater Lophorina","spLopho14lat",
"Lesser Lophorina","spLopho14min","endemic"
"Magnificent Riflebird","spPtilo7mag",
"Growling Riflebird","spPtilo7int","endemic"
"Black Sicklebill","spEpimafas",
"Brown Sicklebill","spEpimamey",
"Black-billed Sicklebill","spDrepa1alb",
"Pale-billed Sicklebill","spDrepa1bru",
"Magnificent Bird-of-paradise","spDiphymag",
"King Bird-of-paradise","spCicinreg",
"Twelve-wired Bird-of-paradise","spSeleumel",
"Greater Bird-of-paradise","spParad1apo",
"Raggiana Bird-of-paradise","spParad1rag",
"Lesser Bird-of-paradise","spParad1min",
"Goldie's Bird-of-paradise","spParad1dec","endemic"
"Emperor Bird-of-paradise","spParad1gui","endemic"
"Blue Bird-of-paradise","spParad2rud","endemic"
"Lesser Ground Robin","spAmaloinc",
"Greater Ground Robin","spAmaloscl",
"Green-backed Robin","spPachy6hat",
"White-eyed Robin","spPachy6pol",
"Garnet Robin","spEugerrub",
"Mountain Robin","spPetro1biv",
"Solomons Robin","spPetro1pol",
"Canary Flyrobin","spDeviopap",
"Olive Flyrobin","spKempifla",
"Yellow-legged Flyrobin","spKempigri",
"Torrent Flyrobin","spMonacmue",
"Lemon-bellied Flyrobin","spMicro15fla",
"Jacky Winter","spMicro15fas",
"Bismarck Flyrobin (undescribed)","spMicro15sp.","endemic"
"Papuan Scrub Robin","spDrymo3bec",
"Black-capped Robin","spHeter6arm",
"Black-throated Robin","spPlesialb",
"Black-chinned Robin","spLeuco7bra",
"Black-sided Robin","spPoeci1hyp",
"White-winged Robin","spPeneosig",
"Slaty Robin","spPeneocya",
"White-rumped Robin","spPeneobim",
"Mangrove Robin","spPeneopul",
"Banded Yellow Robin","spGennapla",
"White-faced Robin","spTregeleu",
"Singing Bush Lark","spMirafjav",
"Sand Martin","spRiparrip","rarity"
"Pacific Swallow","spHirun2jav",
"Welcome Swallow","spHirun2neo","rarity"
"Barn Swallow","spHirun2rus",
"Eastern Red-rumped Swallow","spCecrodau",
"Fairy Martin","spPetro2ari",
"Tree Martin","spPetro2nig",
"Bougainville Bush Warbler","spHororhad","endemic"
"Arctic Warbler","spPhyll5bor1","rarity"
"Island Leaf Warbler","spPhyll5pol1",
"Oriental Reed Warbler","spAcroc1ori",
"Australian Reed Warbler","spAcroc1aus",
"Gray's Grasshopper Warbler","spHelopfas",
"Fly River Grassbird","spPoodyalb",
"Rusty Thicketbird","spCincl2rub","endemic"
"New Britain Thicketbird","spCincl2gro","endemic"
"Papuan Grassbird","spCincl2mac",
"Tawny Grassbird","spCincl2tim",
"Bougainville Thicketbird","spCincl2lla","endemic"
"Zitting Cisticola","spCistijun",
"Golden-headed Cisticola","spCistiexi1",
"Green-fronted White-eye","spZoste1min",
"Black-fronted White-eye","spZoste1chr",
"Tagula White-eye","spZoste1mee","endemic"
"Capped White-eye","spZoste1fus",
"Oya Tabu White-eye","spZoste1cro","endemic"
"Bismarck White-eye","spZoste1hyp","endemic"
"Bougainville White-eye","spZoste1ham","endemic"
"Yellow-throated White-eye","spZoste1met",
"Papuan White-eye","spZoste1nov",
"Louisiade White-eye","spZoste1gri1","endemic"
"Metallic Starling","spAplonmet",
"Yellow-eyed Starling","spAplonmys",
"Singing Starling","spAploncan",
"Atoll Starling","spAplonfea",
"White-eyed Starling","spAplonbru",
"Brown-winged Starling","spAplongra",
"Yellow-faced Myna","spMinodum",
"Long-tailed Myna","spMinokre",
"Golden Myna","spMinoana",
"Common Myna","spAcridtri","introduced"
"Common Starling","spSturn2vul","rarity-from-introduced"
"Russet-tailed Thrush","spZoothhei1",
"New Britain Thrush","spZoothtal","endemic"
"Bougainville Thrush","spZoothatr","endemic"
"Papuan Island Thrush","spTurdupap",
"Bismarck Island Thrush","spTurduhei","endemic"
"Bougainville Island Thrush","spTurdubou1","endemic"
"Grey-streaked Flycatcher","spMusci3gri",
"Siberian Rubythroat","spCalli2cal","rarity"
"Blue Rock Thrush","spMontisol","rarity"
"Pied Bush Chat","spSaxiccap",
"Red-capped Flowerpecker","spDicaegee",
"Louisiade Flowerpecker","spDicaenit","endemic"
"Red-banded Flowerpecker","spDicaeexi","endemic"
"Midget Flowerpecker","spDicaeaen",
"Black Sunbird","spLepto9asp",
"Sahul Sunbird","spCinny2fre",
"Eurasian Tree Sparrow","spPassemon","introduced"
"House Sparrow","spPassedom","introduced"
"Mountain Firetail","spOreos2ful",
"Crimson Finch","spNeoch1pha",
"Streak-headed Mannikin","spMayritri",
"White-spotted Mannikin","spMayrileu",
"Great-billed Mannikin","spLonchgra",
"Western Alpine Mannikin","spLonchmon",
"Eastern Alpine Mannikin","spLonchmon1","endemic"
"Grey-crowned Mannikin","spLonchnev",
"Grey-headed Mannikin","spLonchcan","endemic"
"Hooded Mannikin","spLonchspe",
"Forbes's Mannikin","spLonchfor","endemic"
"Mottled Mannikin","spLonchhun","endemic"
"New Hanover Mannikin","spLonchnig","endemic"
"Chestnut-breasted Mannikin","spLonchcas",
"Black Mannikin","spLonchsty",
"Buff-bellied Mannikin","spLonchmel","endemic"
"Papuan Parrotfinch","spEryth6pap",
"Blue-faced Parrotfinch","spEryth6tri1",
"Eastern Yellow Wagtail","spMotactsc","rarity"
"Grey Wagtail","spMotaccin",
"Australian Pipit","spAnthuaus",
"Alpine Pipit","spAnthugut",
