"Name","ID","Status"
"Fulvous Whistling Duck","spDendrbic","rarity"
"Brant Goose","spBrantber","rarity"
"Canada Goose","spBrantcan","rarity"
"Barnacle Goose","spBrantleu","rarity"
"Snow Goose","spAnser1cae","rarity"
"Greylag Goose","spAnser1ans","rarity"
"Taiga Bean Goose","spAnser1fab","rarity"
"Pink-footed Goose","spAnser1bra","rarity"
"Greater White-fronted Goose","spAnser1alb","rarity"
"Mute Swan","spCygnuolo","rarity"
"Whooper Swan","spCygnucyg","rarity"
"Common Shelduck","spTadortad","rarity"
"Ruddy Shelduck","spTadorfer","rarity"
"Muscovy Duck","spCairimos","escaped"
"Wood Duck","spAixspo","rarity"
"Garganey","spSpatuque","rarity"
"Blue-winged Teal","spSpatudis",
"Northern Shoveler","spSpatucly",
"Gadwall","spMarecstr","rarity"
"Eurasian Wigeon","spMarecpen",
"American Wigeon","spMarecame",
"Mallard","spAnaspla",
"American Black Duck","spAnasrub",
"Northern Pintail","spAnasacu",
"Eurasian Teal","spAnascre",
"Green-winged Teal","spAnascar",
"Red-crested Pochard","spNetta1ruf","rarity"
"Common Pochard","spAythyfer","rarity"
"Ferruginous Duck","spAythynyr","rarity"
"Ring-necked Duck","spAythycol",
"Tufted Duck","spAythyful",
"Greater Scaup","spAythymar","rarity"
"Lesser Scaup","spAythyaff","rarity"
"King Eider","spSomatspe","rarity"
"Common Eider","spSomatmol","rarity"
"Surf Scoter","spMelanper","rarity"
"White-winged Scoter","spMelandeg","rarity"
"Common Scoter","spMelannig","rarity"
"Long-tailed Duck","spClanghye","rarity"
"Bufflehead","spBucepalb","rarity"
"Common Goldeneye","spBucepcla","rarity"
"Hooded Merganser","spLopho1cuc","rarity"
"Common Merganser","spMergumer","rarity"
"Red-breasted Merganser","spMerguser","rarity"
"Ruddy Duck","spOxyurjam","rarity-from-introduced"
"Common Quail","spCoturcot",
"Red-legged Partridge","spAlect1ruf","introduced"
"Common Nighthawk","spChordmin","rarity"
"European Nightjar","spCaprieur","rarity"
"Chimney Swift","spChaetpel","rarity"
"Alpine Swift","spTachy1mel","rarity"
"Common Swift","spApusapu","rarity"
"Pallid Swift","spApuspal","rarity"
"Little Swift","spApusaff","rarity"
"Great Spotted Cuckoo","spClamagla","rarity"
"Yellow-billed Cuckoo","spCoccy1ame","rarity"
"Black-billed Cuckoo","spCoccy1ery","rarity"
"Common Cuckoo","spCuculcan","rarity"
"Rock Dove","spColumliv","introduced"
"Common Wood Pigeon","spColumpal",
"European Turtle Dove","spStrep1tur","rarity"
"Eurasian Collared Dove","spStrep1dec",
"Mourning Dove","spZenaimac","rarity"
"Water Rail","spRalluaqu","rarity"
"Corn Crake","spCrexcre","rarity"
"Sora","spPorzacar","rarity"
"Spotted Crake","spPorzapor","rarity"
"Common Moorhen","spGalli3chl",
"Eurasian Coot","spFulicatr",
"American Coot","spFulicame","rarity"
"Allen's Gallinule","spPorph1all","rarity"
"Purple Gallinule","spPorph1mar","rarity"
"Baillon's Crake","spZaporpus","rarity"
"Little Crake","spZaporpar","rarity"
"Sandhill Crane","spAntigcan","rarity"
"Common Crane","spGrusgru","rarity"
"Little Grebe","spTachy2ruf1","rarity"
"Pied-billed Grebe","spPodilpod","rarity"
"Red-necked Grebe","spPodic1gri","rarity"
"Great Crested Grebe","spPodic1cri","rarity"
"Horned Grebe","spPodic1aur","rarity"
"Black-necked Grebe","spPodic1nig","rarity"
"Greater Flamingo","spPhoenros","rarity"
"Eurasian Stone-curlew","spBurhioed","rarity"
"Eurasian Oystercatcher","spHaema1ost","rarity"
"Black-winged Stilt","spHiman1him","rarity"
"Pied Avocet","spRecuravo","rarity"
"Grey Plover","spPluvi1squ",
"European Golden Plover","spPluvi1apr","rarity"
"Pacific Golden Plover","spPluvi1ful","rarity"
"American Golden Plover","spPluvi1dom","rarity"
"Eurasian Dotterel","spEudro1mor","rarity"
"Killdeer","spCharavoc","rarity"
"Common Ringed Plover","spCharahia",
"Semipalmated Plover","spCharasem",
"Little Ringed Plover","spCharadub","rarity"
"Northern Lapwing","spVanelvan",
"Caspian Plover","spAnarhasi","rarity"
"Kentish Plover","spAnarhale",
"Upland Sandpiper","spBartrlon","rarity"
"Eurasian Whimbrel","spNumenpha",
"Hudsonian Whimbrel","spNumenhud","rarity"
"Slender-billed Curlew","spNumenten","extinct"
"Eurasian Curlew","spNumenarq","rarity"
"Bar-tailed Godwit","spLimoslap",
"Black-tailed Godwit","spLimoslim",
"Hudsonian Godwit","spLimoshae","rarity"
"Long-billed Dowitcher","spLimnosco","rarity"
"Short-billed Dowitcher","spLimnogri","rarity"
"Jack Snipe","spLymnomin","rarity"
"Eurasian Woodcock","spScolorus",
"Great Snipe","spGalli5med","rarity"
"Common Snipe","spGalli5gal",
"Wilson's Snipe","spGalli5del","rarity"
"Wilson's Phalarope","spPhala1tri","rarity"
"Red Phalarope","spPhala1ful","rarity"
"Red-necked Phalarope","spPhala1lob","rarity"
"Terek Sandpiper","spXenuscin","rarity"
"Common Sandpiper","spActithyp","rarity"
"Spotted Sandpiper","spActitmac",
"Green Sandpiper","spTringoch","rarity"
"Solitary Sandpiper","spTringsol","rarity"
"Grey-tailed Tattler","spTringbre","rarity"
"Marsh Sandpiper","spTringsta","rarity"
"Wood Sandpiper","spTringgla","rarity"
"Common Redshank","spTringtot","rarity"
"Lesser Yellowlegs","spTringfla",
"Willet","spTringsem","rarity"
"Spotted Redshank","spTringery","rarity"
"Common Greenshank","spTringneb",
"Greater Yellowlegs","spTringmel","rarity"
"Ruddy Turnstone","spArenaint",
"Red Knot","spCalidcan",
"Ruff","spCalidpug","rarity"
"Sharp-tailed Sandpiper","spCalidacu","rarity"
"Stilt Sandpiper","spCalidhim","rarity"
"Curlew Sandpiper","spCalidfer","rarity"
"Temminck's Stint","spCalidtem","rarity"
"Red-necked Stint","spCalidruf","rarity"
"Buff-breasted Sandpiper","spCalidsub1","rarity"
"Sanderling","spCalidalb",
"Dunlin","spCalidalp","rarity"
"Purple Sandpiper","spCalidmar","rarity"
"Baird's Sandpiper","spCalidbai","rarity"
"Little Stint","spCalidmin","rarity"
"Least Sandpiper","spCalidmin1","rarity"
"White-rumped Sandpiper","spCalidfus",
"Pectoral Sandpiper","spCalidmel","rarity"
"Western Sandpiper","spCalidmau","rarity"
"Semipalmated Sandpiper","spCalidpus",
"Brown Noddy","spAnoussto","rarity"
"Sooty Tern","spOnychfus",
"Bridled Tern","spOnychana","rarity"
"Little Tern","spStern1alb","rarity"
"Gull-billed Tern","spGelocnil","rarity"
"Caspian Tern","spHydro3cas","rarity"
"Whiskered Tern","spChlidhyb","rarity"
"Black Tern","spChlidnig","rarity"
"White-winged Tern","spChlidleu","rarity"
"Forster's Tern","spStern2for","rarity"
"Arctic Tern","spStern2par","rarity"
"Common Tern","spStern2hir1",
"Roseate Tern","spStern2dou",
"Sandwich Tern","spThala1san","rarity"
"West African Crested Tern","spThala1alb","rarity"
"Royal Tern","spThala1max","rarity"
"Little Gull","spHydro4min","rarity"
"Black-legged Kittiwake","spRissatri",
"Sabine's Gull","spXemasab","rarity"
"Bonaparte's Gull","spChroiphi","rarity"
"Black-headed Gull","spChroirid",
"Laughing Gull","spLeuco3atr","rarity"
"Franklin's Gull","spLeuco3pip","rarity"
"Audouin's Gull","spIchthaud","rarity"
"Mediterranean Gull","spIchthmel","rarity"
"Common Gull","spLaruscan","rarity"
"Short-billed Gull","spLarusbra","rarity"
"Ring-billed Gull","spLarusdel",
"European Herring Gull","spLarusarg","rarity"
"Yellow-legged Gull","spLarusmic",
"Great Black-backed Gull","spLarusmar",
"Glaucous Gull","spLarushyp",
"Lesser Black-backed Gull","spLarusfus",
"American Herring Gull","spLarussmi","rarity"
"Iceland Gull","spLarusgla1","rarity"
"Long-tailed Jaeger","spSterclon","rarity"
"Parasitic Jaeger","spStercpar",
"Pomarine Jaeger","spStercpom",
"Great Skua","spStercsku",
"South Polar Skua","spStercmac","rarity"
"Atlantic Puffin","spFratearc","rarity"
"Razorbill","spAlcator","rarity"
"Little Auk","spAlleall","rarity"
"Thick-billed Murre","spUrialom","rarity"
"Common Murre","spUriaaal","rarity"
"Red-billed Tropicbird","spPhaet2aet","rarity"
"White-tailed Tropicbird","spPhaet2lep","rarity"
"Red-throated Loon","spGaviaste","rarity"
"Black-throated Loon","spGaviaarc","rarity"
"Common Loon","spGaviaimm",
"Wilson's Storm Petrel","spOceanoce",
"White-faced Storm Petrel","spPelagmar","rarity"
"Black-browed Albatross","spThala2mel","rarity"
"European Storm Petrel","spHydro5pel","rarity"
"Swinhoe's Storm Petrel","spHydro5mon","rarity"
"Leach's Storm Petrel","spHydro5leu",
"Band-rumped Storm Petrel","spHydro5cas",
"Monteiro's Storm Petrel","spHydro5mon1","endemic"
"Northern Fulmar","spFulmagla","rarity"
"Zino's Petrel","spPtero3mad","rarity"
"Fea's Petrel","spPtero3fea","rarity"
"Desertas Petrel","spPtero3des","rarity"
"Bermuda Petrel","spPtero3cah","rarity"
"Black-capped Petrel","spPtero3has","rarity"
"Kermadec Petrel","spPtero3neg","rarity"
"Trindade Petrel","spPtero3arm","rarity"
"Cory's Shearwater","spCalonbor",
"Scopoli's Shearwater","spCalondio","rarity"
"Sooty Shearwater","spArdengri",
"Flesh-footed Shearwater","spArdencar","rarity"
"Great Shearwater","spArdengra",
"Manx Shearwater","spPuffipuf",
"Balearic Shearwater","spPuffimau","rarity"
"Barolo Shearwater","spPuffibar",
"Bulwer's Petrel","spBulwebul",
"Black Stork","spCiconnig","rarity"
"White Stork","spCiconcic","rarity"
"Magnificent Frigatebird","spFregamag","rarity"
"Northern Gannet","spMorusbas",
"Cape Gannet","spMoruscap","rarity"
"Red-footed Booby","spSulasul","rarity"
"Brown Booby","spSulaleu","rarity"
"Masked Booby","spSuladac","rarity"
"Great Cormorant","spPhala2car","rarity"
"Double-crested Cormorant","spNanno1aur","rarity"
"Northern Bald Ibis","spGeronere","rarity"
"Glossy Ibis","spPlegafal","rarity"
"Eurasian Spoonbill","spPlataleu","rarity"
"Eurasian Bittern","spBotauste","rarity"
"American Bittern","spBotaulen","rarity"
"Least Bittern","spBotauexi","rarity"
"Little Bittern","spBotaumin","rarity"
"Yellow-crowned Night Heron","spNyctavio","rarity"
"Black-crowned Night Heron","spNycti6nyc","rarity"
"Little Blue Heron","spEgretcae","rarity"
"Tricolored Heron","spEgrettri","rarity"
"Snowy Egret","spEgretthu","rarity"
"Little Egret","spEgretgar",
"Western Reef Heron","spEgretgul","rarity"
"Green Heron","spButorvir","rarity"
"Squacco Heron","spArdeo1ral","rarity"
"Great Egret","spArdeaalb",
"Western Cattle Egret","spArdeaibi",
"Grey Heron","spArdeacin",
"Great Blue Heron","spArdeaher","rarity"
"Purple Heron","spArdeapur","rarity"
"Osprey","spPandihal","rarity"
"Egyptian Vulture","spNeophper","rarity"
"Swallow-tailed Kite","spElanofor","rarity"
"Pallid Harrier","spCircumac","rarity"
"Hen Harrier","spCircucya","rarity"
"Northern Harrier","spCircuhud","rarity"
"Montagu's Harrier","spCircupyg","rarity"
"Western Marsh Harrier","spCircuaer","rarity"
"Red Kite","spMilvumil","rarity"
"Black Kite","spMilvumig","rarity"
"Rough-legged Buzzard","spButeo1lag","rarity"
"Common Buzzard","spButeo1but",
"Western Barn Owl","spTytoalb","rarity"
"Long-eared Owl","spAsiootu",
"Short-eared Owl","spAsiofla","rarity"
"Snowy Owl","spBubosca","rarity"
"Eurasian Hoopoe","spUpupaepo","rarity"
"European Roller","spCoracgar","rarity"
"Common Kingfisher","spAlcedatt","rarity"
"Belted Kingfisher","spMegac1alc","rarity"
"European Bee-eater","spMerop1api","rarity"
"Yellow-bellied Sapsucker","spSphyrvar","rarity"
"Northern Flicker","spColapaur1","rarity"
"Lesser Kestrel","spFalconau","rarity"
"Common Kestrel","spFalcotin","rarity"
"American Kestrel","spFalcospa","rarity"
"Red-footed Falcon","spFalcoves","rarity"
"Amur Falcon","spFalcoamu","rarity"
"Eleonora's Falcon","spFalcoele","rarity"
"Merlin","spFalcocol","rarity"
"Eurasian Hobby","spFalcosub","rarity"
"Gyrfalcon","spFalcorus","rarity"
"Peregrine Falcon","spFalcoper","rarity"
"Rose-ringed Parakeet","spPsitt4kra","introduced"
"Eastern Wood Pewee","spContovir","rarity"
"Western Kingbird","spTyran3ver","rarity"
"Red-eyed Vireo","spVireo1oli","rarity"
"Philadelphia Vireo","spVireo1phi","rarity"
"Warbling Vireo","spVireo1gil","rarity"
"Yellow-throated Vireo","spVireo1fla1","rarity"
"White-eyed Vireo","spVireo1gri","rarity"
"Eurasian Golden Oriole","spOriol1ori","rarity"
"Great Grey Shrike","spLaniuexc1","rarity"
"Northern Shrike","spLaniubor","rarity"
"Woodchat Shrike","spLaniusen","rarity"
"Red-backed Shrike","spLaniucol2","rarity"
"Western Jackdaw","spColoemon","rarity"
"Rook","spCorvufru","rarity"
"Carrion Crow","spCorvucor","rarity"
"Northern Raven","spCorvucor3","rarity"
"Bohemian Waxwing","spBombygar","rarity"
"Cedar Waxwing","spBombyced","rarity"
"Eurasian Skylark","spAlaudarv","rarity"
"Crested Lark","spGalercri","rarity"
"Greater Short-toed Lark","spCalanbra","rarity"
"Brown-throated Martin","spRiparpal","rarity"
"Sand Martin","spRiparrip","rarity"
"Tree Swallow","spTachy4bic","rarity"
"Purple Martin","spPrognsub","rarity"
"Barn Swallow","spHirun2rus","rarity"
"Western House Martin","spDelicurb","rarity"
"European Red-rumped Swallow","spCecroruf","rarity"
"American Cliff Swallow","spPetro2pyr","rarity"
"Wood Warbler","spPhyll5sib","rarity"
"Yellow-browed Warbler","spPhyll5ino","rarity"
"Willow Warbler","spPhyll5tro","rarity"
"Common Chiffchaff","spPhyll5col","rarity"
"Sedge Warbler","spAcroc1sch","rarity"
"Paddyfield Warbler","spAcroc1agr","rarity"
"Common Reed Warbler","spAcroc1sci","rarity"
"Melodious Warbler","spHippopol","rarity"
"Common Grasshopper Warbler","spLocusnae","rarity"
"Eurasian Blackcap","spSylvi3atr",
"Garden Warbler","spSylvi3bor","rarity"
"Barred Warbler","spCurrunis","rarity"
"Eastern Subalpine Warbler","spCurrucan","rarity"
"Common Whitethroat","spCurrucom","rarity"
"Spectacled Warbler","spCurrucon","rarity"
"Ruby-crowned Kinglet","spCorthcal","rarity"
"Goldcrest","spRegulreg",
"Eurasian Wren","spTrogltro","rarity"
"Grey Catbird","spDumet1car","rarity"
"Common Starling","spSturn2vul",
"Wood Thrush","spHyloc2mus","rarity"
"Swainson's Thrush","spCatha1ust","rarity"
"Hermit Thrush","spCatha1gut","rarity"
"Grey-cheeked Thrush","spCatha1min","rarity"
"Veery","spCatha1fus1","rarity"
"Song Thrush","spTurduphi","rarity"
"Mistle Thrush","spTurduvis","rarity"
"Redwing","spTurduili","rarity"
"Common Blackbird","spTurdumer",
"Fieldfare","spTurdupil","rarity"
"Ring Ouzel","spTurdutor","rarity"
"Naumann's Thrush","spTurdunau","rarity"
"American Robin","spTurdumig","rarity"
"Spotted Flycatcher","spMusci3str","rarity"
"European Robin","spErithrub",
"Red-breasted Flycatcher","spFicedpar","rarity"
"European Pied Flycatcher","spFicedhyp1","rarity"
"Black Redstart","spPhoen5och","rarity"
"Common Redstart","spPhoen5pho","rarity"
"Whinchat","spSaxicrub","rarity"
"European Stonechat","spSaxicrub1","rarity"
"Northern Wheatear","spOenanoen",
"Isabelline Wheatear","spOenanisa","rarity"
"Western Black-eared Wheatear","spOenanhis","rarity"
"Rock Sparrow","spPetro3pet","rarity"
"House Sparrow","spPassedom","introduced"
"Common Waxbill","spEstriast","introduced"
"Western Yellow Wagtail","spMotacfla","rarity"
"Citrine Wagtail","spMotaccit","rarity"
"Grey Wagtail","spMotaccin",
"White Wagtail","spMotacalb","rarity"
"Tawny Pipit","spAnthucam","rarity"
"Meadow Pipit","spAnthupra","rarity"
"Tree Pipit","spAnthutri","rarity"
"Red-throated Pipit","spAnthucer","rarity"
"American Pipit","spAnthurub","rarity"
"Azores Chaffinch","spFringmor","endemic"
"Brambling","spFringmon","rarity"
"Azores Bullfinch","spPyrrh4mur","endemic"
"European Greenfinch","spChlor10chl","introduced"
"Twite","spLinarfla","rarity"
"Common Linnet","spLinarcan","rarity"
"Redpoll","spAcant5fla","rarity"
"Red Crossbill","spLoxiacur","rarity"
"Two-barred Crossbill","spLoxialeu","rarity"
"European Goldfinch","spCarducar","introduced"
"European Serin","spSerinser","rarity"
"Atlantic Canary","spSerincan",
"Eurasian Siskin","spSpinuspi","rarity"
"Lapland Longspur","spCalcalap","rarity"
"Snow Bunting","spPlect2niv",
"Ortolan Bunting","spEmberhor","rarity"
"Rustic Bunting","spEmberrus","rarity"
"Dark-eyed Junco","spJuncohye","rarity"
"White-crowned Sparrow","spZonotleu","rarity"
"White-throated Sparrow","spZonotalb","rarity"
"Savannah Sparrow","spPasse2san","rarity"
"Lincoln's Sparrow","spMeloslin","rarity"
"Bobolink","spDolicory","rarity"
"Baltimore Oriole","spIcter1gal","rarity"
"Ovenbird","spSeiuraur","rarity"
"Northern Waterthrush","spParkenov","rarity"
"Golden-winged Warbler","spVermichr","rarity"
"Blue-winged Warbler","spVermicya","rarity"
"Black-and-white Warbler","spMniotvar","rarity"
"Prothonotary Warbler","spProtocit","rarity"
"Tennessee Warbler","spLeiot1per","rarity"
"Connecticut Warbler","spOporoagi","rarity"
"Mourning Warbler","spGeothphi","rarity"
"Common Yellowthroat","spGeothtri","rarity"
"Hooded Warbler","spSetop1cit","rarity"
"American Redstart","spSetop1rut","rarity"
"Cape May Warbler","spSetop1tig","rarity"
"Northern Parula","spSetop1ame","rarity"
"Magnolia Warbler","spSetop1mag","rarity"
"Bay-breasted Warbler","spSetop1cas","rarity"
"Blackburnian Warbler","spSetop1fus","rarity"
"American Yellow Warbler","spSetop1aes","rarity"
"Chestnut-sided Warbler","spSetop1pen","rarity"
"Blackpoll Warbler","spSetop1str","rarity"
"Black-throated Blue Warbler","spSetop1cae","rarity"
"Myrtle Warbler","spSetop1cor","rarity"
"Yellow-throated Warbler","spSetop1dom","rarity"
"Prairie Warbler","spSetop1dis","rarity"
"Black-throated Green Warbler","spSetop1vir","rarity"
"Canada Warbler","spCardecan","rarity"
"Wilson's Warbler","spCardepus","rarity"
"Summer Tanager","spPiranrub","rarity"
"Scarlet Tanager","spPiranoli","rarity"
"Rose-breasted Grosbeak","spPheuclud","rarity"
"Dickcissel","spSpiza1ame","rarity"
"Blue Grosbeak","spPasse3cae","rarity"
"Indigo Bunting","spPasse3cya","rarity"
