"Name","ID","Status"
"Garganey","spSpatuque",
"Northern Shoveler","spSpatucly","rarity"
"Eurasian Wigeon","spMarecpen",
"Pacific Black Duck","spAnassup",
"Eastern Spot-billed Duck","spAnaszon","rarity"
"Northern Pintail","spAnasacu",
"Eurasian Teal","spAnascre",
"Common Pochard","spAythyfer","rarity"
"Tufted Duck","spAythyful",
"Micronesian Megapode","spMegaplap",
"Red Junglefowl","spGallugal","introduced"
"Palau Nightjar","spCapripha","endemic"
"Palau Swiftlet","spAerodpel","endemic"
"White-throated Needletail","spHiruncau","rarity"
"Pacific Swift","spApuspac","rarity"
"Chestnut-winged Cuckoo","spClamacor","rarity"
"Long-tailed Koel","spUrodytai",
"Channel-billed Cuckoo","spScythnov","rarity"
"Sahul Brush Cuckoo","spCacomvar","rarity"
"Northern Hawk-Cuckoo","spHierohyp","rarity"
"Hodgson's Hawk-Cuckoo","spHieronis","rarity"
"Oriental Cuckoo","spCuculopt",
"Common Cuckoo","spCuculcan",
"Rock Dove","spColumliv","introduced"
"Nicobar Pigeon","spCaloenic",
"Palau Ground Dove","spPampucan","endemic"
"Palau Fruit Dove","spPtilipel","endemic"
"Micronesian Imperial Pigeon","spDuculoce",
"Buff-banded Rail","spHypotphi",
"Common Moorhen","spGalli3chl",
"Eurasian Coot","spFulicatr","rarity"
"Australasian Swamphen","spPorph1mel",
"Slaty-legged Crake","spRalli1eur",
"Red-legged Crake","spRalli1fas","rarity"
"White-browed Crake","spPoliocin",
"Watercock","spGalli4cin","rarity"
"White-breasted Waterhen","spAmaur1pho","rarity"
"Plain Bush-hen","spAmaur1oli","rarity"
"Black-winged Stilt","spHiman1him",
"Grey Plover","spPluvi1squ",
"Pacific Golden Plover","spPluvi1ful",
"Common Ringed Plover","spCharahia","rarity"
"Little Ringed Plover","spCharadub","rarity"
"Red-kneed Dotterel","spEryth1cin","rarity"
"Oriental Plover","spAnarhver",
"Siberian Sand Plover","spAnarhmon",
"Greater Sand Plover","spAnarhles",
"Kentish Plover","spAnarhale","rarity"
"Eurasian Whimbrel","spNumenpha",
"Little Curlew","spNumenmin","rarity"
"Far Eastern Curlew","spNumenmad",
"Eurasian Curlew","spNumenarq","rarity"
"Bar-tailed Godwit","spLimoslap",
"Black-tailed Godwit","spLimoslim",
"Asian Dowitcher","spLimnosem","rarity"
"Swinhoe's Snipe","spGalli5meg",
"Common Snipe","spGalli5gal","rarity"
"Red-necked Phalarope","spPhala1lob","rarity"
"Terek Sandpiper","spXenuscin",
"Common Sandpiper","spActithyp",
"Green Sandpiper","spTringoch","rarity"
"Grey-tailed Tattler","spTringbre",
"Wandering Tattler","spTringinc",
"Marsh Sandpiper","spTringsta",
"Wood Sandpiper","spTringgla",
"Common Redshank","spTringtot",
"Lesser Yellowlegs","spTringfla","rarity"
"Common Greenshank","spTringneb",
"Ruddy Turnstone","spArenaint",
"Great Knot","spCalidten","rarity"
"Red Knot","spCalidcan","rarity"
"Ruff","spCalidpug",
"Broad-billed Sandpiper","spCalidfal","rarity"
"Sharp-tailed Sandpiper","spCalidacu",
"Curlew Sandpiper","spCalidfer","rarity"
"Temminck's Stint","spCalidtem","rarity"
"Long-toed Stint","spCalidsub","rarity"
"Red-necked Stint","spCalidruf",
"Sanderling","spCalidalb",
"Dunlin","spCalidalp",
"Little Stint","spCalidmin","rarity"
"White-rumped Sandpiper","spCalidfus","rarity"
"Pectoral Sandpiper","spCalidmel",
"Oriental Pratincole","spGlaremal",
"White Tern","spGygisalb",
"Brown Noddy","spAnoussto",
"Black Noddy","spAnousmin",
"Grey Noddy","spAnousalb",
"Sooty Tern","spOnychfus",
"Bridled Tern","spOnychana",
"Spectacled Tern","spOnychlun",
"Little Tern","spStern1alb",
"Gull-billed Tern","spGelocnil","rarity"
"Whiskered Tern","spChlidhyb",
"White-winged Tern","spChlidleu",
"Common Tern","spStern2hir1",
"Black-naped Tern","spStern2sum",
"Greater Crested Tern","spThala1ber",
"Black-headed Gull","spChroirid",
"Pomarine Jaeger","spStercpom",
"Red-tailed Tropicbird","spPhaet2rub",
"White-tailed Tropicbird","spPhaet2lep",
"Matsudaira's Storm Petrel","spHydro5mat",
"Tahiti Petrel","spPseudros",
"Streaked Shearwater","spCalonleu",
"Wedge-tailed Shearwater","spArdenpac",
"Tropical Shearwater","spPuffibai",
"Bulwer's Petrel","spBulwebul",
"Lesser Frigatebird","spFregaari",
"Great Frigatebird","spFregamin",
"Red-footed Booby","spSulasul",
"Brown Booby","spSulaleu",
"Masked Booby","spSuladac",
"Little Pied Cormorant","spMicro5mel",
"Little Black Cormorant","spPhala2sul","rarity"
"Great Cormorant","spPhala2car","rarity"
"Glossy Ibis","spPlegafal","rarity"
"Black-faced Spoonbill","spPlatamin","rarity"
"Von Schrenck's Bittern","spBotaueur","rarity"
"Yellow Bittern","spBotausin",
"Black-crowned Night Heron","spNycti6nyc",
"Nankeen Night Heron","spNycti6cal",
"Malayan Night Heron","spGorsamel","rarity"
"Japanese Night Heron","spGorsagoi","rarity"
"Pacific Reef Heron","spEgretsac",
"Little Egret","spEgretgar",
"Little Heron","spButoratr",
"Chinese Pond Heron","spArdeo1bac","rarity"
"Great Egret","spArdeaalb","rarity"
"Medium Egret","spArdeaint","rarity"
"Eastern Cattle Egret","spArdeacor","rarity"
"Grey Heron","spArdeacin","rarity"
"Australian Pelican","spPelec1con","rarity"
"Osprey","spPandihal",
"Chinese Sparrowhawk","spTachy3sol",
"Black Kite","spMilvumig",
"Brahminy Kite","spHaliaind","rarity"
"Grey-faced Buzzard","spButasind","rarity"
"Brown Boobook","spNinoxscu","rarity"
"Palau Scops Owl","spOtuspod","endemic"
"Oriental Dollarbird","spEurysori",
"Ruddy Kingfisher","spHalcycor","rarity"
"Collared Kingfisher","spTodirchl",
"Rusty-capped Kingfisher","spTodirpel","endemic"
"Common Kingfisher","spAlcedatt","rarity"
"Rainbow Bee-eater","spMerop1orn",
"Peregrine Falcon","spFalcoper",
"Sulphur-crested Cockatoo","spCacatgal","introduced"
"Papuan Eclectus","spEclecpol","introduced"
"Micronesian Myzomela","spMyzomrub2",
"White-breasted Woodswallow","spArtam1leu",
"Palau Cicadabird","spEdolimon1","endemic"
"Morningbird","spPachy4ten","endemic"
"Palau Fantail","spRhipilep","endemic"
"Palau Flycatcher","spMyiagery","endemic"
"Brown Shrike","spLaniucri","rarity"
"Sand Martin","spRiparrip","rarity"
"Barn Swallow","spHirun2rus",
"Eastern Red-rumped Swallow","spCecrodau","rarity"
"Palau Bush Warbler","spHororann","endemic"
"Oriental Reed Warbler","spAcroc1ori","rarity"
"Lanceolated Warbler","spLocuslan","rarity"
"Giant White-eye","spMegazpal","endemic"
"Dusky White-eye","spZoste1fin","endemic"
"Citrine White-eye","spZoste1sem1",
"Micronesian Starling","spAplonopa",
"Chestnut-cheeked Starling","spAgropphi","rarity"
"White's Thrush","spZoothaur","rarity"
"Eyebrowed Thrush","spTurduobs",
"Grey-streaked Flycatcher","spMusci3gri",
"Blue-and-white Flycatcher","spCyano11cya","rarity"
"Siberian Rubythroat","spCalli2cal",
"Narcissus Flycatcher","spFicednar","rarity"
"Blue Rock Thrush","spMontisol",
"Isabelline Wheatear","spOenanisa","rarity"
"Eurasian Tree Sparrow","spPassemon","introduced"
"Chestnut Munia","spLonchatr","introduced"
"Blue-faced Parrotfinch","spEryth6tri1",
"Eastern Yellow Wagtail","spMotactsc",
"Grey Wagtail","spMotaccin",
"White Wagtail","spMotacalb","rarity"
"Blyth's Pipit","spAnthugod","rarity"
"Olive-backed Pipit","spAnthuhod","rarity"
"Red-throated Pipit","spAnthucer","rarity"
"Little Bunting","spEmberpus","rarity"
"Black-headed Bunting","spEmbermel","rarity"
