"Name","ID","Status"
"Plumed Whistling Duck","spDendreyt","rarity"
"Pacific Black Duck","spAnassup",
"Grey Teal","spAnasgra","extinct"
"Melanesian Megapode","spMegapere",
"Red Junglefowl","spGallugal","introduced"
"Solomons Nightjar","spEurosnig",
"Solomons Frogmouth","spRigidine",
"Moustached Treeswift","spHemipmys",
"Glossy Swiftlet","spColloesc",
"Satin Swiftlet","spCollouro",
"White-rumped Swiftlet","spAerodspo",
"Mayr's Swiftlet","spAerodori",
"Uniform Swiftlet","spAerodvan",
"Pacific Swift","spApuspac","rarity"
"Buff-headed Coucal","spCentr1mil","endemic"
"Pacific Koel","spEudynori",
"Long-tailed Koel","spUrodytai",
"Channel-billed Cuckoo","spScythnov","rarity"
"Shining Bronze Cuckoo","spChalc1luc",
"Fan-tailed Cuckoo","spCacomfla","rarity"
"Sahul Brush Cuckoo","spCacomvar",
"Solomons Brush Cuckoo","spCacomadd",
"Oriental Cuckoo","spCuculopt","rarity"
"Metallic Pigeon","spColumvit",
"Yellow-legged Pigeon","spColumpal2",
"Spot-breasted Cuckoo-Dove","spMacro2mac1",
"Crested Cuckoo-Dove","spReinwcra",
"Pacific Emerald Dove","spChalc2lon",
"Stephan's Emerald Dove","spChalc2ste",
"Nicobar Pigeon","spCaloenic",
"White-breasted Ground Dove","spPampujob",
"Santa Cruz Ground Dove","spPampusan",
"Thick-billed Ground Dove","spPampusal","extinct"
"Bronze Ground Dove","spPampubec",
"Choiseul Pigeon","spMicro3mee","extinct"
"Superb Fruit Dove","spPtilisup",
"Silver-capped Fruit Dove","spPtiliric","endemic"
"Red-bellied Fruit Dove","spPtiligre",
"Yellow-bibbed Fruit Dove","spPtilisol",
"Claret-breasted Fruit Dove","spPtilivir",
"White-headed Fruit Dove","spPtilieug","endemic"
"Pacific Imperial Pigeon","spDuculpac",
"Red-knobbed Imperial Pigeon","spDuculrub",
"Island Imperial Pigeon","spDuculpis",
"Chestnut-bellied Imperial Pigeon","spDuculbre","endemic"
"Pale Mountain Pigeon","spGymnosol",
"Buff-banded Rail","spHypotphi",
"Roviana Rail","spHypotrov","endemic"
"Woodford's Rail","spHypotwoo",
"Dusky Moorhen","spGalli3ten","rarity"
"Makira Woodhen","spGalli3sil","endemic"
"Australasian Swamphen","spPorph1mel",
"Spotless Crake","spZaportab",
"White-browed Crake","spPoliocin",
"Pale-vented Bush-hen","spAmaur1mol",
"Australasian Grebe","spTachy2nov",
"Red-backed Buttonquail","spTurnimac",
"Beach Stone-curlew","spEsacumag",
"Pied Stilt","spHiman1leu","rarity"
"Grey Plover","spPluvi1squ",
"Pacific Golden Plover","spPluvi1ful",
"Little Ringed Plover","spCharadub",
"Masked Lapwing","spVanelmil","rarity"
"Oriental Plover","spAnarhver","rarity"
"Siberian Sand Plover","spAnarhmon",
"Greater Sand Plover","spAnarhles",
"Bristle-thighed Curlew","spNumentah","rarity"
"Eurasian Whimbrel","spNumenpha",
"Little Curlew","spNumenmin","rarity"
"Far Eastern Curlew","spNumenmad","rarity"
"Bar-tailed Godwit","spLimoslap",
"Black-tailed Godwit","spLimoslim","rarity"
"Asian Dowitcher","spLimnosem","rarity"
"Swinhoe's Snipe","spGalli5meg",
"Terek Sandpiper","spXenuscin","rarity"
"Common Sandpiper","spActithyp",
"Grey-tailed Tattler","spTringbre",
"Wandering Tattler","spTringinc",
"Marsh Sandpiper","spTringsta","rarity"
"Common Greenshank","spTringneb","rarity"
"Ruddy Turnstone","spArenaint",
"Great Knot","spCalidten","rarity"
"Red Knot","spCalidcan","rarity"
"Broad-billed Sandpiper","spCalidfal","rarity"
"Sharp-tailed Sandpiper","spCalidacu",
"Curlew Sandpiper","spCalidfer","rarity"
"Long-toed Stint","spCalidsub","rarity"
"Red-necked Stint","spCalidruf",
"Sanderling","spCalidalb","rarity"
"Pectoral Sandpiper","spCalidmel","rarity"
"Oriental Pratincole","spGlaremal","rarity"
"White Tern","spGygisalb",
"Brown Noddy","spAnoussto",
"Black Noddy","spAnousmin",
"Sooty Tern","spOnychfus",
"Bridled Tern","spOnychana",
"Spectacled Tern","spOnychlun","rarity"
"Little Tern","spStern1alb",
"White-winged Tern","spChlidleu","rarity"
"Common Tern","spStern2hir1",
"Black-naped Tern","spStern2sum",
"Roseate Tern","spStern2dou",
"Greater Crested Tern","spThala1ber",
"Long-tailed Jaeger","spSterclon",
"Parasitic Jaeger","spStercpar",
"Pomarine Jaeger","spStercpom",
"South Polar Skua","spStercmac","rarity"
"Red-tailed Tropicbird","spPhaet2rub","rarity"
"White-tailed Tropicbird","spPhaet2lep",
"Wilson's Storm Petrel","spOceanoce","rarity"
"Black-bellied Storm Petrel","spFregetro","rarity"
"Polynesian Storm Petrel","spNesofful","rarity"
"Laysan Albatross","spPhoebimm","rarity"
"Band-rumped Storm Petrel","spHydro5cas",
"Providence Petrel","spPtero3sol",
"Vanuatu Petrel","spPtero3occ",
"Herald Petrel","spPtero3her","rarity"
"Black-winged Petrel","spPtero3nig",
"Gould's Petrel","spPtero3leu","rarity"
"Collared Petrel","spPtero3bre",
"Tahiti Petrel","spPseudros",
"Beck's Petrel","spPseudbec","rarity"
"Lava Petrel (undescribed)","spPseudsp.","endemic"
"Streaked Shearwater","spCalonleu","rarity"
"Wedge-tailed Shearwater","spArdenpac",
"Sooty Shearwater","spArdengri","rarity"
"Short-tailed Shearwater","spArdenten","rarity"
"Flesh-footed Shearwater","spArdencar",
"Tropical Shearwater","spPuffibai","rarity"
"Heinroth's Shearwater","spPuffihei",
"Bulwer's Petrel","spBulwebul","rarity"
"Lesser Frigatebird","spFregaari",
"Great Frigatebird","spFregamin",
"Christmas Frigatebird","spFregaand","rarity"
"Red-footed Booby","spSulasul",
"Brown Booby","spSulaleu",
"Masked Booby","spSuladac","rarity"
"Little Pied Cormorant","spMicro5mel",
"Little Black Cormorant","spPhala2sul",
"Great Cormorant","spPhala2car",
"Australian White Ibis","spThresmol",
"Glossy Ibis","spPlegafal","rarity"
"Royal Spoonbill","spPlatareg","rarity"
"Black Bittern","spBotaufla",
"Yellow Bittern","spBotausin","rarity"
"Nankeen Night Heron","spNycti6cal",
"Pacific Reef Heron","spEgretsac",
"Little Egret","spEgretgar","rarity"
"White-faced Heron","spEgretnov","rarity"
"Little Heron","spButoratr",
"Great Egret","spArdeaalb",
"Plumed Egret","spArdeaplu","rarity"
"Eastern Cattle Egret","spArdeacor","rarity"
"Australian Pelican","spPelec1con","rarity"
"Osprey","spPandihal",
"Pacific Baza","spAvicesub",
"Variable Goshawk","spTachy3hio",
"Imitator Goshawk","spTachy3imi",
"Pied Goshawk","spTachy3alb",
"Brown Goshawk","spTachy3fas",
"Meyer's Goshawk","spAsturmey",
"Swamp Harrier","spCircuapp","rarity"
"Brahminy Kite","spHaliaind",
"Sanford's Sea Eagle","spIcthysan",
"Eastern Barn Owl","spTytojav",
"West Solomons Owl","spAthenjac",
"Guadalcanal Owl","spAthengra","endemic"
"Malaita Owl","spAthenmal","endemic"
"Makira Owl","spAthenros","endemic"
"Fearful Owl","spAsiosol",
"Blyth's Hornbill","spRhytipli",
"Oriental Dollarbird","spEurysori",
"Moustached Kingfisher","spActenbou",
"Forest Kingfisher","spTodirmac","rarity"
"Ultramarine Kingfisher","spTodirleu",
"Melanesian Kingfisher","spTodirtri",
"Pacific Kingfisher","spTodirsac",
"Beach Kingfisher","spTodirsau",
"Sacred Kingfisher","spTodirsan",
"Common Kingfisher","spAlcedatt",
"North Solomons Dwarf Kingfisher","spCeyxmee",
"New Georgia Dwarf Kingfisher","spCeyxcol","endemic"
"Guadalcanal Dwarf Kingfisher","spCeyxnig","endemic"
"Makira Dwarf Kingfisher","spCeyxgen","endemic"
"Little Kingfisher","spCeyxpus",
"Oriental Hobby","spFalcosev",
"Australian Hobby","spFalcolon","rarity"
"Peregrine Falcon","spFalcoper",
"Solomons Corella","spCacatduc",
"Finsch's Pygmy Parrot","spMicro11fin",
"Red-breasted Pygmy Parrot","spMicro11bru",
"Papuan Eclectus","spEclecpol",
"Song Parrot","spGeoffhet",
"Duchess Lorikeet","spCharm3mar",
"Meek's Lorikeet","spVinimee",
"Palm Lorikeet","spVinipal",
"Yellow-bibbed Lory","spLoriuchl","endemic"
"Cardinal Lory","spPseud3car",
"Coconut Lorikeet","spTrich1hae",
"Black-faced Pitta","spPittaane",
"Cardinal Myzomela","spMyzomcar",
"Red-capped Myzomela","spMyzomlaf",
"Crimson-rumped Myzomela","spMyzomeic","endemic"
"Red-vested Myzomela","spMyzommal","endemic"
"Black-headed Myzomela","spMyzommel","endemic"
"Sooty Myzomela","spMyzomtri","endemic"
"Guadalcanal Honeyeater","spGuadaine","endemic"
"Makira Honeyeater","spMeliascl","endemic"
"Noisy Miner","spManormel1","introduced"
"Rennell Gerygone","spGerygcit","endemic"
"Barred Cuckooshrike","spCorac2lin",
"Black-faced Cuckooshrike","spCorac2nov","rarity"
"North Melanesian Cuckooshrike","spCorac2wel",
"White-bellied Cuckooshrike","spCorac2pap",
"Solomons Cicadabird","spEdolihol",
"Malaita Cicadabird","spEdolitri","endemic"
"Makira Cicadabird","spEdolisal","endemic"
"Central Melanesian Cicadabird","spEdoliery",
"Polynesian Triller","spLalagmac",
"Long-tailed Triller","spLalagleu",
"Oriole Whistler","spPachy4ori",
"Rennell Whistler","spPachy4fem","endemic"
"Melanesian Whistler","spPachy4chl",
"Nendo Whistler","spPachy4orn","endemic"
"Utupua Whistler","spPachy4utu","endemic"
"Vanikoro Whistler","spPachy4van","endemic"
"Mangrove Golden Whistler","spPachy4mel1",
"Hooded Whistler","spPachy4imp","endemic"
"Spangled Drongo","spDicrubra",
"Willie Wagtail","spRhipileu",
"White-winged Fantail","spRhipicoc",
"White-gorgeted Fantail","spRhipicou","endemic"
"Grey Fantail","spRhipialb4",
"Guadalcanal Fantail","spRhipiocu","endemic"
"Makira Fantail","spRhipiten","endemic"
"Rennell Fantail","spRhipiren","endemic"
"Malaita Fantail","spRhipimal","endemic"
"Santa Cruz Fantail","spRhipimel","endemic"
"Solomons Rufous Fantail","spRhipiruf3","endemic"
"Vanikoro Monarch","spMayrosch","endemic"
"Santa Cruz Shrikebill","spClyto2san","endemic"
"Rennell Shrikebill","spClyto2ham","endemic"
"Solomons Monarch","spSympobar",
"Malaita Monarch","spSympomal","endemic"
"White-collared Monarch","spSympovid","endemic"
"Vella Lavella Monarch","spSymponig","endemic"
"Kolombangara Monarch","spSympobro","endemic"
"Island Monarch","spMonarcin",
"Chestnut-bellied Monarch","spMonarcas",
"White-capped Monarch","spMonarric","endemic"
"Steel-blue Flycatcher","spMyiagfer",
"Makira Flycatcher","spMyiagcer","endemic"
"Melanesian Flycatcher","spMyiagcal",
"Vanikoro Flycatcher","spMyiagvan",
"White-billed Crow","spCorvuwoo","endemic"
"Bougainville Crow","spCorvumee",
"Solomons Robin","spPetro1pol",
"Pacific Swallow","spHirun2jav",
"Tree Martin","spPetro2nig","rarity"
"Shade Bush Warbler","spHororpar","endemic"
"Makira Leaf Warbler","spPhyll5mak","endemic"
"Kolombangara Leaf Warbler","spPhyll5amo","endemic"
"Island Leaf Warbler","spPhyll5pol1",
"Australian Reed Warbler","spAcroc1aus",
"Guadalcanal Thicketbird","spCincl2tur","endemic"
"Vella Lavella White-eye","spZoste1vel","endemic"
"Santa Cruz White-eye","spZoste1san","endemic"
"Bare-eyed White-eye","spZoste1sup","endemic"
"Sanford's White-eye","spZoste1lac","endemic"
"Vanikoro White-eye","spZoste1gib","endemic"
"Guadalcanal White-eye","spZoste1obl","endemic"
"Makira White-eye","spZoste1ren","endemic"
"Yellow-throated White-eye","spZoste1met",
"Malaita White-eye","spZoste1str","endemic"
"Gizo White-eye","spZoste1lut1","endemic"
"Ranongga White-eye","spZoste1spl","endemic"
"Solomons White-eye","spZoste1kul","endemic"
"Dark-eyed White-eye","spZoste1tet","endemic"
"Kolombangara White-eye","spZoste1mur","endemic"
"Rennell White-eye","spZoste1ren1","endemic"
"Metallic Starling","spAplonmet",
"Singing Starling","spAploncan",
"Atoll Starling","spAplonfea",
"Rennell Starling","spAplonins","endemic"
"White-eyed Starling","spAplonbru",
"Brown-winged Starling","spAplongra",
"Makira Starling","spAplondic","endemic"
"Rusty-winged Starling","spAplonzel",
"Polynesian Starling","spAplontab",
"Long-tailed Myna","spMinokre",
"Common Myna","spAcridtri","introduced"
"Guadalcanal Thrush","spZoothtur","endemic"
"Makira Thrush","spZoothmar1","endemic"
"Russet-tailed Thrush","spZoothhei1",
"Solomons Island Thrush","spTurdukul","endemic"
"Vanikoro Island Thrush","spTurduvan",
"Midget Flowerpecker","spDicaeaen",
"Mottled Flowerpecker","spDicaetri1","endemic"
"Sahul Sunbird","spCinny2fre",
"Eurasian Tree Sparrow","spPassemon","rarity-from-introduced"
"Blue-faced Parrotfinch","spEryth6tri1",
"Eastern Yellow Wagtail","spMotactsc","rarity"
