"Name","ID","Status"
"White-faced Whistling Duck","spDendrvid",
"Fulvous Whistling Duck","spDendrbic","rarity"
"Spur-winged Goose","spPlectgam",
"Knob-billed Duck","spSarkimel",
"Hartlaub's Duck","spPterohar",
"African Pygmy Goose","spNettaaur",
"Garganey","spSpatuque",
"Northern Shoveler","spSpatucly","rarity"
"Northern Pintail","spAnasacu",
"Ferruginous Duck","spAythynyr","rarity"
"Tufted Duck","spAythyful","rarity"
"White-breasted Guineafowl","spAgelamel",
"Helmeted Guineafowl","spNumidmel",
"Western Crested Guineafowl","spGuttever",
"Stone Partridge","spPtilopet",
"Latham's Francolin","spPeliplat",
"Blue Quail","spSynoiada",
"Common Quail","spCoturcot",
"Ahanta Spurfowl","spPternaha",
"Double-spurred Spurfowl","spPternbic",
"Brown Nightjar","spVelesbin",
"European Nightjar","spCaprieur","rarity"
"Fiery-necked Nightjar","spCapripec",
"Swamp Nightjar","spCaprinat",
"Plain Nightjar","spCapriino",
"Freckled Nightjar","spCapritri",
"Long-tailed Nightjar","spCapricli",
"Standard-winged Nightjar","spCaprilon",
"Mottled Spinetail","spTelacuss","rarity"
"Black Spinetail","spTelacmel",
"Sabine's Spinetail","spRhaphsab",
"Cassin's Spinetail","spNeafrcas",
"African Palm Swift","spCypsipar",
"Alpine Swift","spTachy1mel","rarity"
"Mottled Swift","spTachy1aeq",
"Common Swift","spApusapu",
"Plain Swift","spApusuni","rarity"
"Pallid Swift","spApuspal",
"African Black Swift","spApusbar",
"Little Swift","spApusaff",
"White-rumped Swift","spApuscaf",
"Bates's Swift","spApusbat",
"Great Blue Turaco","spCorytcri",
"Western Plantain-eater","spCrinipis",
"Violet Turaco","spTauravio","rarity"
"Yellow-billed Turaco","spTauramac",
"Guinea Turaco","spTauraper",
"Denham's Bustard","spNeotiden",
"Black-bellied Bustard","spLissomel",
"Black-throated Coucal","spCentr1leu",
"Senegal Coucal","spCentr1sen",
"Blue-headed Coucal","spCentr1mon",
"Black Coucal","spCentr1gri",
"Blue Malkoha","spCeuthaer",
"Great Spotted Cuckoo","spClamagla",
"Levaillant's Cuckoo","spClamalev",
"Thick-billed Cuckoo","spPachyaud",
"Diederik Cuckoo","spChrys3cap",
"Klaas's Cuckoo","spChrys3kla",
"Yellow-throated Cuckoo","spChrys3fla",
"African Emerald Cuckoo","spChrys3cup",
"Dusky Long-tailed Cuckoo","spCercomec",
"Olive Long-tailed Cuckoo","spCercooli",
"Black Cuckoo","spCuculcla",
"Red-chested Cuckoo","spCuculsol",
"African Cuckoo","spCuculgul",
"Common Cuckoo","spCuculcan",
"Four-banded Sandgrouse","spPtero2qua","rarity"
"Rock Dove","spColumliv","introduced"
"Speckled Pigeon","spColumgui",
"Afep Pigeon","spColumuni",
"Western Bronze-naped Pigeon","spColumiri",
"Lemon Dove","spColumlar",
"European Turtle Dove","spStrep1tur",
"Red-eyed Dove","spStrep1sem",
"Vinaceous Dove","spStrep1vin",
"Laughing Dove","spSpilosen",
"Blue-spotted Wood Dove","spTurtuafe",
"Tambourine Dove","spTurtutym",
"Blue-headed Wood Dove","spTurtubre",
"Namaqua Dove","spOenacap","rarity"
"African Green Pigeon","spTrerocal",
"African Finfoot","spPodicsen",
"White-spotted Flufftail","spSarotpul",
"Buff-spotted Flufftail","spSarotele",
"Red-chested Flufftail","spSarotruf",
"Streaky-breasted Flufftail","spSarotboe","rarity"
"Grey-throated Rail","spCanirocu",
"African Rail","spRallucae","rarity"
"African Crake","spCrecoegr",
"Lesser Moorhen","spParagang",
"Common Moorhen","spGalli3chl",
"Allen's Gallinule","spPorph1all",
"African Swamphen","spPorph1mad",
"Black Crake","spZaporfla",
"Nkulengu Rail","spHimanhae",
"Black Crowned Crane","spBaleapav",
"Little Grebe","spTachy2ruf1",
"Greater Flamingo","spPhoenros",
"Lesser Flamingo","spPhoen1min",
"Common Buttonquail","spTurnisyl",
"Black-rumped Buttonquail","spTurninan",
"Water Thick-knee","spBurhiver","rarity"
"Eurasian Stone-curlew","spBurhioed","rarity"
"Senegal Thick-knee","spBurhisen",
"Eurasian Oystercatcher","spHaema1ost",
"Black-winged Stilt","spHiman1him",
"Pied Avocet","spRecuravo",
"Grey Plover","spPluvi1squ",
"European Golden Plover","spPluvi1apr","rarity"
"American Golden Plover","spPluvi1dom","rarity"
"Common Ringed Plover","spCharahia",
"Forbes's Plover","spCharafor",
"Little Ringed Plover","spCharadub",
"Spur-winged Lapwing","spVanelspi",
"White-crowned Lapwing","spVanelalb",
"Senegal Lapwing","spVanellug",
"African Wattled Lapwing","spVanelsen",
"Caspian Plover","spAnarhasi","rarity"
"White-fronted Plover","spAnarhmar",
"Kentish Plover","spAnarhale",
"Egyptian Plover","spPluvi2aeg",
"Greater Painted-snipe","spRostrben",
"Lesser Jacana","spMicro4cap","rarity"
"African Jacana","spActopafr",
"Eurasian Whimbrel","spNumenpha",
"Hudsonian Whimbrel","spNumenhud","rarity"
"Eurasian Curlew","spNumenarq",
"Bar-tailed Godwit","spLimoslap",
"Black-tailed Godwit","spLimoslim",
"Great Snipe","spGalli5med",
"Common Snipe","spGalli5gal",
"Red Phalarope","spPhala1ful","rarity"
"Red-necked Phalarope","spPhala1lob","rarity"
"Terek Sandpiper","spXenuscin","rarity"
"Common Sandpiper","spActithyp",
"Green Sandpiper","spTringoch",
"Marsh Sandpiper","spTringsta",
"Wood Sandpiper","spTringgla",
"Common Redshank","spTringtot",
"Common Greenshank","spTringneb",
"Ruddy Turnstone","spArenaint",
"Red Knot","spCalidcan",
"Ruff","spCalidpug",
"Curlew Sandpiper","spCalidfer",
"Temminck's Stint","spCalidtem","rarity"
"Buff-breasted Sandpiper","spCalidsub1","rarity"
"Sanderling","spCalidalb",
"Dunlin","spCalidalp",
"Little Stint","spCalidmin",
"Pectoral Sandpiper","spCalidmel","rarity"
"Temminck's Courser","spCursotem","rarity"
"Rock Pratincole","spGlarenuc",
"Collared Pratincole","spGlarepra",
"African Skimmer","spRynchfla",
"Brown Noddy","spAnoussto","rarity"
"Black Noddy","spAnousmin","rarity"
"Sooty Tern","spOnychfus","rarity"
"Bridled Tern","spOnychana","rarity"
"Little Tern","spStern1alb","rarity"
"Damara Tern","spStern1bal","rarity"
"Gull-billed Tern","spGelocnil",
"Caspian Tern","spHydro3cas",
"Whiskered Tern","spChlidhyb",
"Black Tern","spChlidnig",
"White-winged Tern","spChlidleu",
"Arctic Tern","spStern2par",
"Common Tern","spStern2hir1",
"Roseate Tern","spStern2dou",
"Sandwich Tern","spThala1san",
"Lesser Crested Tern","spThala1ben","rarity"
"West African Crested Tern","spThala1alb",
"Little Gull","spHydro4min","rarity"
"Sabine's Gull","spXemasab",
"Black-headed Gull","spChroirid","rarity"
"Grey-headed Gull","spChroicir",
"Lesser Black-backed Gull","spLarusfus",
"Parasitic Jaeger","spStercpar","rarity"
"Pomarine Jaeger","spStercpom",
"Wilson's Storm Petrel","spOceanoce","rarity"
"Black-bellied Storm Petrel","spFregetro","rarity"
"European Storm Petrel","spHydro5pel","rarity"
"Leach's Storm Petrel","spHydro5leu","rarity"
"Band-rumped Storm Petrel","spHydro5cas","rarity"
"Scopoli's Shearwater","spCalondio",
"African Openbill","spAnastlam",
"Marabou Stork","spLepto2cru",
"Yellow-billed Stork","spMycteibi",
"Abdim's Stork","spCiconabd",
"African Woolly-necked Stork","spCiconmic",
"Black Stork","spCiconnig","rarity"
"White Stork","spCiconcic","rarity"
"Northern Gannet","spMorusbas",
"Brown Booby","spSulaleu","rarity"
"African Darter","spAnhinruf",
"Reed Cormorant","spMicro5afr",
"African Sacred Ibis","spThresaet",
"Olive Ibis","spBostroli",
"Hadada Ibis","spBostrhag",
"Glossy Ibis","spPlegafal","rarity"
"Eurasian Spoonbill","spPlataleu","rarity"
"African Spoonbill","spPlataalb",
"White-crested Tiger Heron","spTigrileu",
"Dwarf Bittern","spBotaustu",
"Little Bittern","spBotaumin",
"Black-crowned Night Heron","spNycti6nyc",
"Black Heron","spEgretard",
"Little Egret","spEgretgar",
"Western Reef Heron","spEgretgul",
"White-backed Night Heron","spCalheleu",
"Little Heron","spButoratr",
"Squacco Heron","spArdeo1ral",
"Great Egret","spArdeaalb",
"Yellow-billed Egret","spArdeabra",
"Western Cattle Egret","spArdeaibi",
"Grey Heron","spArdeacin",
"Purple Heron","spArdeapur",
"Black-headed Heron","spArdeamel",
"Goliath Heron","spArdeagol",
"Hamerkop","spScopuumb",
"Pink-backed Pelican","spPelec1ruf",
"Osprey","spPandihal",
"Black-winged Kite","spElanucae",
"African Harrier-Hawk","spPolybtyp",
"Palm-nut Vulture","spGypohang",
"African Cuckoo-Hawk","spAvicecuc",
"European Honey Buzzard","spPerniapi",
"Hooded Vulture","spNecromon",
"White-backed Vulture","spGypsafr","rarity"
"Rüppell's Vulture","spGypsrue","rarity"
"Bateleur","spTerateca","rarity"
"Western Banded Snake Eagle","spCircacin",
"Congo Serpent Eagle","spCircaspe",
"Beaudouin's Snake Eagle","spCircabea","rarity"
"Brown Snake Eagle","spCircacin1",
"Bat Hawk","spMachealc",
"Crowned Eagle","spSteph1cor",
"Martial Eagle","spPolembel",
"Long-crested Eagle","spLophaocc",
"Wahlberg's Eagle","spHierawah",
"Ayres's Hawk-Eagle","spHieraayr",
"Booted Eagle","spHierapen",
"Tawny Eagle","spAquilrap","rarity"
"Cassin's Hawk-Eagle","spAquilafr",
"African Hawk-Eagle","spAquilspi",
"Long-tailed Hawk","spUrotrmac",
"Dark Chanting Goshawk","spMeliemet","rarity"
"Lizard Buzzard","spKaupimon",
"African Goshawk","spAerostac",
"Red-thighed Sparrowhawk","spTachy3ery",
"Shikra","spTachy3bad",
"Ovambo Sparrowhawk","spAccipova","rarity"
"Black Sparrowhawk","spAsturmel",
"Pallid Harrier","spCircumac",
"Montagu's Harrier","spCircupyg","rarity"
"Western Marsh Harrier","spCircuaer",
"Black Kite","spMilvumig",
"Yellow-billed Kite","spMilvuaeg",
"African Fish Eagle","spIcthyvoc",
"Grasshopper Buzzard","spButasruf",
"Red-necked Buzzard","spButeo1aug",
"Common Buzzard","spButeo1but","rarity"
"Long-legged Buzzard","spButeo1ruf1","rarity"
"Western Barn Owl","spTytoalb",
"Pearl-spotted Owlet","spGlauc1per","rarity"
"Red-chested Owlet","spGlauc1tep",
"African Scops Owl","spOtussen",
"Northern White-faced Owl","spPtilo1leu",
"Greyish Eagle-Owl","spBubocin",
"Fraser's Eagle-Owl","spKetuppoe",
"Akun Eagle-Owl","spKetupleu",
"Verreaux's Eagle-Owl","spKetuplac",
"Shelley's Eagle-Owl","spKetupshe",
"Pel's Fishing Owl","spScotopel",
"Rufous Fishing Owl","spScotouss",
"African Wood Owl","spStrixwoo",
"Narina Trogon","spApalonar",
"Eurasian Hoopoe","spUpupaepo",
"Green Wood Hoopoe","spPhoen3pur",
"Black Scimitarbill","spRhino2ate",
"Abyssinian Ground Hornbill","spBucoraby",
"Western Red-billed Hornbill","spTockukem",
"West African Pied Hornbill","spLopho11sem",
"African Grey Hornbill","spLopho11nas",
"Red-billed Dwarf Hornbill","spLopho11cam",
"Piping Hornbill","spBycanfis",
"Brown-cheeked Hornbill","spBycancyl",
"Black-and-white-casqued Hornbill","spBycansub",
"Black-casqued Hornbill","spCeratatr",
"Yellow-casqued Hornbill","spCeratela",
"Western Dwarf Hornbill","spHorizhar",
"Western Long-tailed Hornbill","spHorizalb",
"Purple Roller","spCoracnae","rarity"
"Abyssinian Roller","spCoracaby",
"Blue-bellied Roller","spCoraccya",
"Blue-throated Roller","spEurysgul",
"Broad-billed Roller","spEurysgla",
"Chocolate-backed Kingfisher","spHalcybad",
"Grey-headed Kingfisher","spHalcyleu",
"Striped Kingfisher","spHalcyche",
"Blue-breasted Kingfisher","spHalcymal",
"Woodland Kingfisher","spHalcysen",
"African Dwarf Kingfisher","spIspidlec",
"African Pygmy Kingfisher","spIspidpic",
"White-bellied Kingfisher","spCoryt1leu",
"Malachite Kingfisher","spCoryt1cri",
"Shining-blue Kingfisher","spAlcedqua",
"Giant Kingfisher","spMegac1max",
"Pied Kingfisher","spCerylrud",
"Blue-moustached Bee-eater","spMerop1men",
"Black Bee-eater","spMerop1gul",
"Swallow-tailed Bee-eater","spMerop1hir",
"Little Bee-eater","spMerop1pus",
"Red-throated Bee-eater","spMerop1bul","rarity"
"White-throated Bee-eater","spMerop1alb",
"Blue-cheeked Bee-eater","spMerop1per",
"European Bee-eater","spMerop1api",
"Northern Carmine Bee-eater","spMerop1nub",
"Western Yellow-billed Barbet","spTrachgof",
"Bristle-nosed Barbet","spGymno3pel",
"Naked-faced Barbet","spGymno3cal",
"Speckled Tinkerbird","spPogonsco",
"Red-rumped Tinkerbird","spPogonatr",
"Yellow-throated Tinkerbird","spPogonsub",
"Yellow-rumped Tinkerbird","spPogonbil",
"Yellow-fronted Tinkerbird","spPogonchr",
"Yellow-spotted Barbet","spBuccaduc",
"Hairy-breasted Barbet","spTrichhir",
"Vieillot's Barbet","spLybiuvie",
"Double-toothed Barbet","spPogon1bid",
"Cassin's Honeybird","spProdoins",
"Yellow-footed Honeyguide","spMeligeis",
"Willcocks's Honeyguide","spIndicwil",
"Least Honeyguide","spIndicexi",
"Lesser Honeyguide","spIndicmin",
"Spotted Honeyguide","spIndicmac",
"Greater Honeyguide","spIndicind",
"Lyre-tailed Honeyguide","spMelicrob",
"Eurasian Wryneck","spJynxtor",
"Buff-spotted Woodpecker","spPardi1niv",
"Brown-eared Woodpecker","spPardi1car",
"Fine-spotted Woodpecker","spCampepun",
"Little Green Woodpecker","spCampemac",
"Fire-bellied Woodpecker","spChlor3pyr",
"Cardinal Woodpecker","spDendr4fus",
"Melancholy Woodpecker","spDendr4lug",
"African Grey Woodpecker","spDendr4goe",
"Brown-backed Woodpecker","spDendr4obs",
"Lesser Kestrel","spFalconau",
"Common Kestrel","spFalcotin",
"Fox Kestrel","spFalcoalo",
"Grey Kestrel","spFalcoard",
"Red-necked Falcon","spFalcochi","rarity"
"African Hobby","spFalcocuv",
"Lanner Falcon","spFalcobia","rarity"
"Peregrine Falcon","spFalcoper",
"Timneh Parrot","spPsitttim",
"Brown-necked Parrot","spPoicefus","rarity"
"Senegal Parrot","spPoicesen",
"Red-headed Lovebird","spAgapopul",
"Black-collared Lovebird","spAgaposwi",
"Rufous-sided Broadbill","spSmithruf",
"African Broadbill","spSmithcap",
"African Pitta","spPittaang",
"Senegal Batis","spBatissen",
"West African Batis","spBatisocc",
"West African Wattle-eye","spPlaty2hor",
"Brown-throated Wattle-eye","spPlaty2cya",
"Yellow-bellied Wattle-eye","spPlaty2con",
"Red-cheeked Wattle-eye","spPlaty2bli",
"Fiery-breasted Bushshrike","spMalac2cru",
"Grey-headed Bushshrike","spMalac2bla",
"Lagden's Bushshrike","spMalac2lag",
"Many-colored Bushshrike","spChlor5mul",
"Orange-breasted Bushshrike","spChlor5sul",
"Marsh Tchagra","spBocagmin",
"Brown-crowned Tchagra","spTchagaus",
"Black-crowned Tchagra","spTchagsen",
"Sabine's Puffback","spDryossab",
"Northern Puffback","spDryosgam",
"Lowland Sooty Boubou","spLanialeu",
"Tropical Boubou","spLaniamaj",
"Turati's Boubou","spLaniatur",
"Yellow-crowned Gonolek","spLaniabar",
"Brubru","spNilauafe",
"White-crested Helmetshrike","spPrion2plu",
"Red-billed Helmetshrike","spPrion2can",
"African Shrike-flycatcher","spMegabfla",
"Black-and-white Shrike-flycatcher","spBiasmus",
"White-breasted Cuckooshrike","spCeblepec",
"Red-shouldered Cuckooshrike","spCampe2pho",
"Purple-throated Cuckooshrike","spCampe2qui",
"Western Wattled Cuckooshrike","spLobotlob",
"Blue Cuckooshrike","spCyano5azu",
"Western Oriole","spOriol1bra",
"Black-winged Oriole","spOriol1nig",
"African Golden Oriole","spOriol1aur",
"Eurasian Golden Oriole","spOriol1ori",
"Velvet-mantled Drongo","spDicrumod",
"Fork-tailed Drongo","spDicruads",
"Shining Drongo","spDicruatr",
"Sharpe's Drongo","spDicrusha",
"Blue-headed Crested Flycatcher","spTroch1nit",
"Red-bellied Paradise Flycatcher","spTerpsruf1",
"African Paradise Flycatcher","spTerpsvir",
"Yellow-billed Shrike","spLaniucor",
"Northern Fiscal","spLaniuhum",
"Woodchat Shrike","spLaniusen",
"Piapiac","spPtilo6afe",
"Pied Crow","spCorvualb",
"White-necked Rockfowl","spPicatgym",
"African Blue Flycatcher","spElminlon",
"Dusky Crested Flycatcher","spElminnig",
"White-shouldered Black Tit","spMelan8gui",
"Dusky Tit","spMelan8fun",
"Western Nicator","spNicatchl",
"Rufous-rumped Lark","spPinarery",
"Highland Lark","spCoryp1kur",
"Sun Lark","spGalermod",
"Crested Lark","spGalercri","rarity"
"Slender-billed Greenbul","spStelggra",
"Golden Greenbul","spCalyp4ser",
"Red-tailed Bristlebill","spBledasyn",
"Green-tailed Bristlebill","spBledaexi",
"Grey-headed Bristlebill","spBledacan",
"Yellow-gorgeted Greenbul","spAtimafla",
"Spotted Greenbul","spIxonogut",
"Swamp Palm Bulbul","spThescleu",
"Simple Greenbul","spChlor6sim",
"Honeyguide Greenbul","spBaeopind",
"Western Bearded Greenbul","spCrini1bar",
"Red-tailed Greenbul","spCrini1cal",
"Yellow-bearded Greenbul","spCrini1oli",
"Little Greenbul","spEurilvir",
"Yellow-whiskered Greenbul","spEurillat",
"Plain Greenbul","spEurilcur",
"Little Grey Greenbul","spEurilgra",
"Ansorge's Greenbul","spEurilans",
"White-throated Greenbul","spPhyll3alb1",
"Icterine Greenbul","spPhyll3ict",
"Leaf-love","spPhyll3sca",
"Baumann's Olive Greenbul","spPhyll3bau",
"Common Bulbul","spPycno2bar",
"Square-tailed Saw-wing","spPsalinit",
"Fanti Saw-wing","spPsaliobs",
"Grey-rumped Swallow","spPseud16gri",
"Banded Martin","spNeoph3cin","rarity"
"Sand Martin","spRiparrip",
"Red-throated Rock Martin","spPtyonruf",
"Pied-winged Swallow","spHirun2leu",
"Barn Swallow","spHirun2rus",
"Red-chested Swallow","spHirun2luc",
"White-bibbed Swallow","spHirun2nig1",
"Wire-tailed Swallow","spHirun2smi",
"Western House Martin","spDelicurb",
"European Red-rumped Swallow","spCecroruf",
"African Red-rumped Swallow","spCecromel",
"Lesser Striped Swallow","spCecroaby",
"Red-breasted Swallow","spCecrosem",
"Preuss's Cliff Swallow","spPetro2pre",
"Moustached Grass Warbler","spMelocmen",
"Kemp's Longbill","spMacro4kem",
"Grey Longbill","spMacro4con",
"Northern Crombec","spSylvi2bra",
"Green Crombec","spSylvi2vir",
"Lemon-bellied Crombec","spSylvi2den",
"Chestnut-capped Flycatcher","spEryth4mcc",
"Green Hylia","spHyliapra",
"Tit Hylia","spPholirus",
"Wood Warbler","spPhyll5sib",
"Willow Warbler","spPhyll5tro",
"Great Reed Warbler","spAcroc1aru",
"Sedge Warbler","spAcroc1sch",
"Common Reed Warbler","spAcroc1sci",
"Marsh Warbler","spAcroc1pal1","rarity"
"Western Olivaceous Warbler","spIdunaopa",
"Melodious Warbler","spHippopol",
"Common Grasshopper Warbler","spLocusnae","rarity"
"Fan-tailed Grassbird","spCatribre",
"Red-faced Cisticola","spCistiery",
"Singing Cisticola","spCistican",
"Whistling Cisticola","spCistilat",
"Chattering Cisticola","spCistiano",
"Rock-loving Cisticola","spCistiabe",
"Winding Cisticola","spCistimar",
"Croaking Cisticola","spCistinat",
"Dorst's Cisticola","spCistigui",
"Short-winged Cisticola","spCistibra",
"Rufous Cisticola","spCistiruf2",
"Zitting Cisticola","spCistijun",
"Black-backed Cisticola","spCistiexi",
"Tawny-flanked Prinia","spPrinisub",
"Red-winged Prinia","spPriniery",
"Sierra Leone Prinia","spSchis1leo",
"Yellow-breasted Apalis","spApalifla2",
"Black-capped Apalis","spApalinig",
"Sharpe's Apalis","spApalisha",
"Oriole Warbler","spHyperatr",
"Grey-backed Camaroptera","spCamarbre",
"Yellow-browed Camaroptera","spCamarsup",
"Olive-green Camaroptera","spCamarchl",
"Black-headed Rufous Warbler","spBathmcer",
"Senegal Eremomela","spEremo2pus",
"Rufous-crowned Eremomela","spEremo2bad",
"Eurasian Blackcap","spSylvi3atr",
"Garden Warbler","spSylvi3bor",
"Barred Warbler","spCurrunis","rarity"
"Western Subalpine Warbler","spCurruibe","rarity"
"Moltoni's Warbler","spCurrusub1",
"Northern Yellow White-eye","spZoste1sen",
"Brown Illadopsis","spIlladful",
"Pale-breasted Illadopsis","spIlladruf",
"Blackcap Illadopsis","spIlladcle",
"Puvel's Illadopsis","spIlladpuv",
"Rufous-winged Illadopsis","spIlladruf1",
"Capuchin Babbler","spTurdoatr",
"Brown Babbler","spTurdople",
"Blackcap Babbler","spTurdorei",
"Yellow-bellied Hyliota","spHyliofla",
"Violet-backed Hyliota","spHyliovio",
"African Spotted Creeper","spSalposal",
"Copper-tailed Starling","spHylop3cup",
"Lesser Blue-eared Starling","spLampr2chl",
"Splendid Starling","spLampr2spl",
"Emerald Starling","spLampr2iri",
"Long-tailed Glossy Starling","spLampr2cau","rarity"
"Violet-backed Starling","spCinny1leu",
"Chestnut-winged Starling","spOnych2ful",
"Narrow-tailed Starling","spPoeoplug",
"Yellow-billed Oxpecker","spBuphaafr",
"Finsch's Rufous Thrush","spStizofin",
"White-tailed Ant Thrush","spNeocopoe",
"Grey Ground Thrush","spGeokipri",
"African Thrush","spTurdupel",
"White-tailed Alethe","spAlethdia",
"Forest Scrub Robin","spTychaleu",
"Pale Flycatcher","spAgricpal",
"White-browed Forest Flycatcher","spFrasecin",
"Fraser's Forest Flycatcher","spFraseocr",
"Grey-throated Tit-Flycatcher","spFrasegri",
"Grey Tit-Flycatcher","spFraseplu",
"Olivaceous Flycatcher","spFraseoli",
"Ashy Flycatcher","spFrasecae",
"Tessmann's Flycatcher","spFrasetes",
"Nimba Flycatcher","spMelaeann",
"Northern Black Flycatcher","spMelaeedo",
"Dusky-blue Flycatcher","spBradocom",
"Ussher's Flycatcher","spArtomuss",
"Little Grey Flycatcher","spMusci3epu",
"Spotted Flycatcher","spMusci3str",
"Cassin's Flycatcher","spMusci3cas",
"Orange-breasted Forest Robin","spStiphery",
"Brown-chested Alethe","spChama3pol1",
"White-crowned Robin-Chat","spCossy1alb",
"Snowy-crowned Robin-Chat","spCossy1niv",
"Blue-shouldered Robin-Chat","spCossy1cya",
"Lowland Akalat","spSheppcyo",
"Grey-winged Robin-Chat","spShepppol",
"Common Nightingale","spLuscimeg",
"European Pied Flycatcher","spFicedhyp1",
"Common Redstart","spPhoen5pho",
"Common Rock Thrush","spMontisax",
"Blue Rock Thrush","spMontisol",
"Whinchat","spSaxicrub",
"African Stonechat","spSaxictor",
"Northern Wheatear","spOenanoen",
"White-fronted Black Chat","spOenanalb",
"Fraser's Sunbird","spDeleofra",
"Mangrove Sunbird","spAnthr2gab",
"Western Violet-backed Sunbird","spAnthr2lon",
"Little Green Sunbird","spAnthr2sei",
"Yellow-chinned Sunbird","spAnthr2rec",
"Collared Sunbird","spHedydcol",
"Pygmy Sunbird","spHedydpla",
"Green-headed Sunbird","spCyano12ver",
"Blue-throated Brown Sunbird","spCyano12cya",
"Olive Sunbird","spCyano12oli",
"Buff-throated Sunbird","spChalc5ade",
"Carmelite Sunbird","spChalc5ful",
"Scarlet-chested Sunbird","spChalc5sen",
"Olive-bellied Sunbird","spCinny2chl",
"Tiny Sunbird","spCinny2min",
"Beautiful Sunbird","spCinny2pul",
"Splendid Sunbird","spCinny2coc",
"Johanna's Sunbird","spCinny2joh",
"Superb Sunbird","spCinny2sup",
"Variable Sunbird","spCinny2ven",
"Copper Sunbird","spCinny2cup",
"Sahel Bush Sparrow","spGymno10den",
"Northern Grey-headed Sparrow","spPassegri",
"House Sparrow","spPassedom","introduced"
"Thick-billed Weaver","spAmbly1alb",
"Slender-billed Weaver","spPloce2pel",
"Olive-naped Weaver","spPloce2bra",
"Orange Weaver","spPloce2aur",
"Heuglin's Masked Weaver","spPloce2heu",
"Village Weaver","spPloce2cuc",
"Chestnut-and-black Weaver","spPloce2cas2",
"Yellow-mantled Weaver","spPloce2tri",
"Maxwell's Black Weaver","spPloce2alb",
"Compact Weaver","spPloce2sup",
"Preuss's Weaver","spPloce2pre",
"Gola Malimbe","spMalimbal",
"Red-vented Malimbe","spMalimscu",
"Blue-billed Malimbe","spMalimnit",
"Red-headed Malimbe","spMalimrub",
"Crested Malimbe","spMalimmal",
"Red-headed Quelea","spQueleery",
"Yellow-crowned Bishop","spEupleafe",
"Black-winged Red Bishop","spEuplehor",
"Northern Red Bishop","spEuplefra",
"Yellow-mantled Widowbird","spEuplemac",
"Red-collared Widowbird","spEupleard",
"Bronze Mannikin","spSpermcuc",
"Magpie Mannikin","spSpermfri",
"Black-and-white Mannikin","spSpermbic",
"African Silverbill","spEuodican",
"Green Twinspot","spMandinit",
"Red-fronted Antpecker","spParmorub",
"White-breasted Nigrita","spNigrifus",
"Chestnut-breasted Nigrita","spNigribic",
"Grey-headed Nigrita","spNigrican",
"Pale-fronted Nigrita","spNigrilut",
"Grey-headed Oliveback","spDelaccap",
"Orange-cheeked Waxbill","spEstrimel",
"Common Waxbill","spEstriast",
"Black-rumped Waxbill","spEstritro",
"Quailfinch","spOrtyg1atr",
"Orange-breasted Waxbill","spAmandsub",
"Western Bluebill","spSperm1hae",
"Crimson Seedcracker","spPyrensan",
"Red-winged Pytilia","spPytilpho",
"Yellow-winged Pytilia","spPytilhyp",
"Dybowski's Twinspot","spEuschdyb",
"Red-billed Firefinch","spLagonsen",
"African Firefinch","spLagonrub",
"Black-bellied Firefinch","spLagonrar",
"Bar-breasted Firefinch","spLagonruf",
"Black-faced Firefinch","spLagonlar",
"Village Indigobird","spViduacha",
"Jambandu Indigobird","spViduarar",
"Cameroon Indigobird","spViduacam",
"Pin-tailed Whydah","spViduamac",
"Sahel Paradise Whydah","spViduaori","rarity"
"Togo Paradise Whydah","spViduatog",
"Cuckoo-finch","spAnomaimb",
"Western Yellow Wagtail","spMotacfla",
"Mountain Wagtail","spMotaccla",
"White Wagtail","spMotacalb",
"African Pied Wagtail","spMotacagu",
"Yellow-throated Longclaw","spMacro6cro",
"Long-billed Pipit","spAnthusim",
"Plain-backed Pipit","spAnthuleu",
"Tree Pipit","spAnthutri",
"Red-throated Pipit","spAnthucer",
"Yellow-fronted Canary","spCrithmoz",
"West African Seedeater","spCrithcan",
"Ortolan Bunting","spEmberhor",
"Gosling's Bunting","spEmbergos",
"Cabanis's Bunting","spEmbercab",
