"Name","ID","Status"
"Common Ostrich","spStrutcam","extinct"
"White-faced Whistling Duck","spDendrvid",
"Fulvous Whistling Duck","spDendrbic",
"White-backed Duck","spThalaleu",
"Brant Goose","spBrantber","rarity"
"Spur-winged Goose","spPlectgam",
"Knob-billed Duck","spSarkimel",
"Egyptian Goose","spAlopoaeg",
"Common Shelduck","spTadortad","rarity"
"African Pygmy Goose","spNettaaur",
"Garganey","spSpatuque",
"Blue-winged Teal","spSpatudis","rarity"
"Northern Shoveler","spSpatucly",
"Gadwall","spMarecstr",
"Eurasian Wigeon","spMarecpen",
"American Wigeon","spMarecame","rarity"
"Mallard","spAnaspla","rarity"
"Northern Pintail","spAnasacu",
"Eurasian Teal","spAnascre",
"Marbled Duck","spMarmaang",
"Common Pochard","spAythyfer",
"Ferruginous Duck","spAythynyr",
"Tufted Duck","spAythyful",
"Helmeted Guineafowl","spNumidmel",
"Stone Partridge","spPtilopet",
"White-throated Francolin","spCampoalb",
"Common Quail","spCoturcot",
"Harlequin Quail","spCoturdel",
"Ahanta Spurfowl","spPternaha",
"Double-spurred Spurfowl","spPternbic",
"Red-necked Nightjar","spCapriruf","rarity"
"European Nightjar","spCaprieur","rarity"
"Egyptian Nightjar","spCapriaeg",
"Golden Nightjar","spCapriexi",
"Fiery-necked Nightjar","spCapripec",
"Plain Nightjar","spCapriino",
"Freckled Nightjar","spCapritri","rarity"
"Long-tailed Nightjar","spCapricli",
"Standard-winged Nightjar","spCaprilon",
"Pennant-winged Nightjar","spCaprivex","rarity"
"Mottled Spinetail","spTelacuss",
"African Palm Swift","spCypsipar",
"Alpine Swift","spTachy1mel","rarity"
"Mottled Swift","spTachy1aeq","rarity"
"Common Swift","spApusapu",
"Plain Swift","spApusuni","rarity"
"Pallid Swift","spApuspal","rarity"
"Little Swift","spApusaff",
"Horus Swift","spApushor","rarity"
"White-rumped Swift","spApuscaf",
"Western Plantain-eater","spCrinipis",
"Violet Turaco","spTauravio",
"Guinea Turaco","spTauraper",
"Arabian Bustard","spArdeoara",
"Denham's Bustard","spNeotiden",
"White-bellied Bustard","spEupodsen",
"Savile's Bustard","spLopho4sav",
"Black-bellied Bustard","spLissomel",
"Black-throated Coucal","spCentr1leu",
"Senegal Coucal","spCentr1sen",
"Black Coucal","spCentr1gri",
"Blue Malkoha","spCeuthaer",
"Great Spotted Cuckoo","spClamagla",
"Levaillant's Cuckoo","spClamalev",
"Jacobin Cuckoo","spClamajac",
"Diederik Cuckoo","spChrys3cap",
"Klaas's Cuckoo","spChrys3kla",
"African Emerald Cuckoo","spChrys3cup","rarity"
"Black Cuckoo","spCuculcla","rarity"
"Red-chested Cuckoo","spCuculsol",
"African Cuckoo","spCuculgul","rarity"
"Common Cuckoo","spCuculcan",
"Chestnut-bellied Sandgrouse","spPtero2exu",
"Lichtenstein's Sandgrouse","spPtero2lic","rarity"
"Four-banded Sandgrouse","spPtero2qua",
"Rock Dove","spColumliv",
"Speckled Pigeon","spColumgui",
"European Turtle Dove","spStrep1tur",
"Adamawa Turtle Dove","spStrep1hyp","rarity"
"Eurasian Collared Dove","spStrep1dec","rarity"
"African Collared Dove","spStrep1ros",
"Mourning Collared Dove","spStrep1dec1",
"Red-eyed Dove","spStrep1sem",
"Vinaceous Dove","spStrep1vin",
"Laughing Dove","spSpilosen",
"Black-billed Wood Dove","spTurtuaby",
"Blue-spotted Wood Dove","spTurtuafe",
"Tambourine Dove","spTurtutym","rarity"
"Namaqua Dove","spOenacap",
"Bruce's Green Pigeon","spTrerowaa",
"African Green Pigeon","spTrerocal",
"African Finfoot","spPodicsen",
"White-spotted Flufftail","spSarotpul",
"African Crake","spCrecoegr","rarity"
"Spotted Crake","spPorzapor",
"Lesser Moorhen","spParagang",
"Common Moorhen","spGalli3chl",
"Eurasian Coot","spFulicatr",
"Allen's Gallinule","spPorph1all",
"African Swamphen","spPorph1mad",
"Black Crake","spZaporfla",
"Baillon's Crake","spZaporpus","rarity"
"Little Crake","spZaporpar",
"Black Crowned Crane","spBaleapav",
"Common Crane","spGrusgru","rarity"
"Little Grebe","spTachy2ruf1",
"Great Crested Grebe","spPodic1cri","rarity"
"Black-necked Grebe","spPodic1nig",
"Greater Flamingo","spPhoenros",
"Lesser Flamingo","spPhoen1min",
"Common Buttonquail","spTurnisyl",
"Quail-plover","spOrtyxmei",
"Spotted Thick-knee","spBurhicap",
"Water Thick-knee","spBurhiver",
"Eurasian Stone-curlew","spBurhioed",
"Senegal Thick-knee","spBurhisen",
"African Oystercatcher","spHaema1moq","rarity"
"Eurasian Oystercatcher","spHaema1ost",
"Black-winged Stilt","spHiman1him",
"Pied Avocet","spRecuravo",
"Grey Plover","spPluvi1squ",
"European Golden Plover","spPluvi1apr","rarity"
"Pacific Golden Plover","spPluvi1ful","rarity"
"American Golden Plover","spPluvi1dom","rarity"
"Common Ringed Plover","spCharahia",
"Forbes's Plover","spCharafor",
"Little Ringed Plover","spCharadub",
"Northern Lapwing","spVanelvan","rarity"
"Spur-winged Lapwing","spVanelspi",
"Black-headed Lapwing","spVaneltec",
"White-crowned Lapwing","spVanelalb",
"Senegal Lapwing","spVanellug","rarity"
"African Wattled Lapwing","spVanelsen",
"Greater Sand Plover","spAnarhles","rarity"
"Kittlitz's Plover","spAnarhpec",
"White-fronted Plover","spAnarhmar",
"Kentish Plover","spAnarhale",
"Egyptian Plover","spPluvi2aeg",
"Greater Painted-snipe","spRostrben",
"Lesser Jacana","spMicro4cap","rarity"
"African Jacana","spActopafr",
"Eurasian Whimbrel","spNumenpha",
"Eurasian Curlew","spNumenarq",
"Bar-tailed Godwit","spLimoslap",
"Black-tailed Godwit","spLimoslim",
"Short-billed Dowitcher","spLimnogri","rarity"
"Jack Snipe","spLymnomin",
"Great Snipe","spGalli5med","rarity"
"Common Snipe","spGalli5gal",
"Red Phalarope","spPhala1ful","rarity"
"Red-necked Phalarope","spPhala1lob","rarity"
"Terek Sandpiper","spXenuscin","rarity"
"Common Sandpiper","spActithyp",
"Spotted Sandpiper","spActitmac","rarity"
"Green Sandpiper","spTringoch",
"Marsh Sandpiper","spTringsta",
"Wood Sandpiper","spTringgla",
"Common Redshank","spTringtot",
"Lesser Yellowlegs","spTringfla","rarity"
"Spotted Redshank","spTringery",
"Common Greenshank","spTringneb",
"Ruddy Turnstone","spArenaint",
"Red Knot","spCalidcan",
"Ruff","spCalidpug",
"Broad-billed Sandpiper","spCalidfal","rarity"
"Curlew Sandpiper","spCalidfer",
"Temminck's Stint","spCalidtem",
"Buff-breasted Sandpiper","spCalidsub1","rarity"
"Sanderling","spCalidalb",
"Dunlin","spCalidalp",
"Baird's Sandpiper","spCalidbai","rarity"
"Little Stint","spCalidmin",
"Pectoral Sandpiper","spCalidmel","rarity"
"Western Sandpiper","spCalidmau","rarity"
"Bronze-winged Courser","spRhino1cha",
"Temminck's Courser","spCursotem",
"Cream-colored Courser","spCursocur",
"Collared Pratincole","spGlarepra",
"African Skimmer","spRynchfla",
"Sooty Tern","spOnychfus",
"Bridled Tern","spOnychana",
"Little Tern","spStern1alb",
"Gull-billed Tern","spGelocnil",
"Caspian Tern","spHydro3cas",
"Whiskered Tern","spChlidhyb",
"Black Tern","spChlidnig",
"White-winged Tern","spChlidleu",
"Arctic Tern","spStern2par","rarity"
"Common Tern","spStern2hir1",
"Roseate Tern","spStern2dou",
"Sandwich Tern","spThala1san",
"Lesser Crested Tern","spThala1ben","rarity"
"West African Crested Tern","spThala1alb",
"Little Gull","spHydro4min","rarity"
"Black-legged Kittiwake","spRissatri","rarity"
"Sabine's Gull","spXemasab",
"Slender-billed Gull","spChroigen",
"Bonaparte's Gull","spChroiphi","rarity"
"Black-headed Gull","spChroirid",
"Grey-headed Gull","spChroicir",
"Laughing Gull","spLeuco3atr","rarity"
"Franklin's Gull","spLeuco3pip","rarity"
"Audouin's Gull","spIchthaud",
"Mediterranean Gull","spIchthmel","rarity"
"Common Gull","spLaruscan","rarity"
"Ring-billed Gull","spLarusdel","rarity"
"Kelp Gull","spLarusdom","rarity"
"Yellow-legged Gull","spLarusmic",
"Lesser Black-backed Gull","spLarusfus",
"Long-tailed Jaeger","spSterclon","rarity"
"Parasitic Jaeger","spStercpar",
"Pomarine Jaeger","spStercpom",
"Great Skua","spStercsku",
"South Polar Skua","spStercmac","rarity"
"Black Guillemot","spCepphgry","rarity"
"Red-billed Tropicbird","spPhaet2aet",
"Wilson's Storm Petrel","spOceanoce",
"White-faced Storm Petrel","spPelagmar",
"European Storm Petrel","spHydro5pel",
"Leach's Storm Petrel","spHydro5leu",
"Band-rumped Storm Petrel","spHydro5cas",
"Northern Fulmar","spFulmagla","rarity"
"Cory's Shearwater","spCalonbor",
"Scopoli's Shearwater","spCalondio",
"Cape Verde Shearwater","spCalonedw",
"Sooty Shearwater","spArdengri",
"Great Shearwater","spArdengra",
"Manx Shearwater","spPuffipuf",
"Balearic Shearwater","spPuffimau",
"Barolo Shearwater","spPuffibar","rarity"
"Boyd's Shearwater","spPuffiboy",
"Bulwer's Petrel","spBulwebul",
"African Openbill","spAnastlam",
"Marabou Stork","spLepto2cru",
"Yellow-billed Stork","spMycteibi",
"Saddle-billed Stork","spEphipsen",
"Abdim's Stork","spCiconabd",
"African Woolly-necked Stork","spCiconmic","rarity"
"Black Stork","spCiconnig",
"White Stork","spCiconcic",
"Magnificent Frigatebird","spFregamag","rarity"
"Northern Gannet","spMorusbas",
"Cape Gannet","spMoruscap","rarity"
"Red-footed Booby","spSulasul","rarity"
"Brown Booby","spSulaleu","rarity"
"African Darter","spAnhinruf",
"Reed Cormorant","spMicro5afr",
"Great Cormorant","spPhala2car",
"African Sacred Ibis","spThresaet",
"Northern Bald Ibis","spGeronere","rarity"
"Hadada Ibis","spBostrhag",
"Glossy Ibis","spPlegafal",
"Eurasian Spoonbill","spPlataleu",
"African Spoonbill","spPlataalb",
"White-crested Tiger Heron","spTigrileu",
"Eurasian Bittern","spBotauste","rarity"
"Dwarf Bittern","spBotaustu",
"Little Bittern","spBotaumin",
"Black-crowned Night Heron","spNycti6nyc",
"Black Heron","spEgretard",
"Little Egret","spEgretgar",
"Western Reef Heron","spEgretgul",
"White-backed Night Heron","spCalheleu",
"Little Heron","spButoratr",
"Squacco Heron","spArdeo1ral",
"Great Egret","spArdeaalb",
"Yellow-billed Egret","spArdeabra",
"Western Cattle Egret","spArdeaibi",
"Grey Heron","spArdeacin",
"Purple Heron","spArdeapur",
"Black-headed Heron","spArdeamel",
"Goliath Heron","spArdeagol",
"Hamerkop","spScopuumb",
"Great White Pelican","spPelec1ono",
"Pink-backed Pelican","spPelec1ruf",
"Secretarybird","spSagitser",
"Osprey","spPandihal",
"Scissor-tailed Kite","spChelirio",
"Black-winged Kite","spElanucae",
"African Harrier-Hawk","spPolybtyp",
"Palm-nut Vulture","spGypohang",
"Egyptian Vulture","spNeophper",
"African Cuckoo-Hawk","spAvicecuc","rarity"
"European Honey Buzzard","spPerniapi","rarity"
"White-headed Vulture","spTrigoocc",
"Cinereous Vulture","spAegypmon","rarity"
"Lappet-faced Vulture","spTorgotra",
"Hooded Vulture","spNecromon",
"White-backed Vulture","spGypsafr",
"Rüppell's Vulture","spGypsrue",
"Griffon Vulture","spGypsful",
"Bateleur","spTerateca",
"Western Banded Snake Eagle","spCircacin",
"Beaudouin's Snake Eagle","spCircabea",
"Short-toed Snake Eagle","spCircagal",
"Brown Snake Eagle","spCircacin1",
"Bat Hawk","spMachealc",
"Crowned Eagle","spSteph1cor",
"Martial Eagle","spPolembel",
"Long-crested Eagle","spLophaocc",
"Wahlberg's Eagle","spHierawah",
"Ayres's Hawk-Eagle","spHieraayr","rarity"
"Booted Eagle","spHierapen",
"Tawny Eagle","spAquilrap",
"Bonelli's Eagle","spAquilfas",
"African Hawk-Eagle","spAquilspi",
"Gabar Goshawk","spMicro6gab",
"Dark Chanting Goshawk","spMeliemet",
"Lizard Buzzard","spKaupimon",
"African Goshawk","spAerostac","rarity"
"Red-thighed Sparrowhawk","spTachy3ery",
"Shikra","spTachy3bad",
"Ovambo Sparrowhawk","spAccipova","rarity"
"Eurasian Sparrowhawk","spAccipnis","rarity"
"Black Sparrowhawk","spAsturmel",
"Pallid Harrier","spCircumac",
"Montagu's Harrier","spCircupyg",
"Western Marsh Harrier","spCircuaer",
"Red Kite","spMilvumil","rarity"
"Black Kite","spMilvumig",
"Yellow-billed Kite","spMilvuaeg",
"African Fish Eagle","spIcthyvoc",
"Grasshopper Buzzard","spButasruf",
"Red-necked Buzzard","spButeo1aug",
"Common Buzzard","spButeo1but",
"Long-legged Buzzard","spButeo1ruf1",
"Western Barn Owl","spTytoalb",
"Pearl-spotted Owlet","spGlauc1per",
"Eurasian Scops Owl","spOtussco",
"African Scops Owl","spOtussen",
"Northern White-faced Owl","spPtilo1leu",
"Short-eared Owl","spAsiofla",
"Marsh Owl","spAsiocap",
"Pharaoh Eagle-Owl","spBuboasc","rarity"
"Greyish Eagle-Owl","spBubocin",
"Verreaux's Eagle-Owl","spKetuplac",
"Pel's Fishing Owl","spScotopel",
"African Wood Owl","spStrixwoo",
"Blue-naped Mousebird","spUrocomac",
"Narina Trogon","spApalonar","rarity"
"Eurasian Hoopoe","spUpupaepo",
"Green Wood Hoopoe","spPhoen3pur",
"Black Scimitarbill","spRhino2ate",
"Abyssinian Ground Hornbill","spBucoraby",
"Western Red-billed Hornbill","spTockukem",
"West African Pied Hornbill","spLopho11sem",
"African Grey Hornbill","spLopho11nas",
"Piping Hornbill","spBycanfis",
"Yellow-casqued Hornbill","spCeratela",
"Purple Roller","spCoracnae",
"Abyssinian Roller","spCoracaby",
"European Roller","spCoracgar",
"Blue-bellied Roller","spCoraccya",
"Broad-billed Roller","spEurysgla",
"Grey-headed Kingfisher","spHalcyleu",
"Striped Kingfisher","spHalcyche",
"Blue-breasted Kingfisher","spHalcymal",
"Woodland Kingfisher","spHalcysen",
"African Pygmy Kingfisher","spIspidpic",
"Malachite Kingfisher","spCoryt1cri",
"Shining-blue Kingfisher","spAlcedqua",
"Giant Kingfisher","spMegac1max",
"Pied Kingfisher","spCerylrud",
"Swallow-tailed Bee-eater","spMerop1hir",
"Little Bee-eater","spMerop1pus",
"Red-throated Bee-eater","spMerop1bul",
"White-throated Bee-eater","spMerop1alb",
"African Green Bee-eater","spMerop1vir",
"Blue-cheeked Bee-eater","spMerop1per",
"European Bee-eater","spMerop1api",
"Northern Carmine Bee-eater","spMerop1nub",
"Red-rumped Tinkerbird","spPogonatr",
"Yellow-rumped Tinkerbird","spPogonbil",
"Yellow-fronted Tinkerbird","spPogonchr",
"Hairy-breasted Barbet","spTrichhir",
"Vieillot's Barbet","spLybiuvie",
"Bearded Barbet","spPogon1dub",
"Cassin's Honeybird","spProdoins","rarity"
"Brown-backed Honeybird","spProdoreg","rarity"
"Willcocks's Honeyguide","spIndicwil","rarity"
"Least Honeyguide","spIndicexi",
"Lesser Honeyguide","spIndicmin",
"Spotted Honeyguide","spIndicmac",
"Greater Honeyguide","spIndicind",
"Eurasian Wryneck","spJynxtor",
"Buff-spotted Woodpecker","spPardi1niv",
"Fine-spotted Woodpecker","spCampepun",
"Golden-tailed Woodpecker","spCampeabi",
"Little Green Woodpecker","spCampemac",
"Little Grey Woodpecker","spDendr4ela",
"Cardinal Woodpecker","spDendr4fus",
"African Grey Woodpecker","spDendr4goe",
"Brown-backed Woodpecker","spDendr4obs",
"Lesser Kestrel","spFalconau",
"Common Kestrel","spFalcotin",
"Fox Kestrel","spFalcoalo",
"Grey Kestrel","spFalcoard",
"Red-necked Falcon","spFalcochi",
"Red-footed Falcon","spFalcoves",
"Eleonora's Falcon","spFalcoele","rarity"
"Merlin","spFalcocol","rarity"
"Eurasian Hobby","spFalcosub","rarity"
"African Hobby","spFalcocuv",
"Lanner Falcon","spFalcobia",
"Saker Falcon","spFalcoche","rarity"
"Peregrine Falcon","spFalcoper",
"Brown-necked Parrot","spPoicefus","rarity"
"Senegal Parrot","spPoicesen",
"Rose-ringed Parakeet","spPsitt4kra",
"Senegal Batis","spBatissen",
"Brown-throated Wattle-eye","spPlaty2cya",
"Grey-headed Bushshrike","spMalac2bla",
"Orange-breasted Bushshrike","spChlor5sul",
"Black-crowned Tchagra","spTchagsen",
"Northern Puffback","spDryosgam",
"Tropical Boubou","spLaniamaj",
"Turati's Boubou","spLaniatur","rarity"
"Yellow-crowned Gonolek","spLaniabar",
"Brubru","spNilauafe",
"White-crested Helmetshrike","spPrion2plu",
"White-breasted Cuckooshrike","spCeblepec",
"Red-shouldered Cuckooshrike","spCampe2pho",
"African Golden Oriole","spOriol1aur",
"Eurasian Golden Oriole","spOriol1ori",
"Fork-tailed Drongo","spDicruads",
"Sharpe's Drongo","spDicrusha",
"Red-bellied Paradise Flycatcher","spTerpsruf1",
"African Paradise Flycatcher","spTerpsvir",
"Yellow-billed Shrike","spLaniucor",
"Great Grey Shrike","spLaniuexc1",
"Woodchat Shrike","spLaniusen",
"Isabelline Shrike","spLaniuisa","rarity"
"Red-tailed Shrike","spLaniupho","rarity"
"Piapiac","spPtilo6afe",
"Pied Crow","spCorvualb",
"Brown-necked Raven","spCorvuruf",
"African Blue Flycatcher","spElminlon",
"White-shouldered Black Tit","spMelan8gui",
"Sennar Penduline Tit","spAntho3pun",
"Yellow Penduline Tit","spAntho3par",
"Western Nicator","spNicatchl",
"Greater Hoopoe-Lark","spAlaemala",
"Rufous-rumped Lark","spPinarery","rarity"
"Black-crowned Sparrow-Lark","spEremonig",
"Chestnut-backed Sparrow-Lark","spEremoleu",
"Kordofan Lark","spMirafcor",
"Singing Bush Lark","spMirafjav",
"Flappet Lark","spAmiraruf",
"Sun Lark","spGalermod",
"Crested Lark","spGalercri",
"Greater Short-toed Lark","spCalanbra",
"Slender-billed Greenbul","spStelggra",
"Grey-headed Bristlebill","spBledacan",
"Yellow-gorgeted Greenbul","spAtimafla",
"Swamp Palm Bulbul","spThescleu",
"Simple Greenbul","spChlor6sim",
"Red-tailed Greenbul","spCrini1cal",
"Little Greenbul","spEurilvir",
"Yellow-whiskered Greenbul","spEurillat",
"White-throated Greenbul","spPhyll3alb1",
"Leaf-love","spPhyll3sca",
"Common Bulbul","spPycno2bar",
"Fanti Saw-wing","spPsaliobs",
"Grey-rumped Swallow","spPseud16gri","rarity"
"Brown-throated Martin","spRiparpal","rarity"
"Sand Martin","spRiparrip",
"Eurasian Crag Martin","spPtyonrup",
"Red-throated Rock Martin","spPtyonruf",
"Pied-winged Swallow","spHirun2leu",
"Barn Swallow","spHirun2rus",
"Red-chested Swallow","spHirun2luc",
"Ethiopian Swallow","spHirun2aet","rarity"
"Wire-tailed Swallow","spHirun2smi",
"Western House Martin","spDelicurb",
"European Red-rumped Swallow","spCecroruf",
"African Red-rumped Swallow","spCecromel",
"Lesser Striped Swallow","spCecroaby",
"Red-breasted Swallow","spCecrosem",
"Mosque Swallow","spCecrosen",
"Preuss's Cliff Swallow","spPetro2pre","rarity"
"Moustached Grass Warbler","spMelocmen",
"Northern Crombec","spSylvi2bra",
"Green Crombec","spSylvi2vir",
"Green Hylia","spHyliapra",
"Wood Warbler","spPhyll5sib","rarity"
"Western Bonelli's Warbler","spPhyll5bon",
"Yellow-browed Warbler","spPhyll5ino","rarity"
"Willow Warbler","spPhyll5tro",
"Common Chiffchaff","spPhyll5col",
"Iberian Chiffchaff","spPhyll5ibe",
"Greater Swamp Warbler","spAcroc1ruf",
"Great Reed Warbler","spAcroc1aru",
"Aquatic Warbler","spAcroc1pal",
"Sedge Warbler","spAcroc1sch",
"Common Reed Warbler","spAcroc1sci",
"Marsh Warbler","spAcroc1pal1","rarity"
"Eastern Olivaceous Warbler","spIdunapal",
"Western Olivaceous Warbler","spIdunaopa",
"Melodious Warbler","spHippopol",
"Icterine Warbler","spHippoict","rarity"
"Savi's Warbler","spLocuslus",
"Common Grasshopper Warbler","spLocusnae",
"Red-faced Cisticola","spCistiery",
"Singing Cisticola","spCistican",
"Whistling Cisticola","spCistilat",
"Winding Cisticola","spCistimar",
"Croaking Cisticola","spCistinat",
"Dorst's Cisticola","spCistigui",
"Short-winged Cisticola","spCistibra",
"Rufous Cisticola","spCistiruf2",
"Zitting Cisticola","spCistijun",
"Desert Cisticola","spCistiari",
"Black-backed Cisticola","spCistiexi",
"Tawny-flanked Prinia","spPrinisub",
"River Prinia","spPriniflu",
"Red-winged Prinia","spPriniery",
"Cricket Warbler","spSpilo2cla",
"Yellow-breasted Apalis","spApalifla2",
"Oriole Warbler","spHyperatr",
"Grey-backed Camaroptera","spCamarbre",
"Olive-green Camaroptera","spCamarchl",
"Yellow-bellied Eremomela","spEremo2ict",
"Senegal Eremomela","spEremo2pus",
"Eurasian Blackcap","spSylvi3atr",
"Garden Warbler","spSylvi3bor",
"Barred Warbler","spCurrunis","rarity"
"Lesser Whitethroat","spCurrucur",
"Western Orphean Warbler","spCurruhor",
"Sardinian Warbler","spCurrumel1",
"Western Subalpine Warbler","spCurruibe",
"Moltoni's Warbler","spCurrusub1",
"Common Whitethroat","spCurrucom",
"Spectacled Warbler","spCurrucon",
"Northern Yellow White-eye","spZoste1sen",
"Brown Illadopsis","spIlladful",
"Puvel's Illadopsis","spIlladpuv",
"Fulvous Babbler","spArgyaful",
"Capuchin Babbler","spTurdoatr",
"Brown Babbler","spTurdople",
"Blackcap Babbler","spTurdorei",
"Yellow-bellied Hyliota","spHyliofla",
"African Spotted Creeper","spSalposal",
"Greater Blue-eared Starling","spLampr2cha",
"Lesser Blue-eared Starling","spLampr2chl",
"Bronze-tailed Starling","spLampr2cha1",
"Splendid Starling","spLampr2spl",
"Purple Starling","spLampr2pur",
"Long-tailed Glossy Starling","spLampr2cau",
"Chestnut-bellied Starling","spLampr2pul",
"Violet-backed Starling","spCinny1leu",
"Neumann's Starling","spOnych2neu",
"Yellow-billed Oxpecker","spBuphaafr",
"Song Thrush","spTurduphi","rarity"
"African Thrush","spTurdupel",
"Eyebrowed Thrush","spTurduobs","rarity"
"Ring Ouzel","spTurdutor","rarity"
"White-tailed Alethe","spAlethdia",
"Black Scrub Robin","spCerco3pod",
"Rufous-tailed Scrub Robin","spCerco3gal",
"Pale Flycatcher","spAgricpal",
"White-browed Forest Flycatcher","spFrasecin",
"Grey Tit-Flycatcher","spFraseplu",
"Northern Black Flycatcher","spMelaeedo",
"Spotted Flycatcher","spMusci3str",
"Swamp Flycatcher","spMusci3aqu",
"White-crowned Robin-Chat","spCossy1alb",
"Snowy-crowned Robin-Chat","spCossy1niv",
"Common Nightingale","spLuscimeg",
"Bluethroat","spLuscisve",
"Red-breasted Flycatcher","spFicedpar","rarity"
"Atlas Pied Flycatcher","spFicedspe",
"European Pied Flycatcher","spFicedhyp1",
"Black Redstart","spPhoen5och","rarity"
"Common Redstart","spPhoen5pho",
"Common Rock Thrush","spMontisax",
"Blue Rock Thrush","spMontisol",
"Whinchat","spSaxicrub",
"African Stonechat","spSaxictor",
"Mocking Cliff Chat","spThamn4cin",
"Anteater Chat","spMyrme2aet",
"Sooty Chat","spMyrme2nig",
"Northern Wheatear","spOenanoen",
"Atlas Wheatear","spOenansee",
"Isabelline Wheatear","spOenanisa",
"Heuglin's Wheatear","spOenanheu","rarity"
"Desert Wheatear","spOenandes",
"Western Black-eared Wheatear","spOenanhis",
"White-fronted Black Chat","spOenanalb",
"Familiar Chat","spOenanfam",
"Mangrove Sunbird","spAnthr2gab",
"Western Violet-backed Sunbird","spAnthr2lon",
"Collared Sunbird","spHedydcol",
"Pygmy Sunbird","spHedydpla",
"Green-headed Sunbird","spCyano12ver",
"Olive Sunbird","spCyano12oli",
"Scarlet-chested Sunbird","spChalc5sen",
"Olive-bellied Sunbird","spCinny2chl",
"Beautiful Sunbird","spCinny2pul",
"Splendid Sunbird","spCinny2coc",
"Variable Sunbird","spCinny2ven",
"Copper Sunbird","spCinny2cup",
"Yellow-spotted Bush Sparrow","spGymno10pyr",
"Sahel Bush Sparrow","spGymno10den",
"Northern Grey-headed Sparrow","spPassegri",
"House Sparrow","spPassedom","introduced"
"Sudan Golden Sparrow","spPasselut",
"White-billed Buffalo Weaver","spBubalalb",
"Chestnut-crowned Sparrow-Weaver","spPloce1sup",
"Speckle-fronted Weaver","spSporofro",
"Thick-billed Weaver","spAmbly1alb",
"Little Weaver","spPloce2lut",
"Olive-naped Weaver","spPloce2bra",
"Heuglin's Masked Weaver","spPloce2heu",
"Vitelline Masked Weaver","spPloce2vit",
"Village Weaver","spPloce2cuc",
"Black-headed Weaver","spPloce2mel1",
"Compact Weaver","spPloce2sup",
"Blue-billed Malimbe","spMalimnit",
"Red-headed Weaver","spAnaplrub",
"Red-headed Quelea","spQueleery",
"Red-billed Quelea","spQueleque",
"Yellow-crowned Bishop","spEupleafe",
"Black-winged Red Bishop","spEuplehor",
"Northern Red Bishop","spEuplefra",
"Yellow-mantled Widowbird","spEuplemac",
"Red-collared Widowbird","spEupleard",
"Bronze Mannikin","spSpermcuc",
"Magpie Mannikin","spSpermfri",
"African Silverbill","spEuodican",
"Chestnut-breasted Nigrita","spNigribic",
"Lavender Waxbill","spGlauc2cae",
"Orange-cheeked Waxbill","spEstrimel",
"Black-rumped Waxbill","spEstritro",
"Quailfinch","spOrtyg1atr",
"Cut-throat Finch","spAmadifas",
"Orange-breasted Waxbill","spAmandsub",
"Red-cheeked Cordon-bleu","spUraegben",
"Western Bluebill","spSperm1hae",
"Crimson Seedcracker","spPyrensan",
"Green-winged Pytilia","spPytilmel",
"Red-winged Pytilia","spPytilpho",
"Dybowski's Twinspot","spEuschdyb",
"Red-billed Firefinch","spLagonsen",
"African Firefinch","spLagonrub",
"Mali Firefinch","spLagonvir",
"Black-bellied Firefinch","spLagonrar",
"Bar-breasted Firefinch","spLagonruf",
"Black-faced Firefinch","spLagonlar",
"Village Indigobird","spViduacha",
"Wilson's Indigobird","spViduawil",
"Pin-tailed Whydah","spViduamac",
"Sahel Paradise Whydah","spViduaori",
"Exclamatory Paradise Whydah","spViduaint",
"Cuckoo-finch","spAnomaimb","rarity"
"Western Yellow Wagtail","spMotacfla",
"Citrine Wagtail","spMotaccit","rarity"
"Grey Wagtail","spMotaccin","rarity"
"Mountain Wagtail","spMotaccla","rarity"
"White Wagtail","spMotacalb",
"African Pied Wagtail","spMotacagu",
"Yellow-throated Longclaw","spMacro6cro",
"Tawny Pipit","spAnthucam",
"Long-billed Pipit","spAnthusim",
"Plain-backed Pipit","spAnthuleu",
"Meadow Pipit","spAnthupra","rarity"
"Tree Pipit","spAnthutri",
"Red-throated Pipit","spAnthucer",
"White-rumped Seedeater","spCrithleu",
"Yellow-fronted Canary","spCrithmoz",
"Common Linnet","spLinarcan","rarity"
"Corn Bunting","spEmbercal","rarity"
"Ortolan Bunting","spEmberhor",
"House Bunting","spEmbersah","rarity"
"Gosling's Bunting","spEmbergos",
"Golden-breasted Bunting","spEmberfla",
"Brown-rumped Bunting","spEmberaff",
"Cabanis's Bunting","spEmbercab","rarity"
