"Name","ID","Status"
"Great Tinamou","spTinammaj",
"Cinereous Tinamou","spCryptcin",
"Little Tinamou","spCryptsou",
"Red-legged Tinamou","spCryptery",
"Variegated Tinamou","spCryptvar",
"Rusty Tinamou","spCryptbre",
"Horned Screamer","spAnhimcor","extinct"
"White-faced Whistling Duck","spDendrvid",
"Black-bellied Whistling Duck","spDendraut",
"Fulvous Whistling Duck","spDendrbic",
"Muscovy Duck","spCairimos",
"Blue-winged Teal","spSpatudis",
"American Wigeon","spMarecame","rarity"
"White-cheeked Pintail","spAnasbah",
"Northern Pintail","spAnasacu","rarity"
"Southern Pochard","spNetta1ery","rarity"
"Ring-necked Duck","spAythycol","rarity"
"Lesser Scaup","spAythyaff","rarity"
"Masked Duck","spNomondom",
"Little Chachalaca","spOrtalmot",
"Marail Guan","spPenelmar",
"Spix's Guan","spPeneljac",
"Blue-throated Piping Guan","spPipilcum",
"Black Curassow","spCraxale",
"Crested Bobwhite","spColincri",
"Marbled Wood Quail","spOdontguj",
"Nacunda Nighthawk","spChordnac",
"Least Nighthawk","spChordpus","rarity"
"Lesser Nighthawk","spChordacu",
"Short-tailed Nighthawk","spLurocsem",
"Blackish Nightjar","spNycti1nig",
"Pauraque","spNycti2alb",
"White-tailed Nightjar","spHydrocay",
"Spot-tailed Nightjar","spHydromac",
"Ladder-tailed Nightjar","spHydrocli",
"Scissor-tailed Nightjar","spHydrotor","rarity"
"Rufous Nightjar","spAntroruf",
"Oilbird","spSteatcar","rarity"
"Rufous Potoo","spPhyllbra",
"Great Potoo","spNycti4gra",
"Long-tailed Potoo","spNycti4aet",
"Common Potoo","spNycti4gri",
"White-winged Potoo","spNycti4leu",
"White-chinned Swift","spCypsecry",
"White-collared Swift","spStrepzon",
"Band-rumped Swift","spChaetspi",
"Chapman's Swift","spChaetcha",
"Sick's Swift","spChaetmer",
"Short-tailed Swift","spChaetbra",
"White-tipped Swift","spAeronmon",
"Fork-tailed Palm Swift","spTachosqu",
"Lesser Swallow-tailed Swift","spPanypcay",
"Common Swift","spApusapu","rarity"
"Crimson Topaz","spTopazpel",
"White-necked Jacobin","spFlorimel",
"Rufous-breasted Hermit","spGlauchir",
"Pale-tailed Barbthroat","spThrenleu",
"Little Hermit","spPhaetlon",
"Reddish Hermit","spPhaetrub",
"Sooty-capped Hermit","spPhaetaug","rarity"
"Straight-billed Hermit","spPhaetbou",
"Long-tailed Hermit","spPhaetsup",
"Great-billed Hermit","spPhaetmal",
"Brown Violetear","spColibdel",
"Horned Sungem","spHeliabil",
"Black-eared Fairy","spHelioaur",
"White-tailed Goldenthroat","spPolytgua",
"Green-tailed Goldenthroat","spPolytthe",
"Fiery-tailed Awlbill","spAvocerec",
"Ruby-topaz Hummingbird","spChrys1mos",
"Green-throated Mango","spAnthrvir",
"Black-throated Mango","spAnthrnig",
"Racket-tipped Thorntail","spDiscolon",
"Tufted Coquette","spLopho3orn",
"Velvet-browed Brilliant","spHelio1xan",
"Long-billed Starthroat","spHelio2lon",
"Amethyst Woodstar","spCalli1ame",
"Blue-tailed Emerald","spChlormel1",
"Grey-breasted Sabrewing","spCampylar",
"Fork-tailed Woodnymph","spThalufur",
"Swallow-tailed Hummingbird","spEupetmac",
"Copper-tailed Hummingbird","spSaucecup",
"White-chested Emerald","spChrys2bre",
"Plain-bellied Emerald","spChrys2leu",
"Glittering-throated Emerald","spChionfim",
"Rufous-throated Sapphire","spHylocsap",
"White-chinned Sapphire","spChlor1cya",
"Blue-chinned Sapphire","spChlor1not",
"Greater Ani","spCrotomaj",
"Smooth-billed Ani","spCrotoani",
"Striped Cuckoo","spTapernae",
"Pavonine Cuckoo","spDromopav",
"Little Cuckoo","spCoccymin",
"Squirrel Cuckoo","spPiayacay",
"Black-bellied Cuckoo","spPiayamel",
"Dark-billed Cuckoo","spCoccy1mel",
"Yellow-billed Cuckoo","spCoccy1ame",
"Pearly-breasted Cuckoo","spCoccy1eul",
"Mangrove Cuckoo","spCoccy1min",
"Rock Dove","spColumliv","introduced"
"Scaled Pigeon","spPatag1spe",
"Pale-vented Pigeon","spPatag1cay",
"Plumbeous Pigeon","spPatag1plu",
"Ruddy Pigeon","spPatag1sub",
"Common Ground Dove","spColum1pas",
"Plain-breasted Ground Dove","spColum1min",
"Ruddy Ground Dove","spColum1tal",
"Blue Ground Dove","spClarapre",
"Ruddy Quail-Dove","spGeotrmon",
"Violaceous Quail-Dove","spGeotrvio",
"White-tipped Dove","spLepto1ver",
"Grey-fronted Dove","spLepto1ruf",
"Mourning Dove","spZenaimac","rarity"
"Eared Dove","spZenaiaur",
"Sungrebe","spHelio4ful",
"Spotted Rail","spPardimac",
"Ash-throated Crake","spMustealb",
"Paint-billed Crake","spMusteery",
"Uniform Crake","spAmaurcon","rarity"
"Rufous-necked Wood Rail","spAramiaxi",
"Grey-cowled Wood Rail","spAramicaj",
"Mangrove Rail","spRallulon",
"Common Gallinule","spGalli3gal",
"Purple Gallinule","spPorph1mar",
"Azure Gallinule","spPorph1fla",
"Ocellated Crake","spRufirsch",
"Russet-crowned Crake","spRufirvir",
"Yellow-breasted Crake","spLaterfla",
"Grey-breasted Crake","spLaterexi",
"Rufous-sided Crake","spLatermel",
"Grey-winged Trumpeter","spPsophcre",
"Limpkin","spAramugua",
"Least Grebe","spTachy2dom",
"Pied-billed Grebe","spPodilpod",
"American Flamingo","spPhoenrub",
"Black-necked Stilt","spHiman1mex",
"Grey Plover","spPluvi1squ",
"American Golden Plover","spPluvi1dom",
"Semipalmated Plover","spCharasem",
"Pied Plover","spHoplocay",
"Southern Lapwing","spVanelchi",
"Wilson's Plover","spAnarhwil",
"Collared Plover","spAnarhcol",
"Wattled Jacana","spJacanjac",
"Upland Sandpiper","spBartrlon",
"Hudsonian Whimbrel","spNumenhud",
"Hudsonian Godwit","spLimoshae",
"Marbled Godwit","spLimosfed","rarity"
"Short-billed Dowitcher","spLimnogri",
"Wilson's Snipe","spGalli5del","rarity"
"Giant Snipe","spGalli5und",
"Pantanal Snipe","spGalli5par",
"Wilson's Phalarope","spPhala1tri",
"Spotted Sandpiper","spActitmac",
"Solitary Sandpiper","spTringsol",
"Lesser Yellowlegs","spTringfla",
"Willet","spTringsem",
"Greater Yellowlegs","spTringmel",
"Ruddy Turnstone","spArenaint",
"Red Knot","spCalidcan",
"Ruff","spCalidpug","rarity"
"Stilt Sandpiper","spCalidhim",
"Buff-breasted Sandpiper","spCalidsub1",
"Sanderling","spCalidalb",
"Baird's Sandpiper","spCalidbai","rarity"
"Least Sandpiper","spCalidmin1",
"White-rumped Sandpiper","spCalidfus",
"Pectoral Sandpiper","spCalidmel",
"Western Sandpiper","spCalidmau",
"Semipalmated Sandpiper","spCalidpus",
"Black Skimmer","spRynchnig",
"Brown Noddy","spAnoussto",
"Black Noddy","spAnousmin","rarity"
"Sooty Tern","spOnychfus",
"Bridled Tern","spOnychana","rarity"
"Least Tern","spStern1ant",
"Yellow-billed Tern","spStern1sup",
"Large-billed Tern","spPhaet1sim",
"Gull-billed Tern","spGelocnil",
"Black Tern","spChlidnig",
"Common Tern","spStern2hir1",
"Roseate Tern","spStern2dou","rarity"
"Cabot's Tern","spThala1acu",
"Royal Tern","spThala1max",
"Black-legged Kittiwake","spRissatri","rarity"
"Black-headed Gull","spChroirid","rarity"
"Laughing Gull","spLeuco3atr",
"Audouin's Gull","spIchthaud","rarity"
"Lesser Black-backed Gull","spLarusfus","rarity"
"Long-tailed Jaeger","spSterclon","rarity"
"Parasitic Jaeger","spStercpar",
"Pomarine Jaeger","spStercpom","rarity"
"Brown Skua","spStercant","rarity"
"South Polar Skua","spStercmac","rarity"
"Sunbittern","spEuryphel",
"Red-billed Tropicbird","spPhaet2aet","rarity"
"Wilson's Storm Petrel","spOceanoce",
"Atlantic Yellow-nosed Albatross","spThala2chl","rarity"
"Leach's Storm Petrel","spHydro5leu",
"Band-rumped Storm Petrel","spHydro5cas","rarity"
"Fea's Petrel","spPtero3fea",
"Desertas Petrel","spPtero3des",
"Cory's Shearwater","spCalonbor",
"Scopoli's Shearwater","spCalondio",
"Great Shearwater","spArdengra",
"Manx Shearwater","spPuffipuf","rarity"
"Sargasso Shearwater","spPuffilhe",
"Bulwer's Petrel","spBulwebul","rarity"
"Wood Stork","spMycteame",
"Jabiru","spJabirmyc",
"Maguari Stork","spCiconmag",
"Magnificent Frigatebird","spFregamag",
"Red-footed Booby","spSulasul",
"Brown Booby","spSulaleu",
"Masked Booby","spSuladac",
"Anhinga","spAnhinanh",
"Neotropic Cormorant","spNanno1bra",
"Green Ibis","spMesemcay",
"American White Ibis","spEudocalb","rarity"
"Scarlet Ibis","spEudocrub",
"Roseate Spoonbill","spPlataaja",
"Rufescent Tiger Heron","spTigri1lin",
"Fasciated Tiger Heron","spTigri1fas",
"Boat-billed Heron","spCochlcoc",
"Agami Heron","spAgamiaga",
"Zigzag Heron","spZebriund",
"Pinnated Bittern","spBotaupin",
"Stripe-backed Bittern","spBotauinv",
"Least Bittern","spBotauexi",
"Yellow-crowned Night Heron","spNyctavio",
"Black-crowned Night Heron","spNycti6nyc",
"Capped Heron","spPilhepil",
"Little Blue Heron","spEgretcae",
"Tricolored Heron","spEgrettri",
"Snowy Egret","spEgretthu",
"Little Egret","spEgretgar","rarity"
"Striated Heron","spButorstr",
"Green Heron","spButorvir","rarity"
"Great Egret","spArdeaalb",
"Western Cattle Egret","spArdeaibi",
"Cocoi Heron","spArdeacoc",
"Brown Pelican","spPelec1occ",
"Hoatzin","spOpist1hoa",
"King Vulture","spSarcopap",
"Black Vulture","spCoragatr",
"Turkey Vulture","spCathaaur",
"Lesser Yellow-headed Vulture","spCathabur",
"Greater Yellow-headed Vulture","spCathamel",
"Osprey","spPandihal",
"Pearl Kite","spGampsswa",
"White-tailed Kite","spElanuleu",
"Hook-billed Kite","spChondunc",
"Grey-headed Kite","spLepto3cay",
"Swallow-tailed Kite","spElanofor",
"Crested Eagle","spMorphgui",
"Harpy Eagle","spHarpihar",
"Black Hawk-Eagle","spSpizatyr",
"Black-and-white Hawk-Eagle","spSpizamel",
"Ornate Hawk-Eagle","spSpizaorn",
"Grey-bellied Hawk","spAccippol",
"Bicolored Hawk","spAsturbic",
"Long-winged Harrier","spCircubuf",
"Tiny Hawk","spMicro7sup",
"Double-toothed Kite","spHarpabid",
"Rufous-thighed Kite","spHarpadio",
"Plumbeous Kite","spIctin1plu",
"Crane Hawk","spGerancae",
"Black-collared Hawk","spBusarnig",
"Snail Kite","spRostr1soc",
"Slender-billed Kite","spHelicham",
"Common Black Hawk","spButeoant",
"Rufous Crab Hawk","spButeoaeq",
"Savanna Hawk","spButeomer",
"Great Black Hawk","spButeouru",
"Roadside Hawk","spRupormag",
"White Hawk","spPseud2alb",
"White-tailed Hawk","spGeran1alb",
"Black-faced Hawk","spLeuco5mel",
"Grey-lined Hawk","spButeo1nit",
"Broad-winged Hawk","spButeo1pla1",
"Zone-tailed Hawk","spButeo1alb",
"Short-tailed Hawk","spButeo1bra",
"American Barn Owl","spTytofur",
"Burrowing Owl","spAthencun",
"Amazonian Pygmy Owl","spGlauc1har",
"Ferruginous Pygmy Owl","spGlauc1bra",
"Striped Owl","spAsiocla",
"Stygian Owl","spAsiosty",
"Short-eared Owl","spAsiofla","rarity"
"Great Horned Owl","spBubovir",
"Tropical Screech Owl","spMegascho",
"Foothill Screech Owl","spMegasror",
"Tawny-bellied Screech Owl","spMegaswat",
"Spectacled Owl","spPulsaper",
"Crested Owl","spLopho10cri",
"Mottled Owl","spStrixvir",
"Black-banded Owl","spStrixhuh",
"Black-tailed Trogon","spTrogomel",
"Green-backed Trogon","spTrogovir",
"Guianan Trogon","spTrogovio",
"Amazonian Black-throated Trogon","spTrogoruf",
"Collared Trogon","spTrogocol",
"Amazon Kingfisher","spChlor2ama",
"American Pygmy Kingfisher","spChlor2aen",
"Green Kingfisher","spChlor2ame",
"Green-and-rufous Kingfisher","spChlor2ind",
"Ringed Kingfisher","spMegac1tor",
"Belted Kingfisher","spMegac1alc","rarity"
"Amazonian Motmot","spMomotmom",
"Brown Jacamar","spBrach2lug",
"Yellow-billed Jacamar","spGalbualb",
"Green-tailed Jacamar","spGalbugal",
"Bronzy Jacamar","spGalbuleu",
"Paradise Jacamar","spGalbudea",
"Great Jacamar","spJacam1aur",
"Guianan Puffbird","spNothamac",
"Pied Puffbird","spNothatec",
"Spotted Puffbird","spBuccotam",
"Collared Puffbird","spBuccocap",
"White-chested Puffbird","spMalac1fus",
"Rusty-breasted Nunlet","spNonnurub",
"Black Nunbird","spMonasatr",
"Swallow-winged Puffbird","spCheli1ten",
"Black-spotted Barbet","spCapitnig",
"Toco Toucan","spRamph2toc",
"White-throated Toucan","spRamph2tuc",
"Channel-billed Toucan","spRamph2vit",
"Green Aracari","spPtero4vir",
"Black-necked Aracari","spPtero4ara",
"Guianan Toucanet","spSelenpip",
"Tepui Toucanet","spAulacwhi",
"Golden-spangled Piculet","spPicumexi",
"Arrowhead Piculet","spPicummin","endemic"
"White Woodpecker","spMelan2can",
"Yellow-tufted Woodpecker","spMelan2cru",
"Red-crowned Woodpecker","spMelan2rub",
"Blood-colored Woodpecker","spVenilsan",
"Golden-collared Woodpecker","spVenilcas",
"Yellow-throated Woodpecker","spPiculfla",
"Golden-green Woodpecker","spPiculchr",
"Golden-olive Woodpecker","spColaprub",
"Spot-breasted Woodpecker","spColappun",
"Campo Flicker","spColapcam",
"Variable Woodpecker","spCeleuund",
"Chestnut Woodpecker","spCeleuele",
"Cream-colored Woodpecker","spCeleufla1",
"Ringed Woodpecker","spCeleutor",
"Lineated Woodpecker","spDryoclin",
"Red-necked Woodpecker","spCampe1rub",
"Crimson-crested Woodpecker","spCampe1mel",
"Crested Caracara","spCaracpla",
"Red-throated Caracara","spIbyctame",
"Black Caracara","spDaptrate",
"Yellow-headed Caracara","spMilvachi",
"Laughing Falcon","spHerpecac",
"Barred Forest Falcon","spMicra1ruf",
"Lined Forest Falcon","spMicra1gil",
"Slaty-backed Forest Falcon","spMicra1mir",
"Collared Forest Falcon","spMicra1sem",
"American Kestrel","spFalcospa",
"Aplomado Falcon","spFalcofem",
"Merlin","spFalcocol","rarity"
"Bat Falcon","spFalcoruf",
"Orange-breasted Falcon","spFalcodei",
"Peregrine Falcon","spFalcoper",
"Lilac-tailed Parrotlet","spTouitbat",
"Scarlet-shouldered Parrotlet","spTouithue","rarity"
"Sapphire-rumped Parrotlet","spTouitpur",
"Tepui Parrotlet","spNanno2pan",
"Golden-winged Parakeet","spBrotochr",
"Caica Parrot","spPyrilcai",
"Dusky Parrot","spPionufus",
"Blue-headed Parrot","spPionumen",
"Blue-cheeked Amazon","spAmazo1duf",
"Yellow-crowned Amazon","spAmazo1och",
"Mealy Amazon","spAmazo1far",
"Orange-winged Amazon","spAmazo1ama",
"Dusky-billed Parrotlet","spForpumod",
"Green-rumped Parrotlet","spForpupas",
"Black-headed Parrot","spPionimel",
"Red-fan Parrot","spDeropacc",
"Painted Parakeet","spPyrrhpic",
"Peach-fronted Parakeet","spEupsiaur",
"Brown-throated Parakeet","spEupsiper",
"Sulphur-breasted Parakeet","spAratimac",
"Red-bellied Macaw","spOrtho1man",
"Blue-and-yellow Macaw","spAraara",
"Chestnut-fronted Macaw","spArasev",
"Scarlet Macaw","spAramac",
"Red-and-green Macaw","spArachl",
"Red-shouldered Macaw","spDiopsnob",
"White-eyed Parakeet","spPsitt1leu",
"Dusky Leaftosser","spScler1obs",
"Short-billed Leaftosser","spScler1ruf",
"Black-tailed Leaftosser","spScler1cau",
"Spot-throated Woodcreeper","spCerthsti",
"Northern Long-tailed Woodcreeper","spDeconlon",
"White-chinned Woodcreeper","spDendr6mer",
"Plain-brown Woodcreeper","spDendr6ful",
"Wedge-billed Woodcreeper","spGlyphspi",
"Cinnamon-throated Woodcreeper","spDendr7ruf",
"Amazonian Barred Woodcreeper","spDendr8cer",
"Black-banded Woodcreeper","spDendr8pic",
"Red-billed Woodcreeper","spHylexper",
"Strong-billed Woodcreeper","spXiphopro",
"Striped Woodcreeper","spXipho1obs",
"Chestnut-rumped Woodcreeper","spXipho1par",
"Buff-throated Woodcreeper","spXipho1gut",
"Straight-billed Woodcreeper","spDendr9pic",
"Curve-billed Scythebill","spCampy1pro",
"Narrow-billed Woodcreeper","spLepidang",
"Guianan Woodcreeper","spLepidalb",
"Slender-billed Xenops","spXenop1ten",
"Amazonian Plain Xenops","spXenop1gen",
"Point-tailed Palmcreeper","spBerlerik",
"Rufous-tailed Xenops","spMicro12mil",
"Rufous-rumped Foliage-gleaner","spNeoph2ery",
"Cinnamon-rumped Foliage-gleaner","spPhilypyr",
"Rufous-tailed Foliage-gleaner","spAnaba1ruf",
"Ruddy Foliage-gleaner","spClibarub",
"Chestnut-crowned Foliage-gleaner","spAutomruf",
"Ochre-throated Foliage-gleaner","spAutomoch",
"Olive-backed Foliage-gleaner","spAutominf",
"Speckled Spinetail","spThrip1gut",
"Yellow-chinned Spinetail","spCerth1cin",
"Plain-crowned Spinetail","spSynalguj",
"McConnell's Spinetail","spSynalmac",
"Pale-breasted Spinetail","spSynalalb2",
"Ruddy Spinetail","spSynalrut",
"Rufous-rumped Antwren","spEuchrcal",
"Ash-winged Antwren","spEuchrspo",
"Wing-banded Antbird","spMyrmotor",
"Spot-winged Antshrike","spPygipste",
"Dot-winged Antwren","spMicro13qui",
"Brown-bellied Stipplethroat","spEpinegut",
"Black-throated Antbird","spMyrmo2atr",
"Pygmy Antwren","spMyrmo3bra",
"Guianan Streaked Antwren","spMyrmo3sur",
"White-flanked Antwren","spMyrmo3axi",
"Long-winged Antwren","spMyrmo3lon1",
"Plain-winged Antwren","spMyrmo3beh","rarity"
"Grey Antwren","spMyrmo3men",
"Southern White-fringed Antwren","spFormigri",
"Rusty-backed Antwren","spFormiruf",
"Rufous-bellied Antwren","spIslergut",
"Dusky-throated Antshrike","spThamn1ard",
"Cinereous Antshrike","spThamn1cae",
"Spot-tailed Antwren","spHerpssti",
"Todd's Antwren","spHerpssti1",
"Rusty-winged Antwren","spHerpsfra",
"White-streaked Antvireo","spDysitleu",
"Band-tailed Antshrike","spThamn2mel1",
"Barred Antshrike","spThamn2dol",
"Mouse-colored Antshrike","spThamn2mur",
"Northern Slaty Antshrike","spThamn2pun",
"Amazonian Antshrike","spThamn2ama",
"Black-crested Antshrike","spSakes1can",
"Fasciated Antshrike","spCymbi1lin",
"Great Antshrike","spTarabmaj",
"Black-throated Antshrike","spFredevir",
"White-plumed Antbird","spPithyalb",
"Rufous-throated Antbird","spGymno4ruf",
"Common Scale-backed Antbird","spWillipoe",
"Guianan Warbling Antbird","spHypoc1can",
"Blackish Antbird","spCerco1nig",
"Dusky Antbird","spCerco1tyr",
"Grey Antbird","spCerco2cin",
"Ferruginous-backed Antbird","spMyrmo5fer",
"Black-chinned Antbird","spHypoc2mel",
"Spot-backed Antbird","spHylopnae1",
"Silvered Antbird","spSclatnae",
"Spot-winged Antbird","spMyrmeleu",
"White-bellied Antbird","spMyrme1lon","rarity"
"White-browed Antbird","spMyrmo6leu",
"Black-headed Antbird","spPercnruf",
"Rufous-capped Antthrush","spFormi1col",
"Black-faced Antthrush","spFormi1ana",
"Short-tailed Antthrush","spChama1cam",
"Variegated Antpitta","spGrallvar",
"Spotted Antpitta","spHylop1mac",
"Thrush-like Antpitta","spMyrmo7cam",
"Chestnut-belted Gnateater","spConopaur",
"Wing-barred Piprites","spPiprichl",
"Sooty-headed Tyrannulet","spPhyll1gri",
"Yellow-crowned Tyrannulet","spTyran1ela",
"Forest Elaenia","spMyiop1gai",
"Amazonian Elaenia","spMyiop1cin","rarity"
"Yellow-crowned Elaenia","spMyiop1fla",
"Greenish Elaenia","spMyiop1vir",
"Yellow-bellied Elaenia","spElaenfla",
"Small-billed Elaenia","spElaenpar",
"Plain-crested Elaenia","spElaencri",
"Lesser Elaenia","spElaenchi1",
"Rufous-crowned Elaenia","spElaenruf",
"White-lored Tyrannulet","spOrnitine",
"Southern Beardless Tyrannulet","spCampt1obs",
"Suiriri Flycatcher","spSuirisui",
"Mouse-colored Tyrannulet","spNesotmur",
"Yellow Tyrannulet","spCapsifla",
"Bearded Tachuri","spPolys1pec",
"Ringed Antpipit","spCoryt2tor",
"Rufous-sided Scrub Tyrant","spEuscaruf",
"Guianan Tyrannulet","spZimmeace",
"Olive-green Tyrannulet","spPhyll2vir",
"Ochre-bellied Flycatcher","spMioneole",
"McConnell's Flycatcher","spMionemac",
"Sepia-capped Flycatcher","spLepto6ama",
"Northern Scrub Flycatcher","spSubleare",
"Amazonian Scrub Flycatcher","spSubleobs",
"Southern Scrub Flycatcher","spSublemod","rarity"
"Pale-tipped Inezia","spInezicau",
"Bran-colored Flycatcher","spMyiop2fas",
"Boat-billed Tody-Tyrant","spHemitjos",
"White-eyed Tody-Tyrant","spHemitzos",
"Pelzeln's Tody-Tyrant","spHemitino",
"Short-tailed Pygmy Tyrant","spMyioreca",
"Double-banded Pygmy Tyrant","spLopho13vit",
"Helmeted Pygmy Tyrant","spLopho13gal",
"Smoky-fronted Tody-Flycatcher","spPoecifum",
"Black-chested Tyrant","spTaeni1and",
"Spotted Tody-Flycatcher","spTodir1mac",
"Common Tody-Flycatcher","spTodir1cin",
"Painted Tody-Flycatcher","spTodir1pic",
"Eastern Olivaceous Flatbill","spRhync3oli",
"Yellow-olive Flatbill","spTolmosul",
"Yellow-margined Flatbill","spTolmoass",
"Grey-crowned Flatbill","spTolmopol",
"Ochre-lored Flatbill","spTolmofla1",
"Cinnamon-crested Spadebill","spPlaty1sat",
"Golden-crowned Spadebill","spPlaty1cor",
"White-crested Spadebill","spPlaty1pla",
"Cinnamon Neopipo","spNeopicin",
"Cliff Flycatcher","spHirun1fer",
"Euler's Flycatcher","spLathreul",
"Fuscous Flycatcher","spCnemofus",
"Olive-sided Flycatcher","spContocoo",
"Northern Tropical Pewee","spContobog",
"White-throated Pewee","spContoalb",
"Drab Water Tyrant","spOchthlit",
"Rufous-tailed Tyrant","spKnipopoe",
"Amazonian Black Tyrant","spKnipopoe1","rarity"
"Grey Monjita","spNengecin",
"Pied Water Tyrant","spFluvipic",
"White-headed Marsh Tyrant","spArundleu",
"Long-tailed Tyrant","spColoncol",
"Piratic Flycatcher","spLegatleu",
"Rusty-margined Flycatcher","spMyiozcay",
"Dusky-chested Flycatcher","spMyiozlut",
"Great Kiskadee","spPitansul",
"Lesser Kiskadee","spPhilo2lic",
"Yellow-throated Flycatcher","spConop1par",
"Streaked Flycatcher","spMyiodmac",
"Boat-billed Flycatcher","spMegarpit",
"Sulphury Flycatcher","spTyran2sul",
"Variegated Flycatcher","spEmpid1var",
"White-throated Kingbird","spTyran3alb",
"Tropical Kingbird","spTyran3mel",
"Fork-tailed Flycatcher","spTyran3sav",
"Eastern Kingbird","spTyran3tyr","rarity"
"Grey Kingbird","spTyran3dom",
"Greyish Mourner","spRhyti1sim",
"Pale-bellied Mourner","spRhyti1imm",
"Todd's Sirystes","spSiryssub",
"Dusky-capped Flycatcher","spMyiartub",
"Swainson's Flycatcher","spMyiarswa",
"Short-crested Flycatcher","spMyiarfer",
"Brown-crested Flycatcher","spMyiartyr",
"Large-headed Flatbill","spRamph3meg",
"Rufous-tailed Flatbill","spRamph3ruf",
"Cinnamon Attila","spAttilcin",
"Bright-rumped Attila","spAttilspa",
"Guianan Cock-of-the-rock","spRupicrup",
"Guianan Red Cotinga","spPhoen4car",
"Crimson Fruitcrow","spHaema2mil",
"Purple-throated Fruitcrow","spQuerupur",
"Capuchinbird","spPeristri",
"Screaming Piha","spLipauvoc",
"White Bellbird","spProcnalb",
"Spangled Cotinga","spCotincay",
"Purple-breasted Cotinga","spCotincot",
"Bare-necked Fruitcrow","spGymno6foe",
"Pompadour Cotinga","spXipho2pun",
"Tiny Tyrant-Manakin","spTyran4vir",
"Saffron-crested Tyrant-Manakin","spNeopechr",
"Pale-bellied Tyrant-Manakin","spNeopepal",
"Blue-backed Manakin","spChiropar",
"White-throated Manakin","spCorapgut",
"Black Manakin","spXenop2atr",
"White-fronted Manakin","spLepid1ser",
"White-bearded Manakin","spManacman",
"Crimson-hooded Manakin","spPipraaur",
"White-crowned Manakin","spPseud11pip",
"Golden-headed Manakin","spCerat1ery",
"Black-crowned Tityra","spTityrinq",
"Black-tailed Tityra","spTityrcay",
"Guianan Schiffornis","spSchifoli",
"Cinereous Mourner","spLaniohyp",
"Dusky Purpletuft","spIodopfus",
"Green-backed Becard","spPachy2vir",
"Cinereous Becard","spPachy2ruf",
"White-winged Becard","spPachy2pol",
"Black-capped Becard","spPachy2mar",
"Glossy-backed Becard","spPachy2sur",
"Pink-throated Becard","spPachy2min",
"Sharpbill","spOxyrucri",
"Tropical Royal Flycatcher","spOnych1cor",
"Whiskered Myiobius","spMyiobbar",
"Ruddy-tailed Flycatcher","spTeren1ery",
"Rufous-browed Peppershrike","spCyclaguj",
"Slaty-capped Shrike-Vireo","spVireoleu",
"Ashy-headed Greenlet","spHylop2pec",
"Lemon-chested Greenlet","spHylop2tho",
"Tawny-crowned Greenlet","spTunchoch",
"Buff-cheeked Greenlet","spPachy5mus",
"Red-eyed Vireo","spVireo1oli","rarity"
"Black-whiskered Vireo","spVireo1alt",
"Chivi Vireo","spVireo1chi",
"Tepui Vireo","spVireo1scl",
"Cayenne Jay","spCyano7cay",
"Sand Martin","spRiparrip",
"White-winged Swallow","spTachy4alb1",
"Brown-chested Martin","spProgntap",
"Purple Martin","spPrognsub",
"Southern Martin","spPrognele",
"Grey-breasted Martin","spProgncha",
"Caribbean Martin","spProgndom",
"Southern Rough-winged Swallow","spStelg1ruf",
"White-banded Swallow","spAtticfas",
"White-thighed Swallow","spAttictib",
"Blue-and-white Swallow","spPygoccya",
"Black-collared Swallow","spPygocmel",
"Barn Swallow","spHirun2rus",
"American Cliff Swallow","spPetro2pyr","rarity"
"Black-capped Donacobius","spDonacatr",
"Coraya Wren","spPheugcor",
"Buff-breasted Wren","spCantoleu",
"Southern House Wren","spTroglmus",
"White-breasted Wood Wren","spHenic2leu",
"Wing-banded Wren","spMicro18bam",
"Musician Wren","spCyphoara",
"Trilling Gnatwren","spRamph5mel",
"Collared Gnatwren","spMicro19col",
"Guianan Gnatcatcher","spPolio5gui",
"Tropical Gnatcatcher","spPolio5plu",
"Tropical Mockingbird","spMimusgil",
"Chalk-browed Mockingbird","spMimussat",
"Rufous-brown Solitaire","spCichl1leu",
"Grey-cheeked Thrush","spCatha1min",
"Black-hooded Thrush","spTurduoli2",
"Campina Thrush","spTurduart",
"White-necked Thrush","spTurdualb1",
"Pale-breasted Thrush","spTurduleu1",
"Cocoa Thrush","spTurdufum",
"Spectacled Thrush","spTurdunud",
"House Sparrow","spPassedom","introduced"
"Yellowish Pipit","spAnthuchi",
"Golden-rumped Euphonia","spChlor11cya",
"Plumbeous Euphonia","spEuphoplu",
"Purple-throated Euphonia","spEuphochl",
"Finsch's Euphonia","spEuphofin",
"White-lored Euphonia","spEuphochr",
"White-vented Euphonia","spEuphomin",
"Violaceous Euphonia","spEuphovio",
"Golden-sided Euphonia","spEuphocay",
"Grassland Sparrow","spAmmodhum",
"Pectoral Sparrow","spArrem1tac",
"Rufous-collared Sparrow","spZonotcap",
"Bobolink","spDolicory",
"Eastern Meadowlark","spSturn3mag",
"Red-breasted Meadowlark","spLeistmil",
"Crested Oropendola","spPsarodec",
"Green Oropendola","spPsarovir",
"Yellow-rumped Cacique","spCaciccel",
"Red-rumped Cacique","spCacichae",
"Yellow Oriole","spIcter1nig",
"Epaulet Oriole","spIcter1cay",
"Giant Cowbird","spMolotory",
"Shiny Cowbird","spMolotbon",
"Carib Grackle","spQuisclug",
"Yellow-hooded Blackbird","spChrys8ict",
"Northern Waterthrush","spParkenov",
"Black-and-white Warbler","spMniotvar","rarity"
"Prothonotary Warbler","spProtocit",
"Masked Yellowthroat","spGeothaeq",
"American Redstart","spSetop1rut",
"Tropical Parula","spSetop1pit",
"Blackburnian Warbler","spSetop1fus","rarity"
"American Yellow Warbler","spSetop1aes",
"Blackpoll Warbler","spSetop1str",
"Riverbank Warbler","spMyiot2riv",
"Red-billed Pied Tanager","spLampr4mel",
"Tooth-billed Tanager","spPiranlut",
"Red Tanager","spPiranfla",
"Summer Tanager","spPiranrub",
"Scarlet Tanager","spPiranoli","rarity"
"Rose-breasted Chat","spGrana1pel",
"Yellow-green Grosbeak","spCaryocan",
"Red-and-black Grosbeak","spPerip1ery",
"Dickcissel","spSpiza1ame","rarity"
"Amazonian Grosbeak","spCyano13rot",
"Hooded Tanager","spNemospil",
"Blue-backed Tanager","spCyani1cya",
"Wedge-tailed Grass Finch","spEmber2her",
"Green Honeycreeper","spChlor14spi",
"Yellow-backed Tanager","spHemit2fla",
"Guira Tanager","spHemit2gui",
"Swallow Tanager","spTersivir",
"Purple Honeycreeper","spCyanecae",
"Red-legged Honeycreeper","spCyanecya",
"Short-billed Honeycreeper","spCyanenit",
"Blue Dacnis","spDacnicay",
"Black-faced Dacnis","spDacnilin",
"Olive-grey Saltator","spSalta1oli",
"Buff-throated Saltator","spSalta1max",
"Slate-colored Grosbeak","spSalta1gro",
"Bananaquit","spCoerefla",
"Blue-black Grassquit","spVolatjac",
"Grey-headed Tanager","spEucompen",
"Flame-crested Tanager","spLoriocri",
"White-shouldered Tanager","spLorioluc",
"Red Pileated Finch","spCoryp3cuc",
"Fulvous-crested Tanager","spTachy5sur",
"White-lined Tanager","spTachy5ruf",
"Red-shouldered Tanager","spTachy5pho",
"Fulvous Shrike-Tanager","spLanio2ful",
"Silver-beaked Tanager","spRamph7car",
"Lesson's Seedeater","spSporo1bou",
"Lined Seedeater","spSporo1lin",
"Wing-barred Seedeater","spSporo1ame",
"Yellow-bellied Seedeater","spSporo1nig","rarity"
"Chestnut-bellied Seed Finch","spSporo1ang",
"Large-billed Seed Finch","spSporo1cra",
"Slate-colored Seedeater","spSporo1sch",
"Plumbeous Seedeater","spSporo1plu",
"White-bellied Seedeater","spSporo1leu",
"Chestnut-bellied Seedeater","spSporo1cas",
"Ruddy-breasted Seedeater","spSporo1min",
"Copper Seedeater","spSporo1bou1",
"White-rumped Tanager","spCypsnhir",
"Bicolored Conebill","spConirbic",
"Chestnut-vented Conebill","spConirspe",
"Stripe-tailed Yellow Finch","spSicalcit",
"Saffron Finch","spSicalfla","rarity"
"Grassland Yellow Finch","spSicallut",
"Shrike-like Tanager","spNeothfas",
"Magpie Tanager","spCisso1lev","rarity"
"Black-faced Tanager","spSchis2mel",
"Red-capped Cardinal","spParoagul",
"Dotted Tanager","spIxothvar","rarity"
"Spotted Tanager","spIxothpun",
"Speckled Tanager","spIxothgut",
"Blue-grey Tanager","spThrauepi",
"Palm Tanager","spThraupal",
"Burnished-buff Tanager","spStilpcay",
"Bay-headed Tanager","spTangagyr",
"Turquoise Tanager","spTangamex",
"Paradise Tanager","spTangachi",
"Opal-rumped Tanager","spTangavel",
