"Name","ID","Status"
"Knob-billed Duck","spSarkimel","rarity"
"African Pygmy Goose","spNettaaur","rarity"
"Helmeted Guineafowl","spNumidmel","rarity"
"Harlequin Quail","spCoturdel",
"Red-necked Spurfowl","spPternafe",
"Sao Tome Spinetail","spZoonatho","endemic"
"African Palm Swift","spCypsipar",
"Common Swift","spApusapu","rarity"
"Pallid Swift","spApuspal","rarity"
"African Black Swift","spApusbar","rarity"
"Little Swift","spApusaff",
"Jacobin Cuckoo","spClamajac","rarity"
"Klaas's Cuckoo","spChrys3kla",
"African Emerald Cuckoo","spChrys3cup",
"Common Cuckoo","spCuculcan","rarity"
"Rock Dove","spColumliv","introduced"
"Sao Tome Olive Pigeon","spColumtho","endemic"
"Island Bronze-naped Pigeon","spColummal",
"Lemon Dove","spColumlar",
"Laughing Dove","spSpilosen",
"African Green Pigeon","spTrerocal",
"Sao Tome Green Pigeon","spTrerosan","endemic"
"African Rail","spRallucae","rarity"
"African Crake","spCrecoegr","rarity"
"Lesser Moorhen","spParagang",
"Common Moorhen","spGalli3chl",
"Allen's Gallinule","spPorph1all",
"Greater Flamingo","spPhoenros","rarity"
"Lesser Flamingo","spPhoen1min","rarity"
"Eurasian Stone-curlew","spBurhioed","rarity"
"Grey Plover","spPluvi1squ","rarity"
"European Golden Plover","spPluvi1apr","rarity"
"American Golden Plover","spPluvi1dom","rarity"
"Common Ringed Plover","spCharahia","rarity"
"Little Ringed Plover","spCharadub","rarity"
"Greater Sand Plover","spAnarhles","rarity"
"White-fronted Plover","spAnarhmar","rarity"
"Eurasian Whimbrel","spNumenpha",
"Eurasian Curlew","spNumenarq","rarity"
"Bar-tailed Godwit","spLimoslap","rarity"
"Common Sandpiper","spActithyp",
"Green Sandpiper","spTringoch","rarity"
"Wood Sandpiper","spTringgla",
"Common Greenshank","spTringneb",
"Ruddy Turnstone","spArenaint","rarity"
"Red Knot","spCalidcan","rarity"
"Ruff","spCalidpug","rarity"
"Curlew Sandpiper","spCalidfer","rarity"
"Sanderling","spCalidalb","rarity"
"Little Stint","spCalidmin","rarity"
"Pectoral Sandpiper","spCalidmel","rarity"
"Black-winged Pratincole","spGlarenor","rarity"
"Brown Noddy","spAnoussto",
"Black Noddy","spAnousmin",
"Sooty Tern","spOnychfus",
"Bridled Tern","spOnychana",
"Black Tern","spChlidnig","rarity"
"Common Tern","spStern2hir1","rarity"
"Sandwich Tern","spThala1san",
"West African Crested Tern","spThala1alb","rarity"
"Sabine's Gull","spXemasab","rarity"
"Franklin's Gull","spLeuco3pip","rarity"
"Lesser Black-backed Gull","spLarusfus","rarity"
"Parasitic Jaeger","spStercpar","rarity"
"Pomarine Jaeger","spStercpom","rarity"
"Red-billed Tropicbird","spPhaet2aet","rarity"
"White-tailed Tropicbird","spPhaet2lep",
"Wilson's Storm Petrel","spOceanoce",
"European Storm Petrel","spHydro5pel","rarity"
"Band-rumped Storm Petrel","spHydro5cas",
"Scopoli's Shearwater","spCalondio","rarity"
"Sooty Shearwater","spArdengri","rarity"
"Yellow-billed Stork","spMycteibi","rarity"
"White Stork","spCiconcic","rarity"
"Red-footed Booby","spSulasul","rarity"
"Brown Booby","spSulaleu",
"Masked Booby","spSuladac",
"Reed Cormorant","spMicro5afr",
"Sao Tome Ibis","spBostrboc","endemic"
"Little Bittern","spBotaumin",
"Black Heron","spEgretard","rarity"
"Little Egret","spEgretgar","rarity"
"Western Reef Heron","spEgretgul",
"Little Heron","spButoratr",
"Squacco Heron","spArdeo1ral","rarity"
"Great Egret","spArdeaalb","rarity"
"Yellow-billed Egret","spArdeabra","rarity"
"Western Cattle Egret","spArdeaibi",
"Grey Heron","spArdeacin","rarity"
"Purple Heron","spArdeapur","rarity"
"Black-headed Heron","spArdeamel","rarity"
"Osprey","spPandihal",
"Bat Hawk","spMachealc","rarity"
"Black Kite","spMilvumig",
"Yellow-billed Kite","spMilvuaeg",
"Western Barn Owl","spTytoalb",
"Principe Scops Owl","spOtusbik","endemic"
"Sao Tome Scops Owl","spOtushar","endemic"
"European Roller","spCoracgar","rarity"
"Broad-billed Roller","spEurysgla","rarity"
"Blue-breasted Kingfisher","spHalcymal",
"Malachite Kingfisher","spCoryt1cri",
"Pied Kingfisher","spCerylrud",
"Red-footed Falcon","spFalcoves","rarity"
"Eurasian Hobby","spFalcosub","rarity"
"Peregrine Falcon","spFalcoper","rarity"
"Timneh Parrot","spPsitttim",
"Red-headed Lovebird","spAgapopul",
"Sao Tome Oriole","spOriol1cra","endemic"
"Eurasian Golden Oriole","spOriol1ori","rarity"
"Velvet-mantled Drongo","spDicrumod",
"Sao Tome Paradise Flycatcher","spTerpsatr1","endemic"
"Sao Tome Fiscal","spLaniunew","endemic"
"Lesser Grey Shrike","spLaniumin","rarity"
"Grey-rumped Swallow","spPseud16gri","rarity"
"Banded Martin","spNeoph3cin","rarity"
"Sand Martin","spRiparrip","rarity"
"Barn Swallow","spHirun2rus","rarity"
"Western House Martin","spDelicurb","rarity"
"Lesser Striped Swallow","spCecroaby","rarity"
"Willow Warbler","spPhyll5tro","rarity"
"Sedge Warbler","spAcroc1sch","rarity"
"Sao Tome Prinia","spPrinimol","endemic"
"Garden Warbler","spSylvi3bor","rarity"
"Dohrn's Warbler","spSylvi3doh","endemic"
"Principe White-eye","spZoste1fic","endemic"
"Sao Tome White-eye","spZoste1fea","endemic"
"Black-capped Speirops","spZoste1lug","endemic"
"Principe Speirops","spZoste1leu","endemic"
"Splendid Starling","spLampr2spl",
"Principe Starling","spLampr2orn","endemic"
"Chestnut-winged Starling","spOnych2ful",
"Principe Thrush","spTurduxan","endemic"
"Sao Tome Thrush","spTurduoli","endemic"
"Spotted Flycatcher","spMusci3str","rarity"
"Common Nightingale","spLuscimeg","rarity"
"Collared Flycatcher","spFicedalb1","rarity"
"Whinchat","spSaxicrub","rarity"
"Isabelline Wheatear","spOenanisa","rarity"
"Principe Sunbird","spAnaba2har","endemic"
"Newton's Sunbird","spAnaba2new","endemic"
"Giant Sunbird","spDrepttho","endemic"
"Olive Sunbird","spCyano12oli",
"Principe Weaver","spPloce2pri","endemic"
"Southern Masked Weaver","spPloce2vel","introduced"
"Village Weaver","spPloce2cuc",
"Giant Weaver","spPloce2gra","endemic"
"Sao Tome Weaver","spPloce2san","endemic"
"Red-headed Quelea","spQueleery",
"Black-winged Red Bishop","spEuplehor",
"Golden-backed Bishop","spEupleaur",
"White-winged Widowbird","spEuplealb",
"Bronze Mannikin","spSpermcuc",
"Chestnut-breasted Nigrita","spNigribic",
"Cinderella Waxbill","spGlauc2tho","rarity"
"Common Waxbill","spEstriast",
"Blue Waxbill","spUraegang",
"Pin-tailed Whydah","spViduamac",
"Long-tailed Paradise Whydah","spViduapar","rarity"
"Western Yellow Wagtail","spMotacfla","rarity"
"Sao Tome Shorttail","spMotacboc","endemic"
"White Wagtail","spMotacalb","rarity"
"Tree Pipit","spAnthutri","rarity"
"Principe Seedeater","spCrithruf","endemic"
"Sao Tome Grosbeak","spCrithcon","endemic"
"Yellow-fronted Canary","spCrithmoz",
