"Name","ID","Status"
"Pacific Black Duck","spAnassup",
"Northern Pintail","spAnasacu","rarity"
"Tongan Megapode","spMegappri","endemic"
"Red Junglefowl","spGallugal","introduced"
"White-rumped Swiftlet","spAerodspo",
"Long-tailed Koel","spUrodytai",
"Rock Dove","spColumliv","introduced"
"Shy Ground Dove","spPampusta",
"Many-colored Fruit Dove","spPtiliper1",
"Crimson-crowned Fruit Dove","spPtilipor1",
"Pacific Imperial Pigeon","spDuculpac",
"Buff-banded Rail","spHypotphi",
"Australasian Swamphen","spPorph1mel",
"Spotless Crake","spZaportab",
"Grey Plover","spPluvi1squ","rarity"
"Pacific Golden Plover","spPluvi1ful",
"Bristle-thighed Curlew","spNumentah",
"Bar-tailed Godwit","spLimoslap",
"Wandering Tattler","spTringinc",
"Ruddy Turnstone","spArenaint",
"Sharp-tailed Sandpiper","spCalidacu",
"Sanderling","spCalidalb",
"White Tern","spGygisalb",
"Brown Noddy","spAnoussto",
"Black Noddy","spAnousmin",
"Grey Noddy","spAnousalb",
"Blue Noddy","spAnouscer",
"Sooty Tern","spOnychfus",
"Bridled Tern","spOnychana",
"Spectacled Tern","spOnychlun",
"Black-naped Tern","spStern2sum",
"Greater Crested Tern","spThala1ber",
"Parasitic Jaeger","spStercpar","rarity"
"Pomarine Jaeger","spStercpom","rarity"
"South Polar Skua","spStercmac","rarity"
"Red-tailed Tropicbird","spPhaet2rub",
"White-tailed Tropicbird","spPhaet2lep",
"Black-bellied Storm Petrel","spFregetro","rarity"
"Polynesian Storm Petrel","spNesofful",
"Snowy Albatross","spDiomeexu",
"Antipodean Albatross","spDiomeant","rarity"
"Light-mantled Albatross","spPhoeb1pal","rarity"
"Southern Giant Petrel","spMacro3gig","rarity"
"Pintado Petrel","spDapticap",
"Grey-faced Petrel","spPtero3gou",
"Kermadec Petrel","spPtero3neg",
"Herald Petrel","spPtero3her",
"Phoenix Petrel","spPtero3alb","rarity"
"Mottled Petrel","spPtero3ine",
"White-necked Petrel","spPtero3cer",
"Black-winged Petrel","spPtero3nig",
"Gould's Petrel","spPtero3leu",
"Collared Petrel","spPtero3bre",
"Cook's Petrel","spPtero3coo","rarity"
"Stejneger's Petrel","spPtero3lon","rarity"
"Tahiti Petrel","spPseudros",
"Wedge-tailed Shearwater","spArdenpac",
"Buller's Shearwater","spArdenbul",
"Sooty Shearwater","spArdengri",
"Short-tailed Shearwater","spArdenten",
"Christmas Shearwater","spPuffinat","rarity"
"Tropical Shearwater","spPuffibai",
"Lesser Frigatebird","spFregaari",
"Great Frigatebird","spFregamin",
"Red-footed Booby","spSulasul",
"Brown Booby","spSulaleu",
"Masked Booby","spSuladac",
"Pacific Reef Heron","spEgretsac",
"White-faced Heron","spEgretnov",
"Little Heron","spButoratr","rarity"
"Swamp Harrier","spCircuapp",
"Eastern Barn Owl","spTytojav",
"Pacific Kingfisher","spTodirsac",
"Maroon Shining Parrot","spProso1tab","introduced"
"Blue-crowned Lorikeet","spViniaus",
"Polynesian Wattled Honeyeater","spFoulecar",
"Polynesian Triller","spLalagmac",
"Tongan Whistler","spPachy4jac","endemic"
"Fiji Shrikebill","spClyto2vit",
"Red-vented Bulbul","spPycno2caf","introduced"
"Pacific Swallow","spHirun2jav",
"Polynesian Starling","spAplontab",
"Jungle Myna","spAcridfus","introduced"
"Common Myna","spAcridtri","introduced"
"Common Starling","spSturn2vul","introduced"
