"Name","ID","Status"
"Little Tinamou","spCryptsou",
"Horned Screamer","spAnhimcor","extinct"
"White-faced Whistling Duck","spDendrvid",
"Black-bellied Whistling Duck","spDendraut",
"Fulvous Whistling Duck","spDendrbic",
"Snow Goose","spAnser1cae","rarity"
"Comb Duck","spSarkisyl",
"Muscovy Duck","spCairimos","rarity"
"Blue-winged Teal","spSpatudis",
"Northern Shoveler","spSpatucly",
"Eurasian Wigeon","spMarecpen","rarity"
"American Wigeon","spMarecame",
"White-cheeked Pintail","spAnasbah",
"Northern Pintail","spAnasacu",
"Green-winged Teal","spAnascar",
"Southern Pochard","spNetta1ery","rarity"
"Ring-necked Duck","spAythycol",
"Lesser Scaup","spAythyaff",
"Masked Duck","spNomondom",
"Rufous-vented Chachalaca","spOrtalruf",
"Trinidad Piping Guan","spPipilpip","endemic"
"Nacunda Nighthawk","spChordnac",
"Lesser Nighthawk","spChordacu",
"Short-tailed Nighthawk","spLurocsem",
"Pauraque","spNycti2alb",
"White-tailed Nightjar","spHydrocay",
"Rufous Nightjar","spAntroruf",
"Oilbird","spSteatcar",
"Common Potoo","spNycti4gri",
"American Black Swift","spCypsenig",
"Chestnut-collared Swift","spStreprut",
"White-collared Swift","spStrepzon",
"Grey-rumped Swift","spChaetcin",
"Band-rumped Swift","spChaetspi",
"Chapman's Swift","spChaetcha",
"Short-tailed Swift","spChaetbra",
"Fork-tailed Palm Swift","spTachosqu",
"Lesser Swallow-tailed Swift","spPanypcay",
"White-necked Jacobin","spFlorimel",
"Rufous-breasted Hermit","spGlauchir",
"Little Hermit","spPhaetlon",
"Green Hermit","spPhaetguy",
"Brown Violetear","spColibdel",
"White-tailed Goldenthroat","spPolytgua",
"Ruby-topaz Hummingbird","spChrys1mos",
"Green-throated Mango","spAnthrvir",
"Black-throated Mango","spAnthrnig",
"Tufted Coquette","spLopho3orn",
"Long-billed Starthroat","spHelio2lon",
"Amethyst Woodstar","spCalli1ame","rarity"
"Rufous-shafted Woodstar","spChaet1jou",
"Blue-tailed Emerald","spChlormel1",
"White-tailed Sabrewing","spCampyens",
"Copper-rumped Hummingbird","spSaucetob",
"White-chested Emerald","spChrys2bre",
"Blue-chinned Sapphire","spChlor1not",
"Greater Ani","spCrotomaj",
"Smooth-billed Ani","spCrotoani",
"Striped Cuckoo","spTapernae",
"Little Cuckoo","spCoccymin",
"Squirrel Cuckoo","spPiayacay",
"Dark-billed Cuckoo","spCoccy1mel","rarity"
"Yellow-billed Cuckoo","spCoccy1ame",
"Mangrove Cuckoo","spCoccy1min",
"Black-billed Cuckoo","spCoccy1ery",
"Rock Dove","spColumliv","introduced"
"Scaly-naped Pigeon","spPatag1squ","rarity"
"Scaled Pigeon","spPatag1spe",
"Band-tailed Pigeon","spPatag1fas",
"Pale-vented Pigeon","spPatag1cay",
"Eurasian Collared Dove","spStrep1dec","rarity-from-introduced"
"Scaled Dove","spColum1squ","rarity"
"Common Ground Dove","spColum1pas",
"Plain-breasted Ground Dove","spColum1min",
"Ruddy Ground Dove","spColum1tal",
"Blue Ground Dove","spClarapre",
"Ruddy Quail-Dove","spGeotrmon",
"White-tipped Dove","spLepto1ver",
"Grey-fronted Dove","spLepto1ruf",
"Lined Quail-Dove","spZentrlin",
"Eared Dove","spZenaiaur",
"Sungrebe","spHelio4ful",
"Spotted Rail","spPardimac",
"Ash-throated Crake","spMustealb","extinct"
"Paint-billed Crake","spMusteery",
"Rufous-necked Wood Rail","spAramiaxi",
"Grey-cowled Wood Rail","spAramicaj",
"Mangrove Rail","spRallulon",
"Sora","spPorzacar",
"Common Gallinule","spGalli3gal",
"American Coot","spFulicame",
"Purple Gallinule","spPorph1mar",
"Azure Gallinule","spPorph1fla",
"Yellow-breasted Crake","spLaterfla",
"Grey-breasted Crake","spLaterexi",
"Limpkin","spAramugua",
"Least Grebe","spTachy2dom",
"Pied-billed Grebe","spPodilpod",
"American Flamingo","spPhoenrub",
"Double-striped Thick-knee","spHespebis","rarity"
"American Oystercatcher","spHaema1pal",
"Black-necked Stilt","spHiman1mex",
"American Avocet","spRecurame","rarity"
"Grey Plover","spPluvi1squ",
"American Golden Plover","spPluvi1dom",
"Killdeer","spCharavoc",
"Common Ringed Plover","spCharahia","rarity"
"Semipalmated Plover","spCharasem",
"Pied Plover","spHoplocay","rarity"
"Southern Lapwing","spVanelchi",
"Wilson's Plover","spAnarhwil",
"Collared Plover","spAnarhcol",
"Snowy Plover","spAnarhniv","rarity"
"Wattled Jacana","spJacanjac",
"Upland Sandpiper","spBartrlon",
"Eurasian Whimbrel","spNumenpha","rarity"
"Hudsonian Whimbrel","spNumenhud",
"Eskimo Curlew","spNumenbor","extinct"
"Long-billed Curlew","spNumename",
"Black-tailed Godwit","spLimoslim","rarity"
"Hudsonian Godwit","spLimoshae",
"Marbled Godwit","spLimosfed",
"Short-billed Dowitcher","spLimnogri",
"Wilson's Snipe","spGalli5del",
"Pantanal Snipe","spGalli5par",
"Wilson's Phalarope","spPhala1tri",
"Terek Sandpiper","spXenuscin","rarity"
"Spotted Sandpiper","spActitmac",
"Solitary Sandpiper","spTringsol",
"Wood Sandpiper","spTringgla","rarity"
"Lesser Yellowlegs","spTringfla",
"Willet","spTringsem",
"Spotted Redshank","spTringery","rarity"
"Common Greenshank","spTringneb","rarity"
"Greater Yellowlegs","spTringmel",
"Ruddy Turnstone","spArenaint",
"Red Knot","spCalidcan",
"Ruff","spCalidpug",
"Stilt Sandpiper","spCalidhim",
"Curlew Sandpiper","spCalidfer","rarity"
"Buff-breasted Sandpiper","spCalidsub1",
"Sanderling","spCalidalb",
"Baird's Sandpiper","spCalidbai",
"Least Sandpiper","spCalidmin1",
"White-rumped Sandpiper","spCalidfus",
"Pectoral Sandpiper","spCalidmel",
"Western Sandpiper","spCalidmau",
"Semipalmated Sandpiper","spCalidpus",
"Black Skimmer","spRynchnig",
"White Tern","spGygisalb","rarity"
"Brown Noddy","spAnoussto",
"Sooty Tern","spOnychfus",
"Bridled Tern","spOnychana",
"Least Tern","spStern1ant",
"Yellow-billed Tern","spStern1sup",
"Large-billed Tern","spPhaet1sim",
"Gull-billed Tern","spGelocnil",
"Caspian Tern","spHydro3cas",
"Black Tern","spChlidnig",
"Arctic Tern","spStern2par","rarity"
"Common Tern","spStern2hir1",
"Roseate Tern","spStern2dou",
"Cabot's Tern","spThala1acu",
"Royal Tern","spThala1max",
"Black-legged Kittiwake","spRissatri","rarity"
"Sabine's Gull","spXemasab","rarity"
"Black-headed Gull","spChroirid","rarity"
"Laughing Gull","spLeuco3atr",
"Franklin's Gull","spLeuco3pip",
"Audouin's Gull","spIchthaud","rarity"
"Ring-billed Gull","spLarusdel",
"Kelp Gull","spLarusdom","rarity"
"Great Black-backed Gull","spLarusmar","rarity"
"Lesser Black-backed Gull","spLarusfus",
"American Herring Gull","spLarussmi","rarity"
"Parasitic Jaeger","spStercpar",
"Pomarine Jaeger","spStercpom",
"South Polar Skua","spStercmac",
"Red-billed Tropicbird","spPhaet2aet",
"White-tailed Tropicbird","spPhaet2lep",
"Wilson's Storm Petrel","spOceanoce",
"Leach's Storm Petrel","spHydro5leu",
"Cory's Shearwater","spCalonbor",
"Scopoli's Shearwater","spCalondio",
"Cape Verde Shearwater","spCalonedw","rarity"
"Sooty Shearwater","spArdengri","rarity"
"Great Shearwater","spArdengra",
"Manx Shearwater","spPuffipuf",
"Sargasso Shearwater","spPuffilhe",
"Bulwer's Petrel","spBulwebul","rarity"
"Wood Stork","spMycteame","rarity"
"Jabiru","spJabirmyc","rarity"
"Maguari Stork","spCiconmag","rarity"
"Magnificent Frigatebird","spFregamag",
"Northern Gannet","spMorusbas","rarity"
"Red-footed Booby","spSulasul",
"Brown Booby","spSulaleu",
"Masked Booby","spSuladac",
"Anhinga","spAnhinanh",
"Neotropic Cormorant","spNanno1bra",
"Buff-necked Ibis","spThericau","rarity"
"American White Ibis","spEudocalb","rarity"
"Scarlet Ibis","spEudocrub",
"Glossy Ibis","spPlegafal",
"Eurasian Spoonbill","spPlataleu","rarity"
"Roseate Spoonbill","spPlataaja","rarity"
"Rufescent Tiger Heron","spTigri1lin",
"Fasciated Tiger Heron","spTigri1fas","rarity"
"Boat-billed Heron","spCochlcoc",
"Agami Heron","spAgamiaga",
"Pinnated Bittern","spBotaupin",
"Stripe-backed Bittern","spBotauinv",
"Least Bittern","spBotauexi",
"Yellow-crowned Night Heron","spNyctavio",
"Black-crowned Night Heron","spNycti6nyc",
"Capped Heron","spPilhepil","rarity"
"Whistling Heron","spSyrigsib","rarity"
"Little Blue Heron","spEgretcae",
"Tricolored Heron","spEgrettri",
"Reddish Egret","spEgretruf","rarity"
"Snowy Egret","spEgretthu",
"Little Egret","spEgretgar","rarity"
"Western Reef Heron","spEgretgul","rarity"
"Striated Heron","spButorstr",
"Green Heron","spButorvir",
"Squacco Heron","spArdeo1ral","rarity"
"Great Egret","spArdeaalb",
"Western Cattle Egret","spArdeaibi",
"Grey Heron","spArdeacin","rarity"
"Great Blue Heron","spArdeaher",
"Cocoi Heron","spArdeacoc",
"Purple Heron","spArdeapur","rarity"
"Brown Pelican","spPelec1occ",
"King Vulture","spSarcopap","rarity"
"Black Vulture","spCoragatr",
"Turkey Vulture","spCathaaur",
"Osprey","spPandihal",
"Pearl Kite","spGampsswa",
"White-tailed Kite","spElanuleu","rarity"
"Hook-billed Kite","spChondunc",
"Grey-headed Kite","spLepto3cay",
"Swallow-tailed Kite","spElanofor",
"Black Hawk-Eagle","spSpizatyr",
"Ornate Hawk-Eagle","spSpizaorn",
"Long-winged Harrier","spCircubuf",
"Double-toothed Kite","spHarpabid",
"Black Kite","spMilvumig","rarity"
"Plumbeous Kite","spIctin1plu",
"Crane Hawk","spGerancae",
"Black-collared Hawk","spBusarnig",
"Snail Kite","spRostr1soc","rarity"
"Slender-billed Kite","spHelicham","rarity"
"Common Black Hawk","spButeoant",
"Rufous Crab Hawk","spButeoaeq",
"Savanna Hawk","spButeomer",
"Great Black Hawk","spButeouru",
"Roadside Hawk","spRupormag","rarity"
"White Hawk","spPseud2alb",
"White-tailed Hawk","spGeran1alb",
"Grey-lined Hawk","spButeo1nit",
"Broad-winged Hawk","spButeo1pla1",
"Zone-tailed Hawk","spButeo1alb",
"Short-tailed Hawk","spButeo1bra",
"Swainson's Hawk","spButeo1swa",
"Red-tailed Hawk","spButeo1jam","rarity"
"American Barn Owl","spTytofur",
"Burrowing Owl","spAthencun","rarity"
"Ferruginous Pygmy Owl","spGlauc1bra",
"Striped Owl","spAsiocla",
"Short-eared Owl","spAsiofla","rarity"
"Tropical Screech Owl","spMegascho",
"Spectacled Owl","spPulsaper",
"Mottled Owl","spStrixvir",
"Green-backed Trogon","spTrogovir",
"Guianan Trogon","spTrogovio",
"Collared Trogon","spTrogocol",
"Amazon Kingfisher","spChlor2ama","rarity"
"American Pygmy Kingfisher","spChlor2aen",
"Green Kingfisher","spChlor2ame",
"Ringed Kingfisher","spMegac1tor",
"Belted Kingfisher","spMegac1alc",
"Trinidad Motmot","spMomotbah","endemic"
"Rufous-tailed Jacamar","spGalburuf",
"Channel-billed Toucan","spRamph2vit",
"Red-crowned Woodpecker","spMelan2rub",
"Red-rumped Woodpecker","spVenilkir",
"Golden-olive Woodpecker","spColaprub",
"Chestnut Woodpecker","spCeleuele",
"Lineated Woodpecker","spDryoclin",
"Crimson-crested Woodpecker","spCampe1mel",
"Crested Caracara","spCaracpla",
"Yellow-headed Caracara","spMilvachi",
"Common Kestrel","spFalcotin","rarity"
"American Kestrel","spFalcospa","rarity"
"Aplomado Falcon","spFalcofem",
"Merlin","spFalcocol",
"Bat Falcon","spFalcoruf",
"Orange-breasted Falcon","spFalcodei","rarity"
"Peregrine Falcon","spFalcoper",
"Lilac-tailed Parrotlet","spTouitbat",
"Scarlet-shouldered Parrotlet","spTouithue","rarity"
"Blue-headed Parrot","spPionumen",
"Yellow-crowned Amazon","spAmazo1och",
"Orange-winged Amazon","spAmazo1ama",
"Green-rumped Parrotlet","spForpupas",
"Brown-throated Parakeet","spEupsiper",
"Red-bellied Macaw","spOrtho1man",
"Blue-and-yellow Macaw","spAraara","introduced"
"Scarlet Macaw","spAramac","rarity"
"Red-and-green Macaw","spArachl","escaped"
"White-eyed Parakeet","spPsitt1leu","rarity"
"Grey-throated Leaftosser","spScler1alb",
"Olivaceous Woodcreeper","spSittagri",
"Plain-brown Woodcreeper","spDendr6ful",
"Cocoa Woodcreeper","spXipho1sus",
"Straight-billed Woodcreeper","spDendr9pic",
"Streak-headed Woodcreeper","spLepidsou",
"Streaked Xenops","spXenop1rut",
"Yellow-chinned Spinetail","spCerth1cin",
"Pale-breasted Spinetail","spSynalalb2",
"Stripe-breasted Spinetail","spSynalcin2",
"White-flanked Antwren","spMyrmo3axi",
"Northern White-fringed Antwren","spFormiint",
"Plain Antvireo","spDysitmen",
"Barred Antshrike","spThamn2dol",
"Black-crested Antshrike","spSakes1can",
"Great Antshrike","spTarabmaj",
"Silvered Antbird","spSclatnae",
"White-bellied Antbird","spMyrme1lon",
"Black-faced Antthrush","spFormi1ana",
"Scaled Antpitta","spGrallgua",
"Forest Elaenia","spMyiop1gai",
"Yellow-bellied Elaenia","spElaenfla",
"Small-billed Elaenia","spElaenpar","rarity"
"Slaty Elaenia","spElaenstr","rarity"
"Lesser Elaenia","spElaenchi1",
"Southern Beardless Tyrannulet","spCampt1obs",
"Mouse-colored Tyrannulet","spNesotmur",
"Crested Doradito","spPseud8scl","rarity"
"Olive-striped Flycatcher","spMionegal",
"Ochre-bellied Flycatcher","spMioneole",
"Slaty-capped Flycatcher","spLepto6sup",
"Northern Scrub Flycatcher","spSubleare",
"Bran-colored Flycatcher","spMyiop2fas",
"Short-tailed Pygmy Tyrant","spMyioreca",
"Spotted Tody-Flycatcher","spTodir1mac",
"Yellow-olive Flatbill","spTolmosul",
"Ochre-lored Flatbill","spTolmofla1",
"White-throated Spadebill","spPlaty1mys",
"Euler's Flycatcher","spLathreul",
"Fuscous Flycatcher","spCnemofus",
"Olive-sided Flycatcher","spContocoo",
"Eastern Wood Pewee","spContovir","rarity"
"Northern Tropical Pewee","spContobog",
"Willow Flycatcher","spEmpidtra","rarity"
"Pied Water Tyrant","spFluvipic",
"White-headed Marsh Tyrant","spArundleu",
"Piratic Flycatcher","spLegatleu",
"Great Kiskadee","spPitansul",
"Streaked Flycatcher","spMyiodmac",
"Boat-billed Flycatcher","spMegarpit",
"Sulphury Flycatcher","spTyran2sul",
"Variegated Flycatcher","spEmpid1var",
"Tropical Kingbird","spTyran3mel",
"Fork-tailed Flycatcher","spTyran3sav",
"Eastern Kingbird","spTyran3tyr","rarity"
"Grey Kingbird","spTyran3dom",
"Dusky-capped Flycatcher","spMyiartub",
"Swainson's Flycatcher","spMyiarswa",
"Venezuelan Flycatcher","spMyiarven",
"Brown-crested Flycatcher","spMyiartyr",
"Bright-rumped Attila","spAttilspa",
"White Bellbird","spProcnalb","rarity"
"Bearded Bellbird","spProcnave",
"Blue-backed Manakin","spChiropar",
"White-bearded Manakin","spManacman",
"Golden-headed Manakin","spCerat1ery",
"Black-tailed Tityra","spTityrcay",
"White-winged Becard","spPachy2pol",
"Rufous-browed Peppershrike","spCyclaguj",
"Scrub Greenlet","spHylop2fla",
"Golden-fronted Greenlet","spPachy5aur",
"Red-eyed Vireo","spVireo1oli",
"Black-whiskered Vireo","spVireo1alt",
"Chivi Vireo","spVireo1chi",
"Yellow-throated Vireo","spVireo1fla1",
"White-eyed Vireo","spVireo1gri","rarity"
"Sand Martin","spRiparrip",
"White-winged Swallow","spTachy4alb1",
"Grey-breasted Martin","spProgncha",
"Caribbean Martin","spProgndom",
"Southern Rough-winged Swallow","spStelg1ruf",
"Blue-and-white Swallow","spPygoccya",
"Barn Swallow","spHirun2rus",
"American Cliff Swallow","spPetro2pyr",
"Rufous-breasted Wren","spPheugrut",
"Southern House Wren","spTroglmus",
"Trilling Gnatwren","spRamph5mel",
"Tropical Mockingbird","spMimusgil",
"Orange-billed Nightingale-Thrush","spCatha1aur",
"Grey-cheeked Thrush","spCatha1min",
"Veery","spCatha1fus1",
"Yellow-legged Thrush","spTurdufla",
"White-necked Thrush","spTurdualb1",
"Cocoa Thrush","spTurdufum",
"Spectacled Thrush","spTurdunud",
"House Sparrow","spPassedom","introduced"
"Village Weaver","spPloce2cuc","escaped"
"Tricolored Munia","spLonchmal","introduced"
"Common Waxbill","spEstriast","introduced"
"White Wagtail","spMotacalb","rarity"
"Lesser Goldfinch","spSpinupsa","rarity"
"Red Siskin","spSpinucuc","extinct"
"Golden-rumped Euphonia","spChlor11cya",
"Trinidad Euphonia","spEuphotri",
"Violaceous Euphonia","spEuphovio",
"Bobolink","spDolicory",
"Red-breasted Meadowlark","spLeistmil",
"Crested Oropendola","spPsarodec",
"Yellow-rumped Cacique","spCaciccel",
"Yellow Oriole","spIcter1nig",
"Baltimore Oriole","spIcter1gal",
"Orchard Oriole","spIcter1spu",
"Epaulet Oriole","spIcter1cay",
"Giant Cowbird","spMolotory",
"Shiny Cowbird","spMolotbon",
"Carib Grackle","spQuisclug",
"Great-tailed Grackle","spQuiscmex","rarity"
"Yellow-hooded Blackbird","spChrys8ict",
"Ovenbird","spSeiuraur",
"Northern Waterthrush","spParkenov",
"Golden-winged Warbler","spVermichr",
"Black-and-white Warbler","spMniotvar",
"Prothonotary Warbler","spProtocit",
"Tennessee Warbler","spLeiot1per","rarity"
"Masked Yellowthroat","spGeothaeq",
"Kentucky Warbler","spGeothfor","rarity"
"Common Yellowthroat","spGeothtri",
"Hooded Warbler","spSetop1cit",
"American Redstart","spSetop1rut",
"Cape May Warbler","spSetop1tig",
"Cerulean Warbler","spSetop1cer",
"Northern Parula","spSetop1ame",
"Tropical Parula","spSetop1pit",
"Magnolia Warbler","spSetop1mag",
"Bay-breasted Warbler","spSetop1cas",
"Blackburnian Warbler","spSetop1fus",
"American Yellow Warbler","spSetop1aes",
"Mangrove Warbler","spSetop1pet",
"Chestnut-sided Warbler","spSetop1pen",
"Blackpoll Warbler","spSetop1str",
"Black-throated Blue Warbler","spSetop1cae",
"Myrtle Warbler","spSetop1cor",
"Prairie Warbler","spSetop1dis",
"Black-throated Green Warbler","spSetop1vir",
"Golden-crowned Warbler","spBasil2cul",
"Canada Warbler","spCardecan",
"Tooth-billed Tanager","spPiranlut",
"Summer Tanager","spPiranrub",
"Scarlet Tanager","spPiranoli",
"Red-crowned Ant Tanager","spHabiarub",
"Rose-breasted Grosbeak","spPheuclud",
"Dickcissel","spSpiza1ame",
"Indigo Bunting","spPasse3cya",
"Green Honeycreeper","spChlor14spi",
"Swallow Tanager","spTersivir",
"Purple Honeycreeper","spCyanecae",
"Red-legged Honeycreeper","spCyanecya",
"Blue Dacnis","spDacnicay",
"Olive-grey Saltator","spSalta1oli",
"Streaked Saltator","spSalta1str",
"Bananaquit","spCoerefla",
"Black-faced Grassquit","spMelan13bic",
"Sooty Grassquit","spAsemoful",
"Blue-black Grassquit","spVolatjac",
"White-shouldered Tanager","spLorioluc",
"White-lined Tanager","spTachy5ruf",
"Silver-beaked Tanager","spRamph7car",
"Lesson's Seedeater","spSporo1bou",
"Lined Seedeater","spSporo1lin",
"Grey Seedeater","spSporo1int","extinct"
"Wing-barred Seedeater","spSporo1ame",
"Yellow-bellied Seedeater","spSporo1nig",
"Chestnut-bellied Seed Finch","spSporo1ang","extinct"
"Large-billed Seed Finch","spSporo1cra","extinct"
"Slate-colored Seedeater","spSporo1sch","rarity"
"Ruddy-breasted Seedeater","spSporo1min",
"Bicolored Conebill","spConirbic",
"Saffron Finch","spSicalfla",
"Orange-fronted Yellow Finch","spSicalcol","rarity"
"Grassland Yellow Finch","spSicallut",
"Blue-capped Tanager","spSporacya",
"Masked Cardinal","spParoanig",
"Speckled Tanager","spIxothgut",
"Blue-grey Tanager","spThrauepi",
"Palm Tanager","spThraupal",
"Bay-headed Tanager","spTangagyr",
"Turquoise Tanager","spTangamex",
