"Name","ID","Status"
"Brant Goose","spBrantber","rarity"
"Red-breasted Goose","spBrantruf",
"Barnacle Goose","spBrantleu","rarity"
"Snow Goose","spAnser1cae","rarity"
"Greylag Goose","spAnser1ans",
"Taiga Bean Goose","spAnser1fab",
"Pink-footed Goose","spAnser1bra","rarity"
"Tundra Bean Goose","spAnser1ser",
"Greater White-fronted Goose","spAnser1alb",
"Lesser White-fronted Goose","spAnser1ery",
"Mute Swan","spCygnuolo",
"Tundra Swan","spCygnucol",
"Whooper Swan","spCygnucyg",
"Common Shelduck","spTadortad",
"Ruddy Shelduck","spTadorfer",
"Baikal Teal","spSibirfor","rarity"
"Garganey","spSpatuque",
"Northern Shoveler","spSpatucly",
"Gadwall","spMarecstr",
"Eurasian Wigeon","spMarecpen",
"Mallard","spAnaspla",
"Northern Pintail","spAnasacu",
"Eurasian Teal","spAnascre",
"Red-crested Pochard","spNetta1ruf",
"Common Pochard","spAythyfer",
"Ferruginous Duck","spAythynyr",
"Tufted Duck","spAythyful",
"Greater Scaup","spAythymar",
"Common Eider","spSomatmol",
"Harlequin Duck","spHistrhis","rarity"
"Velvet Scoter","spMelanfus",
"Common Scoter","spMelannig","rarity"
"Long-tailed Duck","spClanghye",
"Common Goldeneye","spBucepcla",
"Smew","spMergealb",
"Common Merganser","spMergumer",
"Red-breasted Merganser","spMerguser",
"White-headed Duck","spOxyurleu","rarity"
"Hazel Grouse","spTetra1bon",
"Willow Ptarmigan","spLagoplag","rarity"
"Western Capercaillie","spTetra2uro",
"Black Grouse","spLyrurtet",
"Grey Partridge","spPerdiper",
"Common Pheasant","spPhasicol","introduced"
"Common Quail","spCoturcot",
"Chukar Partridge","spAlect1chu","introduced"
"European Nightjar","spCaprieur",
"Alpine Swift","spTachy1mel",
"Common Swift","spApusapu",
"Great Bustard","spOtistar",
"Asian Houbara","spChlammac","rarity"
"Little Bustard","spTetra4tet",
"Great Spotted Cuckoo","spClamagla","rarity"
"Oriental Cuckoo","spCuculopt","rarity"
"Common Cuckoo","spCuculcan",
"Pallas's Sandgrouse","spSyrrhpar","rarity"
"Pin-tailed Sandgrouse","spPtero2alc","rarity"
"Black-bellied Sandgrouse","spPtero2ori","rarity"
"Rock Dove","spColumliv","introduced"
"Stock Dove","spColumoen",
"Common Wood Pigeon","spColumpal",
"European Turtle Dove","spStrep1tur",
"Oriental Turtle Dove","spStrep1ori","rarity"
"Eurasian Collared Dove","spStrep1dec",
"Water Rail","spRalluaqu",
"Corn Crake","spCrexcre",
"Spotted Crake","spPorzapor",
"Common Moorhen","spGalli3chl",
"Eurasian Coot","spFulicatr",
"Grey-headed Swamphen","spPorph1pol","rarity"
"Baillon's Crake","spZaporpus",
"Little Crake","spZaporpar",
"Siberian Crane","spLeuco2leu","rarity"
"Demoiselle Crane","spGrusvir",
"Common Crane","spGrusgru",
"Little Grebe","spTachy2ruf1",
"Red-necked Grebe","spPodic1gri",
"Great Crested Grebe","spPodic1cri",
"Horned Grebe","spPodic1aur",
"Black-necked Grebe","spPodic1nig",
"Greater Flamingo","spPhoenros","rarity"
"Eurasian Stone-curlew","spBurhioed",
"Eurasian Oystercatcher","spHaema1ost",
"Black-winged Stilt","spHiman1him",
"Pied Avocet","spRecuravo",
"Grey Plover","spPluvi1squ",
"European Golden Plover","spPluvi1apr",
"Pacific Golden Plover","spPluvi1ful","rarity"
"Eurasian Dotterel","spEudro1mor",
"Common Ringed Plover","spCharahia",
"Little Ringed Plover","spCharadub",
"Northern Lapwing","spVanelvan",
"Spur-winged Lapwing","spVanelspi","rarity"
"Sociable Lapwing","spVanelgre","rarity"
"White-tailed Lapwing","spVanelleu",
"Caspian Plover","spAnarhasi",
"Greater Sand Plover","spAnarhles","rarity"
"Kentish Plover","spAnarhale",
"Eurasian Whimbrel","spNumenpha",
"Slender-billed Curlew","spNumenten","extinct"
"Eurasian Curlew","spNumenarq",
"Bar-tailed Godwit","spLimoslap",
"Black-tailed Godwit","spLimoslim",
"Long-billed Dowitcher","spLimnosco","rarity"
"Jack Snipe","spLymnomin",
"Eurasian Woodcock","spScolorus",
"Great Snipe","spGalli5med",
"Common Snipe","spGalli5gal",
"Red Phalarope","spPhala1ful","rarity"
"Red-necked Phalarope","spPhala1lob",
"Terek Sandpiper","spXenuscin",
"Common Sandpiper","spActithyp",
"Green Sandpiper","spTringoch",
"Marsh Sandpiper","spTringsta",
"Wood Sandpiper","spTringgla",
"Common Redshank","spTringtot",
"Lesser Yellowlegs","spTringfla","rarity"
"Spotted Redshank","spTringery",
"Common Greenshank","spTringneb",
"Ruddy Turnstone","spArenaint",
"Great Knot","spCalidten","rarity"
"Red Knot","spCalidcan",
"Ruff","spCalidpug",
"Broad-billed Sandpiper","spCalidfal",
"Curlew Sandpiper","spCalidfer",
"Temminck's Stint","spCalidtem",
"Spoon-billed Sandpiper","spCalidpyg","rarity"
"Buff-breasted Sandpiper","spCalidsub1","rarity"
"Sanderling","spCalidalb",
"Dunlin","spCalidalp",
"Purple Sandpiper","spCalidmar","rarity"
"Little Stint","spCalidmin",
"Cream-colored Courser","spCursocur","rarity"
"Black-winged Pratincole","spGlarenor",
"Collared Pratincole","spGlarepra",
"Little Tern","spStern1alb",
"Gull-billed Tern","spGelocnil",
"Caspian Tern","spHydro3cas",
"Whiskered Tern","spChlidhyb",
"Black Tern","spChlidnig",
"White-winged Tern","spChlidleu",
"Arctic Tern","spStern2par","rarity"
"Common Tern","spStern2hir1",
"Sandwich Tern","spThala1san",
"Little Gull","spHydro4min",
"Black-legged Kittiwake","spRissatri","rarity"
"Sabine's Gull","spXemasab","rarity"
"Slender-billed Gull","spChroigen",
"Black-headed Gull","spChroirid",
"Pallas's Gull","spIchthich",
"Mediterranean Gull","spIchthmel",
"Common Gull","spLaruscan",
"Ring-billed Gull","spLarusdel","rarity"
"Caspian Gull","spLaruscac",
"European Herring Gull","spLarusarg",
"Yellow-legged Gull","spLarusmic",
"Armenian Gull","spLarusarm",
"Great Black-backed Gull","spLarusmar","rarity"
"Glaucous Gull","spLarushyp","rarity"
"Lesser Black-backed Gull","spLarusfus",
"Iceland Gull","spLarusgla1","rarity"
"Long-tailed Jaeger","spSterclon","rarity"
"Parasitic Jaeger","spStercpar",
"Pomarine Jaeger","spStercpom",
"Great Skua","spStercsku","rarity"
"Little Auk","spAlleall","rarity"
"Red-throated Loon","spGaviaste",
"Black-throated Loon","spGaviaarc",
"Common Loon","spGaviaimm","rarity"
"Yellow-billed Loon","spGaviaada","rarity"
"European Storm Petrel","spHydro5pel","rarity"
"Northern Fulmar","spFulmagla","rarity"
"Scopoli's Shearwater","spCalondio","rarity"
"Yelkouan Shearwater","spPuffiyel",
"Black Stork","spCiconnig",
"White Stork","spCiconcic",
"Pygmy Cormorant","spMicro5pyg",
"Great Cormorant","spPhala2car",
"European Shag","spGulosari",
"Glossy Ibis","spPlegafal",
"Eurasian Spoonbill","spPlataleu",
"Eurasian Bittern","spBotauste",
"Little Bittern","spBotaumin",
"Black-crowned Night Heron","spNycti6nyc",
"Little Egret","spEgretgar",
"Squacco Heron","spArdeo1ral",
"Great Egret","spArdeaalb",
"Western Cattle Egret","spArdeaibi","rarity"
"Grey Heron","spArdeacin",
"Purple Heron","spArdeapur",
"Great White Pelican","spPelec1ono",
"Dalmatian Pelican","spPelec1cri",
"Osprey","spPandihal",
"Bearded Vulture","spGypaebar","rarity"
"Egyptian Vulture","spNeophper","rarity"
"European Honey Buzzard","spPerniapi",
"Cinereous Vulture","spAegypmon",
"Griffon Vulture","spGypsful",
"Short-toed Snake Eagle","spCircagal",
"Lesser Spotted Eagle","spClang1pom",
"Greater Spotted Eagle","spClang1cla",
"Booted Eagle","spHierapen",
"Steppe Eagle","spAquilnip",
"Eastern Imperial Eagle","spAquilhel",
"Golden Eagle","spAquilchr",
"Levant Sparrowhawk","spTachy3bre",
"Eurasian Sparrowhawk","spAccipnis",
"Eurasian Goshawk","spAsturgen",
"Pallid Harrier","spCircumac",
"Hen Harrier","spCircucya",
"Montagu's Harrier","spCircupyg",
"Western Marsh Harrier","spCircuaer",
"Red Kite","spMilvumil",
"Black Kite","spMilvumig",
"Pallas's Fish Eagle","spHalia1leu","rarity"
"White-tailed Eagle","spHalia1alb",
"Rough-legged Buzzard","spButeo1lag",
"Common Buzzard","spButeo1but",
"Long-legged Buzzard","spButeo1ruf1",
"Western Barn Owl","spTytoalb",
"Boreal Owl","spAegolfun",
"Little Owl","spAthennoc",
"Northern Hawk-Owl","spSurni1ulu","rarity"
"Eurasian Pygmy Owl","spGlauc1pas",
"Eurasian Scops Owl","spOtussco",
"Long-eared Owl","spAsiootu",
"Short-eared Owl","spAsiofla",
"Snowy Owl","spBubosca","rarity"
"Eurasian Eagle-Owl","spBubobub",
"Tawny Owl","spStrixalu",
"Ural Owl","spStrixura",
"Great Grey Owl","spStrixneb",
"Eurasian Hoopoe","spUpupaepo",
"European Roller","spCoracgar",
"Common Kingfisher","spAlcedatt",
"Pied Kingfisher","spCerylrud","rarity"
"Blue-cheeked Bee-eater","spMerop1per","rarity"
"European Bee-eater","spMerop1api",
"Eurasian Wryneck","spJynxtor",
"Eurasian Three-toed Woodpecker","spPicoitri",
"Middle Spotted Woodpecker","spDendr3med",
"Lesser Spotted Woodpecker","spDryobmin",
"Syrian Woodpecker","spDendr5syr",
"Great Spotted Woodpecker","spDendr5maj",
"White-backed Woodpecker","spDendr5leu1",
"Black Woodpecker","spDryocmar",
"European Green Woodpecker","spPicusvir1",
"Grey-headed Woodpecker","spPicuscan",
"Lesser Kestrel","spFalconau",
"Common Kestrel","spFalcotin",
"Red-footed Falcon","spFalcoves",
"Amur Falcon","spFalcoamu","rarity"
"Merlin","spFalcocol",
"Eurasian Hobby","spFalcosub",
"Saker Falcon","spFalcoche",
"Gyrfalcon","spFalcorus","rarity"
"Peregrine Falcon","spFalcoper",
"Rose-ringed Parakeet","spPsitt4kra","rarity-from-introduced"
"Eurasian Golden Oriole","spOriol1ori",
"Great Grey Shrike","spLaniuexc1",
"Northern Shrike","spLaniubor","rarity"
"Masked Shrike","spLaniunub","rarity"
"Lesser Grey Shrike","spLaniumin",
"Woodchat Shrike","spLaniusen",
"Red-backed Shrike","spLaniucol2",
"Siberian Jay","spPeris1inf","rarity"
"Eurasian Jay","spGarrugla",
"Eurasian Magpie","spPicapic",
"Northern Nutcracker","spNucifcar",
"Alpine Chough","spPyrrh3gra","rarity"
"Western Jackdaw","spColoemon",
"Rook","spCorvufru",
"Carrion Crow","spCorvucor","rarity"
"Hooded Crow","spCorvucor1",
"Northern Raven","spCorvucor3",
"Bohemian Waxwing","spBombygar",
"Coal Tit","spPeripate",
"Crested Tit","spLopho15cri",
"Marsh Tit","spPoeci2pal",
"Willow Tit","spPoeci2mon",
"Eurasian Blue Tit","spCyanicae",
"Azure Tit","spCyanicya",
"Great Tit","spParusmaj",
"Eurasian Penduline Tit","spRemizpen",
"Bearded Reedling","spPanurbia",
"Woodlark","spLulluarb",
"White-winged Lark","spAlaudleu","rarity"
"Eurasian Skylark","spAlaudarv",
"Crested Lark","spGalercri",
"Horned Lark","spEremo1alp",
"Greater Short-toed Lark","spCalanbra",
"Calandra Lark","spMelan9cal",
"Black Lark","spMelan9yel","rarity"
"Turkestan Short-toed Lark","spAlaud1hei",
"Sand Martin","spRiparrip",
"Eurasian Crag Martin","spPtyonrup","rarity"
"Barn Swallow","spHirun2rus",
"Western House Martin","spDelicurb",
"European Red-rumped Swallow","spCecroruf","rarity"
"Cetti's Warbler","spCetticet","rarity"
"Long-tailed Tit","spAegit1cau",
"Wood Warbler","spPhyll5sib",
"Eastern Bonelli's Warbler","spPhyll5ori","rarity"
"Hume's Leaf Warbler","spPhyll5hum","rarity"
"Yellow-browed Warbler","spPhyll5ino","rarity"
"Pallas's Leaf Warbler","spPhyll5pro","rarity"
"Radde's Warbler","spPhyll5sch","rarity"
"Dusky Warbler","spPhyll5fus","rarity"
"Willow Warbler","spPhyll5tro",
"Common Chiffchaff","spPhyll5col",
"Green Warbler","spPhyll5nit","rarity"
"Greenish Warbler","spPhyll5tro1",
"Great Reed Warbler","spAcroc1aru",
"Moustached Warbler","spAcroc1mel",
"Aquatic Warbler","spAcroc1pal",
"Sedge Warbler","spAcroc1sch",
"Paddyfield Warbler","spAcroc1agr",
"Blyth's Reed Warbler","spAcroc1dum",
"Common Reed Warbler","spAcroc1sci",
"Marsh Warbler","spAcroc1pal1",
"Booted Warbler","spIdunacal","rarity"
"Eastern Olivaceous Warbler","spIdunapal",
"Olive-tree Warbler","spHippooli","rarity"
"Icterine Warbler","spHippoict",
"River Warbler","spLocusflu",
"Savi's Warbler","spLocuslus",
"Common Grasshopper Warbler","spLocusnae",
"Eurasian Blackcap","spSylvi3atr",
"Garden Warbler","spSylvi3bor",
"Barred Warbler","spCurrunis",
"Lesser Whitethroat","spCurrucur",
"Eastern Orphean Warbler","spCurrucra","rarity"
"Asian Desert Warbler","spCurrunan","rarity"
"Menetries's Warbler","spCurrumys","rarity"
"Rüppell's Warbler","spCurrurup","rarity"
"Sardinian Warbler","spCurrumel1","rarity"
"Eastern Subalpine Warbler","spCurrucan","rarity"
"Common Whitethroat","spCurrucom",
"Common Firecrest","spRegulign",
"Goldcrest","spRegulreg",
"Eurasian Wren","spTrogltro",
"Eurasian Nuthatch","spSitta1eur",
"Wallcreeper","spTichomur","rarity"
"Eurasian Treecreeper","spCerth4fam",
"Short-toed Treecreeper","spCerth4bra",
"Rosy Starling","spPastoros",
"Common Starling","spSturn2vul",
"Swainson's Thrush","spCatha1ust","rarity"
"Song Thrush","spTurduphi",
"Mistle Thrush","spTurduvis",
"Redwing","spTurduili",
"Common Blackbird","spTurdumer",
"Fieldfare","spTurdupil",
"Ring Ouzel","spTurdutor",
"Black-throated Thrush","spTurduatr","rarity"
"Dusky Thrush","spTurdueun","rarity"
"Rufous-tailed Scrub Robin","spCerco3gal","rarity"
"Spotted Flycatcher","spMusci3str",
"European Robin","spErithrub",
"Thrush Nightingale","spLuscilus",
"Common Nightingale","spLuscimeg",
"Bluethroat","spLuscisve",
"Red-breasted Flycatcher","spFicedpar",
"European Pied Flycatcher","spFicedhyp1",
"Collared Flycatcher","spFicedalb1",
"Red-flanked Bluetail","spTarsicya","rarity"
"Black Redstart","spPhoen5och",
"Common Redstart","spPhoen5pho",
"Common Rock Thrush","spMontisax",
"Blue Rock Thrush","spMontisol","rarity"
"Whinchat","spSaxicrub",
"Siberian Stonechat","spSaxicmau",
"European Stonechat","spSaxicrub1",
"Northern Wheatear","spOenanoen",
"Isabelline Wheatear","spOenanisa",
"Pied Wheatear","spOenanple",
"Eastern Black-eared Wheatear","spOenanmel",
"Black Wheatear","spOenanleu1","rarity"
"White-throated Dipper","spCincl5cin",
"Rock Sparrow","spPetro3pet","rarity"
"White-winged Snowfinch","spMonti1niv","rarity"
"Eurasian Tree Sparrow","spPassemon",
"Spanish Sparrow","spPassehis",
"House Sparrow","spPassedom",
"Alpine Accentor","spPrunecol",
"Siberian Accentor","spPrunemon","rarity"
"Black-throated Accentor","spPruneatr","rarity"
"Dunnock","spPrunemod",
"Western Yellow Wagtail","spMotacfla",
"Citrine Wagtail","spMotaccit",
"Grey Wagtail","spMotaccin",
"White Wagtail","spMotacalb",
"Richard's Pipit","spAnthuric","rarity"
"Tawny Pipit","spAnthucam",
"Meadow Pipit","spAnthupra",
"Tree Pipit","spAnthutri",
"Red-throated Pipit","spAnthucer",
"Siberian Pipit","spAnthujap","rarity"
"Water Pipit","spAnthuspi",
"European Rock Pipit","spAnthupet","rarity"
"Eurasian Chaffinch","spFringcoe",
"Brambling","spFringmon",
"Hawfinch","spCocco1coc",
"Pine Grosbeak","spPinicenu","rarity"
"Eurasian Bullfinch","spPyrrh4pyr",
"Common Rosefinch","spCarpo4ery",
"Great Rosefinch","spCarpo4rub1","rarity"
"Pallas's Rosefinch","spCarpo4ros","rarity"
"European Greenfinch","spChlor10chl",
"Twite","spLinarfla","rarity"
"Common Linnet","spLinarcan",
"Redpoll","spAcant5fla",
"Parrot Crossbill","spLoxiapyt","rarity"
"Red Crossbill","spLoxiacur",
"Two-barred Crossbill","spLoxialeu","rarity"
"European Goldfinch","spCarducar",
"European Serin","spSerinser",
"Eurasian Siskin","spSpinuspi",
"Lapland Longspur","spCalcalap",
"Snow Bunting","spPlect2niv",
"Corn Bunting","spEmbercal",
"Yellowhammer","spEmbercit",
"Pine Bunting","spEmberleu","rarity"
"Rock Bunting","spEmbercia",
"Grey-necked Bunting","spEmberbuc","rarity"
"Ortolan Bunting","spEmberhor",
"Cretzschmar's Bunting","spEmbercae","rarity"
"Cirl Bunting","spEmbercir","rarity"
"Little Bunting","spEmberpus","rarity"
"Yellow-browed Bunting","spEmberchr","rarity"
"Rustic Bunting","spEmberrus","rarity"
"Yellow-breasted Bunting","spEmberaur",
"Black-headed Bunting","spEmbermel",
"Common Reed Bunting","spEmbersch",
