"Name","ID","Status"
"Black-bellied Whistling Duck","spDendraut",
"Fulvous Whistling Duck","spDendrbic","rarity"
"Brant Goose","spBrantber","rarity"
"Canada Goose","spBrantcan",
"Barnacle Goose","spBrantleu","rarity"
"Cackling Goose","spBranthut",
"Ross's Goose","spAnser1ros",
"Snow Goose","spAnser1cae",
"Tundra Bean Goose","spAnser1ser","rarity"
"Greater White-fronted Goose","spAnser1alb",
"Mute Swan","spCygnuolo","introduced"
"Trumpeter Swan","spCygnubuc",
"Tundra Swan","spCygnucol",
"Egyptian Goose","spAlopoaeg","escaped"
"Muscovy Duck","spCairimos","escaped"
"Wood Duck","spAixspo",
"Garganey","spSpatuque","rarity"
"Cinnamon Teal","spSpatucya",
"Blue-winged Teal","spSpatudis",
"Northern Shoveler","spSpatucly",
"Gadwall","spMarecstr",
"Eurasian Wigeon","spMarecpen","rarity"
"American Wigeon","spMarecame",
"Mallard","spAnaspla",
"Mottled Duck","spAnasful",
"American Black Duck","spAnasrub",
"Northern Pintail","spAnasacu",
"Green-winged Teal","spAnascar",
"Canvasback","spAythyval",
"Redhead","spAythyame",
"Ring-necked Duck","spAythycol",
"Tufted Duck","spAythyful","rarity"
"Greater Scaup","spAythymar",
"Lesser Scaup","spAythyaff",
"Surf Scoter","spMelanper",
"White-winged Scoter","spMelandeg","rarity"
"Black Scoter","spMelaname","rarity"
"Long-tailed Duck","spClanghye","rarity"
"Bufflehead","spBucepalb",
"Common Goldeneye","spBucepcla",
"Barrow's Goldeneye","spBucepisl","rarity"
"Hooded Merganser","spLopho1cuc",
"Common Merganser","spMergumer","rarity"
"Red-breasted Merganser","spMerguser",
"Ruddy Duck","spOxyurjam",
"Northern Bobwhite","spColinvir",
"Wild Turkey","spMeleagal",
"Ruffed Grouse","spBonasumb","extinct"
"Greater Prairie Chicken","spTympacup","extinct"
"Common Nighthawk","spChordmin",
"Chuck-will's-widow","spAntrocar",
"Eastern Whip-poor-will","spAntrovoc",
"Chimney Swift","spChaetpel",
"White-throated Swift","spAeronsax","rarity"
"Mexican Violetear","spColibtha","rarity"
"Rivoli's Hummingbird","spEugenful","rarity"
"Black-chinned Hummingbird","spArchiale","rarity"
"Ruby-throated Hummingbird","spArchicol",
"Anna's Hummingbird","spCalypann","rarity"
"Calliope Hummingbird","spSelascal","rarity"
"Rufous Hummingbird","spSelasruf",
"Allen's Hummingbird","spSelassas","rarity"
"Broad-tailed Hummingbird","spSelaspla","rarity"
"Broad-billed Hummingbird","spCynanlat","rarity"
"Buff-bellied Hummingbird","spAmaziyuc","rarity"
"Groove-billed Ani","spCrotosul","rarity"
"Greater Roadrunner","spGeococal",
"Yellow-billed Cuckoo","spCoccy1ame",
"Black-billed Cuckoo","spCoccy1ery",
"Rock Dove","spColumliv","introduced"
"Passenger Pigeon","spEctopmig","extinct"
"Eurasian Collared Dove","spStrep1dec","introduced"
"Inca Dove","spColum1inc",
"Common Ground Dove","spColum1pas","rarity"
"Mourning Dove","spZenaimac",
"White-winged Dove","spZenaiasi","rarity"
"King Rail","spRalluele",
"Virginia Rail","spRallulim",
"Sora","spPorzacar",
"Common Gallinule","spGalli3gal",
"American Coot","spFulicame",
"Purple Gallinule","spPorph1mar",
"Yellow Rail","spCotur1nov",
"Black Rail","spLaterjam","rarity"
"Sandhill Crane","spAntigcan",
"Whooping Crane","spGrusame","extinct"
"Limpkin","spAramugua","rarity"
"Least Grebe","spTachy2dom","rarity"
"Pied-billed Grebe","spPodilpod",
"Red-necked Grebe","spPodic1gri","rarity"
"Horned Grebe","spPodic1aur",
"Black-necked Grebe","spPodic1nig",
"Western Grebe","spAechmocc","rarity"
"Black-necked Stilt","spHiman1mex",
"American Avocet","spRecurame",
"Grey Plover","spPluvi1squ",
"American Golden Plover","spPluvi1dom",
"Killdeer","spCharavoc",
"Semipalmated Plover","spCharasem",
"Piping Plover","spCharamel",
"Wilson's Plover","spAnarhwil","rarity"
"Mountain Plover","spAnarhmon1","rarity"
"Snowy Plover","spAnarhniv","rarity"
"Upland Sandpiper","spBartrlon",
"Hudsonian Whimbrel","spNumenhud",
"Eskimo Curlew","spNumenbor","extinct"
"Long-billed Curlew","spNumename","rarity"
"Hudsonian Godwit","spLimoshae",
"Marbled Godwit","spLimosfed",
"Long-billed Dowitcher","spLimnosco",
"Short-billed Dowitcher","spLimnogri",
"American Woodcock","spScolomin",
"Wilson's Snipe","spGalli5del",
"Wilson's Phalarope","spPhala1tri",
"Red Phalarope","spPhala1ful","rarity"
"Red-necked Phalarope","spPhala1lob",
"Spotted Sandpiper","spActitmac",
"Solitary Sandpiper","spTringsol",
"Lesser Yellowlegs","spTringfla",
"Willet","spTringsem",
"Greater Yellowlegs","spTringmel",
"Ruddy Turnstone","spArenaint",
"Red Knot","spCalidcan","rarity"
"Ruff","spCalidpug","rarity"
"Sharp-tailed Sandpiper","spCalidacu","rarity"
"Stilt Sandpiper","spCalidhim",
"Curlew Sandpiper","spCalidfer","rarity"
"Buff-breasted Sandpiper","spCalidsub1",
"Sanderling","spCalidalb",
"Dunlin","spCalidalp",
"Purple Sandpiper","spCalidmar","rarity"
"Baird's Sandpiper","spCalidbai",
"Least Sandpiper","spCalidmin1",
"White-rumped Sandpiper","spCalidfus",
"Pectoral Sandpiper","spCalidmel",
"Western Sandpiper","spCalidmau",
"Semipalmated Sandpiper","spCalidpus",
"Black Skimmer","spRynchnig","rarity"
"Sooty Tern","spOnychfus","rarity"
"Bridled Tern","spOnychana","rarity"
"Least Tern","spStern1ant",
"Gull-billed Tern","spGelocnil","rarity"
"Caspian Tern","spHydro3cas",
"Black Tern","spChlidnig",
"Forster's Tern","spStern2for",
"Common Tern","spStern2hir1",
"Royal Tern","spThala1max","rarity"
"Little Gull","spHydro4min","rarity"
"Black-legged Kittiwake","spRissatri","rarity"
"Sabine's Gull","spXemasab",
"Bonaparte's Gull","spChroiphi",
"Black-headed Gull","spChroirid","rarity"
"Laughing Gull","spLeuco3atr",
"Franklin's Gull","spLeuco3pip",
"Short-billed Gull","spLarusbra","rarity"
"Ring-billed Gull","spLarusdel",
"Great Black-backed Gull","spLarusmar","rarity"
"Glaucous Gull","spLarushyp","rarity"
"Lesser Black-backed Gull","spLarusfus","rarity"
"California Gull","spLaruscal","rarity"
"American Herring Gull","spLarussmi",
"Iceland Gull","spLarusgla1","rarity"
"Long-tailed Jaeger","spSterclon","rarity"
"Parasitic Jaeger","spStercpar","rarity"
"Pomarine Jaeger","spStercpom","rarity"
"Long-billed Murrelet","spBrachper","rarity"
"Red-throated Loon","spGaviaste",
"Pacific Loon","spGaviapac",
"Common Loon","spGaviaimm",
"Yellow-billed Loon","spGaviaada","rarity"
"Wood Stork","spMycteame",
"Magnificent Frigatebird","spFregamag","rarity"
"Northern Gannet","spMorusbas","rarity"
"Brown Booby","spSulaleu","rarity"
"Anhinga","spAnhinanh",
"Neotropic Cormorant","spNanno1bra","rarity"
"Double-crested Cormorant","spNanno1aur",
"American White Ibis","spEudocalb",
"Glossy Ibis","spPlegafal",
"White-faced Ibis","spPlegachi",
"Roseate Spoonbill","spPlataaja",
"American Bittern","spBotaulen",
"Least Bittern","spBotauexi",
"Yellow-crowned Night Heron","spNyctavio",
"Black-crowned Night Heron","spNycti6nyc",
"Little Blue Heron","spEgretcae",
"Tricolored Heron","spEgrettri",
"Snowy Egret","spEgretthu",
"Green Heron","spButorvir",
"Great Egret","spArdeaalb",
"Western Cattle Egret","spArdeaibi",
"Great Blue Heron","spArdeaher",
"American White Pelican","spPelec1ery",
"Brown Pelican","spPelec1occ","rarity"
"Black Vulture","spCoragatr",
"Turkey Vulture","spCathaaur",
"Osprey","spPandihal",
"White-tailed Kite","spElanuleu","rarity"
"Swallow-tailed Kite","spElanofor",
"Golden Eagle","spAquilchr",
"Sharp-shinned Hawk","spAccipstr",
"Cooper's Hawk","spAsturcoo",
"American Goshawk","spAsturatr","rarity"
"Northern Harrier","spCircuhud",
"Bald Eagle","spHalia1leu1",
"Mississippi Kite","spIctin1mis",
"Broad-winged Hawk","spButeo1pla1",
"Red-shouldered Hawk","spButeo1lin",
"Swainson's Hawk","spButeo1swa",
"Red-tailed Hawk","spButeo1jam",
"Rough-legged Buzzard","spButeo1lag","rarity"
"Ferruginous Hawk","spButeo1reg","rarity"
"American Barn Owl","spTytofur",
"Northern Saw-whet Owl","spAegolaca","rarity"
"Burrowing Owl","spAthencun",
"Long-eared Owl","spAsiootu","rarity"
"Short-eared Owl","spAsiofla",
"Snowy Owl","spBubosca","rarity"
"Great Horned Owl","spBubovir",
"Eastern Screech Owl","spMegasasi",
"Barred Owl","spStrixvar",
"Belted Kingfisher","spMegac1alc",
"Lewis's Woodpecker","spMelan2lew","rarity"
"Red-headed Woodpecker","spMelan2ery",
"Red-bellied Woodpecker","spMelan2car",
"Yellow-bellied Sapsucker","spSphyrvar",
"Downy Woodpecker","spDryobpub",
"Red-cockaded Woodpecker","spLeuco6bor",
"Hairy Woodpecker","spLeuco6vil",
"Northern Flicker","spColapaur1",
"Pileated Woodpecker","spDryocpil",
"Ivory-billed Woodpecker","spCampe1pri","extinct"
"Crested Caracara","spCaracpla","rarity"
"American Kestrel","spFalcospa",
"Merlin","spFalcocol",
"Prairie Falcon","spFalcomex","rarity"
"Peregrine Falcon","spFalcoper",
"Monk Parakeet","spMyiopmon","escaped"
"Carolina Parakeet","spConurcar","extinct"
"Eastern Phoebe","spSayorpho",
"Say's Phoebe","spSayorsay","rarity"
"Olive-sided Flycatcher","spContocoo",
"Eastern Wood Pewee","spContovir",
"Yellow-bellied Flycatcher","spEmpidfla",
"Acadian Flycatcher","spEmpidvir",
"Willow Flycatcher","spEmpidtra",
"Alder Flycatcher","spEmpidaln",
"Least Flycatcher","spEmpidmin",
"Vermilion Flycatcher","spPyrocobs","rarity"
"Great Kiskadee","spPitansul","rarity"
"Tropical Kingbird","spTyran3mel","rarity"
"Couch's Kingbird","spTyran3cou","rarity"
"Cassin's Kingbird","spTyran3voc","rarity"
"Western Kingbird","spTyran3ver",
"Scissor-tailed Flycatcher","spTyran3for",
"Fork-tailed Flycatcher","spTyran3sav","rarity"
"Eastern Kingbird","spTyran3tyr",
"Grey Kingbird","spTyran3dom","rarity"
"Ash-throated Flycatcher","spMyiarcin","rarity"
"Great Crested Flycatcher","spMyiarcri",
"Red-eyed Vireo","spVireo1oli",
"Philadelphia Vireo","spVireo1phi",
"Warbling Vireo","spVireo1gil",
"Yellow-throated Vireo","spVireo1fla1",
"Blue-headed Vireo","spVireo1sol",
"White-eyed Vireo","spVireo1gri",
"Bell's Vireo","spVireo1bel",
"Loggerhead Shrike","spLaniulud",
"Northern Shrike","spLaniubor","rarity"
"Blue Jay","spCyano8cri",
"Clark's Nutcracker","spNucifcol","rarity"
"American Crow","spCorvubra",
"Fish Crow","spCorvuoss",
"Bohemian Waxwing","spBombygar","rarity"
"Cedar Waxwing","spBombyced",
"Tufted Titmouse","spBaeolbic",
"Carolina Chickadee","spPoeci2car",
"Horned Lark","spEremo1alp",
"Sand Martin","spRiparrip",
"Tree Swallow","spTachy4bic",
"Purple Martin","spPrognsub",
"Northern Rough-winged Swallow","spStelg1ser",
"Barn Swallow","spHirun2rus",
"American Cliff Swallow","spPetro2pyr",
"Cave Swallow","spPetro2ful","rarity"
"Ruby-crowned Kinglet","spCorthcal",
"Golden-crowned Kinglet","spRegulsat",
"Rock Wren","spSalpiobs",
"Sedge Wren","spCistoste",
"Marsh Wren","spCistopal",
"Bewick's Wren","spThryobew",
"Carolina Wren","spThryo2lud",
"Winter Wren","spTroglhie",
"Northern House Wren","spTroglaed",
"Blue-grey Gnatcatcher","spPolio5cae",
"White-breasted Nuthatch","spSitta1car",
"Brown-headed Nuthatch","spSitta1pus",
"Red-breasted Nuthatch","spSitta1can",
"Brown Creeper","spCerth4ame",
"Grey Catbird","spDumet1car",
"Northern Mockingbird","spMimuspol",
"Sage Thrasher","spOreos1mon","rarity"
"Brown Thrasher","spToxosruf",
"Common Starling","spSturn2vul","introduced"
"Mountain Bluebird","spSialicur","rarity"
"Eastern Bluebird","spSialisia",
"Townsend's Solitaire","spMyadetow","rarity"
"Varied Thrush","spIxorenae","rarity"
"Wood Thrush","spHyloc2mus",
"Swainson's Thrush","spCatha1ust",
"Hermit Thrush","spCatha1gut",
"Grey-cheeked Thrush","spCatha1min",
"Veery","spCatha1fus1",
"American Robin","spTurdumig",
"Northern Wheatear","spOenanoen","rarity"
"Eurasian Tree Sparrow","spPassemon","rarity-from-introduced"
"House Sparrow","spPassedom","introduced"
"American Pipit","spAnthurub",
"Sprague's Pipit","spAnthuspr","rarity"
"Brambling","spFringmon","rarity"
"Evening Grosbeak","spHespe1ves","rarity"
"Pine Grosbeak","spPinicenu","rarity"
"Grey-crowned Rosy Finch","spLeuco10tep","rarity"
"Purple Finch","spHaemopur",
"House Finch","spHaemomex","introduced"
"Redpoll","spAcant5fla","rarity"
"Red Crossbill","spLoxiacur",
"Two-barred Crossbill","spLoxialeu","rarity"
"American Goldfinch","spSpinutri",
"Lesser Goldfinch","spSpinupsa","rarity"
"Pine Siskin","spSpinupin",
"Thick-billed Longspur","spRhync5mcc","rarity"
"Lapland Longspur","spCalcalap",
"Smith's Longspur","spCalcapic",
"Chestnut-collared Longspur","spCalcaorn","rarity"
"Snow Bunting","spPlect2niv","rarity"
"Cassin's Sparrow","spPeucacas","rarity"
"Bachman's Sparrow","spPeucaaes",
"Grasshopper Sparrow","spAmmodsav",
"Lark Sparrow","spChond1gra",
"Lark Bunting","spCalam3mel","rarity"
"Chipping Sparrow","spSpizepas",
"Clay-colored Sparrow","spSpizepal",
"Field Sparrow","spSpizepus",
"Brewer's Sparrow","spSpizebre","rarity"
"Slate-colored Fox Sparrow","spPasse1sch","rarity"
"Red Fox Sparrow","spPasse1ili",
"American Tree Sparrow","spSpize1arb",
"Dark-eyed Junco","spJuncohye",
"White-crowned Sparrow","spZonotleu",
"Harris's Sparrow","spZonotque",
"White-throated Sparrow","spZonotalb",
"Vesper Sparrow","spPooecgra",
"LeConte's Sparrow","spAmmoslec",
"Nelson's Sparrow","spAmmosnel",
"Henslow's Sparrow","spCentr2hen",
"Savannah Sparrow","spPasse2san",
"Song Sparrow","spMelosmel",
"Lincoln's Sparrow","spMeloslin",
"Swamp Sparrow","spMelosgeo",
"Rufous-crowned Sparrow","spAimopruf1",
"Green-tailed Towhee","spPipil1chl","rarity"
"Spotted Towhee","spPipil1mac","rarity"
"Eastern Towhee","spPipil1ery",
"Yellow-breasted Chat","spIctervir",
"Yellow-headed Blackbird","spXanth2xan",
"Bobolink","spDolicory",
"Western Meadowlark","spSturn3neg",
"Eastern Meadowlark","spSturn3mag",
"Scott's Oriole","spIcter1par","rarity"
"Bullock's Oriole","spIcter1bul","rarity"
"Baltimore Oriole","spIcter1gal",
"Orchard Oriole","spIcter1spu",
"Red-winged Blackbird","spAgela1pho",
"Brown-headed Cowbird","spMolotate",
"Rusty Blackbird","spEuphacar",
"Brewer's Blackbird","spEuphacya",
"Common Grackle","spQuiscqui",
"Great-tailed Grackle","spQuiscmex",
"Ovenbird","spSeiuraur",
"Worm-eating Warbler","spHelmiver",
"Louisiana Waterthrush","spParkemot",
"Northern Waterthrush","spParkenov",
"Bachman's Warbler","spVermibac","extinct"
"Golden-winged Warbler","spVermichr",
"Blue-winged Warbler","spVermicya",
"Black-and-white Warbler","spMniotvar",
"Prothonotary Warbler","spProtocit",
"Swainson's Warbler","spLimno3swa",
"Tennessee Warbler","spLeiot1per",
"Orange-crowned Warbler","spLeiot1cel",
"Nashville Warbler","spLeiot1ruf",
"Connecticut Warbler","spOporoagi","rarity"
"Mourning Warbler","spGeothphi",
"Kentucky Warbler","spGeothfor",
"Common Yellowthroat","spGeothtri",
"Hooded Warbler","spSetop1cit",
"American Redstart","spSetop1rut",
"Cape May Warbler","spSetop1tig",
"Cerulean Warbler","spSetop1cer",
"Northern Parula","spSetop1ame",
"Magnolia Warbler","spSetop1mag",
"Bay-breasted Warbler","spSetop1cas",
"Blackburnian Warbler","spSetop1fus",
"American Yellow Warbler","spSetop1aes",
"Chestnut-sided Warbler","spSetop1pen",
"Blackpoll Warbler","spSetop1str",
"Black-throated Blue Warbler","spSetop1cae","rarity"
"Palm Warbler","spSetop1pal",
"Pine Warbler","spSetop1pin",
"Myrtle Warbler","spSetop1cor",
"Audubon's Warbler","spSetop1aud","rarity"
"Yellow-throated Warbler","spSetop1dom",
"Prairie Warbler","spSetop1dis",
"Black-throated Grey Warbler","spSetop1nig","rarity"
"Black-throated Green Warbler","spSetop1vir",
"Canada Warbler","spCardecan",
"Wilson's Warbler","spCardepus",
"Painted Whitestart","spMyiob1pic","rarity"
"Summer Tanager","spPiranrub",
"Scarlet Tanager","spPiranoli",
"Western Tanager","spPiranlud","rarity"
"Rose-breasted Grosbeak","spPheuclud",
"Black-headed Grosbeak","spPheucmel","rarity"
"Northern Cardinal","spCardicar",
"Dickcissel","spSpiza1ame",
"Blue Grosbeak","spPasse3cae",
"Indigo Bunting","spPasse3cya",
"Lazuli Bunting","spPasse3amo","rarity"
"Painted Bunting","spPasse3cir",
