"Name","ID","Status"
"Brant Goose","spBrantber","rarity"
"Canada Goose","spBrantcan",
"Cackling Goose","spBranthut",
"Emperor Goose","spAnser1can","rarity"
"Ross's Goose","spAnser1ros",
"Snow Goose","spAnser1cae",
"Greater White-fronted Goose","spAnser1alb",
"Mute Swan","spCygnuolo","escaped"
"Trumpeter Swan","spCygnubuc",
"Tundra Swan","spCygnucol",
"Whooper Swan","spCygnucyg","rarity"
"Wood Duck","spAixspo",
"Garganey","spSpatuque","rarity"
"Cinnamon Teal","spSpatucya",
"Blue-winged Teal","spSpatudis",
"Northern Shoveler","spSpatucly",
"Gadwall","spMarecstr",
"Eurasian Wigeon","spMarecpen",
"American Wigeon","spMarecame",
"Mallard","spAnaspla",
"American Black Duck","spAnasrub","rarity"
"Northern Pintail","spAnasacu",
"Eurasian Teal","spAnascre","rarity"
"Green-winged Teal","spAnascar",
"Canvasback","spAythyval",
"Redhead","spAythyame",
"Ring-necked Duck","spAythycol",
"Tufted Duck","spAythyful","rarity"
"Greater Scaup","spAythymar",
"Lesser Scaup","spAythyaff",
"Harlequin Duck","spHistrhis",
"Surf Scoter","spMelanper",
"White-winged Scoter","spMelandeg",
"Black Scoter","spMelaname","rarity"
"Long-tailed Duck","spClanghye",
"Bufflehead","spBucepalb",
"Common Goldeneye","spBucepcla",
"Barrow's Goldeneye","spBucepisl",
"Hooded Merganser","spLopho1cuc",
"Common Merganser","spMergumer",
"Red-breasted Merganser","spMerguser",
"Ruddy Duck","spOxyurjam",
"Mountain Quail","spOreorpic","rarity"
"California Quail","spCallical","introduced"
"Gambel's Quail","spCalligam","introduced"
"Northern Bobwhite","spColinvir","introduced"
"Wild Turkey","spMeleagal","introduced"
"Ruffed Grouse","spBonasumb",
"Sage Grouse","spCentruro",
"Dusky Grouse","spDendr2obs",
"Sharp-tailed Grouse","spTympapha",
"White-tailed Ptarmigan","spLagopleu","rarity"
"Spruce Grouse","spCanaccan",
"Grey Partridge","spPerdiper","introduced"
"Common Pheasant","spPhasicol","introduced"
"Chukar Partridge","spAlect1chu","introduced"
"Common Nighthawk","spChordmin",
"Common Poorwill","spPhalanut",
"American Black Swift","spCypsenig",
"Chimney Swift","spChaetpel","rarity"
"Vaux's Swift","spChaetvau",
"White-throated Swift","spAeronsax",
"Black-chinned Hummingbird","spArchiale",
"Ruby-throated Hummingbird","spArchicol","rarity"
"Anna's Hummingbird","spCalypann",
"Costa's Hummingbird","spCalypcos","rarity"
"Calliope Hummingbird","spSelascal",
"Rufous Hummingbird","spSelasruf",
"Broad-tailed Hummingbird","spSelaspla",
"Broad-billed Hummingbird","spCynanlat","rarity"
"Yellow-billed Cuckoo","spCoccy1ame",
"Black-billed Cuckoo","spCoccy1ery","rarity"
"Rock Dove","spColumliv","introduced"
"Band-tailed Pigeon","spPatag1fas","rarity"
"Eurasian Collared Dove","spStrep1dec","introduced"
"Mourning Dove","spZenaimac",
"White-winged Dove","spZenaiasi","rarity"
"Virginia Rail","spRallulim",
"Sora","spPorzacar",
"Common Gallinule","spGalli3gal","rarity"
"American Coot","spFulicame",
"Yellow Rail","spCotur1nov","rarity"
"Sandhill Crane","spAntigcan",
"Whooping Crane","spGrusame","rarity"
"Pied-billed Grebe","spPodilpod",
"Red-necked Grebe","spPodic1gri",
"Horned Grebe","spPodic1aur",
"Black-necked Grebe","spPodic1nig",
"Western Grebe","spAechmocc",
"Clark's Grebe","spAechmcla",
"American Oystercatcher","spHaema1pal","rarity"
"Black-necked Stilt","spHiman1mex",
"American Avocet","spRecurame",
"Grey Plover","spPluvi1squ",
"Pacific Golden Plover","spPluvi1ful","rarity"
"American Golden Plover","spPluvi1dom",
"Killdeer","spCharavoc",
"Semipalmated Plover","spCharasem",
"Mountain Plover","spAnarhmon1","rarity"
"Snowy Plover","spAnarhniv","rarity"
"Upland Sandpiper","spBartrlon","rarity"
"Hudsonian Whimbrel","spNumenhud","rarity"
"Long-billed Curlew","spNumename",
"Hudsonian Godwit","spLimoshae","rarity"
"Marbled Godwit","spLimosfed",
"Long-billed Dowitcher","spLimnosco",
"Short-billed Dowitcher","spLimnogri","rarity"
"Wilson's Snipe","spGalli5del",
"Wilson's Phalarope","spPhala1tri",
"Red Phalarope","spPhala1ful","rarity"
"Red-necked Phalarope","spPhala1lob",
"Spotted Sandpiper","spActitmac",
"Solitary Sandpiper","spTringsol",
"Lesser Yellowlegs","spTringfla",
"Willet","spTringsem",
"Greater Yellowlegs","spTringmel",
"Ruddy Turnstone","spArenaint","rarity"
"Red Knot","spCalidcan","rarity"
"Ruff","spCalidpug","rarity"
"Sharp-tailed Sandpiper","spCalidacu","rarity"
"Stilt Sandpiper","spCalidhim",
"Buff-breasted Sandpiper","spCalidsub1","rarity"
"Sanderling","spCalidalb",
"Dunlin","spCalidalp",
"Baird's Sandpiper","spCalidbai",
"Least Sandpiper","spCalidmin1",
"White-rumped Sandpiper","spCalidfus","rarity"
"Pectoral Sandpiper","spCalidmel",
"Western Sandpiper","spCalidmau",
"Semipalmated Sandpiper","spCalidpus",
"Least Tern","spStern1ant","rarity"
"Caspian Tern","spHydro3cas",
"Black Tern","spChlidnig",
"Forster's Tern","spStern2for",
"Arctic Tern","spStern2par","rarity"
"Common Tern","spStern2hir1",
"Little Gull","spHydro4min","rarity"
"Ross's Gull","spRhodo2ros","rarity"
"Black-legged Kittiwake","spRissatri","rarity"
"Sabine's Gull","spXemasab",
"Bonaparte's Gull","spChroiphi",
"Laughing Gull","spLeuco3atr","rarity"
"Franklin's Gull","spLeuco3pip",
"Heermann's Gull","spLarushee","rarity"
"Short-billed Gull","spLarusbra",
"Ring-billed Gull","spLarusdel",
"Western Gull","spLarusocc","rarity"
"Vega Gull","spLarusveg","rarity"
"Great Black-backed Gull","spLarusmar","rarity"
"Glaucous Gull","spLarushyp","rarity"
"Lesser Black-backed Gull","spLarusfus","rarity"
"California Gull","spLaruscal",
"American Herring Gull","spLarussmi",
"Glaucous-winged Gull","spLarusgla",
"Slaty-backed Gull","spLarussch","rarity"
"Iceland Gull","spLarusgla1",
"Long-tailed Jaeger","spSterclon","rarity"
"Parasitic Jaeger","spStercpar","rarity"
"Pomarine Jaeger","spStercpom","rarity"
"Ancient Murrelet","spSynthant","rarity"
"Red-throated Loon","spGaviaste","rarity"
"Pacific Loon","spGaviapac",
"Common Loon","spGaviaimm",
"Yellow-billed Loon","spGaviaada","rarity"
"Wood Stork","spMycteame","rarity"
"Neotropic Cormorant","spNanno1bra","rarity"
"Double-crested Cormorant","spNanno1aur",
"American White Ibis","spEudocalb","rarity"
"Glossy Ibis","spPlegafal","rarity"
"White-faced Ibis","spPlegachi",
"American Bittern","spBotaulen",
"Least Bittern","spBotauexi","rarity"
"Black-crowned Night Heron","spNycti6nyc",
"Little Blue Heron","spEgretcae","rarity"
"Tricolored Heron","spEgrettri","rarity"
"Reddish Egret","spEgretruf","rarity"
"Snowy Egret","spEgretthu",
"Green Heron","spButorvir","rarity"
"Great Egret","spArdeaalb",
"Western Cattle Egret","spArdeaibi",
"Great Blue Heron","spArdeaher",
"American White Pelican","spPelec1ery",
"Brown Pelican","spPelec1occ","rarity"
"Turkey Vulture","spCathaaur",
"Osprey","spPandihal",
"White-tailed Kite","spElanuleu","rarity"
"Golden Eagle","spAquilchr",
"Sharp-shinned Hawk","spAccipstr",
"Cooper's Hawk","spAsturcoo",
"American Goshawk","spAsturatr",
"Northern Harrier","spCircuhud",
"Bald Eagle","spHalia1leu1",
"Broad-winged Hawk","spButeo1pla1",
"Red-shouldered Hawk","spButeo1lin","rarity"
"Swainson's Hawk","spButeo1swa",
"Red-tailed Hawk","spButeo1jam",
"Rough-legged Buzzard","spButeo1lag",
"Ferruginous Hawk","spButeo1reg",
"American Barn Owl","spTytofur",
"Boreal Owl","spAegolfun",
"Northern Saw-whet Owl","spAegolaca",
"Burrowing Owl","spAthencun",
"Northern Hawk-Owl","spSurni1ulu","rarity"
"Northern Pygmy Owl","spGlauc1cal",
"Long-eared Owl","spAsiootu",
"Short-eared Owl","spAsiofla",
"Snowy Owl","spBubosca",
"Great Horned Owl","spBubovir",
"Flammulated Owl","spPsilofla",
"Western Screech Owl","spMegasken",
"Barred Owl","spStrixvar",
"Great Grey Owl","spStrixneb",
"Belted Kingfisher","spMegac1alc",
"Lewis's Woodpecker","spMelan2lew",
"Red-headed Woodpecker","spMelan2ery","rarity"
"Acorn Woodpecker","spMelan2for","rarity"
"Red-bellied Woodpecker","spMelan2car","rarity"
"Williamson's Sapsucker","spSphyrthy",
"Yellow-bellied Sapsucker","spSphyrvar","rarity"
"Red-naped Sapsucker","spSphyrnuc",
"Red-breasted Sapsucker","spSphyrrub","rarity"
"American Three-toed Woodpecker","spPicoidor",
"Black-backed Woodpecker","spPicoiarc",
"Downy Woodpecker","spDryobpub",
"Hairy Woodpecker","spLeuco6vil",
"White-headed Woodpecker","spLeuco6alb",
"Northern Flicker","spColapaur1",
"Pileated Woodpecker","spDryocpil",
"Crested Caracara","spCaracpla","rarity"
"American Kestrel","spFalcospa",
"Merlin","spFalcocol",
"Gyrfalcon","spFalcorus","rarity"
"Prairie Falcon","spFalcomex",
"Peregrine Falcon","spFalcoper",
"Eastern Phoebe","spSayorpho","rarity"
"Black Phoebe","spSayornig","rarity"
"Say's Phoebe","spSayorsay",
"Olive-sided Flycatcher","spContocoo",
"Western Wood Pewee","spContosor",
"Willow Flycatcher","spEmpidtra",
"Alder Flycatcher","spEmpidaln","rarity"
"Least Flycatcher","spEmpidmin",
"Hammond's Flycatcher","spEmpidham",
"American Dusky Flycatcher","spEmpidobe",
"American Grey Flycatcher","spEmpidwri",
"Western Flycatcher","spEmpiddif",
"Vermilion Flycatcher","spPyrocobs","rarity"
"Tropical Kingbird","spTyran3mel","rarity"
"Cassin's Kingbird","spTyran3voc","rarity"
"Western Kingbird","spTyran3ver",
"Scissor-tailed Flycatcher","spTyran3for","rarity"
"Fork-tailed Flycatcher","spTyran3sav","rarity"
"Eastern Kingbird","spTyran3tyr",
"Ash-throated Flycatcher","spMyiarcin",
"Great Crested Flycatcher","spMyiarcri","rarity"
"Red-eyed Vireo","spVireo1oli",
"Philadelphia Vireo","spVireo1phi","rarity"
"Warbling Vireo","spVireo1gil",
"Yellow-throated Vireo","spVireo1fla1","rarity"
"Blue-headed Vireo","spVireo1sol","rarity"
"Cassin's Vireo","spVireo1cas",
"Plumbeous Vireo","spVireo1plu",
"White-eyed Vireo","spVireo1gri","rarity"
"Bell's Vireo","spVireo1bel","rarity"
"Loggerhead Shrike","spLaniulud",
"Northern Shrike","spLaniubor",
"Canada Jay","spPeris1can",
"Blue Jay","spCyano8cri",
"Steller's Jay","spCyano8ste",
"California Scrub Jay","spAphel1cal","rarity"
"Woodhouse's Scrub Jay","spAphel1woo",
"Pinyon Jay","spGymno9cya",
"Black-billed Magpie","spPicahud",
"Clark's Nutcracker","spNucifcol",
"American Crow","spCorvubra",
"Northern Raven","spCorvucor3",
"Bohemian Waxwing","spBombygar",
"Cedar Waxwing","spBombyced",
"Phainopepla","spPhain1nit","rarity"
"Juniper Titmouse","spBaeolrid",
"Chestnut-backed Chickadee","spPoeci2ruf",
"Boreal Chickadee","spPoeci2hud",
"Black-capped Chickadee","spPoeci2atr",
"Mountain Chickadee","spPoeci2gam",
"Horned Lark","spEremo1alp",
"Sand Martin","spRiparrip",
"Tree Swallow","spTachy4bic",
"Violet-green Swallow","spTachy4tha",
"Purple Martin","spPrognsub","rarity"
"Northern Rough-winged Swallow","spStelg1ser",
"Barn Swallow","spHirun2rus",
"American Cliff Swallow","spPetro2pyr",
"American Bushtit","spPsaltmin",
"Ruby-crowned Kinglet","spCorthcal",
"Golden-crowned Kinglet","spRegulsat",
"Rock Wren","spSalpiobs",
"Canyon Wren","spCathemex",
"Marsh Wren","spCistopal",
"Bewick's Wren","spThryobew",
"Winter Wren","spTroglhie","rarity"
"Pacific Wren","spTroglpac",
"Northern House Wren","spTroglaed",
"Blue-grey Gnatcatcher","spPolio5cae",
"White-breasted Nuthatch","spSitta1car",
"Pygmy Nuthatch","spSitta1pyg",
"Red-breasted Nuthatch","spSitta1can",
"Brown Creeper","spCerth4ame",
"Grey Catbird","spDumet1car",
"Northern Mockingbird","spMimuspol",
"Sage Thrasher","spOreos1mon",
"Brown Thrasher","spToxosruf","rarity"
"Curve-billed Thrasher","spToxoscur","rarity"
"Common Starling","spSturn2vul","introduced"
"Mountain Bluebird","spSialicur",
"Western Bluebird","spSialimex",
"Eastern Bluebird","spSialisia","rarity"
"Townsend's Solitaire","spMyadetow",
"Varied Thrush","spIxorenae",
"Wood Thrush","spHyloc2mus","rarity"
"Swainson's Thrush","spCatha1ust",
"Hermit Thrush","spCatha1gut",
"Grey-cheeked Thrush","spCatha1min","rarity"
"Veery","spCatha1fus1",
"American Robin","spTurdumig",
"Red-flanked Bluetail","spTarsicya","rarity"
"American Dipper","spCincl5mex",
"House Sparrow","spPassedom","introduced"
"Siberian Accentor","spPrunemon","rarity"
"American Pipit","spAnthurub",
"Brambling","spFringmon","rarity"
"Evening Grosbeak","spHespe1ves",
"Pine Grosbeak","spPinicenu",
"Grey-crowned Rosy Finch","spLeuco10tep",
"Black Rosy Finch","spLeuco10atr",
"Purple Finch","spHaemopur","rarity"
"Cassin's Finch","spHaemocas",
"House Finch","spHaemomex",
"Redpoll","spAcant5fla",
"Red Crossbill","spLoxiacur",
"Cassia Crossbill","spLoxiasin","endemic"
"Two-barred Crossbill","spLoxialeu",
"American Goldfinch","spSpinutri",
"Lesser Goldfinch","spSpinupsa",
"Pine Siskin","spSpinupin",
"Thick-billed Longspur","spRhync5mcc","rarity"
"Lapland Longspur","spCalcalap",
"Chestnut-collared Longspur","spCalcaorn","rarity"
"Snow Bunting","spPlect2niv",
"Cassin's Sparrow","spPeucacas","rarity"
"Grasshopper Sparrow","spAmmodsav",
"Black-throated Sparrow","spAmphi1bil",
"Lark Sparrow","spChond1gra",
"Lark Bunting","spCalam3mel",
"Chipping Sparrow","spSpizepas",
"Clay-colored Sparrow","spSpizepal","rarity"
"Brewer's Sparrow","spSpizebre",
"Slate-colored Fox Sparrow","spPasse1sch",
"American Tree Sparrow","spSpize1arb",
"Dark-eyed Junco","spJuncohye",
"White-crowned Sparrow","spZonotleu",
"Golden-crowned Sparrow","spZonotatr",
"Harris's Sparrow","spZonotque",
"White-throated Sparrow","spZonotalb",
"Sagebrush Sparrow","spArtemnev",
"Vesper Sparrow","spPooecgra",
"LeConte's Sparrow","spAmmoslec","rarity"
"Savannah Sparrow","spPasse2san",
"Song Sparrow","spMelosmel",
"Lincoln's Sparrow","spMeloslin",
"Swamp Sparrow","spMelosgeo","rarity"
"Green-tailed Towhee","spPipil1chl",
"Spotted Towhee","spPipil1mac",
"Eastern Towhee","spPipil1ery","rarity"
"Yellow-breasted Chat","spIctervir",
"Yellow-headed Blackbird","spXanth2xan",
"Bobolink","spDolicory",
"Western Meadowlark","spSturn3neg",
"Scott's Oriole","spIcter1par",
"Bullock's Oriole","spIcter1bul",
"Baltimore Oriole","spIcter1gal","rarity"
"Hooded Oriole","spIcter1cuc","rarity"
"Orchard Oriole","spIcter1spu","rarity"
"Red-winged Blackbird","spAgela1pho",
"Brown-headed Cowbird","spMolotate",
"Rusty Blackbird","spEuphacar","rarity"
"Brewer's Blackbird","spEuphacya",
"Common Grackle","spQuiscqui",
"Great-tailed Grackle","spQuiscmex",
"Ovenbird","spSeiuraur",
"Worm-eating Warbler","spHelmiver","rarity"
"Louisiana Waterthrush","spParkemot","rarity"
"Northern Waterthrush","spParkenov",
"Golden-winged Warbler","spVermichr","rarity"
"Blue-winged Warbler","spVermicya","rarity"
"Black-and-white Warbler","spMniotvar",
"Prothonotary Warbler","spProtocit","rarity"
"Tennessee Warbler","spLeiot1per","rarity"
"Orange-crowned Warbler","spLeiot1cel",
"Lucy's Warbler","spLeiot1luc","rarity"
"Nashville Warbler","spLeiot1ruf",
"Virginia's Warbler","spLeiot1vir",
"Connecticut Warbler","spOporoagi","rarity"
"MacGillivray's Warbler","spGeothtol",
"Mourning Warbler","spGeothphi","rarity"
"Common Yellowthroat","spGeothtri",
"Hooded Warbler","spSetop1cit","rarity"
"American Redstart","spSetop1rut",
"Cape May Warbler","spSetop1tig","rarity"
"Northern Parula","spSetop1ame","rarity"
"Magnolia Warbler","spSetop1mag","rarity"
"Bay-breasted Warbler","spSetop1cas","rarity"
"Blackburnian Warbler","spSetop1fus","rarity"
"American Yellow Warbler","spSetop1aes",
"Chestnut-sided Warbler","spSetop1pen","rarity"
"Blackpoll Warbler","spSetop1str","rarity"
"Black-throated Blue Warbler","spSetop1cae","rarity"
"Palm Warbler","spSetop1pal","rarity"
"Pine Warbler","spSetop1pin","rarity"
"Myrtle Warbler","spSetop1cor",
"Audubon's Warbler","spSetop1aud",
"Yellow-throated Warbler","spSetop1dom","rarity"
"Prairie Warbler","spSetop1dis","rarity"
"Black-throated Grey Warbler","spSetop1nig",
"Townsend's Warbler","spSetop1tow",
"Hermit Warbler","spSetop1occ","rarity"
"Black-throated Green Warbler","spSetop1vir","rarity"
"Canada Warbler","spCardecan","rarity"
"Wilson's Warbler","spCardepus",
"Summer Tanager","spPiranrub","rarity"
"Scarlet Tanager","spPiranoli","rarity"
"Western Tanager","spPiranlud",
"Rose-breasted Grosbeak","spPheuclud",
"Black-headed Grosbeak","spPheucmel",
"Dickcissel","spSpiza1ame","rarity"
"Blue Grosbeak","spPasse3cae","rarity"
"Indigo Bunting","spPasse3cya","rarity"
"Lazuli Bunting","spPasse3amo",
"Painted Bunting","spPasse3cir","rarity"
