"Name","ID","Status"
"Black-bellied Whistling Duck","spDendraut","rarity"
"Fulvous Whistling Duck","spDendrbic","rarity"
"Brant Goose","spBrantber","rarity"
"Canada Goose","spBrantcan",
"Cackling Goose","spBranthut",
"Ross's Goose","spAnser1ros",
"Snow Goose","spAnser1cae",
"Taiga Bean Goose","spAnser1fab","rarity"
"Tundra Bean Goose","spAnser1ser","rarity"
"Greater White-fronted Goose","spAnser1alb",
"Mute Swan","spCygnuolo","introduced"
"Trumpeter Swan","spCygnubuc",
"Tundra Swan","spCygnucol",
"Wood Duck","spAixspo",
"Garganey","spSpatuque","rarity"
"Cinnamon Teal","spSpatucya",
"Blue-winged Teal","spSpatudis",
"Northern Shoveler","spSpatucly",
"Gadwall","spMarecstr",
"Eurasian Wigeon","spMarecpen","rarity"
"American Wigeon","spMarecame",
"Mallard","spAnaspla",
"Mottled Duck","spAnasful","rarity"
"American Black Duck","spAnasrub",
"Northern Pintail","spAnasacu",
"Green-winged Teal","spAnascar",
"Canvasback","spAythyval",
"Redhead","spAythyame",
"Ring-necked Duck","spAythycol",
"Greater Scaup","spAythymar",
"Lesser Scaup","spAythyaff",
"King Eider","spSomatspe","rarity"
"Common Eider","spSomatmol","rarity"
"Harlequin Duck","spHistrhis","rarity"
"Surf Scoter","spMelanper",
"White-winged Scoter","spMelandeg",
"Black Scoter","spMelaname",
"Long-tailed Duck","spClanghye",
"Bufflehead","spBucepalb",
"Common Goldeneye","spBucepcla",
"Barrow's Goldeneye","spBucepisl","rarity"
"Hooded Merganser","spLopho1cuc",
"Common Merganser","spMergumer",
"Red-breasted Merganser","spMerguser",
"Ruddy Duck","spOxyurjam",
"Northern Bobwhite","spColinvir",
"Wild Turkey","spMeleagal",
"Ruffed Grouse","spBonasumb",
"Sharp-tailed Grouse","spTympapha","extinct"
"Greater Prairie Chicken","spTympacup",
"Grey Partridge","spPerdiper","introduced"
"Common Pheasant","spPhasicol","introduced"
"Common Nighthawk","spChordmin",
"Chuck-will's-widow","spAntrocar",
"Eastern Whip-poor-will","spAntrovoc",
"Chimney Swift","spChaetpel",
"Mexican Violetear","spColibtha","rarity"
"Ruby-throated Hummingbird","spArchicol",
"Anna's Hummingbird","spCalypann","rarity"
"Rufous Hummingbird","spSelasruf","rarity"
"Broad-billed Hummingbird","spCynanlat","rarity"
"Groove-billed Ani","spCrotosul","rarity"
"Yellow-billed Cuckoo","spCoccy1ame",
"Black-billed Cuckoo","spCoccy1ery",
"Rock Dove","spColumliv","introduced"
"Passenger Pigeon","spEctopmig","extinct"
"Eurasian Collared Dove","spStrep1dec","introduced"
"Inca Dove","spColum1inc","rarity"
"Common Ground Dove","spColum1pas","rarity"
"Mourning Dove","spZenaimac",
"White-winged Dove","spZenaiasi",
"King Rail","spRalluele","rarity"
"Virginia Rail","spRallulim",
"Sora","spPorzacar",
"Common Gallinule","spGalli3gal",
"American Coot","spFulicame",
"Purple Gallinule","spPorph1mar","rarity"
"Yellow Rail","spCotur1nov",
"Black Rail","spLaterjam","rarity"
"Sandhill Crane","spAntigcan",
"Whooping Crane","spGrusame","rarity"
"Limpkin","spAramugua","rarity"
"Pied-billed Grebe","spPodilpod",
"Red-necked Grebe","spPodic1gri",
"Horned Grebe","spPodic1aur",
"Black-necked Grebe","spPodic1nig",
"Western Grebe","spAechmocc",
"Clark's Grebe","spAechmcla","rarity"
"Black-necked Stilt","spHiman1mex",
"American Avocet","spRecurame",
"Grey Plover","spPluvi1squ",
"American Golden Plover","spPluvi1dom",
"Killdeer","spCharavoc",
"Semipalmated Plover","spCharasem",
"Piping Plover","spCharamel",
"Snowy Plover","spAnarhniv","rarity"
"Upland Sandpiper","spBartrlon",
"Hudsonian Whimbrel","spNumenhud",
"Eskimo Curlew","spNumenbor","extinct"
"Long-billed Curlew","spNumename","rarity"
"Bar-tailed Godwit","spLimoslap","rarity"
"Hudsonian Godwit","spLimoshae",
"Marbled Godwit","spLimosfed",
"Long-billed Dowitcher","spLimnosco",
"Short-billed Dowitcher","spLimnogri",
"American Woodcock","spScolomin",
"Wilson's Snipe","spGalli5del",
"Wilson's Phalarope","spPhala1tri",
"Red Phalarope","spPhala1ful","rarity"
"Red-necked Phalarope","spPhala1lob",
"Spotted Sandpiper","spActitmac",
"Solitary Sandpiper","spTringsol",
"Lesser Yellowlegs","spTringfla",
"Willet","spTringsem",
"Greater Yellowlegs","spTringmel",
"Ruddy Turnstone","spArenaint",
"Red Knot","spCalidcan",
"Ruff","spCalidpug","rarity"
"Sharp-tailed Sandpiper","spCalidacu","rarity"
"Stilt Sandpiper","spCalidhim",
"Curlew Sandpiper","spCalidfer","rarity"
"Buff-breasted Sandpiper","spCalidsub1",
"Sanderling","spCalidalb",
"Dunlin","spCalidalp",
"Baird's Sandpiper","spCalidbai",
"Least Sandpiper","spCalidmin1",
"White-rumped Sandpiper","spCalidfus",
"Pectoral Sandpiper","spCalidmel",
"Western Sandpiper","spCalidmau",
"Semipalmated Sandpiper","spCalidpus",
"Least Tern","spStern1ant",
"Caspian Tern","spHydro3cas",
"Black Tern","spChlidnig",
"Forster's Tern","spStern2for",
"Arctic Tern","spStern2par","rarity"
"Common Tern","spStern2hir1",
"Royal Tern","spThala1max","rarity"
"Little Gull","spHydro4min","rarity"
"Ross's Gull","spRhodo2ros","rarity"
"Black-legged Kittiwake","spRissatri","rarity"
"Ivory Gull","spPagopebu","rarity"
"Sabine's Gull","spXemasab",
"Bonaparte's Gull","spChroiphi",
"Black-headed Gull","spChroirid","rarity"
"Laughing Gull","spLeuco3atr",
"Franklin's Gull","spLeuco3pip",
"Black-tailed Gull","spLaruscra","rarity"
"Heermann's Gull","spLarushee","rarity"
"Short-billed Gull","spLarusbra","rarity"
"Ring-billed Gull","spLarusdel",
"Great Black-backed Gull","spLarusmar","rarity"
"Glaucous Gull","spLarushyp",
"Lesser Black-backed Gull","spLarusfus",
"California Gull","spLaruscal","rarity"
"American Herring Gull","spLarussmi",
"Glaucous-winged Gull","spLarusgla","rarity"
"Slaty-backed Gull","spLarussch","rarity"
"Iceland Gull","spLarusgla1",
"Long-tailed Jaeger","spSterclon","rarity"
"Parasitic Jaeger","spStercpar","rarity"
"Pomarine Jaeger","spStercpom","rarity"
"Long-billed Murrelet","spBrachper","rarity"
"Thick-billed Murre","spUrialom","rarity"
"Ancient Murrelet","spSynthant","rarity"
"Red-throated Loon","spGaviaste",
"Pacific Loon","spGaviapac",
"Common Loon","spGaviaimm",
"Yellow-billed Loon","spGaviaada","rarity"
"Wood Stork","spMycteame","rarity"
"Magnificent Frigatebird","spFregamag","rarity"
"Brown Booby","spSulaleu","rarity"
"Anhinga","spAnhinanh","rarity"
"Neotropic Cormorant","spNanno1bra","rarity"
"Double-crested Cormorant","spNanno1aur",
"American White Ibis","spEudocalb","rarity"
"Glossy Ibis","spPlegafal","rarity"
"White-faced Ibis","spPlegachi",
"Roseate Spoonbill","spPlataaja","rarity"
"American Bittern","spBotaulen",
"Least Bittern","spBotauexi",
"Yellow-crowned Night Heron","spNyctavio",
"Black-crowned Night Heron","spNycti6nyc",
"Little Blue Heron","spEgretcae",
"Tricolored Heron","spEgrettri","rarity"
"Reddish Egret","spEgretruf","rarity"
"Snowy Egret","spEgretthu",
"Green Heron","spButorvir",
"Great Egret","spArdeaalb",
"Western Cattle Egret","spArdeaibi",
"Great Blue Heron","spArdeaher",
"American White Pelican","spPelec1ery",
"Brown Pelican","spPelec1occ","rarity"
"Black Vulture","spCoragatr","rarity"
"Turkey Vulture","spCathaaur",
"Osprey","spPandihal",
"White-tailed Kite","spElanuleu","rarity"
"Swallow-tailed Kite","spElanofor","rarity"
"Golden Eagle","spAquilchr",
"Sharp-shinned Hawk","spAccipstr",
"Cooper's Hawk","spAsturcoo",
"American Goshawk","spAsturatr",
"Northern Harrier","spCircuhud",
"Bald Eagle","spHalia1leu1",
"Mississippi Kite","spIctin1mis",
"Broad-winged Hawk","spButeo1pla1",
"Red-shouldered Hawk","spButeo1lin",
"Swainson's Hawk","spButeo1swa",
"Red-tailed Hawk","spButeo1jam",
"Rough-legged Buzzard","spButeo1lag",
"Ferruginous Hawk","spButeo1reg",
"American Barn Owl","spTytofur",
"Boreal Owl","spAegolfun","rarity"
"Northern Saw-whet Owl","spAegolaca",
"Burrowing Owl","spAthencun","rarity"
"Northern Hawk-Owl","spSurni1ulu","rarity"
"Long-eared Owl","spAsiootu",
"Short-eared Owl","spAsiofla",
"Snowy Owl","spBubosca",
"Great Horned Owl","spBubovir",
"Eastern Screech Owl","spMegasasi",
"Barred Owl","spStrixvar",
"Great Grey Owl","spStrixneb","rarity"
"Belted Kingfisher","spMegac1alc",
"Lewis's Woodpecker","spMelan2lew","rarity"
"Red-headed Woodpecker","spMelan2ery",
"Acorn Woodpecker","spMelan2for","rarity"
"Red-bellied Woodpecker","spMelan2car",
"Yellow-bellied Sapsucker","spSphyrvar",
"Red-breasted Sapsucker","spSphyrrub","rarity"
"Black-backed Woodpecker","spPicoiarc","rarity"
"Downy Woodpecker","spDryobpub",
"Hairy Woodpecker","spLeuco6vil",
"Northern Flicker","spColapaur1",
"Pileated Woodpecker","spDryocpil",
"Crested Caracara","spCaracpla","rarity"
"American Kestrel","spFalcospa",
"Merlin","spFalcocol",
"Gyrfalcon","spFalcorus","rarity"
"Prairie Falcon","spFalcomex",
"Peregrine Falcon","spFalcoper",
"Carolina Parakeet","spConurcar","extinct"
"Eastern Phoebe","spSayorpho",
"Say's Phoebe","spSayorsay","rarity"
"Olive-sided Flycatcher","spContocoo",
"Western Wood Pewee","spContosor","rarity"
"Eastern Wood Pewee","spContovir",
"Yellow-bellied Flycatcher","spEmpidfla",
"Acadian Flycatcher","spEmpidvir",
"Willow Flycatcher","spEmpidtra",
"Alder Flycatcher","spEmpidaln",
"Least Flycatcher","spEmpidmin",
"Western Flycatcher","spEmpiddif","rarity"
"Vermilion Flycatcher","spPyrocobs","rarity"
"Western Kingbird","spTyran3ver",
"Scissor-tailed Flycatcher","spTyran3for",
"Fork-tailed Flycatcher","spTyran3sav","rarity"
"Eastern Kingbird","spTyran3tyr",
"Great Crested Flycatcher","spMyiarcri",
"Red-eyed Vireo","spVireo1oli",
"Philadelphia Vireo","spVireo1phi",
"Warbling Vireo","spVireo1gil",
"Yellow-throated Vireo","spVireo1fla1",
"Blue-headed Vireo","spVireo1sol",
"White-eyed Vireo","spVireo1gri",
"Bell's Vireo","spVireo1bel",
"Loggerhead Shrike","spLaniulud",
"Northern Shrike","spLaniubor",
"Canada Jay","spPeris1can","rarity"
"Blue Jay","spCyano8cri",
"Pinyon Jay","spGymno9cya","rarity"
"Black-billed Magpie","spPicahud",
"Clark's Nutcracker","spNucifcol","rarity"
"American Crow","spCorvubra",
"Fish Crow","spCorvuoss","rarity"
"Northern Raven","spCorvucor3","rarity"
"Bohemian Waxwing","spBombygar","rarity"
"Cedar Waxwing","spBombyced",
"Tufted Titmouse","spBaeolbic",
"Boreal Chickadee","spPoeci2hud","rarity"
"Black-capped Chickadee","spPoeci2atr",
"Horned Lark","spEremo1alp",
"Sand Martin","spRiparrip",
"Tree Swallow","spTachy4bic",
"Violet-green Swallow","spTachy4tha","rarity"
"Purple Martin","spPrognsub",
"Northern Rough-winged Swallow","spStelg1ser",
"Barn Swallow","spHirun2rus",
"American Cliff Swallow","spPetro2pyr",
"Cave Swallow","spPetro2ful","rarity"
"Ruby-crowned Kinglet","spCorthcal",
"Golden-crowned Kinglet","spRegulsat",
"Rock Wren","spSalpiobs","rarity"
"Sedge Wren","spCistoste",
"Marsh Wren","spCistopal",
"Bewick's Wren","spThryobew",
"Carolina Wren","spThryo2lud",
"Winter Wren","spTroglhie",
"Pacific Wren","spTroglpac","rarity"
"Northern House Wren","spTroglaed",
"Blue-grey Gnatcatcher","spPolio5cae",
"White-breasted Nuthatch","spSitta1car",
"Pygmy Nuthatch","spSitta1pyg","rarity"
"Red-breasted Nuthatch","spSitta1can",
"Brown Creeper","spCerth4ame",
"Grey Catbird","spDumet1car",
"Northern Mockingbird","spMimuspol",
"Sage Thrasher","spOreos1mon","rarity"
"Brown Thrasher","spToxosruf",
"Curve-billed Thrasher","spToxoscur","rarity"
"Common Starling","spSturn2vul","introduced"
"Mountain Bluebird","spSialicur","rarity"
"Eastern Bluebird","spSialisia",
"Townsend's Solitaire","spMyadetow",
"Varied Thrush","spIxorenae",
"Wood Thrush","spHyloc2mus",
"Swainson's Thrush","spCatha1ust",
"Hermit Thrush","spCatha1gut",
"Grey-cheeked Thrush","spCatha1min",
"Veery","spCatha1fus1",
"American Robin","spTurdumig",
"Eurasian Tree Sparrow","spPassemon","introduced"
"House Sparrow","spPassedom","introduced"
"American Pipit","spAnthurub",
"Sprague's Pipit","spAnthuspr","rarity"
"Brambling","spFringmon","rarity"
"Evening Grosbeak","spHespe1ves","rarity"
"Pine Grosbeak","spPinicenu","rarity"
"Grey-crowned Rosy Finch","spLeuco10tep","rarity"
"Purple Finch","spHaemopur",
"House Finch","spHaemomex","introduced"
"Redpoll","spAcant5fla",
"Red Crossbill","spLoxiacur",
"Two-barred Crossbill","spLoxialeu",
"American Goldfinch","spSpinutri",
"Lesser Goldfinch","spSpinupsa","rarity"
"Pine Siskin","spSpinupin",
"Lapland Longspur","spCalcalap",
"Smith's Longspur","spCalcapic",
"Chestnut-collared Longspur","spCalcaorn","rarity"
"Snow Bunting","spPlect2niv",
"Grasshopper Sparrow","spAmmodsav",
"Black-throated Sparrow","spAmphi1bil","rarity"
"Lark Sparrow","spChond1gra",
"Lark Bunting","spCalam3mel","rarity"
"Chipping Sparrow","spSpizepas",
"Clay-colored Sparrow","spSpizepal",
"Field Sparrow","spSpizepus",
"Red Fox Sparrow","spPasse1ili",
"American Tree Sparrow","spSpize1arb",
"Dark-eyed Junco","spJuncohye",
"White-crowned Sparrow","spZonotleu",
"Golden-crowned Sparrow","spZonotatr","rarity"
"Harris's Sparrow","spZonotque",
"White-throated Sparrow","spZonotalb",
"Vesper Sparrow","spPooecgra",
"LeConte's Sparrow","spAmmoslec",
"Nelson's Sparrow","spAmmosnel",
"Baird's Sparrow","spCentr2bai","rarity"
"Henslow's Sparrow","spCentr2hen",
"Savannah Sparrow","spPasse2san",
"Song Sparrow","spMelosmel",
"Lincoln's Sparrow","spMeloslin",
"Swamp Sparrow","spMelosgeo",
"Green-tailed Towhee","spPipil1chl","rarity"
"Spotted Towhee","spPipil1mac",
"Eastern Towhee","spPipil1ery",
"Yellow-breasted Chat","spIctervir",
"Yellow-headed Blackbird","spXanth2xan",
"Bobolink","spDolicory",
"Western Meadowlark","spSturn3neg",
"Eastern Meadowlark","spSturn3mag",
"Scott's Oriole","spIcter1par","rarity"
"Bullock's Oriole","spIcter1bul","rarity"
"Baltimore Oriole","spIcter1gal",
"Hooded Oriole","spIcter1cuc","rarity"
"Orchard Oriole","spIcter1spu",
"Red-winged Blackbird","spAgela1pho",
"Brown-headed Cowbird","spMolotate",
"Rusty Blackbird","spEuphacar",
"Brewer's Blackbird","spEuphacya",
"Common Grackle","spQuiscqui",
"Great-tailed Grackle","spQuiscmex",
"Ovenbird","spSeiuraur",
"Worm-eating Warbler","spHelmiver",
"Louisiana Waterthrush","spParkemot",
"Northern Waterthrush","spParkenov",
"Golden-winged Warbler","spVermichr",
"Blue-winged Warbler","spVermicya",
"Black-and-white Warbler","spMniotvar",
"Prothonotary Warbler","spProtocit",
"Swainson's Warbler","spLimno3swa","rarity"
"Tennessee Warbler","spLeiot1per",
"Orange-crowned Warbler","spLeiot1cel",
"Nashville Warbler","spLeiot1ruf",
"Connecticut Warbler","spOporoagi",
"MacGillivray's Warbler","spGeothtol","rarity"
"Mourning Warbler","spGeothphi",
"Kentucky Warbler","spGeothfor",
"Common Yellowthroat","spGeothtri",
"Hooded Warbler","spSetop1cit",
"American Redstart","spSetop1rut",
"Cape May Warbler","spSetop1tig",
"Cerulean Warbler","spSetop1cer",
"Northern Parula","spSetop1ame",
"Magnolia Warbler","spSetop1mag",
"Bay-breasted Warbler","spSetop1cas",
"Blackburnian Warbler","spSetop1fus",
"American Yellow Warbler","spSetop1aes",
"Chestnut-sided Warbler","spSetop1pen",
"Blackpoll Warbler","spSetop1str",
"Black-throated Blue Warbler","spSetop1cae",
"Palm Warbler","spSetop1pal",
"Pine Warbler","spSetop1pin",
"Myrtle Warbler","spSetop1cor",
"Yellow-throated Warbler","spSetop1dom",
"Prairie Warbler","spSetop1dis","rarity"
"Black-throated Grey Warbler","spSetop1nig","rarity"
"Townsend's Warbler","spSetop1tow","rarity"
"Black-throated Green Warbler","spSetop1vir",
"Canada Warbler","spCardecan",
"Wilson's Warbler","spCardepus",
"Summer Tanager","spPiranrub",
"Scarlet Tanager","spPiranoli",
"Western Tanager","spPiranlud","rarity"
"Rose-breasted Grosbeak","spPheuclud",
"Black-headed Grosbeak","spPheucmel","rarity"
"Northern Cardinal","spCardicar",
"Dickcissel","spSpiza1ame",
"Blue Grosbeak","spPasse3cae",
"Indigo Bunting","spPasse3cya",
"Lazuli Bunting","spPasse3amo","rarity"
"Painted Bunting","spPasse3cir","rarity"
