"Name","ID","Status"
"Black-bellied Whistling Duck","spDendraut","rarity"
"Fulvous Whistling Duck","spDendrbic","rarity"
"Brant Goose","spBrantber",
"Canada Goose","spBrantcan",
"Cackling Goose","spBranthut",
"Ross's Goose","spAnser1ros",
"Snow Goose","spAnser1cae",
"Greylag Goose","spAnser1ans","escaped"
"Greater White-fronted Goose","spAnser1alb",
"Mute Swan","spCygnuolo","introduced"
"Trumpeter Swan","spCygnubuc",
"Tundra Swan","spCygnucol",
"Wood Duck","spAixspo",
"Garganey","spSpatuque","rarity"
"Cinnamon Teal","spSpatucya","rarity"
"Blue-winged Teal","spSpatudis",
"Northern Shoveler","spSpatucly",
"Gadwall","spMarecstr",
"Eurasian Wigeon","spMarecpen",
"American Wigeon","spMarecame",
"Mallard","spAnaspla",
"American Black Duck","spAnasrub",
"Northern Pintail","spAnasacu",
"Eurasian Teal","spAnascre","rarity"
"Green-winged Teal","spAnascar",
"Canvasback","spAythyval",
"Redhead","spAythyame",
"Ring-necked Duck","spAythycol",
"Tufted Duck","spAythyful","rarity"
"Greater Scaup","spAythymar",
"Lesser Scaup","spAythyaff",
"King Eider","spSomatspe","rarity"
"Common Eider","spSomatmol","rarity"
"Harlequin Duck","spHistrhis",
"Surf Scoter","spMelanper",
"White-winged Scoter","spMelandeg",
"Black Scoter","spMelaname",
"Long-tailed Duck","spClanghye",
"Bufflehead","spBucepalb",
"Common Goldeneye","spBucepcla",
"Barrow's Goldeneye","spBucepisl","rarity"
"Hooded Merganser","spLopho1cuc",
"Common Merganser","spMergumer",
"Red-breasted Merganser","spMerguser",
"Ruddy Duck","spOxyurjam",
"Northern Bobwhite","spColinvir",
"Wild Turkey","spMeleagal",
"Ruffed Grouse","spBonasumb",
"Greater Prairie Chicken","spTympacup","extinct"
"Grey Partridge","spPerdiper","introduced"
"Common Pheasant","spPhasicol","introduced"
"Common Nighthawk","spChordmin",
"Chuck-will's-widow","spAntrocar",
"Eastern Whip-poor-will","spAntrovoc",
"Chimney Swift","spChaetpel",
"White-throated Swift","spAeronsax","rarity"
"Mexican Violetear","spColibtha","rarity"
"Black-chinned Hummingbird","spArchiale","rarity"
"Ruby-throated Hummingbird","spArchicol",
"Anna's Hummingbird","spCalypann","rarity"
"Calliope Hummingbird","spSelascal","rarity"
"Rufous Hummingbird","spSelasruf",
"Allen's Hummingbird","spSelassas","rarity"
"Broad-billed Hummingbird","spCynanlat","rarity"
"Smooth-billed Ani","spCrotoani","rarity"
"Groove-billed Ani","spCrotosul","rarity"
"Yellow-billed Cuckoo","spCoccy1ame",
"Black-billed Cuckoo","spCoccy1ery",
"Rock Dove","spColumliv","introduced"
"Passenger Pigeon","spEctopmig","extinct"
"Eurasian Collared Dove","spStrep1dec","rarity-from-introduced"
"Common Ground Dove","spColum1pas","rarity"
"Mourning Dove","spZenaimac",
"White-winged Dove","spZenaiasi","rarity"
"King Rail","spRalluele",
"Virginia Rail","spRallulim",
"Sora","spPorzacar",
"Common Gallinule","spGalli3gal",
"American Coot","spFulicame",
"Purple Gallinule","spPorph1mar","rarity"
"Yellow Rail","spCotur1nov","rarity"
"Black Rail","spLaterjam","rarity"
"Sandhill Crane","spAntigcan",
"Whooping Crane","spGrusame","rarity"
"Limpkin","spAramugua","rarity"
"Pied-billed Grebe","spPodilpod",
"Red-necked Grebe","spPodic1gri",
"Horned Grebe","spPodic1aur",
"Black-necked Grebe","spPodic1nig",
"Western Grebe","spAechmocc","rarity"
"American Flamingo","spPhoenrub","rarity"
"Black-necked Stilt","spHiman1mex","rarity"
"American Avocet","spRecurame",
"Grey Plover","spPluvi1squ",
"American Golden Plover","spPluvi1dom",
"Killdeer","spCharavoc",
"Semipalmated Plover","spCharasem",
"Piping Plover","spCharamel","rarity"
"Northern Lapwing","spVanelvan","rarity"
"Wilson's Plover","spAnarhwil","rarity"
"Snowy Plover","spAnarhniv","rarity"
"Upland Sandpiper","spBartrlon",
"Eurasian Whimbrel","spNumenpha","rarity"
"Hudsonian Whimbrel","spNumenhud",
"Eskimo Curlew","spNumenbor","extinct"
"Long-billed Curlew","spNumename","rarity"
"Hudsonian Godwit","spLimoshae",
"Marbled Godwit","spLimosfed",
"Long-billed Dowitcher","spLimnosco",
"Short-billed Dowitcher","spLimnogri",
"American Woodcock","spScolomin",
"Eurasian Woodcock","spScolorus","rarity"
"Wilson's Snipe","spGalli5del",
"Wilson's Phalarope","spPhala1tri",
"Red Phalarope","spPhala1ful",
"Red-necked Phalarope","spPhala1lob",
"Spotted Sandpiper","spActitmac",
"Solitary Sandpiper","spTringsol",
"Lesser Yellowlegs","spTringfla",
"Willet","spTringsem",
"Spotted Redshank","spTringery","rarity"
"Greater Yellowlegs","spTringmel",
"Ruddy Turnstone","spArenaint",
"Red Knot","spCalidcan",
"Ruff","spCalidpug","rarity"
"Sharp-tailed Sandpiper","spCalidacu","rarity"
"Stilt Sandpiper","spCalidhim",
"Curlew Sandpiper","spCalidfer","rarity"
"Red-necked Stint","spCalidruf","rarity"
"Buff-breasted Sandpiper","spCalidsub1",
"Sanderling","spCalidalb",
"Dunlin","spCalidalp",
"Purple Sandpiper","spCalidmar",
"Baird's Sandpiper","spCalidbai",
"Least Sandpiper","spCalidmin1",
"White-rumped Sandpiper","spCalidfus",
"Pectoral Sandpiper","spCalidmel",
"Western Sandpiper","spCalidmau",
"Semipalmated Sandpiper","spCalidpus",
"Sooty Tern","spOnychfus","rarity"
"Least Tern","spStern1ant","rarity"
"Large-billed Tern","spPhaet1sim","rarity"
"Caspian Tern","spHydro3cas",
"Black Tern","spChlidnig",
"Forster's Tern","spStern2for",
"Arctic Tern","spStern2par","rarity"
"Common Tern","spStern2hir1",
"Royal Tern","spThala1max","rarity"
"Little Gull","spHydro4min",
"Ross's Gull","spRhodo2ros","rarity"
"Black-legged Kittiwake","spRissatri",
"Ivory Gull","spPagopebu","rarity"
"Sabine's Gull","spXemasab",
"Bonaparte's Gull","spChroiphi",
"Black-headed Gull","spChroirid","rarity"
"Laughing Gull","spLeuco3atr",
"Franklin's Gull","spLeuco3pip",
"Black-tailed Gull","spLaruscra","rarity"
"Heermann's Gull","spLarushee","rarity"
"Common Gull","spLaruscan","rarity"
"Short-billed Gull","spLarusbra","rarity"
"Ring-billed Gull","spLarusdel",
"Kelp Gull","spLarusdom","rarity"
"Great Black-backed Gull","spLarusmar",
"Glaucous Gull","spLarushyp",
"Lesser Black-backed Gull","spLarusfus",
"California Gull","spLaruscal","rarity"
"American Herring Gull","spLarussmi",
"Glaucous-winged Gull","spLarusgla","rarity"
"Slaty-backed Gull","spLarussch","rarity"
"Iceland Gull","spLarusgla1",
"Long-tailed Jaeger","spSterclon","rarity"
"Parasitic Jaeger","spStercpar","rarity"
"Pomarine Jaeger","spStercpom",
"Atlantic Puffin","spFratearc","rarity"
"Long-billed Murrelet","spBrachper","rarity"
"Black Guillemot","spCepphgry","rarity"
"Thick-billed Murre","spUrialom","rarity"
"Ancient Murrelet","spSynthant","rarity"
"Red-throated Loon","spGaviaste",
"Black-throated Loon","spGaviaarc","rarity"
"Pacific Loon","spGaviapac","rarity"
"Common Loon","spGaviaimm",
"Leach's Storm Petrel","spHydro5leu","rarity"
"Black-capped Petrel","spPtero3has","rarity"
"Wood Stork","spMycteame","rarity"
"Magnificent Frigatebird","spFregamag","rarity"
"Northern Gannet","spMorusbas","rarity"
"Brown Booby","spSulaleu","rarity"
"Anhinga","spAnhinanh","rarity"
"Great Cormorant","spPhala2car","rarity"
"Neotropic Cormorant","spNanno1bra","rarity"
"Double-crested Cormorant","spNanno1aur",
"American White Ibis","spEudocalb","rarity"
"Glossy Ibis","spPlegafal","rarity"
"White-faced Ibis","spPlegachi","rarity"
"Roseate Spoonbill","spPlataaja","rarity"
"American Bittern","spBotaulen",
"Least Bittern","spBotauexi",
"Yellow-crowned Night Heron","spNyctavio",
"Black-crowned Night Heron","spNycti6nyc",
"Little Blue Heron","spEgretcae",
"Tricolored Heron","spEgrettri","rarity"
"Reddish Egret","spEgretruf","rarity"
"Snowy Egret","spEgretthu",
"Green Heron","spButorvir",
"Great Egret","spArdeaalb",
"Western Cattle Egret","spArdeaibi",
"Great Blue Heron","spArdeaher",
"American White Pelican","spPelec1ery",
"Brown Pelican","spPelec1occ","rarity"
"Black Vulture","spCoragatr",
"Turkey Vulture","spCathaaur",
"Osprey","spPandihal",
"White-tailed Kite","spElanuleu","rarity"
"Swallow-tailed Kite","spElanofor","rarity"
"Golden Eagle","spAquilchr",
"Sharp-shinned Hawk","spAccipstr",
"Cooper's Hawk","spAsturcoo",
"American Goshawk","spAsturatr","rarity"
"Northern Harrier","spCircuhud",
"Bald Eagle","spHalia1leu1",
"Mississippi Kite","spIctin1mis","rarity"
"Harris's Hawk","spParabuni","rarity"
"Broad-winged Hawk","spButeo1pla1",
"Red-shouldered Hawk","spButeo1lin",
"Swainson's Hawk","spButeo1swa","rarity"
"Red-tailed Hawk","spButeo1jam",
"Rough-legged Buzzard","spButeo1lag",
"Ferruginous Hawk","spButeo1reg","rarity"
"American Barn Owl","spTytofur",
"Boreal Owl","spAegolfun","rarity"
"Northern Saw-whet Owl","spAegolaca",
"Burrowing Owl","spAthencun","rarity"
"Northern Hawk-Owl","spSurni1ulu","rarity"
"Long-eared Owl","spAsiootu",
"Short-eared Owl","spAsiofla",
"Snowy Owl","spBubosca",
"Great Horned Owl","spBubovir",
"Eastern Screech Owl","spMegasasi",
"Barred Owl","spStrixvar",
"Great Grey Owl","spStrixneb","rarity"
"Belted Kingfisher","spMegac1alc",
"Red-headed Woodpecker","spMelan2ery",
"Red-bellied Woodpecker","spMelan2car",
"Yellow-bellied Sapsucker","spSphyrvar",
"Red-naped Sapsucker","spSphyrnuc","rarity"
"Black-backed Woodpecker","spPicoiarc","rarity"
"Downy Woodpecker","spDryobpub",
"Red-cockaded Woodpecker","spLeuco6bor","rarity"
"Hairy Woodpecker","spLeuco6vil",
"Northern Flicker","spColapaur1",
"Pileated Woodpecker","spDryocpil",
"Ivory-billed Woodpecker","spCampe1pri","extinct"
"Crested Caracara","spCaracpla","rarity"
"American Kestrel","spFalcospa",
"Merlin","spFalcocol",
"Gyrfalcon","spFalcorus","rarity"
"Prairie Falcon","spFalcomex","rarity"
"Peregrine Falcon","spFalcoper",
"Carolina Parakeet","spConurcar","extinct"
"Eastern Phoebe","spSayorpho",
"Say's Phoebe","spSayorsay","rarity"
"Olive-sided Flycatcher","spContocoo",
"Eastern Wood Pewee","spContovir",
"Yellow-bellied Flycatcher","spEmpidfla",
"Acadian Flycatcher","spEmpidvir",
"Willow Flycatcher","spEmpidtra",
"Alder Flycatcher","spEmpidaln",
"Least Flycatcher","spEmpidmin",
"American Dusky Flycatcher","spEmpidobe","rarity"
"American Grey Flycatcher","spEmpidwri","rarity"
"Western Flycatcher","spEmpiddif","rarity"
"Vermilion Flycatcher","spPyrocobs","rarity"
"Tropical Kingbird","spTyran3mel","rarity"
"Western Kingbird","spTyran3ver","rarity"
"Scissor-tailed Flycatcher","spTyran3for","rarity"
"Eastern Kingbird","spTyran3tyr",
"Grey Kingbird","spTyran3dom","rarity"
"Ash-throated Flycatcher","spMyiarcin","rarity"
"Great Crested Flycatcher","spMyiarcri",
"Red-eyed Vireo","spVireo1oli",
"Philadelphia Vireo","spVireo1phi",
"Warbling Vireo","spVireo1gil",
"Yellow-throated Vireo","spVireo1fla1",
"Blue-headed Vireo","spVireo1sol",
"White-eyed Vireo","spVireo1gri",
"Bell's Vireo","spVireo1bel",
"Loggerhead Shrike","spLaniulud","rarity"
"Northern Shrike","spLaniubor",
"Blue Jay","spCyano8cri",
"Black-billed Magpie","spPicahud","rarity"
"American Crow","spCorvubra",
"Fish Crow","spCorvuoss","rarity"
"Northern Raven","spCorvucor3","rarity"
"Bohemian Waxwing","spBombygar","rarity"
"Cedar Waxwing","spBombyced",
"Tufted Titmouse","spBaeolbic",
"Boreal Chickadee","spPoeci2hud","rarity"
"Carolina Chickadee","spPoeci2car",
"Black-capped Chickadee","spPoeci2atr",
"Horned Lark","spEremo1alp",
"Sand Martin","spRiparrip",
"Tree Swallow","spTachy4bic",
"Violet-green Swallow","spTachy4tha","rarity"
"Purple Martin","spPrognsub",
"Northern Rough-winged Swallow","spStelg1ser",
"Barn Swallow","spHirun2rus",
"American Cliff Swallow","spPetro2pyr",
"Cave Swallow","spPetro2ful","rarity"
"Ruby-crowned Kinglet","spCorthcal",
"Golden-crowned Kinglet","spRegulsat",
"Rock Wren","spSalpiobs","rarity"
"Sedge Wren","spCistoste",
"Marsh Wren","spCistopal",
"Bewick's Wren","spThryobew","rarity"
"Carolina Wren","spThryo2lud",
"Winter Wren","spTroglhie",
"Northern House Wren","spTroglaed",
"Blue-grey Gnatcatcher","spPolio5cae",
"White-breasted Nuthatch","spSitta1car",
"Brown-headed Nuthatch","spSitta1pus","rarity"
"Red-breasted Nuthatch","spSitta1can",
"Brown Creeper","spCerth4ame",
"Grey Catbird","spDumet1car",
"Northern Mockingbird","spMimuspol",
"Brown Thrasher","spToxosruf",
"Common Starling","spSturn2vul","introduced"
"Mountain Bluebird","spSialicur","rarity"
"Eastern Bluebird","spSialisia",
"Townsend's Solitaire","spMyadetow","rarity"
"Varied Thrush","spIxorenae","rarity"
"Wood Thrush","spHyloc2mus",
"Swainson's Thrush","spCatha1ust",
"Hermit Thrush","spCatha1gut",
"Grey-cheeked Thrush","spCatha1min",
"Veery","spCatha1fus1",
"American Robin","spTurdumig",
"Northern Wheatear","spOenanoen","rarity"
"Eurasian Tree Sparrow","spPassemon","rarity-from-introduced"
"House Sparrow","spPassedom","introduced"
"White Wagtail","spMotacalb","rarity"
"American Pipit","spAnthurub",
"Sprague's Pipit","spAnthuspr","rarity"
"Brambling","spFringmon","rarity"
"Evening Grosbeak","spHespe1ves",
"Pine Grosbeak","spPinicenu","rarity"
"Grey-crowned Rosy Finch","spLeuco10tep","rarity"
"Purple Finch","spHaemopur",
"House Finch","spHaemomex","introduced"
"Redpoll","spAcant5fla",
"Red Crossbill","spLoxiacur",
"Two-barred Crossbill","spLoxialeu",
"American Goldfinch","spSpinutri",
"Pine Siskin","spSpinupin",
"Lapland Longspur","spCalcalap",
"Smith's Longspur","spCalcapic","rarity"
"Chestnut-collared Longspur","spCalcaorn","rarity"
"Snow Bunting","spPlect2niv",
"Cassin's Sparrow","spPeucacas","rarity"
"Bachman's Sparrow","spPeucaaes","rarity"
"Grasshopper Sparrow","spAmmodsav",
"Black-throated Sparrow","spAmphi1bil","rarity"
"Lark Sparrow","spChond1gra",
"Lark Bunting","spCalam3mel","rarity"
"Chipping Sparrow","spSpizepas",
"Clay-colored Sparrow","spSpizepal",
"Field Sparrow","spSpizepus",
"Brewer's Sparrow","spSpizebre","rarity"
"Red Fox Sparrow","spPasse1ili",
"American Tree Sparrow","spSpize1arb",
"Dark-eyed Junco","spJuncohye",
"White-crowned Sparrow","spZonotleu",
"Golden-crowned Sparrow","spZonotatr","rarity"
"Harris's Sparrow","spZonotque","rarity"
"White-throated Sparrow","spZonotalb",
"Vesper Sparrow","spPooecgra",
"LeConte's Sparrow","spAmmoslec",
"Nelson's Sparrow","spAmmosnel",
"Baird's Sparrow","spCentr2bai","rarity"
"Henslow's Sparrow","spCentr2hen",
"Savannah Sparrow","spPasse2san",
"Song Sparrow","spMelosmel",
"Lincoln's Sparrow","spMeloslin",
"Swamp Sparrow","spMelosgeo",
"Green-tailed Towhee","spPipil1chl","rarity"
"Spotted Towhee","spPipil1mac","rarity"
"Eastern Towhee","spPipil1ery",
"Yellow-breasted Chat","spIctervir",
"Yellow-headed Blackbird","spXanth2xan",
"Bobolink","spDolicory",
"Western Meadowlark","spSturn3neg",
"Eastern Meadowlark","spSturn3mag",
"Bullock's Oriole","spIcter1bul","rarity"
"Baltimore Oriole","spIcter1gal",
"Hooded Oriole","spIcter1cuc","rarity"
"Orchard Oriole","spIcter1spu",
"Red-winged Blackbird","spAgela1pho",
"Brown-headed Cowbird","spMolotate",
"Rusty Blackbird","spEuphacar",
"Brewer's Blackbird","spEuphacya",
"Common Grackle","spQuiscqui",
"Great-tailed Grackle","spQuiscmex","rarity"
"Ovenbird","spSeiuraur",
"Worm-eating Warbler","spHelmiver",
"Louisiana Waterthrush","spParkemot",
"Northern Waterthrush","spParkenov",
"Golden-winged Warbler","spVermichr",
"Blue-winged Warbler","spVermicya",
"Black-and-white Warbler","spMniotvar",
"Prothonotary Warbler","spProtocit",
"Swainson's Warbler","spLimno3swa","rarity"
"Tennessee Warbler","spLeiot1per",
"Orange-crowned Warbler","spLeiot1cel",
"Nashville Warbler","spLeiot1ruf",
"Connecticut Warbler","spOporoagi",
"Mourning Warbler","spGeothphi",
"Kentucky Warbler","spGeothfor",
"Common Yellowthroat","spGeothtri",
"Hooded Warbler","spSetop1cit",
"American Redstart","spSetop1rut",
"Kirtland's Warbler","spSetop1kir","rarity"
"Cape May Warbler","spSetop1tig",
"Cerulean Warbler","spSetop1cer",
"Northern Parula","spSetop1ame",
"Magnolia Warbler","spSetop1mag",
"Bay-breasted Warbler","spSetop1cas",
"Blackburnian Warbler","spSetop1fus",
"American Yellow Warbler","spSetop1aes",
"Chestnut-sided Warbler","spSetop1pen",
"Blackpoll Warbler","spSetop1str",
"Black-throated Blue Warbler","spSetop1cae",
"Palm Warbler","spSetop1pal",
"Pine Warbler","spSetop1pin",
"Myrtle Warbler","spSetop1cor",
"Audubon's Warbler","spSetop1aud","rarity"
"Yellow-throated Warbler","spSetop1dom",
"Prairie Warbler","spSetop1dis",
"Black-throated Grey Warbler","spSetop1nig","rarity"
"Townsend's Warbler","spSetop1tow","rarity"
"Black-throated Green Warbler","spSetop1vir",
"Canada Warbler","spCardecan",
"Wilson's Warbler","spCardepus",
"Painted Whitestart","spMyiob1pic","rarity"
"Summer Tanager","spPiranrub",
"Scarlet Tanager","spPiranoli",
"Western Tanager","spPiranlud","rarity"
"Rose-breasted Grosbeak","spPheuclud",
"Black-headed Grosbeak","spPheucmel","rarity"
"Northern Cardinal","spCardicar",
"Dickcissel","spSpiza1ame",
"Blue Grosbeak","spPasse3cae",
"Indigo Bunting","spPasse3cya",
"Painted Bunting","spPasse3cir","rarity"
