"Name","ID","Status"
"Black-bellied Whistling Duck","spDendraut","rarity"
"Fulvous Whistling Duck","spDendrbic","rarity"
"Brant Goose","spBrantber",
"Canada Goose","spBrantcan",
"Barnacle Goose","spBrantleu","rarity"
"Cackling Goose","spBranthut","rarity"
"Ross's Goose","spAnser1ros","rarity"
"Snow Goose","spAnser1cae",
"Pink-footed Goose","spAnser1bra","rarity"
"Greater White-fronted Goose","spAnser1alb",
"Mute Swan","spCygnuolo","introduced"
"Trumpeter Swan","spCygnubuc","rarity"
"Tundra Swan","spCygnucol","rarity"
"Muscovy Duck","spCairimos","escaped"
"Wood Duck","spAixspo",
"Blue-winged Teal","spSpatudis",
"Northern Shoveler","spSpatucly",
"Gadwall","spMarecstr",
"Eurasian Wigeon","spMarecpen",
"American Wigeon","spMarecame",
"Mallard","spAnaspla",
"American Black Duck","spAnasrub",
"Northern Pintail","spAnasacu",
"Eurasian Teal","spAnascre","rarity"
"Green-winged Teal","spAnascar",
"Canvasback","spAythyval",
"Redhead","spAythyame",
"Ring-necked Duck","spAythycol",
"Tufted Duck","spAythyful","rarity"
"Greater Scaup","spAythymar",
"Lesser Scaup","spAythyaff",
"King Eider","spSomatspe",
"Common Eider","spSomatmol",
"Harlequin Duck","spHistrhis",
"Surf Scoter","spMelanper",
"White-winged Scoter","spMelandeg",
"Black Scoter","spMelaname",
"Long-tailed Duck","spClanghye",
"Bufflehead","spBucepalb",
"Common Goldeneye","spBucepcla",
"Barrow's Goldeneye","spBucepisl",
"Smew","spMergealb","rarity"
"Hooded Merganser","spLopho1cuc",
"Common Merganser","spMergumer",
"Red-breasted Merganser","spMerguser",
"Ruddy Duck","spOxyurjam",
"Northern Bobwhite","spColinvir",
"Wild Turkey","spMeleagal",
"Ruffed Grouse","spBonasumb",
"Common Pheasant","spPhasicol","introduced"
"Common Nighthawk","spChordmin",
"Chuck-will's-widow","spAntrocar","rarity"
"Eastern Whip-poor-will","spAntrovoc",
"Chimney Swift","spChaetpel",
"Ruby-throated Hummingbird","spArchicol",
"Calliope Hummingbird","spSelascal","rarity"
"Rufous Hummingbird","spSelasruf","rarity"
"Yellow-billed Cuckoo","spCoccy1ame",
"Black-billed Cuckoo","spCoccy1ery",
"Common Cuckoo","spCuculcan","rarity"
"Rock Dove","spColumliv","introduced"
"Passenger Pigeon","spEctopmig","extinct"
"Eurasian Collared Dove","spStrep1dec","rarity-from-introduced"
"Mourning Dove","spZenaimac",
"White-winged Dove","spZenaiasi","rarity"
"Clapper Rail","spRallucre",
"King Rail","spRalluele","rarity"
"Virginia Rail","spRallulim",
"Corn Crake","spCrexcre","rarity"
"Sora","spPorzacar",
"Common Gallinule","spGalli3gal",
"American Coot","spFulicame",
"Purple Gallinule","spPorph1mar","rarity"
"Yellow Rail","spCotur1nov","rarity"
"Black Rail","spLaterjam","rarity"
"Sandhill Crane","spAntigcan","rarity"
"Pied-billed Grebe","spPodilpod",
"Red-necked Grebe","spPodic1gri",
"Horned Grebe","spPodic1aur",
"Black-necked Grebe","spPodic1nig","rarity"
"Western Grebe","spAechmocc","rarity"
"American Oystercatcher","spHaema1pal",
"Black-necked Stilt","spHiman1mex","rarity"
"American Avocet","spRecurame",
"Grey Plover","spPluvi1squ",
"American Golden Plover","spPluvi1dom",
"Killdeer","spCharavoc",
"Common Ringed Plover","spCharahia","rarity"
"Semipalmated Plover","spCharasem",
"Piping Plover","spCharamel",
"Northern Lapwing","spVanelvan","rarity"
"Siberian Sand Plover","spAnarhmon","rarity"
"Wilson's Plover","spAnarhwil","rarity"
"Upland Sandpiper","spBartrlon",
"Hudsonian Whimbrel","spNumenhud",
"Eskimo Curlew","spNumenbor","extinct"
"Long-billed Curlew","spNumename","rarity"
"Hudsonian Godwit","spLimoshae",
"Marbled Godwit","spLimosfed",
"Long-billed Dowitcher","spLimnosco","rarity"
"Short-billed Dowitcher","spLimnogri",
"American Woodcock","spScolomin",
"Wilson's Snipe","spGalli5del",
"Wilson's Phalarope","spPhala1tri",
"Red Phalarope","spPhala1ful",
"Red-necked Phalarope","spPhala1lob",
"Terek Sandpiper","spXenuscin","rarity"
"Spotted Sandpiper","spActitmac",
"Solitary Sandpiper","spTringsol",
"Wood Sandpiper","spTringgla","rarity"
"Lesser Yellowlegs","spTringfla",
"Willet","spTringsem",
"Spotted Redshank","spTringery","rarity"
"Greater Yellowlegs","spTringmel",
"Ruddy Turnstone","spArenaint",
"Red Knot","spCalidcan",
"Ruff","spCalidpug","rarity"
"Sharp-tailed Sandpiper","spCalidacu","rarity"
"Stilt Sandpiper","spCalidhim",
"Curlew Sandpiper","spCalidfer","rarity"
"Red-necked Stint","spCalidruf","rarity"
"Buff-breasted Sandpiper","spCalidsub1",
"Sanderling","spCalidalb",
"Dunlin","spCalidalp",
"Purple Sandpiper","spCalidmar",
"Baird's Sandpiper","spCalidbai",
"Little Stint","spCalidmin","rarity"
"Least Sandpiper","spCalidmin1",
"White-rumped Sandpiper","spCalidfus",
"Pectoral Sandpiper","spCalidmel",
"Western Sandpiper","spCalidmau",
"Semipalmated Sandpiper","spCalidpus",
"Black Skimmer","spRynchnig",
"Brown Noddy","spAnoussto","rarity"
"Sooty Tern","spOnychfus","rarity"
"Bridled Tern","spOnychana","rarity"
"Least Tern","spStern1ant",
"Gull-billed Tern","spGelocnil","rarity"
"Caspian Tern","spHydro3cas",
"Black Tern","spChlidnig",
"Forster's Tern","spStern2for",
"Arctic Tern","spStern2par","rarity"
"Common Tern","spStern2hir1",
"Roseate Tern","spStern2dou",
"Cabot's Tern","spThala1acu","rarity"
"Royal Tern","spThala1max",
"Little Gull","spHydro4min","rarity"
"Black-legged Kittiwake","spRissatri",
"Ivory Gull","spPagopebu","rarity"
"Sabine's Gull","spXemasab","rarity"
"Bonaparte's Gull","spChroiphi",
"Black-headed Gull","spChroirid",
"Laughing Gull","spLeuco3atr",
"Franklin's Gull","spLeuco3pip","rarity"
"Black-tailed Gull","spLaruscra","rarity"
"Heermann's Gull","spLarushee","rarity"
"Common Gull","spLaruscan","rarity"
"Ring-billed Gull","spLarusdel",
"Great Black-backed Gull","spLarusmar",
"Glaucous Gull","spLarushyp",
"Lesser Black-backed Gull","spLarusfus",
"American Herring Gull","spLarussmi",
"Iceland Gull","spLarusgla1",
"Long-tailed Jaeger","spSterclon","rarity"
"Parasitic Jaeger","spStercpar",
"Pomarine Jaeger","spStercpom",
"Great Skua","spStercsku","rarity"
"South Polar Skua","spStercmac","rarity"
"Atlantic Puffin","spFratearc","rarity"
"Long-billed Murrelet","spBrachper","rarity"
"Black Guillemot","spCepphgry",
"Razorbill","spAlcator",
"Great Auk","spPinguimp","extinct"
"Little Auk","spAlleall",
"Thick-billed Murre","spUrialom","rarity"
"Common Murre","spUriaaal",
"Red-billed Tropicbird","spPhaet2aet","rarity"
"White-tailed Tropicbird","spPhaet2lep","rarity"
"Red-throated Loon","spGaviaste",
"Pacific Loon","spGaviapac","rarity"
"Common Loon","spGaviaimm",
"Wilson's Storm Petrel","spOceanoce",
"White-faced Storm Petrel","spPelagmar","rarity"
"Atlantic Yellow-nosed Albatross","spThala2chl","rarity"
"Leach's Storm Petrel","spHydro5leu","rarity"
"Band-rumped Storm Petrel","spHydro5cas","rarity"
"Northern Fulmar","spFulmagla",
"Black-capped Petrel","spPtero3has","rarity"
"Cory's Shearwater","spCalonbor",
"Scopoli's Shearwater","spCalondio",
"Sooty Shearwater","spArdengri",
"Great Shearwater","spArdengra",
"Manx Shearwater","spPuffipuf",
"Sargasso Shearwater","spPuffilhe","rarity"
"Wood Stork","spMycteame","rarity"
"Magnificent Frigatebird","spFregamag","rarity"
"Northern Gannet","spMorusbas",
"Brown Booby","spSulaleu","rarity"
"Anhinga","spAnhinanh","rarity"
"Great Cormorant","spPhala2car",
"Double-crested Cormorant","spNanno1aur",
"American White Ibis","spEudocalb","rarity"
"Glossy Ibis","spPlegafal",
"White-faced Ibis","spPlegachi","rarity"
"American Bittern","spBotaulen",
"Least Bittern","spBotauexi",
"Yellow-crowned Night Heron","spNyctavio",
"Black-crowned Night Heron","spNycti6nyc",
"Little Blue Heron","spEgretcae",
"Tricolored Heron","spEgrettri",
"Reddish Egret","spEgretruf","rarity"
"Snowy Egret","spEgretthu",
"Little Egret","spEgretgar","rarity"
"Green Heron","spButorvir",
"Great Egret","spArdeaalb",
"Western Cattle Egret","spArdeaibi",
"Great Blue Heron","spArdeaher",
"American White Pelican","spPelec1ery","rarity"
"Brown Pelican","spPelec1occ","rarity"
"Black Vulture","spCoragatr",
"Turkey Vulture","spCathaaur",
"Osprey","spPandihal",
"Swallow-tailed Kite","spElanofor","rarity"
"Golden Eagle","spAquilchr","rarity"
"Sharp-shinned Hawk","spAccipstr",
"Cooper's Hawk","spAsturcoo",
"American Goshawk","spAsturatr",
"Northern Harrier","spCircuhud",
"Bald Eagle","spHalia1leu1",
"Mississippi Kite","spIctin1mis","rarity"
"Broad-winged Hawk","spButeo1pla1",
"Red-shouldered Hawk","spButeo1lin",
"Zone-tailed Hawk","spButeo1alb","rarity"
"Swainson's Hawk","spButeo1swa","rarity"
"Red-tailed Hawk","spButeo1jam",
"Rough-legged Buzzard","spButeo1lag",
"American Barn Owl","spTytofur",
"Boreal Owl","spAegolfun","rarity"
"Northern Saw-whet Owl","spAegolaca",
"Burrowing Owl","spAthencun","rarity"
"Northern Hawk-Owl","spSurni1ulu","rarity"
"Long-eared Owl","spAsiootu",
"Short-eared Owl","spAsiofla",
"Snowy Owl","spBubosca",
"Great Horned Owl","spBubovir",
"Eastern Screech Owl","spMegasasi",
"Barred Owl","spStrixvar",
"Great Grey Owl","spStrixneb","rarity"
"Belted Kingfisher","spMegac1alc",
"Lewis's Woodpecker","spMelan2lew","rarity"
"Red-headed Woodpecker","spMelan2ery",
"Red-bellied Woodpecker","spMelan2car",
"Yellow-bellied Sapsucker","spSphyrvar",
"American Three-toed Woodpecker","spPicoidor","rarity"
"Black-backed Woodpecker","spPicoiarc","rarity"
"Downy Woodpecker","spDryobpub",
"Hairy Woodpecker","spLeuco6vil",
"Northern Flicker","spColapaur1",
"Pileated Woodpecker","spDryocpil",
"American Kestrel","spFalcospa",
"Merlin","spFalcocol",
"Gyrfalcon","spFalcorus","rarity"
"Peregrine Falcon","spFalcoper",
"Monk Parakeet","spMyiopmon","introduced"
"Eastern Phoebe","spSayorpho",
"Say's Phoebe","spSayorsay","rarity"
"Olive-sided Flycatcher","spContocoo",
"Eastern Wood Pewee","spContovir",
"Yellow-bellied Flycatcher","spEmpidfla",
"Acadian Flycatcher","spEmpidvir",
"Willow Flycatcher","spEmpidtra",
"Alder Flycatcher","spEmpidaln",
"Least Flycatcher","spEmpidmin",
"Hammond's Flycatcher","spEmpidham","rarity"
"Vermilion Flycatcher","spPyrocobs","rarity"
"Western Kingbird","spTyran3ver","rarity"
"Scissor-tailed Flycatcher","spTyran3for","rarity"
"Fork-tailed Flycatcher","spTyran3sav","rarity"
"Eastern Kingbird","spTyran3tyr",
"Ash-throated Flycatcher","spMyiarcin","rarity"
"Great Crested Flycatcher","spMyiarcri",
"Red-eyed Vireo","spVireo1oli",
"Philadelphia Vireo","spVireo1phi",
"Warbling Vireo","spVireo1gil",
"Yellow-throated Vireo","spVireo1fla1",
"Blue-headed Vireo","spVireo1sol",
"White-eyed Vireo","spVireo1gri",
"Bell's Vireo","spVireo1bel","rarity"
"Loggerhead Shrike","spLaniulud","rarity"
"Northern Shrike","spLaniubor",
"Blue Jay","spCyano8cri",
"Western Jackdaw","spColoemon","rarity"
"American Crow","spCorvubra",
"Fish Crow","spCorvuoss",
"Northern Raven","spCorvucor3",
"Bohemian Waxwing","spBombygar","rarity"
"Cedar Waxwing","spBombyced",
"Phainopepla","spPhain1nit","rarity"
"Tufted Titmouse","spBaeolbic",
"Boreal Chickadee","spPoeci2hud","rarity"
"Black-capped Chickadee","spPoeci2atr",
"Horned Lark","spEremo1alp",
"Sand Martin","spRiparrip",
"Tree Swallow","spTachy4bic",
"Purple Martin","spPrognsub",
"Northern Rough-winged Swallow","spStelg1ser",
"Barn Swallow","spHirun2rus",
"American Cliff Swallow","spPetro2pyr",
"Cave Swallow","spPetro2ful","rarity"
"Ruby-crowned Kinglet","spCorthcal",
"Golden-crowned Kinglet","spRegulsat",
"Sedge Wren","spCistoste","rarity"
"Marsh Wren","spCistopal",
"Bewick's Wren","spThryobew","rarity"
"Carolina Wren","spThryo2lud",
"Winter Wren","spTroglhie",
"Northern House Wren","spTroglaed",
"Blue-grey Gnatcatcher","spPolio5cae",
"White-breasted Nuthatch","spSitta1car",
"Red-breasted Nuthatch","spSitta1can",
"Brown Creeper","spCerth4ame",
"Grey Catbird","spDumet1car",
"Northern Mockingbird","spMimuspol",
"Brown Thrasher","spToxosruf",
"Common Starling","spSturn2vul","introduced"
"Mountain Bluebird","spSialicur","rarity"
"Eastern Bluebird","spSialisia",
"Townsend's Solitaire","spMyadetow","rarity"
"Varied Thrush","spIxorenae","rarity"
"Wood Thrush","spHyloc2mus",
"Swainson's Thrush","spCatha1ust",
"Hermit Thrush","spCatha1gut",
"Grey-cheeked Thrush","spCatha1min",
"Bicknell's Thrush","spCatha1bic","rarity"
"Veery","spCatha1fus1",
"Redwing","spTurduili","rarity"
"American Robin","spTurdumig",
"Northern Wheatear","spOenanoen","rarity"
"House Sparrow","spPassedom","introduced"
"American Pipit","spAnthurub",
"Evening Grosbeak","spHespe1ves",
"Pine Grosbeak","spPinicenu","rarity"
"Purple Finch","spHaemopur",
"House Finch","spHaemomex","introduced"
"Redpoll","spAcant5fla",
"Red Crossbill","spLoxiacur",
"Two-barred Crossbill","spLoxialeu",
"American Goldfinch","spSpinutri",
"Pine Siskin","spSpinupin",
"Lapland Longspur","spCalcalap",
"Smith's Longspur","spCalcapic","rarity"
"Snow Bunting","spPlect2niv",
"Grasshopper Sparrow","spAmmodsav",
"Lark Sparrow","spChond1gra",
"Lark Bunting","spCalam3mel","rarity"
"Chipping Sparrow","spSpizepas",
"Clay-colored Sparrow","spSpizepal",
"Field Sparrow","spSpizepus",
"Red Fox Sparrow","spPasse1ili",
"American Tree Sparrow","spSpize1arb",
"Dark-eyed Junco","spJuncohye",
"White-crowned Sparrow","spZonotleu",
"Harris's Sparrow","spZonotque","rarity"
"White-throated Sparrow","spZonotalb",
"Vesper Sparrow","spPooecgra",
"LeConte's Sparrow","spAmmoslec","rarity"
"Seaside Sparrow","spAmmosmar",
"Nelson's Sparrow","spAmmosnel",
"Saltmarsh Sparrow","spAmmoscau",
"Henslow's Sparrow","spCentr2hen","rarity"
"Savannah Sparrow","spPasse2san",
"Song Sparrow","spMelosmel",
"Lincoln's Sparrow","spMeloslin",
"Swamp Sparrow","spMelosgeo",
"Green-tailed Towhee","spPipil1chl","rarity"
"Eastern Towhee","spPipil1ery",
"Yellow-breasted Chat","spIctervir",
"Yellow-headed Blackbird","spXanth2xan","rarity"
"Bobolink","spDolicory",
"Western Meadowlark","spSturn3neg","rarity"
"Eastern Meadowlark","spSturn3mag",
"Bullock's Oriole","spIcter1bul","rarity"
"Baltimore Oriole","spIcter1gal",
"Orchard Oriole","spIcter1spu",
"Red-winged Blackbird","spAgela1pho",
"Brown-headed Cowbird","spMolotate",
"Rusty Blackbird","spEuphacar",
"Brewer's Blackbird","spEuphacya","rarity"
"Common Grackle","spQuiscqui",
"Boat-tailed Grackle","spQuiscmaj","rarity"
"Ovenbird","spSeiuraur",
"Worm-eating Warbler","spHelmiver",
"Louisiana Waterthrush","spParkemot",
"Northern Waterthrush","spParkenov",
"Golden-winged Warbler","spVermichr",
"Blue-winged Warbler","spVermicya",
"Black-and-white Warbler","spMniotvar",
"Prothonotary Warbler","spProtocit",
"Swainson's Warbler","spLimno3swa","rarity"
"Tennessee Warbler","spLeiot1per",
"Orange-crowned Warbler","spLeiot1cel",
"Nashville Warbler","spLeiot1ruf",
"Virginia's Warbler","spLeiot1vir","rarity"
"Connecticut Warbler","spOporoagi",
"Mourning Warbler","spGeothphi",
"Kentucky Warbler","spGeothfor",
"Common Yellowthroat","spGeothtri",
"Hooded Warbler","spSetop1cit",
"American Redstart","spSetop1rut",
"Cape May Warbler","spSetop1tig",
"Cerulean Warbler","spSetop1cer",
"Northern Parula","spSetop1ame",
"Magnolia Warbler","spSetop1mag",
"Bay-breasted Warbler","spSetop1cas",
"Blackburnian Warbler","spSetop1fus",
"American Yellow Warbler","spSetop1aes",
"Chestnut-sided Warbler","spSetop1pen",
"Blackpoll Warbler","spSetop1str",
"Black-throated Blue Warbler","spSetop1cae",
"Palm Warbler","spSetop1pal",
"Pine Warbler","spSetop1pin",
"Myrtle Warbler","spSetop1cor",
"Audubon's Warbler","spSetop1aud","rarity"
"Yellow-throated Warbler","spSetop1dom",
"Prairie Warbler","spSetop1dis",
"Black-throated Grey Warbler","spSetop1nig","rarity"
"Townsend's Warbler","spSetop1tow","rarity"
"Black-throated Green Warbler","spSetop1vir",
"Canada Warbler","spCardecan",
"Wilson's Warbler","spCardepus",
"Summer Tanager","spPiranrub",
"Scarlet Tanager","spPiranoli",
"Western Tanager","spPiranlud","rarity"
"Rose-breasted Grosbeak","spPheuclud",
"Black-headed Grosbeak","spPheucmel","rarity"
"Northern Cardinal","spCardicar",
"Dickcissel","spSpiza1ame",
"Blue Grosbeak","spPasse3cae",
"Indigo Bunting","spPasse3cya",
"Painted Bunting","spPasse3cir","rarity"
