"Name","ID","Status"
"Black-bellied Whistling Duck","spDendraut","rarity"
"Fulvous Whistling Duck","spDendrbic","rarity"
"Brant Goose","spBrantber","rarity"
"Canada Goose","spBrantcan",
"Cackling Goose","spBranthut",
"Ross's Goose","spAnser1ros","rarity"
"Snow Goose","spAnser1cae",
"Greylag Goose","spAnser1ans","escaped"
"Greater White-fronted Goose","spAnser1alb",
"Mute Swan","spCygnuolo","introduced"
"Trumpeter Swan","spCygnubuc",
"Tundra Swan","spCygnucol",
"Wood Duck","spAixspo",
"Garganey","spSpatuque","rarity"
"Cinnamon Teal","spSpatucya",
"Blue-winged Teal","spSpatudis",
"Northern Shoveler","spSpatucly",
"Gadwall","spMarecstr",
"Eurasian Wigeon","spMarecpen",
"American Wigeon","spMarecame",
"Mallard","spAnaspla",
"American Black Duck","spAnasrub",
"Northern Pintail","spAnasacu",
"Eurasian Teal","spAnascre","rarity"
"Green-winged Teal","spAnascar",
"Canvasback","spAythyval",
"Redhead","spAythyame",
"Ring-necked Duck","spAythycol",
"Tufted Duck","spAythyful","rarity"
"Greater Scaup","spAythymar",
"Lesser Scaup","spAythyaff",
"King Eider","spSomatspe","rarity"
"Common Eider","spSomatmol","rarity"
"Harlequin Duck","spHistrhis","rarity"
"Surf Scoter","spMelanper",
"White-winged Scoter","spMelandeg",
"Black Scoter","spMelaname",
"Long-tailed Duck","spClanghye",
"Bufflehead","spBucepalb",
"Common Goldeneye","spBucepcla",
"Barrow's Goldeneye","spBucepisl",
"Smew","spMergealb","rarity"
"Hooded Merganser","spLopho1cuc",
"Common Merganser","spMergumer",
"Red-breasted Merganser","spMerguser",
"Masked Duck","spNomondom","rarity"
"Ruddy Duck","spOxyurjam",
"Northern Bobwhite","spColinvir",
"Wild Turkey","spMeleagal",
"Ruffed Grouse","spBonasumb",
"Sharp-tailed Grouse","spTympapha",
"Greater Prairie Chicken","spTympacup",
"Willow Ptarmigan","spLagoplag","rarity"
"Spruce Grouse","spCanaccan","rarity"
"Grey Partridge","spPerdiper","introduced"
"Common Pheasant","spPhasicol","introduced"
"Common Nighthawk","spChordmin",
"Chuck-will's-widow","spAntrocar","rarity"
"Eastern Whip-poor-will","spAntrovoc",
"Chimney Swift","spChaetpel",
"Mexican Violetear","spColibtha","rarity"
"Green-breasted Mango","spAnthrpre","rarity"
"Ruby-throated Hummingbird","spArchicol",
"Anna's Hummingbird","spCalypann","rarity"
"Rufous Hummingbird","spSelasruf",
"Allen's Hummingbird","spSelassas","rarity"
"Broad-billed Hummingbird","spCynanlat","rarity"
"Buff-bellied Hummingbird","spAmaziyuc","rarity"
"Groove-billed Ani","spCrotosul","rarity"
"Yellow-billed Cuckoo","spCoccy1ame",
"Black-billed Cuckoo","spCoccy1ery",
"Rock Dove","spColumliv","introduced"
"Passenger Pigeon","spEctopmig","extinct"
"Band-tailed Pigeon","spPatag1fas","rarity"
"Eurasian Collared Dove","spStrep1dec","introduced"
"Inca Dove","spColum1inc","rarity"
"Common Ground Dove","spColum1pas","rarity"
"Mourning Dove","spZenaimac",
"White-winged Dove","spZenaiasi",
"King Rail","spRalluele",
"Virginia Rail","spRallulim",
"Sora","spPorzacar",
"Common Gallinule","spGalli3gal",
"American Coot","spFulicame",
"Purple Gallinule","spPorph1mar","rarity"
"Yellow Rail","spCotur1nov",
"Black Rail","spLaterjam","rarity"
"Sandhill Crane","spAntigcan",
"Whooping Crane","spGrusame","rarity"
"Limpkin","spAramugua","rarity"
"Pied-billed Grebe","spPodilpod",
"Red-necked Grebe","spPodic1gri",
"Horned Grebe","spPodic1aur",
"Black-necked Grebe","spPodic1nig","rarity"
"Western Grebe","spAechmocc","rarity"
"Black-necked Stilt","spHiman1mex","rarity"
"American Avocet","spRecurame",
"Grey Plover","spPluvi1squ",
"American Golden Plover","spPluvi1dom",
"Killdeer","spCharavoc",
"Semipalmated Plover","spCharasem",
"Piping Plover","spCharamel",
"Wilson's Plover","spAnarhwil","rarity"
"Snowy Plover","spAnarhniv","rarity"
"Upland Sandpiper","spBartrlon",
"Hudsonian Whimbrel","spNumenhud",
"Eskimo Curlew","spNumenbor","extinct"
"Long-billed Curlew","spNumename","rarity"
"Hudsonian Godwit","spLimoshae",
"Marbled Godwit","spLimosfed",
"Long-billed Dowitcher","spLimnosco",
"Short-billed Dowitcher","spLimnogri",
"American Woodcock","spScolomin",
"Wilson's Snipe","spGalli5del",
"Wilson's Phalarope","spPhala1tri",
"Red Phalarope","spPhala1ful",
"Red-necked Phalarope","spPhala1lob","rarity"
"Spotted Sandpiper","spActitmac",
"Solitary Sandpiper","spTringsol",
"Lesser Yellowlegs","spTringfla",
"Willet","spTringsem",
"Greater Yellowlegs","spTringmel",
"Ruddy Turnstone","spArenaint",
"Black Turnstone","spArenamel","rarity"
"Red Knot","spCalidcan",
"Ruff","spCalidpug","rarity"
"Sharp-tailed Sandpiper","spCalidacu","rarity"
"Stilt Sandpiper","spCalidhim",
"Curlew Sandpiper","spCalidfer","rarity"
"Buff-breasted Sandpiper","spCalidsub1",
"Sanderling","spCalidalb",
"Dunlin","spCalidalp",
"Purple Sandpiper","spCalidmar","rarity"
"Baird's Sandpiper","spCalidbai",
"Least Sandpiper","spCalidmin1",
"White-rumped Sandpiper","spCalidfus",
"Pectoral Sandpiper","spCalidmel",
"Western Sandpiper","spCalidmau","rarity"
"Semipalmated Sandpiper","spCalidpus",
"Sooty Tern","spOnychfus","rarity"
"Least Tern","spStern1ant","rarity"
"Caspian Tern","spHydro3cas",
"Black Tern","spChlidnig",
"White-winged Tern","spChlidleu","rarity"
"Forster's Tern","spStern2for",
"Arctic Tern","spStern2par","rarity"
"Common Tern","spStern2hir1",
"Royal Tern","spThala1max","rarity"
"Little Gull","spHydro4min",
"Ross's Gull","spRhodo2ros","rarity"
"Black-legged Kittiwake","spRissatri","rarity"
"Ivory Gull","spPagopebu","rarity"
"Sabine's Gull","spXemasab","rarity"
"Bonaparte's Gull","spChroiphi",
"Black-headed Gull","spChroirid","rarity"
"Laughing Gull","spLeuco3atr","rarity"
"Franklin's Gull","spLeuco3pip",
"Black-tailed Gull","spLaruscra","rarity"
"Short-billed Gull","spLarusbra","rarity"
"Ring-billed Gull","spLarusdel",
"Great Black-backed Gull","spLarusmar",
"Glaucous Gull","spLarushyp",
"Lesser Black-backed Gull","spLarusfus",
"California Gull","spLaruscal","rarity"
"American Herring Gull","spLarussmi",
"Glaucous-winged Gull","spLarusgla","rarity"
"Slaty-backed Gull","spLarussch","rarity"
"Iceland Gull","spLarusgla1",
"Long-tailed Jaeger","spSterclon","rarity"
"Parasitic Jaeger","spStercpar",
"Pomarine Jaeger","spStercpom","rarity"
"Little Auk","spAlleall","rarity"
"Thick-billed Murre","spUrialom","rarity"
"Ancient Murrelet","spSynthant","rarity"
"Red-throated Loon","spGaviaste",
"Pacific Loon","spGaviapac",
"Common Loon","spGaviaimm",
"Wood Stork","spMycteame","rarity"
"Magnificent Frigatebird","spFregamag","rarity"
"Brown Booby","spSulaleu","rarity"
"Anhinga","spAnhinanh","rarity"
"Neotropic Cormorant","spNanno1bra","rarity"
"Double-crested Cormorant","spNanno1aur",
"American White Ibis","spEudocalb","rarity"
"Glossy Ibis","spPlegafal","rarity"
"White-faced Ibis","spPlegachi","rarity"
"Roseate Spoonbill","spPlataaja","rarity"
"American Bittern","spBotaulen",
"Least Bittern","spBotauexi",
"Yellow-crowned Night Heron","spNyctavio",
"Black-crowned Night Heron","spNycti6nyc",
"Little Blue Heron","spEgretcae",
"Tricolored Heron","spEgrettri",
"Snowy Egret","spEgretthu","rarity"
"Green Heron","spButorvir",
"Great Egret","spArdeaalb",
"Western Cattle Egret","spArdeaibi",
"Great Blue Heron","spArdeaher",
"American White Pelican","spPelec1ery",
"Brown Pelican","spPelec1occ","rarity"
"Black Vulture","spCoragatr","rarity"
"Turkey Vulture","spCathaaur",
"Osprey","spPandihal",
"White-tailed Kite","spElanuleu","rarity"
"Swallow-tailed Kite","spElanofor","rarity"
"Golden Eagle","spAquilchr",
"Sharp-shinned Hawk","spAccipstr",
"Cooper's Hawk","spAsturcoo",
"American Goshawk","spAsturatr",
"Northern Harrier","spCircuhud",
"Bald Eagle","spHalia1leu1",
"Mississippi Kite","spIctin1mis","rarity"
"Harris's Hawk","spParabuni","rarity"
"Broad-winged Hawk","spButeo1pla1",
"Red-shouldered Hawk","spButeo1lin",
"Swainson's Hawk","spButeo1swa","rarity"
"Red-tailed Hawk","spButeo1jam",
"Rough-legged Buzzard","spButeo1lag",
"Ferruginous Hawk","spButeo1reg","rarity"
"American Barn Owl","spTytofur","rarity"
"Boreal Owl","spAegolfun","rarity"
"Northern Saw-whet Owl","spAegolaca",
"Burrowing Owl","spAthencun","rarity"
"Northern Hawk-Owl","spSurni1ulu",
"Long-eared Owl","spAsiootu",
"Short-eared Owl","spAsiofla",
"Snowy Owl","spBubosca",
"Great Horned Owl","spBubovir",
"Eastern Screech Owl","spMegasasi",
"Barred Owl","spStrixvar",
"Great Grey Owl","spStrixneb",
"Belted Kingfisher","spMegac1alc",
"Lewis's Woodpecker","spMelan2lew","rarity"
"Red-headed Woodpecker","spMelan2ery",
"Red-bellied Woodpecker","spMelan2car",
"Yellow-bellied Sapsucker","spSphyrvar",
"American Three-toed Woodpecker","spPicoidor","rarity"
"Black-backed Woodpecker","spPicoiarc",
"Downy Woodpecker","spDryobpub",
"Hairy Woodpecker","spLeuco6vil",
"Northern Flicker","spColapaur1",
"Pileated Woodpecker","spDryocpil",
"Crested Caracara","spCaracpla","rarity"
"American Kestrel","spFalcospa",
"Merlin","spFalcocol",
"Gyrfalcon","spFalcorus","rarity"
"Prairie Falcon","spFalcomex","rarity"
"Peregrine Falcon","spFalcoper",
"Carolina Parakeet","spConurcar","extinct"
"Eastern Phoebe","spSayorpho",
"Say's Phoebe","spSayorsay","rarity"
"Olive-sided Flycatcher","spContocoo",
"Western Wood Pewee","spContosor","rarity"
"Eastern Wood Pewee","spContovir",
"Yellow-bellied Flycatcher","spEmpidfla",
"Acadian Flycatcher","spEmpidvir",
"Willow Flycatcher","spEmpidtra",
"Alder Flycatcher","spEmpidaln",
"Least Flycatcher","spEmpidmin",
"Hammond's Flycatcher","spEmpidham","rarity"
"American Dusky Flycatcher","spEmpidobe","rarity"
"Vermilion Flycatcher","spPyrocobs","rarity"
"Tropical Kingbird","spTyran3mel","rarity"
"Cassin's Kingbird","spTyran3voc","rarity"
"Western Kingbird","spTyran3ver",
"Scissor-tailed Flycatcher","spTyran3for",
"Fork-tailed Flycatcher","spTyran3sav","rarity"
"Eastern Kingbird","spTyran3tyr",
"Ash-throated Flycatcher","spMyiarcin","rarity"
"Great Crested Flycatcher","spMyiarcri",
"Red-eyed Vireo","spVireo1oli",
"Philadelphia Vireo","spVireo1phi",
"Warbling Vireo","spVireo1gil",
"Grey Vireo","spVireo1vic","rarity"
"Yellow-throated Vireo","spVireo1fla1",
"Blue-headed Vireo","spVireo1sol",
"White-eyed Vireo","spVireo1gri",
"Bell's Vireo","spVireo1bel",
"Loggerhead Shrike","spLaniulud","rarity"
"Northern Shrike","spLaniubor",
"Canada Jay","spPeris1can",
"Blue Jay","spCyano8cri",
"Black-billed Magpie","spPicahud",
"Clark's Nutcracker","spNucifcol","rarity"
"American Crow","spCorvubra",
"Northern Raven","spCorvucor3",
"Bohemian Waxwing","spBombygar",
"Cedar Waxwing","spBombyced",
"Phainopepla","spPhain1nit","rarity"
"Tufted Titmouse","spBaeolbic",
"Boreal Chickadee","spPoeci2hud",
"Black-capped Chickadee","spPoeci2atr",
"Great Tit","spParusmaj","escaped"
"Horned Lark","spEremo1alp",
"Sand Martin","spRiparrip",
"Tree Swallow","spTachy4bic",
"Purple Martin","spPrognsub",
"Northern Rough-winged Swallow","spStelg1ser",
"Barn Swallow","spHirun2rus",
"American Cliff Swallow","spPetro2pyr",
"Cave Swallow","spPetro2ful","rarity"
"Ruby-crowned Kinglet","spCorthcal",
"Golden-crowned Kinglet","spRegulsat",
"Rock Wren","spSalpiobs","rarity"
"Sedge Wren","spCistoste",
"Marsh Wren","spCistopal",
"Bewick's Wren","spThryobew","rarity"
"Carolina Wren","spThryo2lud",
"Winter Wren","spTroglhie",
"Northern House Wren","spTroglaed",
"Blue-grey Gnatcatcher","spPolio5cae",
"White-breasted Nuthatch","spSitta1car",
"Brown-headed Nuthatch","spSitta1pus","rarity"
"Red-breasted Nuthatch","spSitta1can",
"Brown Creeper","spCerth4ame",
"Grey Catbird","spDumet1car",
"Northern Mockingbird","spMimuspol",
"Sage Thrasher","spOreos1mon","rarity"
"Brown Thrasher","spToxosruf",
"Curve-billed Thrasher","spToxoscur","rarity"
"Common Starling","spSturn2vul","introduced"
"Mountain Bluebird","spSialicur","rarity"
"Eastern Bluebird","spSialisia",
"Townsend's Solitaire","spMyadetow",
"Varied Thrush","spIxorenae",
"Wood Thrush","spHyloc2mus",
"Swainson's Thrush","spCatha1ust",
"Hermit Thrush","spCatha1gut",
"Grey-cheeked Thrush","spCatha1min",
"Veery","spCatha1fus1",
"American Robin","spTurdumig",
"Eurasian Tree Sparrow","spPassemon","introduced"
"House Sparrow","spPassedom","introduced"
"White Wagtail","spMotacalb","rarity"
"American Pipit","spAnthurub",
"Brambling","spFringmon","rarity"
"Evening Grosbeak","spHespe1ves",
"Pine Grosbeak","spPinicenu",
"Grey-crowned Rosy Finch","spLeuco10tep","rarity"
"Purple Finch","spHaemopur",
"House Finch","spHaemomex","introduced"
"Redpoll","spAcant5fla",
"Red Crossbill","spLoxiacur",
"Two-barred Crossbill","spLoxialeu",
"European Goldfinch","spCarducar","escaped"
"American Goldfinch","spSpinutri",
"Lesser Goldfinch","spSpinupsa","rarity"
"Pine Siskin","spSpinupin",
"Lapland Longspur","spCalcalap",
"Smith's Longspur","spCalcapic","rarity"
"Chestnut-collared Longspur","spCalcaorn","rarity"
"Snow Bunting","spPlect2niv",
"Grasshopper Sparrow","spAmmodsav",
"Black-throated Sparrow","spAmphi1bil","rarity"
"Lark Sparrow","spChond1gra",
"Lark Bunting","spCalam3mel","rarity"
"Chipping Sparrow","spSpizepas",
"Clay-colored Sparrow","spSpizepal",
"Field Sparrow","spSpizepus",
"Red Fox Sparrow","spPasse1ili",
"American Tree Sparrow","spSpize1arb",
"Dark-eyed Junco","spJuncohye",
"White-crowned Sparrow","spZonotleu",
"Golden-crowned Sparrow","spZonotatr","rarity"
"Harris's Sparrow","spZonotque",
"White-throated Sparrow","spZonotalb",
"Vesper Sparrow","spPooecgra",
"LeConte's Sparrow","spAmmoslec",
"Nelson's Sparrow","spAmmosnel","rarity"
"Baird's Sparrow","spCentr2bai","rarity"
"Henslow's Sparrow","spCentr2hen",
"Savannah Sparrow","spPasse2san",
"Song Sparrow","spMelosmel",
"Lincoln's Sparrow","spMeloslin",
"Swamp Sparrow","spMelosgeo",
"Rufous-crowned Sparrow","spAimopruf1","rarity"
"Green-tailed Towhee","spPipil1chl","rarity"
"Spotted Towhee","spPipil1mac","rarity"
"Eastern Towhee","spPipil1ery",
"Yellow-breasted Chat","spIctervir",
"Yellow-headed Blackbird","spXanth2xan",
"Bobolink","spDolicory",
"Western Meadowlark","spSturn3neg",
"Eastern Meadowlark","spSturn3mag",
"Scott's Oriole","spIcter1par","rarity"
"Bullock's Oriole","spIcter1bul","rarity"
"Streak-backed Oriole","spIcter1pus","rarity"
"Baltimore Oriole","spIcter1gal",
"Hooded Oriole","spIcter1cuc","rarity"
"Orchard Oriole","spIcter1spu",
"Red-winged Blackbird","spAgela1pho",
"Brown-headed Cowbird","spMolotate",
"Rusty Blackbird","spEuphacar",
"Brewer's Blackbird","spEuphacya",
"Common Grackle","spQuiscqui",
"Great-tailed Grackle","spQuiscmex","rarity"
"Ovenbird","spSeiuraur",
"Worm-eating Warbler","spHelmiver","rarity"
"Louisiana Waterthrush","spParkemot",
"Northern Waterthrush","spParkenov",
"Golden-winged Warbler","spVermichr",
"Blue-winged Warbler","spVermicya",
"Black-and-white Warbler","spMniotvar",
"Prothonotary Warbler","spProtocit",
"Swainson's Warbler","spLimno3swa","rarity"
"Tennessee Warbler","spLeiot1per",
"Orange-crowned Warbler","spLeiot1cel",
"Nashville Warbler","spLeiot1ruf",
"Connecticut Warbler","spOporoagi",
"MacGillivray's Warbler","spGeothtol","rarity"
"Mourning Warbler","spGeothphi",
"Kentucky Warbler","spGeothfor",
"Common Yellowthroat","spGeothtri",
"Hooded Warbler","spSetop1cit",
"American Redstart","spSetop1rut",
"Kirtland's Warbler","spSetop1kir","rarity"
"Cape May Warbler","spSetop1tig",
"Cerulean Warbler","spSetop1cer",
"Northern Parula","spSetop1ame",
"Magnolia Warbler","spSetop1mag",
"Bay-breasted Warbler","spSetop1cas",
"Blackburnian Warbler","spSetop1fus",
"American Yellow Warbler","spSetop1aes",
"Chestnut-sided Warbler","spSetop1pen",
"Blackpoll Warbler","spSetop1str",
"Black-throated Blue Warbler","spSetop1cae",
"Palm Warbler","spSetop1pal",
"Pine Warbler","spSetop1pin",
"Myrtle Warbler","spSetop1cor",
"Audubon's Warbler","spSetop1aud","rarity"
"Yellow-throated Warbler","spSetop1dom","rarity"
"Prairie Warbler","spSetop1dis","rarity"
"Black-throated Grey Warbler","spSetop1nig","rarity"
"Townsend's Warbler","spSetop1tow","rarity"
"Hermit Warbler","spSetop1occ","rarity"
"Black-throated Green Warbler","spSetop1vir",
"Canada Warbler","spCardecan",
"Wilson's Warbler","spCardepus",
"Painted Whitestart","spMyiob1pic","rarity"
"Summer Tanager","spPiranrub",
"Scarlet Tanager","spPiranoli",
"Western Tanager","spPiranlud",
"Rose-breasted Grosbeak","spPheuclud",
"Black-headed Grosbeak","spPheucmel","rarity"
"Northern Cardinal","spCardicar",
"Pyrrhuloxia","spCardisin","rarity"
"Dickcissel","spSpiza1ame",
"Blue Grosbeak","spPasse3cae",
"Indigo Bunting","spPasse3cya",
"Lazuli Bunting","spPasse3amo","rarity"
"Painted Bunting","spPasse3cir","rarity"
