"Name","ID","Status"
"Grey Tinamou","spTinamtao",
"Great Tinamou","spTinammaj",
"White-throated Tinamou","spTinamgut",
"Highland Tinamou","spNothobon",
"Tawny-breasted Tinamou","spNothojul",
"Cinereous Tinamou","spCryptcin",
"Little Tinamou","spCryptsou",
"Tepui Tinamou","spCryptpta",
"Brown Tinamou","spCryptobs",
"Undulated Tinamou","spCryptund",
"Grey-legged Tinamou","spCryptdui",
"Red-legged Tinamou","spCryptery",
"Variegated Tinamou","spCryptvar",
"Barred Tinamou","spCryptcas",
"Horned Screamer","spAnhimcor",
"Northern Screamer","spChauncha",
"White-faced Whistling Duck","spDendrvid",
"Black-bellied Whistling Duck","spDendraut",
"Fulvous Whistling Duck","spDendrbic",
"Torrent Duck","spMergaarm",
"Comb Duck","spSarkisyl",
"Orinoco Goose","spNeochjub",
"Muscovy Duck","spCairimos",
"Brazilian Teal","spAmazobra",
"Cinnamon Teal","spSpatucya",
"Blue-winged Teal","spSpatudis",
"Northern Shoveler","spSpatucly",
"American Wigeon","spMarecame",
"White-cheeked Pintail","spAnasbah",
"Northern Pintail","spAnasacu",
"Andean Teal","spAnasand",
"Southern Pochard","spNetta1ery",
"Ring-necked Duck","spAythycol",
"Lesser Scaup","spAythyaff",
"Masked Duck","spNomondom",
"Rufous-vented Chachalaca","spOrtalruf",
"Little Chachalaca","spOrtalmot",
"Band-tailed Guan","spPenelarg",
"Andean Guan","spPenelmon",
"Marail Guan","spPenelmar",
"Crested Guan","spPenelpur",
"Spix's Guan","spPeneljac",
"Blue-throated Piping Guan","spPipilcum",
"Wattled Guan","spAburrabu",
"Nocturnal Curassow","spNotho2uru",
"Crestless Curassow","spMitutom",
"Helmeted Curassow","spPauxipau",
"Yellow-knobbed Curassow","spCraxdau",
"Black Curassow","spCraxale",
"Crested Bobwhite","spColincri",
"Marbled Wood Quail","spOdontguj",
"Black-fronted Wood Quail","spOdontatr",
"Venezuelan Wood Quail","spOdontcol","endemic"
"Nacunda Nighthawk","spChordnac",
"Least Nighthawk","spChordpus",
"Sand-colored Nighthawk","spChordrup",
"Lesser Nighthawk","spChordacu",
"Common Nighthawk","spChordmin",
"Antillean Nighthawk","spChordgun","rarity"
"Short-tailed Nighthawk","spLurocsem",
"Rufous-bellied Nighthawk","spLurocruf",
"Band-tailed Nighthawk","spNyctileu",
"Blackish Nightjar","spNycti1nig",
"Pauraque","spNycti2alb",
"Todd's Nightjar","spSetophet",
"Roraiman Nightjar","spSetopwhi",
"Band-winged Nightjar","spSystelon",
"Lyre-tailed Nightjar","spUropslyr",
"White-tailed Nightjar","spHydrocay",
"Spot-tailed Nightjar","spHydromac",
"Ladder-tailed Nightjar","spHydrocli",
"Chuck-will's-widow","spAntrocar",
"Rufous Nightjar","spAntroruf",
"Oilbird","spSteatcar",
"Rufous Potoo","spPhyllbra",
"Great Potoo","spNycti4gra",
"Long-tailed Potoo","spNycti4aet",
"Common Potoo","spNycti4gri",
"Andean Potoo","spNycti4mac",
"White-winged Potoo","spNycti4leu",
"Spot-fronted Swift","spCypseche",
"White-chinned Swift","spCypsecry",
"Tepui Swift","spStrepphe",
"Chestnut-collared Swift","spStreprut",
"White-collared Swift","spStrepzon",
"Grey-rumped Swift","spChaetcin",
"Band-rumped Swift","spChaetspi",
"Chimney Swift","spChaetpel",
"Vaux's Swift","spChaetvau",
"Chapman's Swift","spChaetcha",
"Ashy-tailed Swift","spChaetand","endemic"
"Sick's Swift","spChaetmer","rarity"
"Short-tailed Swift","spChaetbra",
"White-tipped Swift","spAeronmon",
"Pygmy Palm Swift","spTachofur",
"Fork-tailed Palm Swift","spTachosqu",
"Lesser Swallow-tailed Swift","spPanypcay",
"Crimson Topaz","spTopazpel",
"Fiery Topaz","spTopazpyr",
"White-necked Jacobin","spFlorimel",
"Rufous-breasted Hermit","spGlauchir",
"Band-tailed Barbthroat","spThrenruc",
"Pale-tailed Barbthroat","spThrenleu",
"Streak-throated Hermit","spPhaetrup",
"Little Hermit","spPhaetlon",
"Stripe-throated Hermit","spPhaetstr",
"Grey-chinned Hermit","spPhaetgri",
"Reddish Hermit","spPhaetrub",
"Sooty-capped Hermit","spPhaetaug",
"Pale-bellied Hermit","spPhaetant",
"White-bearded Hermit","spPhaethis",
"Green Hermit","spPhaetguy",
"Straight-billed Hermit","spPhaetbou",
"Long-billed Hermit","spPhaetlon1",
"Long-tailed Hermit","spPhaetsup",
"Great-billed Hermit","spPhaetmal",
"Green-fronted Lancebill","spDoryflud",
"Blue-fronted Lancebill","spDoryfjoh",
"Geoffroy's Daggerbill","spSchisgeo",
"Brown Violetear","spColibdel",
"Lesser Violetear","spColibcya",
"Sparkling Violetear","spColibcor",
"Black-eared Fairy","spHelioaur",
"White-tailed Goldenthroat","spPolytgua",
"Tepui Goldenthroat","spPolytmil","endemic"
"Green-tailed Goldenthroat","spPolytthe",
"Fiery-tailed Awlbill","spAvocerec",
"Ruby-topaz Hummingbird","spChrys1mos",
"Green-throated Mango","spAnthrvir",
"Green-breasted Mango","spAnthrpre",
"Black-throated Mango","spAnthrnig",
"Orange-throated Sunangel","spHelia1mav",
"Longuemare's Sunangel","spHelia1cla",
"Merida Sunangel","spHelia1spe","endemic"
"Black-bellied Thorntail","spDiscolan",
"Racket-tipped Thorntail","spDiscolon",
"Tufted Coquette","spLopho3orn",
"Spangled Coquette","spLopho3sti",
"Butterfly Coquette","spLopho3ver",
"Peacock Coquette","spLopho3pav",
"Speckled Hummingbird","spAdelomel",
"Long-tailed Sylph","spAglaikin",
"Venezuelan Sylph","spAglaiber","endemic"
"Purple-backed Thornbill","spRamph1mic",
"White-bearded Helmetcrest","spOxypolin","endemic"
"Bronze-tailed Thornbill","spChalchet",
"Tyrian Metaltail","spMetaltyr",
"Perija Metaltail","spMetalira",
"Glowing Puffleg","spEriocves",
"Coppery-bellied Puffleg","spErioccup",
"Bronzy Inca","spCoelicoe",
"Green Inca","spCoelicon",
"Collared Inca","spCoelitor",
"Perija Starfrontlet","spCoelicon1",
"Golden-tailed Starfrontlet","spCoelieos","endemic"
"Blue-throated Starfrontlet","spCoelihel",
"Mountain Velvetbreast","spLafrelaf",
"Sword-billed Hummingbird","spEnsifens",
"Great Sapphirewing","spPtero1cya","rarity"
"Buff-tailed Coronet","spBoissfla",
"White-booted Racket-tail","spOcreaund",
"Velvet-browed Brilliant","spHelio1xan",
"Gould's Jewelfront","spHelio1aur",
"Violet-fronted Brilliant","spHelio1lea",
"Violet-chested Hummingbird","spSterncya",
"Scissor-tailed Hummingbird","spHylonmac","endemic"
"Long-billed Starthroat","spHelio2lon",
"Amethyst Woodstar","spCalli1ame",
"Gorgeted Woodstar","spChaet1hel",
"Rufous-shafted Woodstar","spChaet1jou",
"Red-billed Emerald","spChlorgib",
"Blue-tailed Emerald","spChlormel1",
"Coppery Emerald","spChlorrus",
"Narrow-tailed Emerald","spChlorste",
"Green-tailed Emerald","spChlorali","endemic"
"Short-tailed Emerald","spChlorpoo",
"Violet-headed Hummingbird","spKlaisgui",
"Grey-breasted Sabrewing","spCampylar",
"Rufous-breasted Sabrewing","spCampyhyp",
"White-tailed Sabrewing","spCampyens",
"Lazuline Sabrewing","spCampyfal",
"Buff-breasted Sabrewing","spCampydui",
"White-vented Plumeleteer","spChalybuf",
"Crowned Woodnymph","spThalucol",
"Fork-tailed Woodnymph","spThalufur",
"Buffy Hummingbird","spLeucifal",
"Steely-vented Hummingbird","spSaucesau",
"Green-bellied Hummingbird","spSaucevir",
"Copper-tailed Hummingbird","spSaucecup",
"Copper-rumped Hummingbird","spSaucetob",
"Rufous-tailed Hummingbird","spAmazitza",
"Shining-green Hummingbird","spChrys2gou",
"Golden-tailed Sapphire","spChrys2oen",
"Versicolored Emerald","spChrys2ver",
"White-chested Emerald","spChrys2bre",
"Plain-bellied Emerald","spChrys2leu",
"Glittering-throated Emerald","spChionfim",
"Sapphire-spangled Emerald","spChionlac",
"Rufous-throated Sapphire","spHylocsap",
"White-chinned Sapphire","spChlor1cya",
"Blue-chinned Sapphire","spChlor1not",
"Greater Ani","spCrotomaj",
"Smooth-billed Ani","spCrotoani",
"Groove-billed Ani","spCrotosul",
"Striped Cuckoo","spTapernae",
"Pheasant Cuckoo","spDromopha",
"Pavonine Cuckoo","spDromopav",
"Rufous-winged Ground Cuckoo","spNeomoruf",
"Little Cuckoo","spCoccymin",
"Dwarf Cuckoo","spCoccypum",
"Squirrel Cuckoo","spPiayacay",
"Black-bellied Cuckoo","spPiayamel",
"Dark-billed Cuckoo","spCoccy1mel",
"Yellow-billed Cuckoo","spCoccy1ame",
"Pearly-breasted Cuckoo","spCoccy1eul",
"Mangrove Cuckoo","spCoccy1min",
"Black-billed Cuckoo","spCoccy1ery",
"Grey-capped Cuckoo","spCoccy1lan",
"Rock Dove","spColumliv","introduced"
"White-crowned Pigeon","spPatag1leu","rarity"
"Scaly-naped Pigeon","spPatag1squ",
"Scaled Pigeon","spPatag1spe",
"Bare-eyed Pigeon","spPatag1cor",
"Band-tailed Pigeon","spPatag1fas",
"Pale-vented Pigeon","spPatag1cay",
"Plumbeous Pigeon","spPatag1plu",
"Ruddy Pigeon","spPatag1sub",
"Scaled Dove","spColum1squ",
"Common Ground Dove","spColum1pas",
"Plain-breasted Ground Dove","spColum1min",
"Ruddy Ground Dove","spColum1tal",
"Blue Ground Dove","spClarapre",
"Maroon-chested Ground Dove","spParacmon",
"Ruddy Quail-Dove","spGeotrmon",
"Violaceous Quail-Dove","spGeotrvio",
"White-tipped Dove","spLepto1ver",
"Grey-fronted Dove","spLepto1ruf",
"Lined Quail-Dove","spZentrlin",
"Eared Dove","spZenaiaur",
"White-winged Dove","spZenaiasi","rarity"
"Sungrebe","spHelio4ful",
"Spotted Rail","spPardimac",
"Blackish Rail","spPardinig",
"Ash-throated Crake","spMustealb",
"Paint-billed Crake","spMusteery",
"Uniform Crake","spAmaurcon",
"Rufous-necked Wood Rail","spAramiaxi",
"Grey-cowled Wood Rail","spAramicaj",
"Mangrove Rail","spRallulon",
"Plain-flanked Rail","spRalluwet","endemic"
"Sora","spPorzacar",
"Common Gallinule","spGalli3gal",
"American Coot","spFulicame","rarity"
"Purple Gallinule","spPorph1mar",
"Azure Gallinule","spPorph1fla",
"Ocellated Crake","spRufirsch",
"Russet-crowned Crake","spRufirvir",
"Speckled Rail","spLaternot",
"Yellow-breasted Crake","spLaterfla",
"Grey-breasted Crake","spLaterexi",
"White-throated Crake","spLateralb",
"Rusty-flanked Crake","spLaterlev","endemic"
"Rufous-sided Crake","spLatermel",
"Grey-winged Trumpeter","spPsophcre",
"Limpkin","spAramugua",
"Least Grebe","spTachy2dom",
"Pied-billed Grebe","spPodilpod",
"American Flamingo","spPhoenrub",
"Double-striped Thick-knee","spHespebis",
"American Oystercatcher","spHaema1pal",
"Black-necked Stilt","spHiman1mex",
"American Avocet","spRecurame","rarity"
"Grey Plover","spPluvi1squ",
"American Golden Plover","spPluvi1dom",
"Killdeer","spCharavoc","rarity"
"Semipalmated Plover","spCharasem",
"Piping Plover","spCharamel","rarity"
"Pied Plover","spHoplocay",
"Southern Lapwing","spVanelchi",
"Wilson's Plover","spAnarhwil",
"Collared Plover","spAnarhcol",
"Snowy Plover","spAnarhniv",
"Wattled Jacana","spJacanjac",
"Upland Sandpiper","spBartrlon",
"Hudsonian Whimbrel","spNumenhud",
"Long-billed Curlew","spNumename","rarity"
"Bar-tailed Godwit","spLimoslap","rarity"
"Hudsonian Godwit","spLimoshae",
"Marbled Godwit","spLimosfed","rarity"
"Long-billed Dowitcher","spLimnosco","rarity"
"Short-billed Dowitcher","spLimnogri",
"Jameson's Snipe","spGalli5jam",
"Wilson's Snipe","spGalli5del",
"Giant Snipe","spGalli5und",
"Noble Snipe","spGalli5nob",
"Pantanal Snipe","spGalli5par",
"Wilson's Phalarope","spPhala1tri","rarity"
"Red-necked Phalarope","spPhala1lob","rarity"
"Spotted Sandpiper","spActitmac",
"Solitary Sandpiper","spTringsol",
"Lesser Yellowlegs","spTringfla",
"Willet","spTringsem",
"Greater Yellowlegs","spTringmel",
"Ruddy Turnstone","spArenaint",
"Red Knot","spCalidcan",
"Ruff","spCalidpug","rarity"
"Stilt Sandpiper","spCalidhim",
"Buff-breasted Sandpiper","spCalidsub1",
"Sanderling","spCalidalb",
"Dunlin","spCalidalp","rarity"
"Baird's Sandpiper","spCalidbai","rarity"
"Least Sandpiper","spCalidmin1",
"White-rumped Sandpiper","spCalidfus",
"Pectoral Sandpiper","spCalidmel",
"Western Sandpiper","spCalidmau",
"Semipalmated Sandpiper","spCalidpus",
"Black Skimmer","spRynchnig",
"Brown Noddy","spAnoussto",
"Black Noddy","spAnousmin",
"Sooty Tern","spOnychfus",
"Bridled Tern","spOnychana",
"Least Tern","spStern1ant",
"Yellow-billed Tern","spStern1sup",
"Large-billed Tern","spPhaet1sim",
"Gull-billed Tern","spGelocnil",
"Caspian Tern","spHydro3cas",
"Black Tern","spChlidnig",
"Common Tern","spStern2hir1",
"Roseate Tern","spStern2dou",
"Cabot's Tern","spThala1acu",
"Royal Tern","spThala1max",
"Black-legged Kittiwake","spRissatri","rarity"
"Laughing Gull","spLeuco3atr",
"Franklin's Gull","spLeuco3pip","rarity"
"Ring-billed Gull","spLarusdel","rarity"
"Kelp Gull","spLarusdom","rarity"
"Lesser Black-backed Gull","spLarusfus","rarity"
"American Herring Gull","spLarussmi","rarity"
"Long-tailed Jaeger","spSterclon","rarity"
"Parasitic Jaeger","spStercpar",
"Pomarine Jaeger","spStercpom",
"Great Skua","spStercsku","rarity"
"South Polar Skua","spStercmac","rarity"
"Sunbittern","spEuryphel",
"Red-billed Tropicbird","spPhaet2aet",
"White-tailed Tropicbird","spPhaet2lep","rarity"
"Wilson's Storm Petrel","spOceanoce",
"Atlantic Yellow-nosed Albatross","spThala2chl","rarity"
"Leach's Storm Petrel","spHydro5leu",
"Black-capped Petrel","spPtero3has","rarity"
"Cory's Shearwater","spCalonbor","rarity"
"Great Shearwater","spArdengra",
"Sargasso Shearwater","spPuffilhe",
"Wood Stork","spMycteame",
"Jabiru","spJabirmyc",
"Maguari Stork","spCiconmag",
"Magnificent Frigatebird","spFregamag",
"Red-footed Booby","spSulasul",
"Brown Booby","spSulaleu",
"Masked Booby","spSuladac",
"Anhinga","spAnhinanh",
"Neotropic Cormorant","spNanno1bra",
"Buff-necked Ibis","spThericau",
"Sharp-tailed Ibis","spCercioxy",
"Green Ibis","spMesemcay",
"Bare-faced Ibis","spPhimoinf",
"American White Ibis","spEudocalb",
"Scarlet Ibis","spEudocrub",
"Glossy Ibis","spPlegafal",
"Roseate Spoonbill","spPlataaja",
"Rufescent Tiger Heron","spTigri1lin",
"Fasciated Tiger Heron","spTigri1fas",
"Boat-billed Heron","spCochlcoc",
"Agami Heron","spAgamiaga",
"Zigzag Heron","spZebriund",
"Pinnated Bittern","spBotaupin",
"Stripe-backed Bittern","spBotauinv",
"Least Bittern","spBotauexi",
"Yellow-crowned Night Heron","spNyctavio",
"Black-crowned Night Heron","spNycti6nyc",
"Capped Heron","spPilhepil",
"Whistling Heron","spSyrigsib",
"Little Blue Heron","spEgretcae",
"Tricolored Heron","spEgrettri",
"Reddish Egret","spEgretruf",
"Snowy Egret","spEgretthu",
"Striated Heron","spButorstr",
"Green Heron","spButorvir",
"Great Egret","spArdeaalb",
"Western Cattle Egret","spArdeaibi",
"Great Blue Heron","spArdeaher",
"Cocoi Heron","spArdeacoc",
"Brown Pelican","spPelec1occ",
"Hoatzin","spOpist1hoa",
"King Vulture","spSarcopap",
"Andean Condor","spVultugry",
"Black Vulture","spCoragatr",
"Turkey Vulture","spCathaaur",
"Lesser Yellow-headed Vulture","spCathabur",
"Greater Yellow-headed Vulture","spCathamel",
"Osprey","spPandihal",
"Pearl Kite","spGampsswa",
"White-tailed Kite","spElanuleu",
"Hook-billed Kite","spChondunc",
"Grey-headed Kite","spLepto3cay",
"Swallow-tailed Kite","spElanofor",
"Crested Eagle","spMorphgui",
"Harpy Eagle","spHarpihar",
"Black Hawk-Eagle","spSpizatyr",
"Black-and-white Hawk-Eagle","spSpizamel",
"Ornate Hawk-Eagle","spSpizaorn",
"Black-and-chestnut Eagle","spSpizaisi",
"Grey-bellied Hawk","spAccippol",
"Plain-breasted Hawk","spAccipven",
"Bicolored Hawk","spAsturbic",
"Northern Harrier","spCircuhud",
"Long-winged Harrier","spCircubuf",
"Tiny Hawk","spMicro7sup",
"Semicollared Hawk","spMicro7col",
"Double-toothed Kite","spHarpabid",
"Rufous-thighed Kite","spHarpadio","rarity"
"Mississippi Kite","spIctin1mis","rarity"
"Plumbeous Kite","spIctin1plu",
"Crane Hawk","spGerancae",
"Black-collared Hawk","spBusarnig",
"Snail Kite","spRostr1soc",
"Slender-billed Kite","spHelicham",
"Slate-colored Hawk","spButeosch",
"Common Black Hawk","spButeoant",
"Rufous Crab Hawk","spButeoaeq",
"Savanna Hawk","spButeomer",
"Great Black Hawk","spButeouru",
"Solitary Eagle","spButeosol",
"Roadside Hawk","spRupormag",
"Harris's Hawk","spParabuni",
"White-rumped Hawk","spParableu",
"White Hawk","spPseud2alb",
"White-tailed Hawk","spGeran1alb",
"Black-chested Buzzard-Eagle","spGeran1mel",
"Black-faced Hawk","spLeuco5mel",
"Grey-lined Hawk","spButeo1nit",
"Broad-winged Hawk","spButeo1pla1",
"Zone-tailed Hawk","spButeo1alb",
"White-throated Hawk","spButeo1alb1",
"Short-tailed Hawk","spButeo1bra",
"Swainson's Hawk","spButeo1swa",
"American Barn Owl","spTytofur",
"Buff-fronted Owl","spAegolhar",
"Burrowing Owl","spAthencun",
"Andean Pygmy Owl","spGlauc1jar",
"Amazonian Pygmy Owl","spGlauc1har",
"Ferruginous Pygmy Owl","spGlauc1bra",
"Striped Owl","spAsiocla",
"Stygian Owl","spAsiosty",
"Short-eared Owl","spAsiofla",
"Great Horned Owl","spBubovir",
"White-throated Screech Owl","spMegasalb",
"Tropical Screech Owl","spMegascho",
"Rufescent Screech Owl","spMegasing",
"Cinnamon Screech Owl","spMegaspet",
"Foothill Screech Owl","spMegasror",
"Tawny-bellied Screech Owl","spMegaswat",
"Spectacled Owl","spPulsaper",
"Crested Owl","spLopho10cri",
"Mottled Owl","spStrixvir",
"Black-and-white Owl","spStrixnig",
"Black-banded Owl","spStrixhuh",
"Rufous-banded Owl","spStrixalb",
"Pavonine Quetzal","spPharopav",
"Golden-headed Quetzal","spPharoaur",
"White-tipped Quetzal","spPharoful",
"Crested Quetzal","spPharoant",
"Black-tailed Trogon","spTrogomel",
"Green-backed Trogon","spTrogovir",
"Gartered Trogon","spTrogocal",
"Amazonian Trogon","spTrogoram",
"Guianan Trogon","spTrogovio",
"Amazonian Black-throated Trogon","spTrogoruf",
"Collared Trogon","spTrogocol",
"Masked Trogon","spTrogoper",
"Amazon Kingfisher","spChlor2ama",
"American Pygmy Kingfisher","spChlor2aen",
"Green Kingfisher","spChlor2ame",
"Green-and-rufous Kingfisher","spChlor2ind",
"Ringed Kingfisher","spMegac1tor",
"Belted Kingfisher","spMegac1alc",
"Whooping Motmot","spMomotsub",
"Amazonian Motmot","spMomotmom",
"Pale-headed Jacamar","spBrach2goe",
"Brown Jacamar","spBrach2lug",
"Yellow-billed Jacamar","spGalbualb",
"Rufous-tailed Jacamar","spGalburuf",
"Green-tailed Jacamar","spGalbugal",
"Bronzy Jacamar","spGalbuleu",
"Paradise Jacamar","spGalbudea",
"Great Jacamar","spJacam1aur",
"White-necked Puffbird","spNothahyp",
"Guianan Puffbird","spNothamac",
"Brown-banded Puffbird","spNothaord",
"Pied Puffbird","spNothatec",
"Chestnut-capped Puffbird","spBuccomac",
"Spotted Puffbird","spBuccotam",
"Collared Puffbird","spBuccocap",
"Russet-throated Puffbird","spHypneruf",
"Two-banded Puffbird","spHypnebic",
"White-chested Puffbird","spMalac1fus",
"Moustached Puffbird","spMalac1mys",
"Rusty-breasted Nunlet","spNonnurub",
"Black Nunbird","spMonasatr",
"White-fronted Nunbird","spMonasmor",
"Swallow-winged Puffbird","spCheli1ten",
"Black-spotted Barbet","spCapitnig",
"Gilded Barbet","spCapitaur1",
"Red-headed Barbet","spEubucbou",
"Yellow-throated Toucan","spRamph2amb",
"White-throated Toucan","spRamph2tuc",
"Keel-billed Toucan","spRamph2sul",
"Citron-throated Toucan","spRamph2cit",
"Channel-billed Toucan","spRamph2vit",
"Green Aracari","spPtero4vir",
"Ivory-billed Aracari","spPtero4aza",
"Many-banded Aracari","spPtero4plu",
"Black-necked Aracari","spPtero4ara",
"Collared Aracari","spPtero4tor",
"Black-billed Mountain Toucan","spAndignig",
"Guianan Toucanet","spSelenpip",
"Tawny-tufted Toucanet","spSelennat",
"White-throated Toucanet","spAulacalb",
"Crimson-rumped Toucanet","spAulachae",
"Tepui Toucanet","spAulacwhi",
"Groove-billed Toucanet","spAulacsul",
"Golden-spangled Piculet","spPicumexi",
"Scaled Piculet","spPicumsqu",
"White-bellied Piculet","spPicumspi",
"Olivaceous Piculet","spPicumoli",
"Chestnut Piculet","spPicumcin",
"Yellow-tufted Woodpecker","spMelan2cru",
"Red-crowned Woodpecker","spMelan2rub",
"Little Woodpecker","spVenilpas",
"Yellow-vented Woodpecker","spVenildig",
"Red-rumped Woodpecker","spVenilkir",
"Red-stained Woodpecker","spVenilaff",
"Golden-collared Woodpecker","spVenilcas",
"Smoky-brown Woodpecker","spLeuco6fum",
"Yellow-throated Woodpecker","spPiculfla",
"Golden-green Woodpecker","spPiculchr",
"Golden-olive Woodpecker","spColaprub",
"Crimson-mantled Woodpecker","spColapriv",
"Spot-breasted Woodpecker","spColappun",
"Variable Woodpecker","spCeleuund",
"Chestnut Woodpecker","spCeleuele",
"Cream-colored Woodpecker","spCeleufla1",
"Ringed Woodpecker","spCeleutor",
"Lineated Woodpecker","spDryoclin",
"Powerful Woodpecker","spCampe1pol",
"Red-necked Woodpecker","spCampe1rub",
"Crimson-crested Woodpecker","spCampe1mel",
"Crested Caracara","spCaracpla",
"Red-throated Caracara","spIbyctame",
"Black Caracara","spDaptrate",
"Yellow-headed Caracara","spMilvachi",
"Laughing Falcon","spHerpecac",
"Barred Forest Falcon","spMicra1ruf",
"Lined Forest Falcon","spMicra1gil",
"Slaty-backed Forest Falcon","spMicra1mir",
"Collared Forest Falcon","spMicra1sem",
"Buckley's Forest Falcon","spMicra1buc","rarity"
"American Kestrel","spFalcospa",
"Aplomado Falcon","spFalcofem",
"Merlin","spFalcocol",
"Bat Falcon","spFalcoruf",
"Orange-breasted Falcon","spFalcodei",
"Peregrine Falcon","spFalcoper",
"Lilac-tailed Parrotlet","spTouitbat",
"Scarlet-shouldered Parrotlet","spTouithue",
"Blue-fronted Parrotlet","spTouitdil",
"Sapphire-rumped Parrotlet","spTouitpur",
"Barred Parakeet","spBolbolin",
"Tepui Parrotlet","spNanno2pan",
"Orange-chinned Parakeet","spBrotojug",
"Cobalt-winged Parakeet","spBrotocya",
"Golden-winged Parakeet","spBrotochr",
"Saffron-headed Parrot","spPyrilpyr",
"Orange-cheeked Parrot","spPyrilbar",
"Caica Parrot","spPyrilcai",
"Rusty-faced Parrot","spHapal1ama",
"Dusky Parrot","spPionufus",
"Red-billed Parrot","spPionusor",
"White-capped Parrot","spPionusen",
"Blue-headed Parrot","spPionumen",
"Bronze-winged Parrot","spPionucha",
"Festive Amazon","spAmazo1fes",
"Red-lored Amazon","spAmazo1aut",
"Blue-cheeked Amazon","spAmazo1duf",
"Yellow-crowned Amazon","spAmazo1och",
"Yellow-shouldered Amazon","spAmazo1bar","endemic"
"Scaly-naped Amazon","spAmazo1mer",
"Mealy Amazon","spAmazo1far",
"Orange-winged Amazon","spAmazo1ama",
"Dusky-billed Parrotlet","spForpumod",
"Green-rumped Parrotlet","spForpupas",
"Spectacled Parrotlet","spForpucon",
"Black-headed Parrot","spPionimel",
"Red-fan Parrot","spDeropacc",
"Painted Parakeet","spPyrrhpic",
"Venezuelan Parakeet","spPyrrhemm","endemic"
"Fiery-shouldered Parakeet","spPyrrhegr",
"Maroon-tailed Parakeet","spPyrrhmel",
"Blood-eared Parakeet","spPyrrhhoe","endemic"
"Rose-crowned Parakeet","spPyrrhrho","endemic"
"Brown-throated Parakeet","spEupsiper",
"Red-bellied Macaw","spOrtho1man",
"Blue-and-yellow Macaw","spAraara",
"Chestnut-fronted Macaw","spArasev",
"Military Macaw","spAramil",
"Scarlet Macaw","spAramac",
"Red-and-green Macaw","spArachl",
"Red-shouldered Macaw","spDiopsnob",
"Blue-crowned Parakeet","spThectacu",
"Scarlet-fronted Parakeet","spPsitt1wag",
"White-eyed Parakeet","spPsitt1leu",
"Rose-ringed Parakeet","spPsitt4kra","introduced"
"Dusky Leaftosser","spScler1obs",
"Short-billed Leaftosser","spScler1ruf",
"Black-tailed Leaftosser","spScler1cau",
"Grey-throated Leaftosser","spScler1alb",
"Spot-throated Woodcreeper","spCerthsti",
"Olivaceous Woodcreeper","spSittagri",
"Southern Long-tailed Woodcreeper","spDeconpal",
"Tyrannine Woodcreeper","spDendr6tyr",
"White-chinned Woodcreeper","spDendr6mer",
"Ruddy Woodcreeper","spDendr6hom",
"Plain-brown Woodcreeper","spDendr6ful",
"Wedge-billed Woodcreeper","spGlyphspi",
"Cinnamon-throated Woodcreeper","spDendr7ruf",
"Long-billed Woodcreeper","spNasiclon",
"Northern Barred Woodcreeper","spDendr8san",
"Amazonian Barred Woodcreeper","spDendr8cer",
"Black-banded Woodcreeper","spDendr8pic",
"Red-billed Woodcreeper","spHylexper",
"Strong-billed Woodcreeper","spXiphopro",
"Striped Woodcreeper","spXipho1obs",
"Chestnut-rumped Woodcreeper","spXipho1par",
"Ocellated Woodcreeper","spXipho1oce",
"Buff-throated Woodcreeper","spXipho1gut",
"Cocoa Woodcreeper","spXipho1sus",
"Olive-backed Woodcreeper","spXipho1tri",
"Straight-billed Woodcreeper","spDendr9pic",
"Red-billed Scythebill","spCampy1tro",
"Curve-billed Scythebill","spCampy1pro",
"Brown-billed Scythebill","spCampy1pus",
"Streak-headed Woodcreeper","spLepidsou",
"Montane Woodcreeper","spLepidlac",
"Guianan Woodcreeper","spLepidalb",
"Duida Woodcreeper","spLepiddui",
"Slender-billed Xenops","spXenop1ten",
"Northern Plain Xenops","spXenop1mex",
"Amazonian Plain Xenops","spXenop1gen",
"Streaked Xenops","spXenop1rut",
"Point-tailed Palmcreeper","spBerlerik",
"Rufous-tailed Xenops","spMicro12mil",
"Streaked Tuftedcheek","spPseud5boi",
"Rusty-winged Barbtail","spPremngut",
"Caribbean Hornero","spFurnalon",
"Sharp-tailed Streamcreeper","spLochmnem",
"Chestnut-winged Cinclodes","spCinclalb",
"Cinnamon-rumped Foliage-gleaner","spPhilypyr",
"Montane Foliage-gleaner","spAnaba1str",
"Rufous-tailed Foliage-gleaner","spAnaba1ruf",
"Tepui Foliage-gleaner","spSyndaror",
"Lineated Foliage-gleaner","spSyndasub",
"Guttulate Foliage-gleaner","spSyndagut","endemic"
"Buff-fronted Foliage-gleaner","spDendr10ruf",
"Chestnut-winged Foliage-gleaner","spDendr10ery",
"Ruddy Foliage-gleaner","spClibarub",
"Flammulated Treehunter","spThripfla",
"Striped Treehunter","spThriphol",
"Streak-capped Treehunter","spThripvir",
"Chestnut-crowned Foliage-gleaner","spAutomruf",
"Ochre-throated Foliage-gleaner","spAutomoch",
"Eastern Woodhaunter","spAutomsub",
"Olive-backed Foliage-gleaner","spAutominf",
"Spotted Barbtail","spPremn1bru",
"White-throated Barbtail","spPremn1tat","endemic"
"Pearled Treerunner","spMarga2squ",
"Andean Tit-Spinetail","spLeptaand",
"Plain Thornbird","spPhaceino",
"White-browed Spinetail","spHellmgul",
"Streak-backed Canastero","spAsthewya",
"Ochre-browed Thistletail","spAsthecor","endemic"
"Perija Thistletail","spAstheper",
"White-chinned Thistletail","spAstheful",
"Roraiman Barbtail","spRoraiadu",
"Speckled Spinetail","spThrip1gut",
"Orinoco Softtail","spThrip1che",
"Delta Amacuro Softtail","spThrip1ama","endemic"
"Rusty-backed Spinetail","spCranivul",
"Crested Spinetail","spCranisub",
"Tepui Spinetail","spCranidem",
"Streak-capped Spinetail","spCranihel","rarity"
"Yellow-chinned Spinetail","spCerth1cin",
"Plain-crowned Spinetail","spSynalguj",
"McConnell's Spinetail","spSynalmac",
"Rio Orinoco Spinetail","spSynalbev",
"Pale-breasted Spinetail","spSynalalb2",
"Azara's Spinetail","spSynalaza",
"White-whiskered Spinetail","spSynalcan",
"Rufous Spinetail","spSynaluni",
"Black-throated Spinetail","spSynalcas","endemic"
"Stripe-breasted Spinetail","spSynalcin2",
"Ruddy Spinetail","spSynalrut",
"Rufous-rumped Antwren","spEuchrcal",
"Ash-winged Antwren","spEuchrspo",
"Wing-banded Antbird","spMyrmotor",
"Spot-winged Antshrike","spPygipste",
"Russet Antshrike","spThamnana",
"Recurve-billed Bushbird","spClytoali",
"Brown-bellied Stipplethroat","spEpinegut",
"Rufous-backed Stipplethroat","spEpinehae",
"Yapacana Antbird","spApros1dis",
"Grey-bellied Antbird","spAmmonpel",
"Black-throated Antbird","spMyrmo2atr",
"Pygmy Antwren","spMyrmo3bra",
"Guianan Streaked Antwren","spMyrmo3sur",
"Amazonian Streaked Antwren","spMyrmo3mul",
"Cherrie's Antwren","spMyrmo3che",
"Yellow-throated Antwren","spMyrmo3amb",
"White-flanked Antwren","spMyrmo3axi",
"Slaty Antwren","spMyrmo3sch",
"Long-winged Antwren","spMyrmo3lon1",
"Plain-winged Antwren","spMyrmo3beh",
"Grey Antwren","spMyrmo3men",
"Northern White-fringed Antwren","spFormiint",
"Southern White-fringed Antwren","spFormigri",
"Banded Antbird","spDichrcin",
"Rufous-bellied Antwren","spIslergut",
"Dusky-throated Antshrike","spThamn1ard",
"Cinereous Antshrike","spThamn1cae",
"Pearly Antshrike","spMegas1mar",
"Spot-tailed Antwren","spHerpssti",
"Todd's Antwren","spHerpssti1",
"Spot-backed Antwren","spHerpsdor",
"Roraiman Antwren","spHerpsror",
"Rusty-winged Antwren","spHerpsfra",
"Plain Antvireo","spDysitmen",
"White-streaked Antvireo","spDysitleu",
"Black-backed Antshrike","spThamn2mel",
"Barred Antshrike","spThamn2dol",
"Bar-crested Antshrike","spThamn2mul",
"Blackish-grey Antshrike","spThamn2nig1",
"White-shouldered Antshrike","spThamn2aet",
"Mouse-colored Antshrike","spThamn2mur",
"Black-crowned Antshrike","spThamn2atr",
"Northern Slaty Antshrike","spThamn2pun",
"Amazonian Antshrike","spThamn2ama",
"Streak-backed Antshrike","spThamn2ins",
"Black-crested Antshrike","spSakes1can",
"Fasciated Antshrike","spCymbi1lin",
"Great Antshrike","spTarabmaj",
"Black-throated Antshrike","spFredevir",
"White-plumed Antbird","spPithyalb",
"Rufous-throated Antbird","spGymno4ruf",
"Reddish-winged Bare-eye","spPhlegery",
"Common Scale-backed Antbird","spWillipoe",
"Klages's Antbird","spDrymo2kla",
"Guianan Warbling Antbird","spHypoc1can",
"Imeri Warbling Antbird","spHypoc1fla",
"Dusky Antbird","spCerco1tyr",
"Grey Antbird","spCerco2cin",
"Jet Antbird","spCerco2nig",
"Ferruginous-backed Antbird","spMyrmo5fer",
"Black-chinned Antbird","spHypoc2mel",
"Spot-backed Antbird","spHylopnae1",
"Dot-backed Antbird","spHyloppun",
"Silvered Antbird","spSclatnae",
"Spot-winged Antbird","spMyrmeleu",
"Roraiman Antbird","spMyrmesat",
"Caura Antbird","spMyrmecau",
"Magdalena Antbird","spSipiapal",
"White-bellied Antbird","spMyrme1lon",
"Black-faced Antbird","spMyrmo6myo",
"White-browed Antbird","spMyrmo6leu",
"Black-headed Antbird","spPercnruf",
"Blue-lored Antbird","spHaffeimm",
"Rufous-capped Antthrush","spFormi1col",
"Black-faced Antthrush","spFormi1ana",
"Rufous-breasted Antthrush","spFormi1ruf1",
"Short-tailed Antthrush","spChama1cam",
"Schwartz's Antthrush","spChama1tur",
"Undulated Antpitta","spGrallsqu",
"Great Antpitta","spGrallexc","endemic"
"Variegated Antpitta","spGrallvar",
"Scaled Antpitta","spGrallgua",
"Tachira Antpitta","spGrallcht","endemic"
"Plain-backed Antpitta","spGrallhap",
"Chestnut-crowned Antpitta","spGrallruf",
"Grey-naped Antpitta","spGrallgri","endemic"
"Perija Antpitta","spGrallsal",
"Muisca Antpitta","spGrallruf1",
"Spotted Antpitta","spHylop1mac",
"Tepui Antpitta","spMyrmo7sim",
"Thrush-like Antpitta","spMyrmo7cam",
"Scallop-breasted Antpitta","spGrall1lor","endemic"
"Hooded Antpitta","spGrall1cuc",
"Rusty-breasted Antpitta","spGrall1fer",
"Slaty-crowned Antpitta","spGrall1nan",
"Sucre Antpitta","spGrall1cum","endemic"
"Ocellated Tapaculo","spAcroport",
"Ash-colored Tapaculo","spMyornsen","rarity"
"White-crowned Tapaculo","spScytaatr",
"Blackish Tapaculo","spScytalat",
"Caracas Tapaculo","spScytacar","endemic"
"Pale-bellied Tapaculo","spScytagri",
"Perija Tapaculo","spScytaper",
"Merida Tapaculo","spScytamer","endemic"
"Turimiquire Tapaculo (undescribed)","spScytasp.1","endemic"
"Wing-barred Piprites","spPiprichl",
"Urich's Tyrannulet","spPhyll1uri","endemic"
"Sooty-headed Tyrannulet","spPhyll1gri",
"White-fronted Tyrannulet","spAcroczel",
"Black-capped Tyrannulet","spTyrannig",
"Ashy-headed Tyrannulet","spTyrancin",
"Tawny-rumped Tyrannulet","spTyranuro",
"Yellow-crowned Tyrannulet","spTyran1ela",
"Forest Elaenia","spMyiop1gai",
"Amazonian Elaenia","spMyiop1cin",
"Foothill Elaenia","spMyiop1ola",
"Yellow-crowned Elaenia","spMyiop1fla",
"Greenish Elaenia","spMyiop1vir",
"Yellow-bellied Elaenia","spElaenfla",
"Small-billed Elaenia","spElaenpar",
"Slaty Elaenia","spElaenstr",
"Plain-crested Elaenia","spElaencri",
"Lesser Elaenia","spElaenchi1",
"Rufous-crowned Elaenia","spElaenruf",
"Mountain Elaenia","spElaenfra",
"Great Elaenia","spElaenday",
"Tepui Elaenia","spElaenoli",
"Brown-capped Tyrannulet","spOrnitbru",
"White-lored Tyrannulet","spOrnitine",
"Southern Beardless Tyrannulet","spCampt1obs",
"White-throated Tyrannulet","spMecocleu",
"Sulphur-bellied Tyrannulet","spMecocmin",
"White-banded Tyrannulet","spMecocsti",
"Agile Tit-Tyrant","spUromyagi",
"Torrent Tyrannulet","spSerpocin",
"River Tyrannulet","spSerpohyp",
"Mouse-colored Tyrannulet","spNesotmur",
"Yellow Tyrannulet","spCapsifla",
"Bearded Tachuri","spPolys1pec",
"Crested Doradito","spPseud8scl",
"Ringed Antpipit","spCoryt2tor",
"Fulvous-crowned Scrub Tyrant","spEuscamel",
"Lesser Wagtail-Tyrant","spStigmnap",
"Orinoco Wagtail-Tyrant (undescribed)","spStigmsp.","endemic"
"Spectacled Tyrannulet","spZimmeimp",
"Venezuelan Tyrannulet","spZimmepet","endemic"
"Slender-footed Tyrannulet","spZimmegra",
"Guianan Tyrannulet","spZimmeace",
"Golden-faced Tyrannulet","spZimmechr",
"Coopmans's Tyrannulet","spZimmemin",
"Variegated Bristle Tyrant","spPogon2poe",
"Chapman's Bristle Tyrant","spPogon2cha",
"Marble-faced Bristle Tyrant","spPogon2oph",
"Venezuelan Bristle Tyrant","spPogon2ven","endemic"
"Olive-green Tyrannulet","spPhyll2vir","rarity"
"Black-fronted Tyrannulet","spPhyll2nig",
"Rufous-browed Tyrannulet","spPhyll2sup",
"Rufous-lored Tyrannulet","spPhyll2fla1","endemic"
"Olive-striped Flycatcher","spMionegal",
"Ochre-bellied Flycatcher","spMioneole",
"McConnell's Flycatcher","spMionemac",
"Sierra de Lema Flycatcher","spMioneror",
"Sepia-capped Flycatcher","spLepto6ama",
"Slaty-capped Flycatcher","spLepto6sup",
"Rufous-breasted Flycatcher","spLepto6ruf",
"Northern Scrub Flycatcher","spSubleare",
"Amazonian Scrub Flycatcher","spSubleobs",
"Slender-billed Inezia","spIneziten",
"Amazonian Inezia","spInezisub",
"Pale-tipped Inezia","spInezicau",
"Flavescent Flycatcher","spMyiop2fla",
"Roraiman Flycatcher","spMyiop2ror",
"Bran-colored Flycatcher","spMyiop2fas",
"Snethlage's Tody-Tyrant","spHemitmin",
"White-eyed Tody-Tyrant","spHemitzos",
"Pearly-vented Tody-Tyrant","spHemitmar",
"Pelzeln's Tody-Tyrant","spHemitino",
"Black-throated Tody-Tyrant","spHemitgra",
"Short-tailed Pygmy Tyrant","spMyioreca",
"Scale-crested Pygmy Tyrant","spLopho13pil",
"Helmeted Pygmy Tyrant","spLopho13gal",
"Pale-eyed Pygmy Tyrant","spAtalopil",
"Rufous-crowned Tody-Flycatcher","spPoeciruf",
"Ruddy Tody-Flycatcher","spPoecirus",
"Smoky-fronted Tody-Flycatcher","spPoecifum",
"Slaty-headed Tody-Flycatcher","spPoecisyl",
"Black-chested Tyrant","spTaeni1and",
"Spotted Tody-Flycatcher","spTodir1mac",
"Common Tody-Flycatcher","spTodir1cin",
"Maracaibo Tody-Flycatcher","spTodir1vir","endemic"
"Painted Tody-Flycatcher","spTodir1pic",
"Black-headed Tody-Flycatcher","spTodir1nig",
"Fulvous-breasted Flatbill","spRhync3ful",
"Western Olivaceous Flatbill","spRhync3aeq",
"Eastern Olivaceous Flatbill","spRhync3oli",
"Yellow-olive Flatbill","spTolmosul",
"Yellow-margined Flatbill","spTolmoass",
"Grey-crowned Flatbill","spTolmopol",
"Ochre-lored Flatbill","spTolmofla1",
"Cinnamon-crested Spadebill","spPlaty1sat",
"White-throated Spadebill","spPlaty1mys",
"Golden-crowned Spadebill","spPlaty1cor",
"Yellow-throated Spadebill","spPlaty1fla",
"White-crested Spadebill","spPlaty1pla",
"Cinnamon Neopipo","spNeopicin",
"Cinnamon Flycatcher","spPyrrh1cin",
"Cliff Flycatcher","spHirun1fer",
"Euler's Flycatcher","spLathreul",
"Fuscous Flycatcher","spCnemofus",
"Black Phoebe","spSayornig",
"Olive-sided Flycatcher","spContocoo",
"Smoke-colored Pewee","spContofum",
"Western Wood Pewee","spContosor",
"Eastern Wood Pewee","spContovir",
"Northern Tropical Pewee","spContobog",
"Acadian Flycatcher","spEmpidvir",
"Willow Flycatcher","spEmpidtra",
"Alder Flycatcher","spEmpidaln",
"Vermilion Flycatcher","spPyrocobs",
"Drab Water Tyrant","spOchthlit",
"Yellow-browed Tyrant","spSatraict",
"Rufous-tailed Tyrant","spKnipopoe",
"Riverside Tyrant","spKnipoore",
"Amazonian Black Tyrant","spKnipopoe1",
"Streak-throated Bush Tyrant","spMyiot1str",
"Smoky Bush Tyrant","spMyiot1fum",
"Pied Water Tyrant","spFluvipic",
"White-headed Marsh Tyrant","spArundleu",
"Crowned Chat-Tyrant","spSilvifro","rarity"
"Yellow-bellied Chat-Tyrant","spSilvidia",
"Slaty-backed Chat-Tyrant","spOchth1cin",
"Blackish Chat-Tyrant","spOchth1nig","endemic"
"Rufous-breasted Chat-Tyrant","spOchth1ruf",
"Brown-backed Chat-Tyrant","spOchth1fum",
"Rufous-browed Chat-Tyrant","spOchth1sup","endemic"
"Long-tailed Tyrant","spColoncol",
"Cattle Tyrant","spMache1rix",
"Piratic Flycatcher","spLegatleu",
"White-bearded Flycatcher","spPhelpino",
"Rusty-margined Flycatcher","spMyiozcay",
"Social Flycatcher","spMyiozsim",
"Grey-capped Flycatcher","spMyiozgra",
"Dusky-chested Flycatcher","spMyiozlut",
"Great Kiskadee","spPitansul",
"Lesser Kiskadee","spPhilo2lic",
"Yellow-throated Flycatcher","spConop1par",
"Three-striped Flycatcher","spConop1tri",
"Lemon-browed Flycatcher","spConop1cin",
"Golden-bellied Flycatcher","spMyiodhem",
"Sulphur-bellied Flycatcher","spMyiodlut","rarity"
"Streaked Flycatcher","spMyiodmac",
"Boat-billed Flycatcher","spMegarpit",
"Sulphury Flycatcher","spTyran2sul",
"Variegated Flycatcher","spEmpid1var",
"Crowned Slaty Flycatcher","spGriseaur",
"White-throated Kingbird","spTyran3alb",
"Tropical Kingbird","spTyran3mel",
"Fork-tailed Flycatcher","spTyran3sav",
"Eastern Kingbird","spTyran3tyr",
"Grey Kingbird","spTyran3dom",
"Greyish Mourner","spRhyti1sim",
"Pale-bellied Mourner","spRhyti1imm",
"White-rumped Sirystes","spSirysalb",
"Dusky-capped Flycatcher","spMyiartub",
"Swainson's Flycatcher","spMyiarswa",
"Venezuelan Flycatcher","spMyiarven",
"Panama Flycatcher","spMyiarpan",
"Short-crested Flycatcher","spMyiarfer",
"Pale-edged Flycatcher","spMyiarcep",
"Great Crested Flycatcher","spMyiarcri",
"Brown-crested Flycatcher","spMyiartyr",
"Large-headed Flatbill","spRamph3meg",
"Rufous-tailed Flatbill","spRamph3ruf",
"Rufous-tailed Attila","spAttilpho",
"Cinnamon Attila","spAttilcin",
"Citron-bellied Attila","spAttilcit",
"Bright-rumped Attila","spAttilspa",
"Scaled Fruiteater","spAmpel1tsc",
"Handsome Fruiteater","spPiprefor","endemic"
"Red-banded Fruiteater","spPiprewhi",
"Golden-breasted Fruiteater","spPipreaur",
"Barred Fruiteater","spPiprearc",
"Green-and-black Fruiteater","spPiprerie",
"Andean Cock-of-the-rock","spRupicper",
"Guianan Cock-of-the-rock","spRupicrup",
"Guianan Red Cotinga","spPhoen4car",
"Black-necked Red Cotinga","spPhoen4nig",
"Red-crested Cotinga","spAmpel2rub",
"Crimson Fruitcrow","spHaema2mil","rarity"
"Purple-throated Fruitcrow","spQuerupur",
"Red-ruffed Fruitcrow","spPyrodscu",
"Amazonian Umbrellabird","spCephaorn",
"Capuchinbird","spPeristri",
"Rose-collared Piha","spLipaustr",
"Screaming Piha","spLipauvoc",
"White Bellbird","spProcnalb",
"Bearded Bellbird","spProcnave",
"Spangled Cotinga","spCotincay",
"Blue Cotinga","spCotinnat",
"Purple-breasted Cotinga","spCotincot",
"Bare-necked Fruitcrow","spGymno6foe",
"Pompadour Cotinga","spXipho2pun",
"Dwarf Tyrant-Manakin","spTyran4sto",
"Tiny Tyrant-Manakin","spTyran4vir",
"Saffron-crested Tyrant-Manakin","spNeopechr",
"Blue-backed Manakin","spChiropar",
"Lance-tailed Manakin","spChirolan",
"Golden-winged Manakin","spMasiuchr",
"White-throated Manakin","spCorapgut",
"White-bibbed Manakin","spCorapleu",
"Olive Manakin","spXenop2uni",
"Black Manakin","spXenop2atr",
"Blue-capped Manakin","spLepid1cor",
"Orange-bellied Manakin","spLepid1sua",
"White-fronted Manakin","spLepid1ser",
"Yellow-crested Manakin","spHeter4fla",
"White-bearded Manakin","spManacman",
"Crimson-hooded Manakin","spPipraaur",
"Wire-tailed Manakin","spPiprafil",
"Striolated Manakin","spMachastr",
"Fiery-capped Manakin","spMachapyr",
"White-crowned Manakin","spPseud11pip",
"Scarlet-horned Manakin","spCerat1cor",
"Golden-headed Manakin","spCerat1ery",
"Black-crowned Tityra","spTityrinq",
"Black-tailed Tityra","spTityrcay",
"Masked Tityra","spTityrsem",
"Varzea Schiffornis","spSchifmaj",
"Guianan Schiffornis","spSchifoli",
"Russet-winged Schiffornis","spSchifste",
"Brown-winged Schiffornis","spSchiftur",
"Cinereous Mourner","spLaniohyp",
"Dusky Purpletuft","spIodopfus",
"White-browed Purpletuft","spIodopisa",
"Andean Laniisoma","spLaniibuc",
"White-naped Xenopsaris","spXenop3alb",
"Green-backed Becard","spPachy2vir",
"Barred Becard","spPachy2ver",
"Cinereous Becard","spPachy2ruf",
"Chestnut-crowned Becard","spPachy2cas",
"Cinnamon Becard","spPachy2cin",
"White-winged Becard","spPachy2pol",
"Black-capped Becard","spPachy2mar",
"Black-and-white Becard","spPachy2alb",
"Glossy-backed Becard","spPachy2sur","rarity"
"One-colored Becard","spPachy2hom",
"Pink-throated Becard","spPachy2min",
"Sharpbill","spOxyrucri",
"Tropical Royal Flycatcher","spOnych1cor",
"Tawny-breasted Myiobius","spMyiobvil",
"Whiskered Myiobius","spMyiobbar",
"Black-tailed Myiobius","spMyiobatr",
"Ruddy-tailed Flycatcher","spTeren1ery",
"Rufous-browed Peppershrike","spCyclaguj",
"Yellow-browed Shrike-Vireo","spVireoexi",
"Slaty-capped Shrike-Vireo","spVireoleu",
"Ashy-headed Greenlet","spHylop2pec",
"Brown-headed Greenlet","spHylop2bru",
"Lemon-chested Greenlet","spHylop2tho",
"Scrub Greenlet","spHylop2fla",
"Grey-chested Greenlet","spHylop2sem",
"Tawny-crowned Greenlet","spTunchoch",
"Dusky-capped Greenlet","spPachy5hyp",
"Buff-cheeked Greenlet","spPachy5mus",
"Golden-fronted Greenlet","spPachy5aur",
"Rufous-naped Greenlet","spPachy5sem",
"Yellow-green Vireo","spVireo1fla",
"Red-eyed Vireo","spVireo1oli",
"Black-whiskered Vireo","spVireo1alt",
"Chivi Vireo","spVireo1chi",
"Tepui Vireo","spVireo1scl",
"Philadelphia Vireo","spVireo1phi","rarity"
"Brown-capped Vireo","spVireo1leu",
"Yellow-throated Vireo","spVireo1fla1",
"White-eyed Vireo","spVireo1gri","rarity"
"Black-collared Jay","spCyano6arm",
"Violaceous Jay","spCyano7vio",
"Inca Jay","spCyano7ync",
"Black-chested Jay","spCyano7aff",
"Azure-naped Jay","spCyano7hei",
"Cayenne Jay","spCyano7cay",
"Cedar Waxwing","spBombyced","rarity"
"Sand Martin","spRiparrip",
"Tree Swallow","spTachy4bic","rarity"
"White-winged Swallow","spTachy4alb1",
"Brown-chested Martin","spProgntap",
"Purple Martin","spPrognsub",
"Southern Martin","spPrognele","rarity"
"Grey-breasted Martin","spProgncha",
"Caribbean Martin","spProgndom","rarity"
"Southern Rough-winged Swallow","spStelg1ruf",
"White-banded Swallow","spAtticfas",
"White-thighed Swallow","spAttictib",
"Blue-and-white Swallow","spPygoccya",
"Black-collared Swallow","spPygocmel",
"Tawny-headed Swallow","spAlopo1fuc",
"Pale-footed Swallow","spOrochfla",
"Brown-bellied Swallow","spOrochmur",
"Barn Swallow","spHirun2rus",
"American Cliff Swallow","spPetro2pyr",
"Cave Swallow","spPetro2ful",
"Black-capped Donacobius","spDonacatr",
"Stripe-backed Wren","spCampy2nuc",
"Bicolored Wren","spCampy2gri",
"Rufous Wren","spCinnyuni",
"Merida Wren","spCistomer","endemic"
"Grass Wren","spCistopla",
"Whiskered Wren","spPheugmys",
"Coraya Wren","spPheugcor",
"Rufous-breasted Wren","spPheugrut",
"Rufous-and-white Wren","spThryo1ruf",
"Buff-breasted Wren","spCantoleu",
"Southern House Wren","spTroglmus",
"Mountain Wren","spTroglsol",
"Tepui Wren","spTroglruf1",
"White-breasted Wood Wren","spHenic2leu",
"Grey-breasted Wood Wren","spHenic2leu1",
"Southern Nightingale-Wren","spMicro18mar",
"Flutist Wren","spMicro18ust",
"Wing-banded Wren","spMicro18bam",
"Musician Wren","spCyphoara",
"Trilling Gnatwren","spRamph5mel",
"Collared Gnatwren","spMicro19col",
"Rio Negro Gnatcatcher","spPolio5fac",
"Guianan Gnatcatcher","spPolio5gui",
"Tropical Gnatcatcher","spPolio5plu",
"Tropical Mockingbird","spMimusgil",
"Pearly-eyed Thrasher","spMarga3fus","extinct"
"Andean Solitaire","spMyaderal",
"Rufous-brown Solitaire","spCichl1leu",
"Speckled Nightingale-Thrush","spCatha1mac",
"Orange-billed Nightingale-Thrush","spCatha1aur",
"Slaty-backed Nightingale-Thrush","spCatha1fus",
"Swainson's Thrush","spCatha1ust",
"Grey-cheeked Thrush","spCatha1min",
"Veery","spCatha1fus1",
"Pale-eyed Thrush","spTurduleu",
"Chestnut-bellied Thrush","spTurduful",
"Glossy-black Thrush","spTurduser",
"Black-hooded Thrush","spTurduoli2",
"Great Thrush","spTurdufus",
"Lawrence's Thrush","spTurdulaw",
"Pantepui Thrush","spTurdumur",
"Black-billed Thrush","spTurduign",
"Campina Thrush","spTurduart",
"Yellow-legged Thrush","spTurdufla",
"White-necked Thrush","spTurdualb1",
"Pale-breasted Thrush","spTurduleu1",
"Cocoa Thrush","spTurdufum",
"Hauxwell's Thrush","spTurduhau",
"Spectacled Thrush","spTurdunud",
"White-capped Dipper","spCincl5leu",
"House Sparrow","spPassedom","introduced"
"Village Weaver","spPloce2cuc","introduced"
"Java Sparrow","spPaddaory","introduced"
"Tricolored Munia","spLonchmal","introduced"
"Yellowish Pipit","spAnthuchi",
"Paramo Pipit","spAnthubog",
"Lesser Goldfinch","spSpinupsa",
"Yellow-bellied Siskin","spSpinuxan",
"Hooded Siskin","spSpinumag",
"Yellow-faced Siskin","spSpinuyar",
"Red Siskin","spSpinucuc",
"Andean Siskin","spSpinuspi1",
"Golden-rumped Euphonia","spChlor11cya",
"Blue-naped Chlorophonia","spChlor11cya1",
"Chestnut-breasted Chlorophonia","spChlor11pyr",
"Plumbeous Euphonia","spEuphoplu",
"Purple-throated Euphonia","spEuphochl",
"Finsch's Euphonia","spEuphofin",
"Trinidad Euphonia","spEuphotri",
"White-lored Euphonia","spEuphochr",
"White-vented Euphonia","spEuphomin",
"Violaceous Euphonia","spEuphovio",
"Thick-billed Euphonia","spEupholan",
"Orange-bellied Euphonia","spEuphoxan",
"Golden-sided Euphonia","spEuphocay",
"Rufous-bellied Euphonia","spEuphoruf",
"Rosy Thrush-tanager","spRhodiros",
"Ashy-throated Chlorospingus","spChlor12can",
"Common Chlorospingus","spChlor12fla1",
"Grassland Sparrow","spAmmodhum",
"Yellow-browed Sparrow","spAmmodaur",
"Black-striped Sparrow","spArremcon",
"Tocuyo Sparrow","spArremtoc",
"Perija Brushfinch","spArrem1per",
"Caracas Brushfinch","spArrem1pha","endemic"
"Paria Brushfinch","spArrem1phy","endemic"
"Grey-browed Brushfinch","spArrem1ass",
"Golden-winged Sparrow","spArrem1sch",
"Yellow-mandibled Sparrow","spArrem1axi",
"Pectoral Sparrow","spArrem1tac",
"Chestnut-capped Brushfinch","spArrem1bru",
"Rufous-collared Sparrow","spZonotcap",
"Lincoln's Sparrow","spMeloslin","rarity"
"Merida Brushfinch","spAtlapmer","endemic"
"Tepui Brushfinch","spAtlapper",
"Ochre-breasted Brushfinch","spAtlapsem",
"Slaty Brushfinch","spAtlapsch",
"Pale-naped Brushfinch","spAtlappal",
"Yellow-breasted Brushfinch","spAtlaplat",
"Black-fronted Brushfinch","spAtlapnig",
"Bobolink","spDolicory",
"Eastern Meadowlark","spSturn3mag",
"Red-breasted Meadowlark","spLeistmil",
"Yellow-billed Cacique","spAmbly2hol",
"Russet-backed Oropendola","spPsaroang",
"Crested Oropendola","spPsarodec",
"Green Oropendola","spPsarovir",
"Olive Oropendola","spPsarobif",
"Solitary Cacique","spCacicsol",
"Yellow-rumped Cacique","spCaciccel",
"Subtropical Cacique","spCacicuro",
"Mountain Cacique","spCacicchr1",
"Red-rumped Cacique","spCacichae",
"Yellow-backed Oriole","spIcter1chr",
"Yellow Oriole","spIcter1nig",
"Baltimore Oriole","spIcter1gal",
"Yellow-tailed Oriole","spIcter1mes",
"Venezuelan Troupial","spIcter1ict",
"Orchard Oriole","spIcter1spu",
"Orange-crowned Oriole","spIcter1aur1",
"Epaulet Oriole","spIcter1cay",
"Giant Cowbird","spMolotory",
"Shiny Cowbird","spMolotbon",
"Carib Grackle","spQuisclug",
"Great-tailed Grackle","spQuiscmex",
"Velvet-fronted Grackle","spLampr3tan",
"Oriole Blackbird","spGymno11mex",
"Golden-tufted Mountain Grackle","spMacro7imt",
"Yellow-hooded Blackbird","spChrys8ict",
"Ovenbird","spSeiuraur",
"Worm-eating Warbler","spHelmiver","rarity"
"Louisiana Waterthrush","spParkemot",
"Northern Waterthrush","spParkenov",
"Golden-winged Warbler","spVermichr",
"Blue-winged Warbler","spVermicya","rarity"
"Black-and-white Warbler","spMniotvar",
"Prothonotary Warbler","spProtocit",
"Tennessee Warbler","spLeiot1per",
"Connecticut Warbler","spOporoagi",
"Masked Yellowthroat","spGeothaeq",
"Mourning Warbler","spGeothphi",
"Kentucky Warbler","spGeothfor","rarity"
"Common Yellowthroat","spGeothtri","rarity"
"Hooded Warbler","spSetop1cit","rarity"
"American Redstart","spSetop1rut",
"Cape May Warbler","spSetop1tig",
"Cerulean Warbler","spSetop1cer",
"Northern Parula","spSetop1ame","rarity"
"Tropical Parula","spSetop1pit",
"Magnolia Warbler","spSetop1mag","rarity"
"Bay-breasted Warbler","spSetop1cas",
"Blackburnian Warbler","spSetop1fus",
"American Yellow Warbler","spSetop1aes",
"Mangrove Warbler","spSetop1pet",
"Chestnut-sided Warbler","spSetop1pen",
"Blackpoll Warbler","spSetop1str",
"Black-throated Blue Warbler","spSetop1cae",
"Palm Warbler","spSetop1pal","rarity"
"Myrtle Warbler","spSetop1cor","rarity"
"Yellow-throated Warbler","spSetop1dom","rarity"
"Prairie Warbler","spSetop1dis","rarity"
"Black-throated Green Warbler","spSetop1vir",
"Citrine Warbler","spMyiot2lut",
"Flavescent Warbler","spMyiot2fla",
"Black-crested Warbler","spMyiot2nig",
"Riverbank Warbler","spMyiot2riv",
"Roraiman Warbler","spMyiot2ror",
"Grey-throated Warbler","spMyiot2cin",
"Russet-crowned Warbler","spMyiot2cor",
"Grey-headed Warbler","spMyiot2gri","endemic"
"Chestnut-capped Warbler","spBasil2del",
"Golden-crowned Warbler","spBasil2cul",
"Three-striped Warbler","spBasil2tri1",
"Canada Warbler","spCardecan",
"Slate-throated Whitestart","spMyiob1min",
"White-fronted Whitestart","spMyiob1alb","endemic"
"Golden-fronted Whitestart","spMyiob1orn",
"Paria Whitestart","spMyiob1par","endemic"
"White-faced Whitestart","spMyiob1alb1","endemic"
"Guaiquinima Whitestart","spMyiob1car","endemic"
"Tepui Whitestart","spMyiob1cas",
"Olive-backed Tanager","spMitroole",
"Tooth-billed Tanager","spPiranlut",
"Summer Tanager","spPiranrub",
"Scarlet Tanager","spPiranoli",
"White-winged Tanager","spPiranleu",
"Red-crowned Ant Tanager","spHabiarub",
"Golden Grosbeak","spPheucchr1",
"Black-backed Grosbeak","spPheucaur",
"Rose-breasted Grosbeak","spPheuclud",
"Rose-breasted Chat","spGrana1pel",
"Vermilion Cardinal","spCardipho",
"Yellow-green Grosbeak","spCaryocan",
"Red-and-black Grosbeak","spPerip1ery",
"Carrizal Seedeater","spAmaur2car","endemic"
"Dickcissel","spSpiza1ame",
"Blue-black Grosbeak","spCyano13cya",
"Amazonian Grosbeak","spCyano13rot",
"Ultramarine Grosbeak","spCyano13bri",
"Blue Grosbeak","spPasse3cae","rarity"
"Indigo Bunting","spPasse3cya","rarity"
"Plushcap","spCatamdia",
"Hooded Tanager","spNemospil",
"Blue-backed Tanager","spCyani1cya",
"White-capped Tanager","spSeric2alb",
"Wedge-tailed Grass Finch","spEmber2her",
"Duida Grass Finch","spEmber2dui","endemic"
"Green Honeycreeper","spChlor14spi",
"Yellow-backed Tanager","spHemit2fla",
"Guira Tanager","spHemit2gui",
"Swallow Tanager","spTersivir",
"Purple Honeycreeper","spCyanecae",
"Red-legged Honeycreeper","spCyanecya",
"Short-billed Honeycreeper","spCyanenit",
"Blue Dacnis","spDacnicay",
"Yellow-bellied Dacnis","spDacnifla",
"Black-faced Dacnis","spDacnilin",
"White-bellied Dacnis","spDacnialb",
"Orinoco Saltator","spSalta1ore",
"Olive-grey Saltator","spSalta1oli",
"Bluish-grey Saltator","spSalta1coe","rarity"
"Streaked Saltator","spSalta1str",
"Buff-throated Saltator","spSalta1max",
"Slate-colored Grosbeak","spSalta1gro",
"Bananaquit","spCoerefla",
"Yellow-faced Grassquit","spTiarioli",
"Black-faced Grassquit","spMelan13bic",
"Sooty Grassquit","spAsemoful",
"Dull-colored Grassquit","spAsemoobs",
"Blue-black Grassquit","spVolatjac",
"Rufous-crested Tanager","spCreurver",
"Grey-headed Tanager","spEucompen",
"Flame-crested Tanager","spLoriocri",
"White-shouldered Tanager","spLorioluc",
"Grey Pileated Finch","spCoryp3pil",
"Fulvous-crested Tanager","spTachy5sur",
"White-lined Tanager","spTachy5ruf",
"Red-shouldered Tanager","spTachy5pho",
"Fulvous Shrike-Tanager","spLanio2ful",
"Crimson-backed Tanager","spRamph7dim",
"Silver-beaked Tanager","spRamph7car",
"Lesson's Seedeater","spSporo1bou",
"Lined Seedeater","spSporo1lin",
"Grey Seedeater","spSporo1int",
"Wing-barred Seedeater","spSporo1ame",
"White-naped Seedeater","spSporo1fri",
"Black-and-white Seedeater","spSporo1luc",
"Yellow-bellied Seedeater","spSporo1nig",
"Chestnut-bellied Seed Finch","spSporo1ang",
"Great-billed Seed Finch","spSporo1max",
"Large-billed Seed Finch","spSporo1cra",
"Slate-colored Seedeater","spSporo1sch",
"Plumbeous Seedeater","spSporo1plu",
"Chestnut-bellied Seedeater","spSporo1cas",
"Ruddy-breasted Seedeater","spSporo1min",
"Grey-hooded Bush Tanager","spCnemo2rub",
"Black-headed Hemispingus","spPseud20ver",
"Slaty-backed Hemispingus","spPoospgoe","endemic"
"Grey-capped Hemispingus","spKleinrey","endemic"
"Black-capped Hemispingus","spKleinatr",
"Oleaginous Hemispingus","spSphen2fro",
"Black-eared Hemispingus","spSphen2mel",
"Fulvous-headed Tanager","spThlypful",
"Orange-headed Tanager","spThlypsor",
"Superciliaried Hemispingus","spThlypsup",
"Bicolored Conebill","spConirbic",
"Chestnut-vented Conebill","spConirspe",
"White-eared Conebill","spConirleu",
"Capped Conebill","spConiralb",
"Blue-backed Conebill","spConirsit",
"Rufous-browed Conebill","spConirruf",
"Stripe-tailed Yellow Finch","spSicalcit",
"Saffron Finch","spSicalfla",
"Orange-fronted Yellow Finch","spSicalcol",
"Grassland Yellow Finch","spSicallut",
"Plumbeous Sierra Finch","spGeosp1uni",
"Slaty Finch","spHaplo1rus",
"Plain-colored Seedeater","spCatam1ino",
"Paramo Seedeater","spCatam1hom",
"Bluish Flowerpiercer","spDiglocae",
"Masked Flowerpiercer","spDiglocya",
"Rusty Flowerpiercer","spDiglosit",
"Glossy Flowerpiercer","spDiglolaf",
"Scaled Flowerpiercer","spDiglodui",
"Greater Flowerpiercer","spDiglomaj",
"Venezuelan Flowerpiercer","spDigloven","endemic"
"White-sided Flowerpiercer","spDigloalb",
"Merida Flowerpiercer","spDigloglo1","endemic"
"Black Flowerpiercer","spDiglohum",
"Golden-crowned Tanager","spIrido1ruf",
"Fawn-breasted Tanager","spPipra1mel",
"Buff-breasted Mountain Tanager","spDubustae",
"Hooded Mountain Tanager","spButhrmon",
"Blue-capped Tanager","spSporacya",
"Masked Mountain Tanager","spTephr2wet","rarity"
"Black-chested Mountain Tanager","spCnema1exi",
"Blue-winged Mountain Tanager","spAnisosom",
"Scarlet-bellied Mountain Tanager","spAnisoign",
"Lacrimose Mountain Tanager","spAnisolac",
"Orange-eared Tanager","spChlor16cal","rarity"
"Magpie Tanager","spCisso1lev",
"Black-faced Tanager","spSchis2mel",
"Masked Cardinal","spParoanig",
"Red-capped Cardinal","spParoagul",
"Dotted Tanager","spIxothvar",
"Spotted Tanager","spIxothpun",
"Speckled Tanager","spIxothgut",
"Yellow-bellied Tanager","spIxothxan",
"Blue-grey Tanager","spThrauepi",
"Glaucous Tanager","spThraugla",
"Palm Tanager","spThraupal",
"Black-headed Tanager","spStilpcya",
"Black-hooded Tanager","spStilpwhi",
"Black-capped Tanager","spStilphei",
"Blue-necked Tanager","spStilpcya1",
"Masked Tanager","spStilpnig",
"Scrub Tanager","spStilpvit","rarity"
"Burnished-buff Tanager","spStilpcay",
"Blue-and-black Tanager","spTangavas",
"Beryl-spangled Tanager","spTanganig",
"Rufous-cheeked Tanager","spTangaruf","endemic"
"Bay-headed Tanager","spTangagyr",
"Saffron-crowned Tanager","spTangaxan",
"Flame-faced Tanager","spTangapar",
"Green-and-gold Tanager","spTangasch",
"Golden Tanager","spTangaart",
"Turquoise Tanager","spTangamex",
"Paradise Tanager","spTangachi",
"Opal-rumped Tanager","spTangavel",
