"spRheapen","Suri/Ñandú"
"grRheapentar","Suri"
"grRheapenpen","Ñandú"
"spNotho1orn","Perdiz cordillerana"
"spNotho1per","Perdiz chilena"
"spNotho1pen","Perdiz andina"
"spEudroele","Perdiz copetona"
"spTinam1pen","Perdiz de la puna"
"spTinam1ing","Perdiz austral"
"spChauntor","Chajá"
"spDendrvid","Pato silbón pampa"
"spDendraut","Pato silbón de ala blanca"
"grDendrautful","Pato silbón de ala blanca (fulgens)"
"grDendrautaut","Pato silbón de ala blanca (autumnalis)"
"spDendrbic","Pato silbón colorado"
"spAnser1cae","Ánsar nival"
"spAnser1ans","Ánsar común"
"spAnser1cyg","Ánsar cisnal"
"spAnser1alb","Ánsar careto"
"spBrantleu","Barnacla cariblanca"
"spCygnuolo","Cisne vulgar"
"spCygnuatr","Cisne negro"
"spCygnumel","Cisne de cuello negro"
"spCoscocos","Cisne coscoroba"
"spSarkisyl","Pato crestudo"
"spOressmel","Piuquén"
"spChloepic","Caiquén"
"spChloehyb","Caranca"
"spChloepol","Canquén común"
"spChloerub","Canquén colorado"
"spTachypat","Quetru volador"
"spTachypte","Quetru no volador"
"spTachybra","Quetru malvinero"
"spLophospe","Pato juarjual"
"spSpecuspe","Pato anteojillo"
"spCairimos","Pato criollo"
"grCairimos(Do","Pato criollo (doméstico)"
"spAixspo","Pato joyuyo"
"spAixgal","Pato mandarín"
"spMergaarm","Pato cortacorrientes"
"spSpatuver","Pato capuchino"
"spSpatupun","Pato puna"
"spSpatudis","Pato de alas azules"
"spSpatucya","Pato colorado"
"grSpatucyasep","Pato colorado (septentrionalium)"
"grSpatucya[or","Pato colorado [grupo orinoma]"
"grSpatucyacya","Pato colorado (cyanoptera)"
"spSpatupla","Pato cuchara"
"spSpatucly","Pato cuchara boreal"
"spMarecsib","Pato real"
"spAnasspa","Pato negro africano"
"spAnaspla","Pato de collar"
"grAnaspla(Do","Pato de collar (doméstico)"
"spAnasbah","Pato gargantillo"
"grAnasbahbah","Pato gargantillo (bahamensis/rubrirostris)"
"grAnasbahgal","Pato gargantillo (galapagensis)"
"spAnasgeo","Pato jergón grande"
"grAnasgeogeo","Pato jergón grande (georgica)"
"grAnasgeospi","Pato jergón grande (spinicauda/niceforoi)"
"spAnasfla","Pato jergón chico"
"grAnasflafla","Pato jergón chico (flavirostris)"
"grAnasflaoxy","Pato jergón chico (oxyptera)"
"spNetta1ruf","Pato colorado euroasiático"
"spNetta1ery","Pato castaño"
"spNetta1pep","Pato negro"
"spAythyful","Porrón moñudo"
"spHeteratr","Pato rinconero"
"spOxyurjam","Malvasía canela"
"spOxyurfer","Pato rana de pico ancho"
"grOxyurferand","Pato rana de pico ancho (andina)"
"grOxyurferfer","Pato rana de pico ancho (ferruginea)"
"spOxyurvit","Pato rana de pico delgado"
"spNumidmel","Gallineta"
"spCallical","Codorniz"
"spMeleagal","Pavo"
"spPhasicol","Faisán de collar"
"spPavocri","Pavo real"
"spGallugal","Gallo"
"spColumliv","Paloma doméstica"
"grColumliv(Fe","Paloma doméstica (Asilvestrada)"
"grColumliv(Wi","Paloma doméstica (silvestre)"
"spPatagpic","Paloma picazuró"
"spPatagmac","Paloma manchada"
"grPatagmacalb","Paloma manchada (albipennis)"
"grPatagmacmac","Paloma manchada (maculosa)"
"spPatagara","Torcaza"
"spColum1tal","Tortolita rojiza"
"spColum1pic","Tortolita cuyana"
"spColum1cru","Tortolita quiguagua"
"spMetricec","Tortolita boliviana"
"spMetrimel","Tortolita cordillerana"
"spMetriaym","Tortolita de la puna"
"spZenaimel","Paloma de alas blancas"
"spZenaiaur1","Tórtola"
"spGuiragui","Pirincho"
"spCrotoani","Matacaballos de pico liso"
"spCrotosul","Matacaballos"
"spCoccy1mel","Cuclillo de pico negro"
"spCoccy1ame","Cuclillo de pico amarillo"
"spChordnac","Ñacundá"
"spChordacu","Gallina ciega peruana"
"spChordmin","Gallina ciega boreal"
"spQuechdec","Gallina ciega chica"
"spSystelon","Gallina ciega común"
"grSystelonror","Gallina ciega común (roraimae)"
"grSystelonruf","Gallina ciega común (ruficervix)"
"grSystelonatr","Gallina ciega común (atripunctata)"
"grSystelonbif","Gallina ciega común (bifasciata/patagonica)"
"grSystelonlon","Gallina ciega común (longirostris)"
"grSystelonmoc","Gallina ciega común (mochaensis)"
"spNycti4gri","Urutaú"
"spSteatcar","Guácharo"
"spStrep1zon","Vencejo de collar"
"spChaetcin","Vencejo ceniciento"
"grChaetcinpha","Vencejo ceniciento (phaeopygos)"
"grChaetcinocc","Vencejo ceniciento (occidentalis)"
"grChaetcin[sc","Vencejo ceniciento (grupo sclateri)"
"grChaetcincin","Vencejo ceniciento (cinereiventris)"
"spChaetpel","Vencejo de chimenea"
"spAerodfuc","Edible-nest Swiftlet"
"grAerodfucger","Edible-nest Swiftlet (Germain's)"
"grAerodfuc[fu","Edible-nest Swiftlet (White-nest)"
"spAeronand","Vencejo chico"
"spColibcor","Picaflor azul"
"spSephasep","Picaflor chico"
"spSephafer","Picaflor de Juan Fernández"
"spOreotest","Picaflor de la puna"
"spOreotleu","Picaflor cordillerano"
"spPatag1gig","Picaflor gigante"
"grPatag1gigper","Picaflor gigante (peruviana)"
"grPatag1giggig","Picaflor gigante (gigas)"
"spThaumcor","Picaflor de Cora"
"spRhodo1ves","Picaflor del norte"
"spEulidyar","Picaflor de Arica"
"spChlorluc","Picaflor de pico rojo"
"spLeuco1alb","Picaflor de garganta blanca"
"spRalluant","Pidén austral"
"spPardimac","Pidén moteado"
"spPardisan","Pidén común"
"spPorphmel","Tagüita común"
"spGalli3gal","Tagüita del norte"
"grGalli3gal[ga","Tagüita del norte [grupo galeata]"
"grGalli3galgar","Tagüita del norte (garmani)"
"grGalli3galsan","Tagüita del norte (sandvicensis)"
"spFulicruf","Tagua de frente roja"
"spFuliccor","Tagua cornuda"
"spFulicgig","Tagua gigante"
"spFulicarm","Tagua común"
"spFulicard","Tagua andina"
"spFulicleu","Tagua chica"
"spPorph1mar","Tagüita purpúrea"
"spLaterjam","Pidencito"
"grLaterjamjam","Pidencito (jamaicensis/coturniculus)"
"grLaterjamsal","Pidencito (salinasi/murivagans)"
"grLaterjamtue","Pidencito (tuerosi)"
"spLaterspi1","Burrito negruzco"
"spAramugua","Carau"
"grAramugua[pi","Carau [grupo pictus]"
"grAramuguagua","Carau (guarauna)"
"spPluvisoc","Chorlo de Magallanes"
"spChion1alb","Paloma antártica"
"spHespesup","Chorlo cabezón"
"spHiman1mex","Perrito"
"grHiman1mexmex","Perrito (mexicanus)"
"grHiman1mexknu","Perrito (knudseni)"
"grHiman1mexmel","Perrito (melanurus)"
"spRecurand","Caití"
"spHaema1pal","Pilpilén común"
"spHaema1ate","Pilpilén negro"
"spHaema1leu","Pilpilén austral"
"spPluvi2squ","Chorlo ártico"
"spPluvi2dom","Chorlo dorado"
"spPluvi2ful","Chorlo dorado del Pacífico"
"spOreop1ruf","Chorlo de campo"
"spPhegomit","Chorlito cordillerano"
"spZonibmod","Chorlo chileno"
"spCharavoc","Chorlo gritón"
"spCharasem","Chorlo semipalmado"
"spVanelchi","Queltehue común"
"grVanelchicay","Queltehue común (cayennensis)"
"grVanelchilam","Queltehue común (lampronotus)"
"grVanelchichi","Queltehue común (chilensis/fretensis)"
"spVanelres","Queltehue de la puna"
"spAnarhwil","Chorlo de pico grueso"
"spAnarhcol","Chorlo de collar"
"spAnarhalt","Chorlo de la puna"
"spAnarhfal","Chorlo de doble collar"
"spAnarhniv","Chorlo nevado"
"grAnarhnivniv","Chorlo nevado (nivosus)"
"grAnarhnivocc","Chorlo nevado (occidentalis)"
"spAttaggay","Perdicita cordillerana"
"spAttagmal","Perdicita austral"
"spThino1orb","Perdicita cojón"
"spThino1rum","Perdicita chica"
"spNycti5sem","Becacina pintada"
"spJacanjac","Jacana"
"grJacanjachyp","Jacana (hypomelaena)"
"grJacanjac[ja","Jacana [grupo jacana]"
"spBartrlon","Batitú"
"spNumentah","Zarapito polinésico"
"spNumenpha","Zarapito común"
"grNumenphahud","Zarapito común (hudsonicus)"
"grNumenphapha","Zarapito común (phaeopus)"
"grNumenphaalb","Zarapito común (alboaxillaris)"
"grNumenphavar","Zarapito común (variegatus)"
"spNumenbor","Zarapito boreal"
"spLimoslap","Zarapito de cola barrada"
"grLimoslap[la","Zarapito de cola barrada (grupo lapponica)"
"grLimoslap[ba","Zarapito de cola barrada (grupo baueri)"
"spLimoshae","Zarapito de pico recto"
"spLimosfed","Zarapito moteado"
"spLimnogri","Becacina chica"
"grLimnogrigri","Becacina chica (griseus)"
"grLimnogrihen","Becacina chica (hendersoni)"
"grLimnogricau","Becacina chica (caurinus)"
"spGalli5str","Becacina grande"
"spGalli5and","Becacina de la puna"
"spGalli5mag","Becacina común"
"spPhala1tri","Pollito de mar tricolor"
"spPhala1ful","Pollito de mar rojizo"
"spPhala1lob","Pollito de mar boreal"
"spActitmac","Playero manchado"
"spTringsol","Pitotoy solitario"
"grTringsolsol","Pitotoy solitario (solitaria)"
"grTringsolcin","Pitotoy solitario (cinnamomea)"
"spTringinc","Playero gris"
"spTringfla","Pitotoy chico"
"spTringsem","Playero grande"
"grTringsemsem","Playero grande (semipalmata)"
"grTringsemino","Playero grande (inornata)"
"spTringmel","Pitotoy grande"
"spArenaint","Playero vuelvepiedras"
"spCalidcan","Playero ártico"
"spCalidvir","Playero de las rompientes"
"spCalidacu","Playero acuminado"
"spCalidfer","Playero zarapito"
"spCalidhim","Playero de patas largas"
"spCalidsub1","Playero canela"
"spCalidalb","Playero blanco"
"spCalidbai","Playero de Baird"
"spCalidfus","Playero de lomo blanco"
"spCalidmin1","Playero enano"
"spCalidmel","Playero pectoral"
"spCalidmau","Playero occidental"
"spCalidpus","Playero semipalmado"
"spSterclon","Salteador de cola larga"
"spStercpar","Salteador chico"
"spStercpom","Salteador pomarino"
"spStercchi","Salteador chileno"
"spStercant","Salteador pardo"
"grStercantlon","Salteador pardo (lonnbergi)"
"grStercantant","Salteador pardo (antarcticus)"
"grStercantham","Salteador pardo (hamiltoni)"
"spStercmac","Salteador polar"
"spCreagfur","Gaviota de las Galápagos"
"spXemasab","Gaviota de Sabine"
"spChroiphi","Gaviota de Bonaparte"
"spChroiser","Gaviota andina"
"spChroimac","Gaviota cáhuil"
"spChroicir","Gaviota de capucho gris"
"spLeuco3mod","Gaviota garuma"
"spLeuco3sco","Gaviota austral"
"spLeuco3atr","Gaviota reidora"
"spLeuco3pip","Gaviota de Franklin"
"spLarusbel","Gaviota peruana"
"spLarusdom","Gaviota dominicana"
"grLarusdomdom","Gaviota dominicana (dominicanus)"
"grLarusdomaus","Gaviota dominicana (austrinus)"
"grLarusdomjud","Gaviota dominicana (judithae)"
"grLarusdomvet","Gaviota dominicana (vetula)"
"grLarusdommel","Gaviota dominicana (melisandae)"
"spLarussmi","Gaviota argéntea americana"
"spRynchnig","Rayador"
"grRynchnignig","Rayador (niger)"
"grRynchnigcin","Rayador (cinerascens)"
"grRynchnigint","Rayador (intercedens)"
"spGygisalb","Gaviotín blanco"
"grGygisalbalb","Gaviotín blanco (alba)"
"grGygisalbcan","Gaviotín blanco (candida/leucopes)"
"grGygisalbmic","Gaviotín blanco (microrhyncha)"
"spAnoussto","Gaviotín de San Félix"
"spAnousmin","Gaviotín de corona blanca"
"grAnousminame","Gaviotín de corona blanca (americanus)"
"grAnousminmel","Gaviotín de corona blanca (melanogenys)"
"grAnousmin[mi","Gaviotín de corona blanca [grupo minutus]"
"spAnousalb","Gaviotín de San Ambrosio"
"spOnychfus","Gaviotín apizarrado"
"spOnychana","Gaviotín de bridas"
"spOnychlun","Gaviotín pascuense"
"spStern1ant","Gaviotín chico boreal"
"spStern1lor","Gaviotín chico"
"spPhaet1sim","Gaviotín de pico grande"
"spGelocnil","Gaviotín de pico negro"
"spLarosinc","Gaviotín monja"
"spChlidnig","Gaviotín negro"
"grChlidnignig","Gaviotín negro (niger)"
"grChlidnigsur","Gaviotín negro (surinamensis)"
"spStern2tru","Gaviotín piquerito"
"spStern2par","Gaviotín ártico"
"spStern2hir","Gaviotín sudamericano"
"spStern2vit","Gaviotín antártico"
"grStern2vit[vi","Gaviotín antártico [grupo vittata]"
"grStern2vitgeo","Gaviotín antártico (georgiae)"
"spStern2hir1","Gaviotín boreal"
"grStern2hir1hir","Gaviotín boreal (hirundo/tibetana)"
"grStern2hir1lon","Gaviotín boreal (longipennis)"
"spThala1san","Gaviotín de Sandwich"
"grThala1sansan","Gaviotín de Sandwich (sandvicensis)"
"grThala1sanacu","Gaviotín de Sandwich (acuflavidus)"
"grThala1saneur","Gaviotín de Sandwich (eurygnathus)"
"spThala1ele","Gaviotín elegante"
"spThala1max","Gaviotín real"
"spPhoenchi","Flamenco chileno"
"spPhoen2and","Parina grande"
"spPhoen2jam","Parina chica"
"spRollarol","Pimpollo común"
"spPodilpod","Picurio"
"spPodic1maj","Huala"
"spPodic1occ","Blanquillo"
"grPodic1occjun","Blanquillo (juninensis)"
"grPodic1occocc","Blanquillo (occipitalis)"
"spPodic1gal","Pimpollo tobiano"
"spPhaet2lep","Ave del trópico de cola blanca"
"grPhaet2leplep","Ave del trópico de cola blanca (lepturus)"
"grPhaet2lepful","Ave del trópico de cola blanca (fulvus)"
"grPhaet2lepeur","Ave del trópico de cola blanca (europae)"
"grPhaet2lepcat","Ave del trópico de cola blanca (catesbyi)"
"grPhaet2lepdor","Ave del trópico de cola blanca (dorotheae)"
"grPhaet2lepasc","Ave del trópico de cola blanca (ascensionis)"
"spPhaet2aet","Ave del trópico de pico rojo"
"spPhaet2rub","Ave del trópico de cola roja"
"spAptenpat","Pingüino rey"
"spAptenfor","Pingüino emperador"
"spPygosade","Pingüino de Adelia"
"spPygospap","Pingüino papúa"
"spPygosant","Pingüino antártico"
"spEudypmin","Pingüino azul"
"spSphenhum","Pingüino de Humboldt"
"spSphenmag","Pingüino de Magallanes"
"spEudyp1chr","Pingüino macaroni"
"spEudyp1chr1","Pingüino de penacho amarillo"
"grEudyp1chr1chr","Pingüino de penacho amarillo (chrysocome)"
"grEudyp1chr1fil","Pingüino de penacho amarillo (filholi)"
"spDiomesan","Albatros real del norte"
"spDiomeepo","Albatros real del sur"
"spDiomedab","Albatros de Tristan"
"spDiomeant","Albatros de las Antípodas/de Gibson"
"grDiomeantant","Albatros de las Antípodas"
"grDiomeantgib","Albatros de Gibson"
"spDiomeams","Albatros de Amsterdam"
"spPhoebirr","Albatros de las Galápagos"
"spPhoeb1fus","Albatros oscuro"
"spPhoeb1pal","Albatros de manto claro"
"spThala2chr","Albatros de cabeza gris"
"spThala2bul","Albatros de Buller"
"spThala2cau","Albatros de frente blanca"
"grThala2caucau","Albatros de frente blanca (cauta)"
"grThala2causte","Albatros de frente blanca (steadi)"
"spThala2sal","Albatros de Salvin"
"spThala2ere","Albatros de Chatham"
"spThala2mel","Albatros de ceja negra"
"grThala2melmel","Albatros de ceja negra (melanophris)"
"grThala2melimp","Albatros de ceja negra (impavida)"
"spOceanoce","Golondrina de mar de Wilson/fueguina"
"grOceanoceoce","Golondrina de mar de Wilson/exasperatus (oceanicus/exasperatus)"
"grOceanocechi","Golondrina de mar de Wilson/fueguina (chilensis)"
"spOceanpin","Golondrina de mar Pincoya"
"spOceangra","Golondrina de mar chica"
"grOceangragal","Golondrina de mar chica (galapagoensis)"
"grOceangragra","Golondrina de mar chica (gracilis)"
"spGarroner","Golondrina de mar subantártica"
"spPelagmar","Golondrina de mar de cara blanca"
"spFregegra","Golondrina de mar de vientre blanco"
"grFregegra[gr","Golondrina de mar de vientre blanco [grupo grallaria]"
"grFregegratit","Golondrina de mar de vientre blanco (titan)"
"spFregetro","Golondrina de mar de vientre negro"
"grFregetrotro","Golondrina de mar de vientre negro (tropica)"
"grFregetromel","Golondrina de mar de vientre negro (melanoleuca)"
"spNesofful","Golondrina de mar polinésica"
"spHydro5hor","Golondrina de mar de collar"
"spHydro5leu","Golondrina de mar boreal"
"grHydro5leuleu","Golondrina de mar boreal (leucorhous)"
"grHydro5leucha","Golondrina de mar boreal (chapmani)"
"spHydro5tet","Golondrina de mar peruana"
"spHydro5mel","Golondrina de mar oscura"
"spHydro5mar","Golondrina de mar negra"
"spMacro3gig","Petrel gigante antártico"
"spMacro3hal","Petrel gigante subantártico"
"spFulmagla","Petrel plateado boreal"
"grFulmaglagla","Petrel plateado boreal (glacialis/auduboni)"
"grFulmaglarod","Petrel plateado boreal (rodgersii)"
"spFulmagla1","Petrel plateado austral"
"spThala3ant","Petrel antártico"
"spDapticap","Petrel damero"
"grDapticapcap","Petrel damero (capense)"
"grDapticapaus","Petrel damero (australe)"
"spPagodniv","Petrel de las nieves"
"spAphrobre","Petrel de Kerguelen"
"spPtero3mac","Petrel de alas grandes"
"spPtero3gou","Petrel de cara gris"
"spPtero3neg","Petrel de Kermadec"
"spPtero3her","Petrel de Herald"
"spPtero3ult","Petrel de Murphy"
"spPtero3atr","Petrel de Henderson"
"spPtero3mol","Petrel de collar gris"
"spPtero3les","Petrel de frente blanca"
"spPtero3ine","Petrel moteado"
"spPtero3ext","Petrel de Juan Fernández"
"spPtero3inc","Petrel Atlántico"
"spPtero3pha","Petrel de las Galápagos"
"spPtero3cer","Petrel de cuello blanco"
"spPtero3nig","Petrel de alas negras"
"spPtero3coo","Petrel de Cook"
"spPtero3def","Petrel de Masatierra"
"spPtero3leu","Petrel de Gould"
"grPtero3leuleu","Petrel de Gould (leucoptera)"
"grPtero3leucal","Petrel de Gould (caledonica)"
"spPtero3lon","Petrel de Masafuera"
"spPtero3alb","Petrel de Fénix"
"spHalobcae","Petrel azulado"
"spPachy1tur","Petrel-paloma chico"
"spPachy1vit","Petrel-paloma de pico ancho"
"spPachy1des","Petrel-paloma antártico"
"spPachy1bel","Petrel-paloma de pico delgado"
"spProcecin","Petrel gris"
"spProceaeq","Petrel de barba blanca"
"spProcepar","Petrel de Parkinson"
"spProcewes","Petrel de Westland"
"spArdencre","Fardela blanca"
"spArdencar","Fardela de patas pálidas"
"spArdengra","Fardela capirotada"
"spArdenpac","Fardela del Pacífico"
"spArdenbul","Fardela de dorso gris"
"spArdengri","Fardela negra"
"spPuffinat","Fardela de Pascua"
"spPuffipuf","Fardela atlántica"
"spPuffiele","Fardela chica"
"spPuffibai","Fardela tropical"
"grPuffibaibai","Fardela tropical (bailloni)"
"grPuffibai[di","Fardela tropical [grupo dichrous]"
"spPelecgar","Yunco de Humboldt"
"spPelecuri","Yunco de los canales"
"spPelecgeo","Yunco geórgico"
"spPelecmag","Yunco de Magallanes"
"spCiconmag","Pillo"
"spJabirmyc","Jabirú"
"spMycteame","Cigüeña de cabeza pelada"
"spFregamag","Ave fragata magnífica"
"grFregamagrot","Ave fragata magnífica (rothschildi)"
"grFregamagmag","Ave fragata magnífica (magnificens)"
"spFregamin","Ave fragata grande"
"spSulasul","Piquero de patas rojas"
"grSulasulsul","Piquero de patas rojas (sula)"
"grSulasulrub","Piquero de patas rojas (rubripes)"
"grSulasulweb","Piquero de patas rojas (websteri)"
"spSulaleu","Piquero café"
"grSulaleuleu","Piquero café (leucogaster)"
"grSulaleuplo","Piquero café (plotus)"
"spSulabre","Piquero de Cocos"
"grSulabrebre","Piquero de Cocos (brewsteri)"
"grSulabreete","Piquero de Cocos (etesiaca)"
"spSuladac","Piquero blanco"
"spSulagra","Piquero de Nazca"
"spSulaneb","Piquero de patas azules"
"spSulavar","Piquero de Humboldt"
"spPoikigai","Lile"
"spNanno1bra","Yeco"
"spLeuco4mag","Cormorán de las rocas"
"spLeuco4bou","Guanay"
"spLeuco4geo","Cormorán geórgico"
"spLeuco4atr","Cormorán imperial"
"spLeuco4bra","Cormorán antártico"
"spPlegachi","Cuervo de pantano común"
"spPlegarid","Cuervo de pantano de la puna"
"spPhimoinf","Cuervo de pantano de cara pelada"
"spTherimel","Bandurria común"
"spTheribra","Bandurria de la puna"
"spPlataaja","Espátula"
"spBotauinv","Huairavillo"
"spBotauexi","Huairavillo de dorso negro"
"grBotauexiexi","Huairavillo de dorso negro (exilis/pullus)"
"grBotauexi[er","Huairavillo de dorso negro [grupo erythromelas]"
"spNyctavio","Huairavo de corona amarilla"
"grNyctavio[vi","Huairavo de corona amarilla [grupo violacea]"
"grNyctaviopau","Huairavo de corona amarilla (pauper)"
"spNycti6nyc","Huairavo común"
"grNycti6nycnyc","Huairavo común (nycticorax)"
"grNycti6nychoa","Huairavo común (hoactli)"
"grNycti6nycobs","Huairavo común (obscurus)"
"grNycti6nycfal","Huairavo común (falklandicus)"
"spSyrigsib","Garza chiflón"
"spEgretcae","Garza azul"
"spEgrettri","Garza tricolor"
"spEgretsac","Garza de los arrecifes"
"spEgretthu","Garza chica"
"spButorstr","Garcita azulada"
"grButorstrstr","Garcita azulada (striata)"
"grButorstrsun","Garcita azulada (sundevalli)"
"grButorstr[at","Garcita azulada [grupo atricapilla]"
"spArdeaibi","Garza bueyera"
"spArdeaalb","Garza grande"
"grArdeaalbalb","Garza grande (alba)"
"grArdeaalbmel","Garza grande (melanorhynchos)"
"grArdeaalbegr","Garza grande (egretta)"
"grArdeaalbmod","Garza grande (modesta)"
"spArdeacoc","Garza cuca"
"spPelec1occ","Pelícano pardo"
"grPelec1occcar","Pelícano pardo (carolinensis)"
"grPelec1occcal","Pelícano pardo (californicus)"
"grPelec1occocc","Pelícano pardo (occidentalis/murphyi)"
"grPelec1occuri","Pelícano pardo (urinator)"
"spPelec1tha","Pelícano de Humboldt"
"spVultugry","Cóndor"
"spCoragatr","Jote de cabeza negra"
"spCathaaur","Jote de cabeza colorada"
"grCathaaur[au","Jote de cabeza colorada (grupo aura)"
"grCathaaurruf","Jote de cabeza colorada (ruficollis)"
"grCathaaurjot","Jote de cabeza colorada (jota)"
"spPandihal","Águila pescadora"
"grPandihalhal","Águila pescadora (haliaetus)"
"grPandihalcar","Águila pescadora (carolinensis)"
"grPandihalrid","Águila pescadora (ridgwayi)"
"grPandihalcri","Águila pescadora (cristatus)"
"spElanuleu","Bailarín"
"spElanofor","Milano tijereta"
"spAsturchi","Peuquito"
"spCircubuf","Vari huevetero"
"spCircucin","Vari ceniciento"
"spIctin1mis","Milano boreal"
"spButeouru","Águila negra"
"grButeoururid","Águila negra (ridgwayi)"
"grButeouruuru","Águila negra (urubitinga)"
"spRupormag","Aguilucho de ala rojiza"
"grRupormaggra","Aguilucho de ala rojiza (gracilis)"
"grRupormag[ma","Aguilucho de ala rojiza [grupo magnirostris]"
"grRupormag[pu","Aguilucho de ala rojiza [grupo pucherani]"
"spParabuni","Peuco"
"grParabunihar","Peuco (harrisi)"
"grParabuniuni","Peuco (unicinctus)"
"spGeran1pol","Aguilucho común"
"grGeran1polpol","Aguilucho común (polyosoma)"
"grGeran1polexs","Aguilucho común (de Juan Fernandez)"
"spGeran1mel","Águila"
"spButeo1alb1","Aguilucho chico"
"spButeo1swa","Aguilucho langostero"
"spButeo1ven","Aguilucho de cola rojiza"
"spTytofur","Lechuza"
"grTytofur[tu","Lechuza [grupo tuidara]"
"grTytofurfur","Lechuza (furcata)"
"grTytofurbar","Lechuza (bargei)"
"grTytofurnig","Lechuza (insularis/nigrescens)"
"grTytofurpun","Lechuza (punctatissima)"
"spBubomag","Tucúquere"
"spGlauc1nan","Chuncho austral"
"spGlauc1per1","Chuncho del norte"
"spAthencun","Pequén"
"grAthencunhyp","Pequén (hypugaea/rostrata)"
"grAthencunflo","Pequén (floridana)"
"grAthencun[gu","Pequén [grupo guadeloupensis]"
"grAthencun[to","Pequén [grupo tolimae]"
"grAthencunnan","Pequén (nanodes/juninensis)"
"grAthencungra","Pequén (grallaria)"
"grAthencun[cu","Pequén [grupo cunicularia]"
"spStrixruf","Concón"
"spAsiofla","Nuco"
"grAsioflafla","Nuco (flammeus)"
"grAsioflapon","Nuco (ponapensis)"
"grAsioflasan","Nuco (sandwichensis)"
"grAsiofladom","Nuco (domingensis/portoricensis)"
"grAsioflagal","Nuco (galapagoensis)"
"grAsiofla[su","Nuco [grupo suinda]"
"spMegac1tor","Martín pescador"
"grMegac1tortor","Martín pescador (torquata/stictipennis)"
"grMegac1torste","Martín pescador (stellata)"
"spChlor2ame","Martín pescador chico"
"spDryoblig","Carpinterito"
"grDryobligpun","Carpinterito (puncticeps)"
"grDryobliglig","Carpinterito (lignarius)"
"spCampemag","Carpintero negro"
"spColappit","Pitío austral"
"spColaprup","Pitío del norte"
"grColaprupcin","Pitío del norte (cinereicapillus)"
"grColapruprup","Pitío del norte (rupicola/puna)"
"spCaracpla","Traro"
"grCaracplache","Traro (cheriway)"
"grCaracplapla","Traro (plancus)"
"spDaptrchi1","Tiuque"
"spDaptrmeg","Carancho cordillerano"
"spDaptralb","Carancho de garganta blanca"
"spDaptraus","Carancho negro"
"spFalcospa","Cernícalo"
"grFalcospa[sp","Cernícalo [grupo sparverius]"
"grFalcospapau","Cernícalo (paulus)"
"grFalcospacar","Cernícalo (caribaearum)"
"grFalcospadom","Cernícalo (dominicensis)"
"grFalcospaspa","Cernícalo (sparverioides)"
"grFalcospa[ci","Cernícalo [grupo cinnamominus]"
"grFalcospafer","Cernícalo (fernandensis)"
"spFalcofem","Halcón perdiguero"
"spFalcodei","Halcón de pecho naranja"
"spFalcoper","Halcón peregrino"
"grFalcoperana","Halcón peregrino (anatum)"
"grFalcopercal","Halcón peregrino (de la tundra)"
"grFalcoperpea","Halcón peregrino (pealei)"
"grFalcopercas","Halcón peregrino (austral)"
"grFalcoper[pe","Halcón peregrino [grupo peregrinus]"
"grFalcoperbro","Halcón peregrino (brookei)"
"grFalcoperpel","Halcón peregrino (pelegrinoides)"
"grFalcopermad","Halcón peregrino (madens)"
"grFalcoperbab","Halcón peregrino (babylonicus)"
"grFalcopermin","Halcón peregrino (minor)"
"grFalcoperrad","Halcón peregrino (radama)"
"grFalcoperper","Halcón peregrino (peregrinator)"
"grFalcoperern","Halcón peregrino (ernesti/nesiotes)"
"grFalcopermac","Halcón peregrino (macropus)"
"spNymphhol","Cacatúa ninfa"
"grNymphhol(Do","Cacatúa ninfa (doméstica)"
"spPsitt2kra","Cotorra de Kramer"
"spPlatyele","Rosella elegante"
"spPlatyexi","Rosella eximius"
"spPsephhae","Rabadilla roja"
"spMelopund","Catita australiana"
"grMelopund(Do","Catita australiana (doméstica)"
"spAgaporos","Agapornis roseicollis"
"spAgapofis","Agapornis de Fischer"
"spAgapoper","Agapornis personata"
"spPsilo2aur","Perico cordillerano"
"spMyiopmon","Cotorra"
"grMyiopmon[mo","Cotorra [grupo monachus]"
"grMyiopmonluc","Cotorra (luchsi)"
"spEnicofer","Cachaña"
"spEnicolep","Choroy"
"spCyano2pat","Tricahue"
"grCyano2patand","Tricahue (andinus)"
"grCyano2patpat","Tricahue (patagonus/conlara)"
"grCyano2patblo","Tricahue (bloxami)"
"spArasev","Guacamayo de frente castaña"
"spThectacu","Calancate cabeza azul"
"spPsitt6mit","Cotorra mitrata"
"grPsitt6mit[mi","Cotorra mitrata [grupo mitratus]"
"grPsitt6mitalt","Cotorra mitrata (alticola)"
"spPsitt6ery","Cotorra de cabeza roja"
"spPtero5cas","Hued-hued castaño"
"spPtero5tar","Hued-hued del sur"
"spPtero5meg","Turca"
"spSceloalb","Tapaculo"
"spScelorub","Chucao"
"spEugrapar","Churrín de la Mocha"
"spScytafus","Churrín del norte"
"spScytamag","Churrín del sur"
"spGeositen","Minero de pico delgado"
"spGeosicun","Minero común"
"grGeosicun[fr","Minero común (Altiplano)"
"grGeosicungeo","Minero común (georgei)"
"grGeosicundes","Minero común (Desierto costero)"
"grGeosicunfis","Minero común (Chile central)"
"grGeosicun[cu","Minero común (Patagonia)"
"spGeosipun","Minero de la puna"
"spGeosiruf","Minero cordillerano"
"spGeosimar","Minero chico"
"spGeosiant","Minero austral"
"spGeosiisa","Minero grande"
"spPygaralb","Comesebo grande"
"spOchetand","Bandurrilla de las piedras"
"spOchetruf","Bandurrilla de pico recto"
"spOchetpho","Patagón"
"spOchetmel","Chiricoca"
"spPhleomel","Trabajador"
"spUpucesat","Bandurrilla de los bosques"
"spUpucedum","Bandurrilla común"
"spUpucealb","Bandurrilla de Arica"
"spUpuceval","Bandurrilla de la puna"
"grUpucevaljel","Bandurrilla de la puna (jelskii/saturata)"
"grUpucevalval","Bandurrilla de la puna (validirostris)"
"spCinclfus","Churrete acanelado"
"spCinclant","Churrete austral"
"grCinclantmac","Churrete austral (maculirostris)"
"grCinclantant","Churrete austral (antarcticus)"
"spCinclalb1","Churrete de alas cremas"
"spCinclous","Churrete chico"
"spCinclata","Churrete de alas blancas"
"spCinclpat","Churrete patagónico"
"spCinclnig","Churrete costero"
"spAphraspi","Rayadito"
"spAphramas","Rayadito de Masafuera"
"spSylvides","Colilarga"
"spLeptaaeg","Tijeral común"
"grLeptaaeggri","Tijeral común (grisescens)"
"grLeptaaegber","Tijeral común (berlepschi)"
"grLeptaaegaeg","Tijeral común (aegithaloides)"
"grLeptaaegpal","Tijeral común (pallida)"
"spLeptastr1","Tijeral listado"
"grLeptastr1str","Tijeral listado (striata/superciliaris)"
"grLeptastr1alb","Tijeral listado (albigularis)"
"spAsthedor","Canastero del norte"
"grAsthedorhua","Canastero del norte (huancavelicae)"
"grAsthedorare","Canastero del norte (arequipae)"
"grAsthedorush","Canastero del norte (usheri)"
"grAsthedordor","Canastero del norte (dorbignyi/consobrina)"
"spAstheant","Canastero del sur"
"spAsthemod","Canastero chico"
"spAsthepyr","Canastero de cola larga"
"spAsthepud","Canastero de las quebradas"
"spPseud5hum","Canastero chileno"
"spPhytorut","Cortarramas"
"spPhytorar","Rara"
"spTachurub","Siete colores"
"spHirun1fer","Birro común"
"grHirun1ferfer","Birro común (ferruginea/sclateri)"
"grHirun1ferbel","Birro común (bellicosa/pallidior)"
"spAnairreg","Cachudito de cresta blanca"
"spAnairfla","Cachudito del norte"
"spAnairpar","Cachudito común"
"spAnairfer","Cachudito de Juan Fernández"
"spPseud9fla","Doradito común"
"spPseud9cit","Pájaro amarillo"
"spMyiop1vir","Fío-fío verdoso"
"spElaenalb","Fío-fío"
"grElaenalb[al","Fío-fío [grupo albiceps]"
"grElaenalbchi","Fío-fío (chilensis)"
"grElaenalbmod","Fío-fío (modesta)"
"spMyiop2fas","Cazamoscas estriado"
"spMyiop2ruf","Cazamoscas de pico chato"
"spContosor","Pibí occidental"
"spPyrocrub","Saca-tu-real"
"grPyrocrub[me","Saca-tu-real [grupo mexicanus]"
"grPyrocrubsat","Saca-tu-real (saturatus)"
"grPyrocrub[ob","Saca-tu-real [grupo obscurus]"
"grPyrocrubrub","Saca-tu-real (rubinus)"
"spLessoruf","Colegial austral"
"spLessoore","Colegial del norte"
"spKnipoate","Viudita negra"
"grKnipoatehet","Viudita negra (heterogyna)"
"grKnipoateate","Viudita negra (aterrimus/anthracinus)"
"spHymen1per","Run-run"
"spMuscimac","Dormilona chica"
"spMuscijun","Dormilona de la puna"
"spMuscicin","Dormilona cenicienta"
"spMuscialb","Dormilona gigante"
"spMuscifla","Dormilona fraile"
"spMusciruf","Dormilona de nuca rojiza"
"grMuscirufocc","Dormilona de nuca rojiza (occipitalis)"
"grMuscirufpal","Dormilona de nuca rojiza (pallidiceps)"
"grMuscirufruf","Dormilona de nuca rojiza (rufivertex)"
"spMuscimac1","Dormilona tontita"
"grMuscimac1men","Dormilona tontita (mentalis)"
"grMuscimac1mac","Dormilona tontita (maclovianus)"
"spMuscialb1","Dormilona de ceja blanca"
"spMuscicap","Dormilona rufa"
"spMuscifro","Dormilona de frente negra"
"spCnemaruf","Birro gris"
"spPyroppyr","Diucón"
"spNeoxocor","Monjita coronada"
"spNeoxorub","Monjita castaña"
"spNeoxoruf","Cazamoscas chocolate"
"spAgriomon","Mero gaucho"
"spAgrioalb","Mero de la puna"
"spAgrioliv","Mero grande"
"spAgriomic","Mero de Tarapacá"
"grAgriomicand","Mero de Tarapacá (andecola)"
"grAgriomicmic","Mero de Tarapacá (micropterus)"
"spAgriomur","Mero chico"
"spMyiot1str","Birro grande"
"spColorpar","Viudita"
"spOchth1oen","Pitajo rojizo"
"spOchth1leu","Pitajo gris"
"spMusci2bre","Cazamoscas de cola corta"
"spCasioruf","Burlisto castaño"
"spMache1rix","Picabuey"
"spPitansul","Benteveo"
"spMegarpit","Pintaguá"
"grMegarpit[me","Pintaguá [grupo mexicanus]"
"grMegarpitpit","Pintaguá (pitangua)"
"grMegarpitchr","Pintaguá (chrysogaster)"
"spMyiodmac","Benteveo rayado"
"grMyiodmac[ma","Benteveo rayado [grupo maculatus]"
"grMyiodmacsol","Benteveo rayado (solitarius)"
"spMyiodlut","Benteveo de vientre azufre"
"spEmpid1aur","Tuquito gris"
"spTyran4mel","Suirirí real"
"grTyran4melocc","Suirirí real (occidentalis)"
"grTyran4melsat","Suirirí real (satrapa)"
"grTyran4melmel","Suirirí real (melancholicus/despotes)"
"spTyran4tyr","Suirirí boreal"
"spTyran4sav","Cazamoscas tijereta"
"grTyran4savsav","Cazamoscas tijereta (savana)"
"grTyran4savmon","Cazamoscas tijereta (monachus)"
"grTyran4savsan","Cazamoscas tijereta (sanctaemartae)"
"grTyran4savcir","Cazamoscas tijereta (circumdatus)"
"spVireo1oli","Verderón de ojos rojos"
"spVireo1chi","Vireo chiví"
"grVireo1chi[ag","Vireo chiví [grupo agilis]"
"grVireo1chichi","Vireo chiví (chivi/diversus)"
"spPlaty3gal","Arrendajo Crestado"
"spCorvuspl","Cuervo indio"
"spRiparrip","Golondrina barranquera"
"spTachy4leu1","Golondrina chilena"
"spProgncha","Golondrina doméstica"
"spPrognele","Golondrina negra"
"spPrognmur","Golondrina peruana"
"spProgntap","Golondrina parda"
"grProgntaptap","Golondrina parda (tapera)"
"grProgntapfus","Golondrina parda (fusca)"
"spPygoccya","Golondrina de dorso negro"
"grPygoccyacya","Golondrina de dorso negro (cyanoleuca)"
"grPygoccyaper","Golondrina de dorso negro (peruviana)"
"grPygoccyapat","Golondrina de dorso negro (patagonica)"
"spAlopo1fuc","Golondrina de cabeza rojiza"
"spOrochand","Golondrina de los riscos"
"spHirun2rus","Golondrina bermeja"
"grHirun2rusrus","Golondrina bermeja (rustica)"
"grHirun2russav","Golondrina bermeja (savignii)"
"grHirun2rustra","Golondrina bermeja (transitiva)"
"grHirun2rustyt","Golondrina bermeja (tytleri)"
"grHirun2rusgut","Golondrina bermeja (gutturalis/mandschurica)"
"grHirun2rusery","Golondrina bermeja (erythrogaster)"
"spPetro2pyr","Golondrina grande"
"grPetro2pyr[py","Golondrina grande [grupo pyrrhonota]"
"grPetro2pyrmel","Golondrina grande (melanogaster)"
"spTroglmus1","Chercán común"
"grTroglmus1[in","Chercán común (grupo intermedius)"
"grTroglmus1[au","Chercán común (grupo audax)"
"grTroglmus1car","Chercán común (carabayae)"
"grTroglmus1[mu","Chercán común (grupo musculus)"
"spCistopla","Chercán de las vegas"
"grCistopla[el","Chercán de las vegas [grupo elegans]"
"grCistoplaalt","Chercán de las vegas (alticola)"
"grCistoplaaeq","Chercán de las vegas (aequatorialis)"
"grCistoplagra","Chercán de las vegas (graminicola)"
"grCistoplamin","Chercán de las vegas (minimus)"
"grCistoplatuc","Chercán de las vegas (tucumanus)"
"grCistoplapla","Chercán de las vegas (platensis/polyglottus)"
"grCistoplahor","Chercán de las vegas (hornensis/falklandicus)"
"spSturnvul","Estornino pinto"
"spMimusthe","Tenca chilena"
"spMimuspat","Tenca patagónica"
"spMimussat","Tenca calandria"
"spMimustri","Tenca de alas blancas"
"spMimusdor","Tenca castaña"
"spMimuslon","Tenca de cola larga"
"spCatha1fus1","Zorzalito dorsirrojo"
"spCatha1ust","Zorzalito de Swainson"
"grCatha1ust[us","Zorzalito de Swainson [grupo ustulatus]"
"grCatha1ust[sw","Zorzalito de Swainson [grupo swainsoni]"
"spTurdumer","Mirlo común europeo"
"spTurdufal","Zorzal patagónico"
"grTurdufalmag","Zorzal patagónico (magellanicus/pembertoni)"
"grTurdufalfal","Zorzal patagónico (falcklandii)"
"spTurduama","Zorzal chalchalero"
"spTurduser","Zorzal Serrano"
"spTurduchi","Zorzal negro"
"grTurduchichi","Zorzal negro (chiguanco/conradi)"
"grTurduchiant","Zorzal negro (anthracinus)"
"spPhoen5pho","Colirrojo real"
"grPhoen5phopho","Colirrojo real (phoenicurus)"
"grPhoen5phosam","Colirrojo real (samamisicus)"
"spTaeni2gut","Diamante mandarín"
"spPassedom","Gorrión"
"grPassedom[do","Gorrión (grupo domesticus)"
"grPassedom[in","Gorrión (grupo indicus)"
"spMotacalb","Lavandera blanca"
"grMotacalbalb","Lavandera blanca (alba/dukhunensis)"
"grMotacalbyar","Lavandera blanca (yarrellii)"
"grMotacalbocu","Lavandera blanca (ocularis)"
"grMotacalbsub","Lavandera blanca (subpersonata)"
"grMotacalbper","Lavandera blanca (personata)"
"grMotacalbbai","Lavandera blanca (baicalensis)"
"grMotacalblug","Lavandera blanca (lugens)"
"grMotacalbleu","Lavandera blanca (leucopsis)"
"grMotacalbalb1","Lavandera blanca (alboides)"
"spAnthuper","Bailarín chico peruano"
"spAnthucor","Bailarín chico común"
"grAnthucor[co","Bailarín chico común [grupo correndera]"
"grAnthucorgra","Bailarín chico común (grayi)"
"spAnthuhel","Bailarín chico pálido"
"spSerincan","Canario"
"spSpinucra","Jilguero grande"
"spSpinumag","Jilguero peruano"
"grSpinumaglon","Jilguero peruano (longirostris)"
"grSpinumag[ca","Jilguero peruano [grupo capitalis]"
"grSpinumag[ma","Jilguero peruano [grupo magellanicus]"
"spSpinuatr1","Jilguero negro"
"spSpinuuro","Jilguero cordillerano"
"spSpinubar","Jilguero austral"
"spZonotcap","Chincol"
"grZonotcap[ca","Chincol [grupo capensis]"
"grZonotcapaus","Chincol (australis)"
"spDolicory","Charlatán"
"spLeistsup","Loica argentina"
"spLeistbel","Loica peruana"
"spLeistloy","Loica común"
"grLeistloyobs","Loica común (obscurus)"
"grLeistloy[lo","Loica común [grupo loyca]"
"spIcter1pyr","Turpial variable"
"grIcter1pyrtib","Turpial variable (tibialis)"
"grIcter1pyr[py","Turpial variable [grupo pyrrhopterus]"
"spIcter1gal","Bolsero de Baltimore"
"spMolotruf","Mirlo de pico corto"
"spMolotbon","Mirlo común"
"spQuiscmex","Zanate mexicano"
"grQuiscmex[gr","Zanate mexicano [grupo graysoni]"
"grQuiscmex[me","Zanate mexicano [grupo mexicanus]"
"spCuraecur","Tordo"
"spAmbly3hol","Federal"
"spAgela2bad","Músico"
"spAgela3thi","Trile"
"spParkenov","Reinita acuática"
"spLeiot1per","Reinita de Tennessee"
"spGeothvel","Arañero cara negra"
"spSetop1rut","Candelita americana"
"spSetop1pit","Pitiayumí"
"grSetop1pitnig","Pitiayumí (nigrilora)"
"grSetop1pitpul","Pitiayumí (pulchra)"
"grSetop1pitins","Pitiayumí (insularis)"
"grSetop1pitgra","Pitiayumí (graysoni)"
"grSetop1pitino","Pitiayumí (inornata)"
"grSetop1pitcir","Pitiayumí (cirrha)"
"grSetop1pit[pi","Pitiayumí [grupo pitiayumi]"
"spSetop1fus","Reinita de garganta naranja"
"spSetop1str","Reinita estriada"
"spSetop1vir","Reinita de dorso verde"
"spCardecan","Reinita de Canadá"
"spPiranrub","Piranga roja"
"spPiranlud","Piranga de cara roja"
"spPheucchr1","Picogrueso dorado"
"spPheucaur","Rey del bosque"
"grPheucaurmer","Rey del bosque (meridensis)"
"grPheucaurcri","Rey del bosque (crissalis)"
"grPheucaururo","Rey del bosque (uropygialis/terminalis)"
"grPheucauraur","Rey del bosque (aureoventris)"
"spSpiza1ame","Arrocero americano"
"spParoacor","Cardenal"
"spMicro20tor","Monterita de collar"
"grMicro20tortor","Monterita de collar (torquatus)"
"grMicro20torpec","Monterita de collar (pectoralis)"
"spRauenbon","Naranjero"
"grRauenbondar","Naranjero (darwinii)"
"grRauenbon[bo","Naranjero [grupo bonariensis]"
"spThrausay","Celestino"
"spTersivir","Tersina"
"spConirbin","Comesebo gigante"
"spConirtam","Comesebo de los tamarugales"
"spConircin","Comesebo chico"
"grConircinfra","Comesebo chico (fraseri)"
"grConircincin","Comesebo chico (cinereum/littorale)"
"spDiglobru","Comesebo negro"
"grDiglobruvui","Comesebo negro (vuilleumieri)"
"grDiglobrubru","Comesebo negro (brunneiventris)"
"spPhrygatr","Cometocino del norte"
"spPhryggay","Cometocino de Gay"
"grPhryggaymin","Cometocino de Gay (minor)"
"grPhryggaygay","Cometocino de Gay (gayi/caniceps)"
"spPhrygpat","Cometocino patagónico"
"spDiucadiu","Diuca común"
"spMelan13mel","Yal austral"
"grMelan13melpri","Yal austral (princetonia)"
"grMelan13melmel","Yal austral (melanodera)"
"spMelan13xan","Yal cordillerano"
"grMelan13xanbar","Yal cordillerano (barrosi)"
"grMelan13xanxan","Yal cordillerano (xanthogramma)"
"spIdiopdor","Cometocino de dorso castaño"
"spIdiopery","Cometocino de Arica"
"spIdiopspe","Diuca de alas blancas"
"spGeospuni","Pájaro plomo"
"grGeospuniniv","Pájaro plomo (nivaria/geospizopsis)"
"grGeospuniinc","Pájaro plomo (inca)"
"grGeospuni[un","Pájaro plomo [grupo unicolor]"
"spGeospple","Plebeyo"
"spXenos1con","Pizarrita"
"spRhopo2fru","Yal común"
"grRhopo2frufru","Yal común (fruticeti/peruviana)"
"grRhopo2frucor","Yal común (coracina)"
"spRhopo2ala","Platero"
"spSicallut","Chirihue puneño"
"spSicaluro","Chirihue cordillerano"
"spSicalaur","Chirihue dorado"
"spSicaloli","Chirihue verdoso"
"spSicalleb","Chirihue austral"
"spSicalfla","Chirihue azafrán"
"grSicalfla[fl","Chirihue azafrán [grupo flaveola]"
"grSicalflapel","Chirihue azafrán (pelzelni)"
"spSicallut2","Chirihue común"
"grSicallut2[ch","Chirihue común [grupo chrysops]"
"grSicallut2bog","Chirihue común (bogotensis)"
"grSicallut2[lu","Chirihue común [grupo luteola]"
"spSicalrai","Chirihue de Raimondi"
"spVolatjac","Negrillo"
"spSporo1lin","Corbatita overo"
"spSporo1tel","Corbatita del norte"
"spSporo1cae","Corbatita de doble collar"
"spCatam1ana","Semillero"
"spCatam1ino","Semillero peruano"
"spSalta1aur","Pepitero"
