"spStrutcam","Volstruis"
"spDendrvid","Nonnetjie-eend"
"spDendrbic","Fluiteend"
"spThalaleu","Witrugeend"
"spCygnuolo","Witswaan"
"spPlectgam","Wildemakou"
"spSarkimel","Knobbeleend"
"spAlopoaeg","Kolgans"
"spTadorcan","Kopereend (Bergeend)"
"spNettaaur","Dwerggans"
"spSpatuque","Somereend"
"spSpatuhot","Gevlekte Eend"
"spSpatusmi","Kaapse Slopeend"
"spSpatucly","Europese Slopeend"
"spMarecsib","Chiloe-eend"
"spAnasspa","Swarteend"
"spAnasund","Geelbekeend"
"spAnaspla","Groenkopeend"
"spAnascap","Teeleend"
"spAnasery","Rooibekeend"
"spAnasacu","Pylsterteend"
"spNetta1ery","Bruineend"
"spAythyful","Kuifkopeend"
"spOxyurmac","Bloubekeend"
"spNumidmel","Gewone Tarentaal"
"spGuttepuc","Kuifkoptarentaal"
"spPavocri","Makpou"
"spOrtygsep","Bospatrys"
"spCampocoq","Swempie"
"spSclerlev","Rooivlerkpatrys"
"spSclerafr","Bergpatrys"
"spSclergut","Kalaharipatrys"
"spSclershe","Laeveldpatrys"
"spSynoiada","Bloukwartel"
"spCoturcot","Afrikaanse Kwartel"
"spCoturdel","Bontkwartel"
"spAlect1chu","Asiatiese Patrys"
"spPternhar","Klipfisant (Hartlaubfisant)"
"spPternads","Rooibekfisant"
"spPterncap","Kaapse Fisant"
"spPternnat","Natalse Fisant"
"spPternswa","Bosveldfisant"
"spPternafe","Rooikeelfisant"
"spCaprieur","Europese Naguil"
"spCapriruf1","Rooiwangnaguil"
"spCapripec","Afrikaanse Naguil"
"spCaprinat","Natalse Naguil"
"spCapritri","Donkernaguil"
"spCaprifos","Laeveldnaguil"
"spCaprivex","Wimpelvlerknaguil"
"spSchoumyo","Skaarswindswael"
"spTelacuss","Gevlekte Stekelstert"
"spNeafrboe","Witpensstekelstert"
"spCypsipar","Palmwindswael"
"spTachy1mel","Witpenswindswael"
"spTachy1aeq","Bontwindswael"
"spApusapu","Europese Windswael"
"spApuspal","Bruinwindswael"
"spApusbar","Swartwindswael"
"spApusbra","Muiskleurwindswael"
"spApusaff","Kleinwindswael"
"spApushor","Horuswindswael"
"spApuscaf","Witkruiswindswael"
"spCrinicon","Kwêvoël"
"spGallipor","Bloukuifloerie"
"spTauraros","Rooikuifloerie"
"spTauraliv","Mosambiekloerie"
"spTaurasch","Langkuifloerie"
"spTauracor","Knysnaloerie"
"spArdeokor","Gompou"
"spNeotilud","Ludwigpou"
"spNeotiden","Veldpou"
"spEupodsen","Witpenskorhaan"
"spEupodcae","Bloukorhaan"
"spHeter1vig","Vaalkorhaan"
"spHeter1rue","Woestynkorhaan (Damarakorhaan)"
"spLopho4ruf","Boskorhaan"
"spAfrotafr","Swartvlerkkorhaan"
"spAfrotafr1","Witvlerkkorhaan"
"spLissomel","Langbeenkorhaan"
"spCentr1sen","Senegalvleiloerie"
"spCentr1cup","Grootvleiloerie"
"spCentr1sup","Gestreepte Vleiloerie (Witbrouvleiloerie )"
"spCentr1bur","Gewone Vleiloerie"
"spCentr1gri","Swartvleiloerie"
"spCeuthaus","Groenvleiloerie"
"spClamagla","Gevlekte Koekoek"
"spClamalev","Gestreepte Nuwejaarsvoël"
"spClamajac","Bontnuwejaarsvoël"
"spPachyaud","Dikbekkoekoek"
"spChrys3cap","Diederikkie"
"spChrys3kla","Meitjie"
"spChrys3cup","Mooimeisie"
"spCercomon","Langstertkoekoek"
"spCuculcla","Swartkoekoek"
"spCuculsol","Piet-my-vrou"
"spCuculpol","Kleinkoekoek"
"spCuculroc","Malgassiesekoekoek"
"spCuculgul","Afrikaanse Koekoek"
"spCuculcan","Europese Koekoek"
"spPtero2nam","Kelkiewyn"
"spPtero2gut","Geelkeelsandpatrys"
"spPtero2bic","Dubbelbandsandpatrys"
"spPtero2bur","Gevlekte Sandpatrys"
"spColumliv","Tuinduif (Stadsduif)"
"spColumgui","Kransduif"
"spColumarq","Geelbekbosduif"
"spColumdel","Withalsbosduif"
"spColumlar","Kaneelduifie"
"spStrep1tur","Europese Tortelduif"
"spStrep1dec1","Rooioogtortelduif"
"spStrep1sem","Grootringduif"
"spStrep1cap","Gewone Tortelduif"
"spSpilosen","Rooiborsduifie (Lemoenduifie)"
"spTurtucha","Groenvlekduifie"
"spTurtuafe","Blouvlekduifie"
"spTurtutym","Witborsduifie"
"spOenacap","Namakwaduifie"
"spTrerocal","Papegaaiduif"
"spPodicsen","Watertrapper"
"spSarotele","Gevlekte Vleikuiken"
"spSarotruf","Rooiborsvleikuiken"
"spSarotboe","Streepborsvleikuiken"
"spSarotayr","Witvlerkvleikuiken"
"spSarotaff","Gestreepte Vleikuiken"
"spRallucae","Grootriethaan"
"spCrecoegr","Afrikaanse Riethaan"
"spCrexcre","Kwartelkoning"
"spPorzapor","Gevlekte Riethaan"
"spParagang","Kleinwaterhoender"
"spGalli3chl","Grootwaterhoender"
"spFuliccri","Bleshoender"
"spPorph1all","Kleinkoningriethaan"
"spPorph1mar","Amerikaanse Koningriethaan"
"spPorph1mad","Grootkoningriethaan"
"spZaporfla","Swartriethaan"
"spZaporpus","Kleinriethaan"
"spZaporpar","Europese Kleinriethaan"
"spAenigmar","Gestreepte Riethaan"
"spBaleareg","Mahem (Mahemkraanvoël)"
"spGruscar","Lelkraanvoël"
"spGruspar","Bloukraanvoël"
"spTachy2ruf1","Kleindobbertjie (Kleinduikertjie)"
"spPodic1cri","Kuifkopdobbertjie (Kuifkopduikertjie)"
"spPodic1nig","Swartnekdobbertjie (Swartnekduikertjie)"
"spPhoenros","Grootflamink"
"spPhoen1min","Kleinflamink"
"spTurnisyl","Bosveldkwarteltjie"
"spTurninan","Swartrugkwarteltjie"
"spTurnihot","Kaapse Kwarteltjie"
"spBurhicap","Gewone Dikkop"
"spBurhiver","Waterdikkop"
"spChion1alb","Grootskedebek"
"spHaema1moq","Swarttobie (Swartoestervanger)"
"spHaema1ost","Bonttobie (Bontoestervanger)"
"spHiman1him","Rooipootelsie"
"spRecuravo","Bontelsie"
"spPluvi1squ","Grysstrandkiewiet"
"spPluvi1ful","Asiatiese Goue Strandkiewiet"
"spPluvi1dom","Amerikaanse Goue Strandkiewiet"
"spCharahia","Ringnekstrandkiewiet"
"spCharatri","Driebandstrandkiewiet"
"spCharadub","Kleinringnekstrandkiewiet"
"spVanelcra","Witvlerkkiewiet"
"spVanelarm","Bontkiewiet"
"spVanelspi","Spoorvlerkkiewiet"
"spVanelalb","Witkopkiewiet"
"spVanellug","Kleinswartvlerkkiewiet"
"spVanelmel","Grootswartvlerkkiewiet"
"spVanelcor","Kroonkiewiet"
"spVanelsen","Lelkiewiet"
"spAnarhasi","Asiatiese Strandkiewiet"
"spAnarhmon","Mongoolse Strandkiewiet"
"spAnarhles","Grootstrandkiewiet"
"spAnarhpec","Geelborsstrandkiewiet"
"spAnarhpal","Rooibandstrandkiewiet"
"spAnarhmar","Vaalstrandkiewiet"
"spAnarhale","Bleekstrandkiewiet"
"spRostrben","Goudsnip"
"spMicro4cap","Dwerglangtoon"
"spActopafr","Grootlangtoon"
"spNumenpha","Kleinwulp"
"spNumenarq","Europese Wulp (Grootwulp)"
"spLimoslap","Bandstertgriet"
"spLimoslim","Swartstertgriet"
"spLimoshae","Amerikaanse Griet (Hudsonbaaigriet)"
"spLimnosem","Asiatiese Snipgriet"
"spGalli5med","Dubbelsnip"
"spGalli5nig","Afrikaanse Snip"
"spPhala1tri","Bontfraiingpoot"
"spPhala1ful","Grysfraiingpoot"
"spPhala1lob","Rooihalsfraiingpoot"
"spXenuscin","Terekruiter"
"spActithyp","Gewone Ruiter"
"spTringoch","Witgatruiter"
"spTringsta","Moerasruiter"
"spTringgla","Bosruiter"
"spTringtot","Rooipootruiter"
"spTringfla","Kleingeelpootruiter"
"spTringery","Gevlekte Rooipootruiter"
"spTringneb","Groenpootruiter"
"spTringmel","Grootgeelpootruiter"
"spArenaint","Steenloper"
"spCalidten","Grootknoet"
"spCalidcan","Knoet"
"spCalidpug","Kemphaan"
"spCalidfal","Breëbekstrandloper"
"spCalidfer","Krombekstrandloper"
"spCalidtem","Temminckstrandloper"
"spCalidsub","Langtoonstrandloper"
"spCalidruf","Rooinekstrandloper"
"spCalidsub1","Taanborsstrandloper"
"spCalidalb","Drietoonstrandloper"
"spCalidalp","Bontstrandloper"
"spCalidbai","Bairdstrandloper"
"spCalidmin","Kleinstrandloper"
"spCalidfus","Witrugstrandloper"
"spCalidmel","Geelpootstrandloper"
"spDroma1ard","Krapvreter"
"spRhino1afr","Dubbelbanddrawwertjie"
"spRhino1cha","Bronsvlerkdrawwertjie"
"spRhino1cin","Driebanddrawwertjie"
"spCursotem","Trekdrawwertjie"
"spCursoruf","Bloukopdrawwertjie"
"spGlarenuc","Withalssprinkaanvoël"
"spGlarenor","Swartvlerksprinkaanvoël"
"spGlarepra","Rooivlerksprinkaanvoël"
"spRynchfla","Waterploeër"
"spRynchnig","Amerikaanse Waterploeër"
"spAnoussto","Grootbruinseeswael (Grootbruinsterretjie)"
"spAnousten","Kleinbruinseeswael (Kleinbruinsterretjie)"
"spOnychfus","Roetseeswael (Roetsterretjie)"
"spOnychana","Brilseeswael (Brilsterretjie)"
"spStern1alb","Kleinseeswael (Kleinsterretjie)"
"spStern1sau","Saunderssterretjie"
"spStern1bal","Damaraseeswael (Damarasterretjie)"
"spGelocnil","Oostelike Seeswael (Oostelike Sterretjie)"
"spHydro3cas","Reuseseeswael (Reusesterretjie)"
"spChlidhyb","Witbaardmeerswael (Witbaardsterretjie)"
"spChlidnig","Swartmeerswael (Swartsterretjie)"
"spChlidleu","Witvlerkmeerswael (Witvlerksterretjie)"
"spStern2par","Arktiese Seeswael (Arktiese Sterretjie)"
"spStern2vit","Grysborsseeswael (Grysborssterretjie)"
"spStern2hir1","Gewone Seeswael (Gewone Sterretjie)"
"spStern2rep","Witwangseeswael (Witwangsterretjie)"
"spStern2sum","Swartkroonseeswael (Swartnekseeswael, Swartkroonsterretjie, Swartneksterretjie)"
"spStern2dou","Rooiborsseeswael (Sterna dougallii)"
"spThala1san","Grootseeswael (Grootsterretjie)"
"spThala1ele","Elegante Sterretjie"
"spThala1ben","Kuifkopseeswael (Kuifkopsterretjie)"
"spThala1max","Koningseeswael (Koningsterretjie)"
"spThala1ber","Geelbekseeswael (Geelbeksterretjie)"
"spRissatri","Swartpootbrandervoël"
"spXemasab","Mikstertmeeu"
"spChroigen","Dunbekmeeu"
"spChroirid","Swartkopmeeu"
"spChroicir","Gryskopmeeu"
"spChroihar","Hartlaubmeeu"
"spLeuco3pip","Franklinmeeu"
"spLarusdom","Swartrugmeeu"
"spLarusarg","Haringmeeu"
"spLarusfus","Kleinswartrugmeeu"
"spSterclon","Langstertroofmeeu"
"spStercpar","Arktiese Roofmeeu"
"spStercpom","Knopstertroofmeeu"
"spStercant","Bruinroofmeeu"
"spStercmac","Suidpoolroofmeeu"
"spPhaet2aet","Rooibekpylstert"
"spPhaet2rub","Rooipylstert"
"spPhaet2lep","Witpylstert"
"spApten1pat","Koningpikkewyn"
"spPygospap","Witoorpikkewyn"
"spEudypmin","Kleinpikkewyn"
"spSphenmag","Magellaanpikkewyn"
"spSphendem","Brilpikkewyn (Afrikapikkewyn)"
"spEudyp1chr","Macaronipikkewyn (Suidelike Langkuifpikkewyn)"
"spEudyp1mos","Noordelike Geelkuifpikkewyn"
"spEudyp1chr1","Geelkuifpikkewyn"
"spOceanoce","Geelpootstormswael (Gewone stormswael)"
"spGarroner","Grysrugstormswael"
"spPelagmar","Witwangstormswael"
"spFregegra","Witpensstormswael"
"spFregetro","Swartpensstormswael"
"spDiomesan","Swartvlerkkoningalbatros"
"spDiomeepo","Koningmalmok (Witvlerkkoningalbatros)"
"spDiomeexu","Grootmalmok (Grootalbatros)"
"spDiomedab","Tristangrootalbatros"
"spDiomeams","Amsterdamalbatross (-malmok)"
"spPhoebimm","Laysanmalmok (Swartwangalbatros)"
"spPhoeb1fus","Bruinmalmok (Bruinalbatros)"
"spPhoeb1pal","Swartkopmalmok (Swartkopalbatros)"
"spThala2chl","Geelneusmalmok (Atlantiese Geelneusalbatros)"
"spThala2car","Indiese Geelneusalbatros"
"spThala2chr","Gryskopmalmok (Gryskopalbatros)"
"spThala2bul","Witkroonalbatros"
"spThala2cau","Bloubekmalmok (Bloubekalbatros)"
"spThala2sal","Salvinalbatros"
"spThala2ere","Chathamalbatros"
"spThala2mel","Swartrugmalmok (Swartrugalbatros)"
"spHydro5pel","Swartpootstormswael (Europese Stormswael)"
"spHydro5mon","Swinhoestormswael"
"spHydro5mat","Matsudairastormswael (Oosterse Stormswael)"
"spHydro5leu","Swaelstertstormswael"
"spHydro5cas","Madeirastormswael"
"spMacro3gig","Reusenellie"
"spMacro3hal","Grootnellie"
"spFulmagla1","Silwerstormvoël"
"spThala3ant","Antarktiese Stormvoël"
"spDapticap","Seeduifstormvoël"
"spHalobcae","Bloustormvoël"
"spPachy1vit","Breëbekwalvisvoël"
"spPachy1sal","Marionwalvisvoël"
"spPachy1des","Antarktiese Walvisvoël"
"spPachy1bel","Dunbekwalvisvoël"
"spPachy1tur","Swartstertwalvisvoël"
"spAphrobre","Kerguelense Stormvoël"
"spPtero3mac","Langvlerkstormvoël"
"spPtero3les","Witkopstormvoël"
"spPtero3inc","Bruinvlerkstormvoël (Atlantiese Stormvoël)"
"spPtero3mol","Donsveerstormvoël"
"spPtero3fea","Feastormvoël"
"spPtero3arm","Trindadestormvoël"
"spPtero3bar","Baraustormvoël"
"spPseudros","Tahitistormvoël"
"spProcecin","Pediunker (Gryspylstormvoël)"
"spProceaeq","Bassiaan (Witkenpylstormvoël)"
"spProcecon","Brilbassiaan"
"spCalonleu","Gestreepte Pylstormvoël"
"spCalonbor","Geelbekpylstormvoël"
"spCalondio","Geelbekpylstormvoël"
"spArdenpac","Keilstertpylstormvoël"
"spArdengri","Malbaartjie (Grysvlerkpylstormvoël)"
"spArdenten","Kortstertpylstormvoël"
"spArdencar","Bruinpylstormvoël"
"spArdengra","Grootpylstormvoël"
"spPuffipuf","Swartbekpylstormvoël"
"spPuffimau","Baleariese Pylstormvoël"
"spPuffibai","Swartkroonpylstormvoël (Tropiese Kleinpylstormvoël)"
"spPuffiass","Kleinpylstormvoël"
"spPuffiele","Sub-antarktiese Pylstormvoël"
"spBulwebul","Bulwerstormvoël"
"spBulwefal","Donkervlerkkeilstert (Jouaninse Stormvoël)"
"spAnastlam","Oopbekooievaar"
"spLepto2cru","Maraboe"
"spMycteibi","Nimmersat (Geelbekooievaar)"
"spEphipsen","Saalbekooievaar"
"spCiconabd","Kleinswartooievaar (Blouwangooievaar)"
"spCiconepi","Wolnekooievaar"
"spCiconnig","Grootswartooievaar"
"spCiconcic","Witooievaar"
"spFregaari","Kleinfregatvoël"
"spFregamin","Grootfregatvoël"
"spMoruscap","Witmalgas"
"spMorusser","Australiese Malgas"
"spSulasul","Rooipootmalgas"
"spSulaleu","Bruinmalgas"
"spSuladac","Brilmalgas"
"spAnhinruf","Slanghalsvoël"
"spMicro5afr","Rietduiker"
"spMicro5cor","Kuifkopduiker"
"spPhala2neg","Bankduiker"
"spPhala2cap","Trekduiker"
"spThresaet","Skoorsteenveër"
"spGeroncal","Kalkoenibis (Wildekalkoen)"
"spBostrhag","Hadeda"
"spPlegafal","Glansibis"
"spPlataalb","Lepelaar"
"spBotauste","Grootrietreier (Roerdomp)"
"spBotaustu","Dwergrietreier"
"spBotaumin","Woudapie (Kleinrietreier)"
"spNycti6nyc","Gewone Nagreier"
"spEgretcae","Kleinbloureier"
"spEgretvin","Rooikeelreier"
"spEgretard","Swartreier"
"spEgretthu","Sneeuwitreier"
"spEgretgar","Kleinwitreier"
"spEgretgul","Westelike Kusreier"
"spCalheleu","Witrugnagreier"
"spButorstr","Groenrugreier"
"spArdeo1ruf","Rooipensreier"
"spArdeo1ral","Ralreier"
"spArdeo1ida","Malgassiese Ralreier"
"spArdeaalb","Grootwitreier"
"spArdeaint","Geelbekwitreier"
"spArdeaibi","Veereier (Bosluisvoël)"
"spArdeacin","Bloureier"
"spArdeapur","Rooireier"
"spArdeamel","Swartkopreier"
"spArdeagol","Reusereier"
"spScopuumb","Hamerkop"
"spBalaerex","Skoenbekooievaar"
"spPelec1ono","Witpelikaan"
"spPelec1ruf","Kleinpelikaan"
"spSagitser","Sekretarisvoël"
"spPandihal","Visvalk"
"spElanucae","Blouvalk (Blouvalkie)"
"spPolybtyp","Kaalwangvalk"
"spGypohang","Witaasvoël"
"spGypaebar","Baardaasvoël (Lammergeier)"
"spNeophper","Egiptiese Aasvoël"
"spAvicecuc","Koekoekvalk"
"spPerniapi","Wespedief"
"spTrigoocc","Witkopaasvoël"
"spTorgotra","Swartaasvoël"
"spNecromon","Monnikaasvoël"
"spGypsafr","Witrugaasvoël"
"spGypscop","Kransaasvoël"
"spGypsrue","Rüppellaasvoël"
"spTerateca","Berghaan (Stompstertarend)"
"spCircacin","Enkelbandslangarend"
"spCircafas","Dubbelbandslangarend"
"spCircapec","Swartborsslangarend"
"spCircacin1","Bruinslangarend"
"spMachealc","Vlermuisvalk"
"spSteph1cor","Kroonarend"
"spPolembel","Breëkoparend"
"spLophaocc","Langkuifarend"
"spClang1pom","Gevlekte Arend"
"spClang1cla","Groot Gevlekte Arend"
"spHierawah","Bruinarend (Wahlbergarend)"
"spHieraayr","Kleinjagarend"
"spHierapen","Dwergarend"
"spAquilnip","Steppe-arend"
"spAquilrap","Roofarend"
"spAquilspi","Grootjagarend (Afrikaanse Jagarend)"
"spAquilver","Witkruisarend"
"spMicro6gab","Witkruissperwer (Kleinsingvalk)"
"spMeliemet","Donkersingvalk"
"spMeliecan","Bleeksingvalk"
"spKaupimon","Akkedisvalk"
"spAerostac","Afrikaanse Sperwer"
"spTachy3min","Kleinsperwer"
"spTachy3bad","Gebande Sperwer"
"spAccipova","Ovambosperwer"
"spAccipruf","Rooiborssperwer"
"spAsturmel","Swartsperwer"
"spCircumac","Witborspaddavreter (Witborsvleivalk)"
"spCircumau","Witkruispaddavreter (Witkruisvleivalk)"
"spCircupyg","Bloupaddavreter (Blouvleivalk)"
"spCircuaer","Europese Paddavreter (Europese Vleivalk)"
"spCircuran","Afrikaanse Paddavreter (Afrikaanse Vleivalk)"
"spMilvumig","Swartwou"
"spMilvuaeg","Geelbekwou"
"spIcthyvoc","Visarend"
"spButasruf","Rooivlerkjakkalsvoël"
"spButeo1aug","Rooinekjakkalsvoël"
"spButeo1aug1","Witborsjakkalsvoël"
"spButeo1ruf","Rooiborsjakkalsvoël"
"spButeo1but","Bruinjakkalsvoël"
"spButeo1tri","Bosjakkalsvoël"
"spButeo1ruf1","Langbeenjakkalsvoël"
"spTytoalb","Nonnetjie-uil"
"spTytocap","Grasuil"
"spGlauc1per","Witkoluil"
"spGlauc1cap","Gebande Uil"
"spOtussen","Skopsuil (Afrikaanse Skopsuil)"
"spPtilo1gra","Witwanguil (Suidelike Witwanguil)"
"spAsiocap","Vlei-uil"
"spBubocap","Kaapse Ooruil"
"spBuboafr","Gevlekte Ooruil"
"spKetuplac","Reuse-ooruil"
"spScotopel","Visuil"
"spStrixwoo","Bosuil"
"spColiustr","Gevlekte Muisvoël"
"spColiucas","Rooirugmuisvoël"
"spColiucol","Witkruismuisvoël"
"spUrocoind","Rooiwangmuisvoël"
"spApalonar","Bosloerie (Narinatrogon)"
"spPhoen3pur","Gewone Kakelaar (Rooibekkakelaar)"
"spPhoen3dam","Perskakelaar"
"spRhino2cya","Swartbekkakelaar"
"spBucorlea","Bromvoël"
"spTockudam","Damararooibekneushoringvoël"
"spTockuruf","Rooibekneushoringvoël"
"spTockumon","Monteironeushoringvoël"
"spTockuleu","Suidelike Geelbekneushoringvoël"
"spLopho11bra","Bradfieldneushoringvoël"
"spLopho11alb","Gekroonde Neushoringvoël"
"spLopho11nas","Grysneushoringvoël"
"spBycanbuc","Gewone Boskraai"
"spBycanbre","Kuifkopboskraai"
"spCoracnae","Groottroupant"
"spCoracspa","Knopsterttroupant"
"spCoraccau","Gewone Troupant"
"spCoracgar","Europese Troupant"
"spEurysgla","Geelbektroupant"
"spHalcyleu","Gryskopvisvanger"
"spHalcyalb","Bruinkopvisvanger"
"spHalcyche","Gestreepte Visvanger"
"spHalcysen","Bosveldvisvanger"
"spHalcysen1","Mangliedvisvanger"
"spIspidpic","Dwergvisvanger"
"spCoryt1cri","Kuifkopvisvanger"
"spAlcedsem","Blouvisvanger"
"spMegac1max","Reusevisvanger"
"spCerylrud","Bontvisvanger"
"spMerop1hir","Swaelstertbyvreter"
"spMerop1pus","Kleinbyvreter"
"spMerop1bul1","Rooikeelbyvreter"
"spMerop1alb","Witkeelbyvreter"
"spMerop1boe","Roeskopbyvreter"
"spMerop1per","Blouwangbyvreter"
"spMerop1sup","Olyfbyvreter"
"spMerop1api","Europese Byvreter"
"spMerop1mal","Pienkborsbyvreter"
"spMerop1nub1","Rooiborsbyvreter"
"spTrach1vai","Kuifkophoutkapper"
"spCrypt3oli","Groenhoutkapper"
"spStactleu","Witoorhoutkapper"
"spStactwhy","Geelbleshoutkapper"
"spPogonsim","Groentinker"
"spPogonbil","Swartblestinker"
"spPogonpus","Rooiblestinker"
"spPogonchr","Geelblestinker"
"spTrichleu","Bonthoutkapper"
"spLybiutor","Rooikophoutkapper"
"spProdozam","Dunbekheuningvoël"
"spProdoreg","Skerpbekheuningvoël"
"spIndicmel","Oostelike Heuningwyser"
"spIndicmin","Kleinheuningwyser"
"spIndicvar","Gevlekte Heuningwyser"
"spIndicind","Grootheuningwyser"
"spJynxruf","Draaihals"
"spGeoco1oli","Grondspeg"
"spCampeben","Bennettspeg"
"spCampescr","Tanzaniese Speg"
"spCampeabi","Goudstertspeg"
"spCampenot","Knysnaspeg"
"spCampecai","Gevlekte Speg"
"spChlor3nam","Baardspeg (Namakwaspeg)"
"spDendr4fus","Kardinaalspeg"
"spDendr4gri","Gryskopspeg"
"spPolihsem","Dwergvalk"
"spFalconau","Kleinrooivalk"
"spFalcotin","Rooivalk"
"spFalcorup","Rooivalk (Kransvalk)"
"spFalcorup1","Grootrooivalk"
"spFalcoard","Donker Grysvalk"
"spFalcodic","Dickinsongrysvalk"
"spFalcochi","Rooinekvalk"
"spFalcoves","Westelike Rooipootvalk"
"spFalcoamu","Oostelike Rooipootvalk (Amurvalk)"
"spFalcoele","Eleonoravalk"
"spFalcocon","Roetvalk"
"spFalcosub","Europese Boomvalk"
"spFalcocuv","Afrikaanse Boomvalk"
"spFalcobia","Edelvalk"
"spFalcoper","Swerfvalk"
"spFalcofas","Taitavalk"
"spPoicefus","Savannepapegaai"
"spPoicerob","Grootpapegaai (Woudpapegaai)"
"spPoicemey","Bosveldpapegaai"
"spPoicerue","Bloupenspapegaai"
"spPoicecry","Bruinkoppapegaai"
"spPsitt4kra","Ringnekparkiet"
"spAgaporos","Rooiwangparkiet"
"spAgapolil","Niassaparkiet"
"spAgaponig","Swartwangparkiet"
"spSmithcap","Breëbek (Afrikaanse Breëbek)"
"spPittaang","Angolapitta"
"spBatiscap","Kaapse Bosbontrokkie"
"spBatisfra","Woodwardbosbontrokkie"
"spBatismol","Witliesbosbontrokkie"
"spBatissor","Mosambiekbosbontrokkie"
"spBatispri","Priritbosbontrokkie"
"spLanio1tor","Kortstertlaksman"
"spPlaty2pel","Beloogbosbontrokkie"
"spMalac2bla","Spookvoël"
"spChlor5nig","Swartoogboslaksman"
"spChlor5oli","Olyfboslaksman"
"spChlor5sul","Oranjeborsboslaksman"
"spTelopvir","Konkoit"
"spTelopzey","Bokmakierie"
"spBocagmin","Vleitjagra"
"spTchagaus","Driestreeptjagra (Rooivlerktjagra)"
"spTchagtch","Grysborstjagra"
"spTchagsen","Swartkroontjagra"
"spDryoscub","Sneeubal"
"spLaniamaj","Tropiese Waterfiskaal"
"spLaniafer","Suidelike Waterfiskaal"
"spLaniabic","Moeraswaterfiskaal"
"spLaniaatr","Rooiborslaksman"
"spNilauafe","Bontroklaksman"
"spPrion2plu","Withelmlaksman"
"spPrion2ret","Swarthelmlaksman"
"spPrion2sco","Stekelkophelmlaksman"
"spBiasmus","Witpensvlieëvanger"
"spCeblepec","Witborskatakoeroe"
"spCeblecae","Bloukatakoeroe"
"spCampe2fla","Swartkatakoeroe"
"spOriol1chl","Groenkopwielewaal"
"spOriol1lar","Swartkopwielewaal"
"spOriol1aur","Afrikaanse Wielewaal"
"spOriol1ori","Europese Wielewaal"
"spDicruads","Mikstertbyvanger"
"spDicrulud","Kleinbyvanger"
"spTroch1cya","Bloukuifvlieëvanger"
"spTerpsvir","Paradysvlieëvanger"
"spEurocang","Kremetartlaksman"
"spLaniumel","Langstertlaksman"
"spLaniusou","Souzalaksman"
"spLaniucol","Fiskaallaksman"
"spLaniumin","Gryslaksman"
"spLaniucol2","Rooiruglaksman"
"spLaniupho","Rooistertlaksman"
"spCorvuspl","Huiskraai"
"spCorvucap","Swartkraai"
"spCorvualb","Witborskraai"
"spCorvualb1","Withalskraai"
"spChaet3fre","Kaapse Berglyster"
"spChaet3aur","Oranjeborsberglyster"
"spStenosci","Feëvlieëvanger"
"spElminalb2","Witstertvlieëvanger"
"spMelan8nig","Gewone Swartmees"
"spMelan8car","Ovamboswartmees"
"spMelan8ruf","Swartkopmees"
"spMelan8gri","Miombogrysmees"
"spMelan8cin","Akasiagrysmees"
"spMelan8afe","Piet-tjou-tjou-grysmees"
"spAntho3car","Gryskapokvoël"
"spAntho3min","Kaapse Kapokvoël"
"spNicatgul","Geelvleknikator (Oostelike Nikator)"
"spChersalb","Vlaktelewerik"
"spAmmomgra","Namiblewerik"
"spCerth3chu","Kortkloulewerik"
"spCerth3ben","Kaokolangbeklewerik"
"spCerth3sub","Karoolangbeklewerik"
"spCerth3sem","Grasveldlangbeklewerik"
"spCerth3cur","Weskuslangbeklewerik"
"spCerth3bre","Overberglangbeklewerik"
"spPinarnig","Donkerlewerik"
"spEremoaus","Swartoorlewerik"
"spEremoleu","Rooiruglewerik"
"spEremover","Grysruglewerik"
"spCalensab","Sabotalewerik"
"spCalenafr","Vaalbruinlewerik"
"spCalenalb","Karoolewerik"
"spCalenbur","Rooilewerik"
"spCalenery","Duinlewerik"
"spHeter7rud","Drakensberglewerik"
"spMirafpas","Bosveldlewerik"
"spMirafche","Spotlewerik"
"spAmiraruf","Laeveldklappertjie"
"spCoryp1api","Kaapse Klappertjie"
"spCoryp1fas","Hoëveldklappertjie"
"spCoryp1afr","Rooineklewerik"
"spSpizoscl","Namakwalewerik"
"spSpizosta","Woestynlewerik"
"spSpizofri","Vaalrivierlewerik"
"spSpizocon","Pienkbeklewerik"
"spGalermag","Dikbeklewerik"
"spCalancin","Rooikoplewerik"
"spAndro2imp","Gewone Willie"
"spAtimafla","Geelkeelwillie"
"spChlor6fla","Geelborswillie (Geelborstiptol)"
"spArizemil","Streepwangwillie (Streepwangtiptol)"
"spPhyll3deb","Kleinboskruiper (Kleintiptol)"
"spPhyll3ter","Boskrapper"
"spPhyll3fla","Geelstreepboskruiper (Geelstreeptiptol)"
"spPycno2nig","Rooioogtiptol"
"spPycno2cap","Kaapse Tiptol"
"spPsalialb","Witkopsaagvlerkswael"
"spPsalipri","Swartsaagvlerkswael"
"spPseud16gri","Gryskruisswael"
"spPhedibor","Gestreepte Kransswael"
"spNeoph3cin","Gebande Oewerswael"
"spRiparpal","Afrikaanse Oewerswael"
"spRiparrip","Europese Oewerswael"
"spPtyonful","Kransswael"
"spHirun2atr","Blouswael"
"spHirun2dim","Pêrelborsswael"
"spHirun2rus","Europese Swael"
"spHirun2ang","Angolaswael"
"spHirun2alb","Witkeelswael"
"spHirun2smi","Draadstertswael"
"spDelicurb","Huisswael"
"spCecrocuc","Grootstreepswael"
"spCecrodau","Rooinekswael"
"spCecroaby","Kleinstreepswael"
"spCecrosem","Rooiborsswael"
"spCecrosen","Moskeeswael"
"spPetro2ruf","Rooikeelfamielieswael"
"spPetro2spi","Familieswael"
"spMelocmen","Breëstertgrasvoël"
"spSphen1afe","Grasvoël"
"spAchaepyc","Rotsvoël"
"spSylvi2why","Rooiwangstompstert"
"spSylvi2ruf","Bosveldstompstert"
"spSylvi2ruf1","Rooikroonstompstert"
"spCrypt7vic","Rooiborsruigtesanger"
"spEryth4liv","Rooistertvlieëvanger"
"spPhyll5tro","Hofsanger"
"spPhyll5ruf","Geelkeelsanger"
"spAcroc1gri","Basrarietsanger"
"spAcroc1ruf","Rooibruinrietsanger"
"spAcroc1gra","Kaapse Rietsanger"
"spAcroc1aru","Grootrietsanger"
"spAcroc1sch","Europese Vleisanger"
"spAcroc1sci","Hermansrietsanger"
"spAcroc1pal1","Europese Rietsanger"
"spIdunanat","Geelsanger"
"spHippooli","Olyfboomsanger"
"spHippoict","Spotvoël (Spotsanger)"
"spLocusflu","Sprinkaansanger"
"spCatribre","Breëstertsanger"
"spBradysyl","Knysnaruigtesanger"
"spBradybar","Ruigtesanger"
"spBradybab","Kaapse Vleisanger"
"spCistiery","Rooiwangtinktinkie"
"spCistican","Singende Tinktinkie"
"spCistiabe","Luitinktinkie"
"spCistichi","Bosveldtinktinkie"
"spCistiruf","Rooitinktinkie"
"spCistisub","Grysrugtinktinkie"
"spCistilai","Huiltinktinkie"
"spCistigal","Swartrugtinktinkie"
"spCistilua","Luapulatinktinkie"
"spCistipip","Piepende Tinktinkie"
"spCistitin","Vleitinktinkie"
"spCistinat","Groottinktinkie"
"spCistibra","Kortvlerktinktinkie"
"spCistiful","Neddikkie"
"spCistijun","Landeryklopkloppie"
"spCistiari","Woestynklopkloppie"
"spCistitex","Gevlekte Klopkloppie"
"spCisticin1","Bleekkopklopkloppie"
"spCistiayr","Kleinste Klopkloppie"
"spPrinisub","Bruinsylangstertjie"
"spPrinifla1","Swartbandlangstertjie"
"spPrinimac","Karoolangstertjie"
"spPrinihyp","Geelpenslangstertjie (Drakensberglangstertjie)"
"spPriniery","Rooivlerksanger"
"spPhragsub","Namakwalangstertjie"
"spOreop3rob","Woudlangstertjie"
"spApalitho","Bandkeelkleinjantjie"
"spApalirud","Ruddkleinjantjie"
"spApalifla2","Geelborskleinjantjie"
"spApalimel","Swartkopkleinjantjie"
"spApalichi","Gryskleinjantjie"
"spMalcopec","Rooioorlangstertjie"
"spCamarbre","Grysrugkwêkwêvoël"
"spCamarbra","Groenrugkwêkwêvoël"
"spCalam2sti","Stierlingsanger"
"spCalam2fas","Gebande Sanger"
"spEuryp1sub","Kaneelborssanger"
"spEremo2ict","Geelpensbossanger"
"spEremo2sco","Donkerwangbossanger"
"spEremo2gre","Groenbossanger"
"spEremo2ust","Bruinkeelbossanger"
"spSylvi3atr","Swartkroonsanger"
"spSylvi3bor","Tuinsanger"
"spSylvi3nig","Rooibektiptol"
"spCurrulay","Grystjeriktik"
"spCurrusub","Bosveldtjeriktik"
"spCurrucom","Witkeelsanger"
"spZoste1sen","Geelglasogie (Geelkersogie)"
"spZoste1pal1","Gariepglasogie"
"spZoste1vir","Kaapse Glasogie (Kaapse Kersogie)"
"spTurdojar","Pylvlekkatlagter"
"spTurdogym","Kaalwangkatlagter"
"spTurdobic","Witkatlagter"
"spTurdohar","Witkruiskatlagter"
"spTurdomel","Swartwangkatlagter"
"spPromecaf","Kaapse Suikervoël"
"spPromegur","Rooiborssuikervoël"
"spHyliofla","Geelborshyliota"
"spHylioaus","Mashonahyliota"
"spSalposal","Boomkruiper"
"spAcridtri","Indiese Spreeu"
"spPastoros","Roosspreeu"
"spSturn2vul","Europese Spreeu"
"spCreatcin","Lelspreeu"
"spNotopcor","Swartpensglansspreeu"
"spLampr2nit","Kleinglanspreeu"
"spLampr2cha","Grootblouoorglansspreeu"
"spLampr2mev","Langstertglansspreeu"
"spLampr2aus","Grootglansspreeu"
"spLampr2acu","Spitsstertglansspreeu"
"spLampr2bic","Witgatspreeu"
"spCinny1leu","Witborsspreeu"
"spOnych2mor","Rooivlerkspreeu"
"spOnych2nab","Bleekvlerkspreeu"
"spBuphaafr","Geelbekrenostervoël"
"spBuphaery","Rooibekrenostervoël"
"spPinar1plu","Swartberglyster"
"spGeokigut","Natallyster"
"spGeokigur","Oranjelyster"
"spTurdulit","Gevlekte Lyster"
"spTurduoli1","Olyflyster"
"spTurdulib","Rooibeklyster"
"spTurdusmi","Karoolyster (Geelbeklyster)"
"spTychacor","Slangverklikker"
"spTychasig","Bruinwipstert"
"spTychaqua","Baardwipstert"
"spCerco3pae","Kalahariwipstert"
"spCerco3leu","Gestreepte Wipstert"
"spAgricpal","Muiskleurvlieëvanger"
"spAgricinf","Grootvlieëvanger"
"spFraseplu","Waaierstertvlieëvanger"
"spFrasecae","Blougrysvlieëvanger"
"spMelaepam","Swartvlieëvanger"
"spNamibher","Hererospekvreter"
"spSigelsil","Fiskaalvlieëvanger"
"spBradomar","Maricovlieëvanger"
"spMusci3adu","Donkervlieëvanger"
"spMusci3str","Europese Vlieëvanger"
"spSwynnswy","Bandkeeljanfrederik"
"spPogon3ste","Witkoljanfrederik"
"spChama3fue","Witborsboslyster"
"spCossy1heu","Heuglinjanfrederik"
"spCossy1dic","Lawaaimakerjanfrederik"
"spCossy1nat","Nataljanfrederik"
"spCichl2arq","Palmmôrelyster"
"spCichl2ruf","Rooistertmôrelyster"
"spXenocans","Angolajanfrederik"
"spDessohum","Witkeeljanfrederik"
"spDessocaf","Gewone Janfrederik"
"spSheppgun","Gunningjanfrederik (Ooskusakalat)"
"spIranigut","Irania"
"spLuscilus","Lysternagtegaal"
"spFicedalb1","Withalsvlieëvanger"
"spPhoen5pho","Europese Rooistert"
"spMontibre","Korttoonkliplyster"
"spMontiexp","Langtoonkliplyster"
"spMontirup","Kaapse Kliplyster"
"spMontiang","Angolakliplyster"
"spSaxicrub","Europese Bontrokkie"
"spSaxictor","Gewone Bontrokkie"
"spCampibif","Bergklipwagter"
"spEmargsch","Karoospekvreter"
"spEmargtra","Woestynspekvreter"
"spEmargsin","Vlaktespekvreter"
"spThamn4cin","Dassievoël"
"spMyrme2for","Swartpiek"
"spMyrme2mon","Bergwagter"
"spMyrme2nig","Roetpiek"
"spMyrme2arn","Bontpiek"
"spOenanoen","Europese Skaapwagter"
"spOenanpil","Hoëveldskaapwagter"
"spOenanisa","Vaalskaapwagter"
"spOenanple","Bontskaapwagter"
"spOenanfam","Gewone Spekvreter"
"spAnthr2rei","Bloukeelsuikerbekkie"
"spAnthr2lon","Blousuikerbekkie"
"spHedydcol","Kortbeksuikerbekkie"
"spAntho4vio","Oranjeborssuikerbekkie"
"spCyano12oli","Olyfsuikerbekkie"
"spCyano12ver1","Gryssuikerbekkie"
"spChalc5ame","Swartsuikerbekkie"
"spChalc5sen","Rooiborssuikerbekkie"
"spNectakil","Bronssuikerbekkie"
"spNectafam","Jangroentjie"
"spCinny2man","Miombo-rooiborssuikerbekkie"
"spCinny2cha","Kleinrooibandsuikerbekkie"
"spCinny2nee","Bloukruissuikerbekkie"
"spCinny2afe","Grootrooibandsuikerbekkie"
"spCinny2mar","Maricosuikerbekkie"
"spCinny2she","Swartpenssuikerbekkie"
"spCinny2bif","Purperbandsuikerbekkie"
"spCinny2tal","Witpenssuikerbekkie"
"spCinny2ven","Geelpenssuikerbekkie"
"spCinny2fus","Namakwasuikerbekkie"
"spCinny2cup","Kopersuikerbekkie"
"spGymno10sup","Geelvlekmossie"
"spPassemel","Gewone Mossie"
"spPassemot","Grootmossie"
"spPassegri","Witkeelmossie (Noordelike Gryskopmossie)"
"spPassedif","Gryskopmossie (Suidelike Gryskopmossie)"
"spPassedom","Huismossie"
"spBubalnig","Buffelwewer"
"spPloce1mah","Koringvoël"
"spPhile4soc","Versamelvoël (Familievoël)"
"spSporosqu","Baardmannetjie"
"spAmbly1alb","Dikbekwewer"
"spPloce2ocu","Brilwewer"
"spPloce2cap","Kaapse Wewer"
"spPloce2sub1","Geelwewer"
"spPloce2xan","Goudwewer"
"spPloce2xan1","Bruinkeelwewer"
"spPloce2int","Kleingeelvink"
"spPloce2vel","Swartkeelgeelvink"
"spPloce2cuc","Bontrugwewer"
"spPloce2rub","Bruinwewer"
"spPloce2bic","Bosmusikant"
"spPloce2oli","Olyfkopwewer"
"spAnaplrub","Rooikopwewer"
"spQuelecar","Kardinaalkwelea"
"spQueleery","Rooikopkwelea"
"spQueleque","Rooibekkwelea"
"spEupleafe","Goudgeelvink"
"spEuplehor","Vuurkopvink"
"spEupleori","Rooivink"
"spEuplecap","Kaapse Flap"
"spEupleaxi","Kortstertflap"
"spEuplemac","Geelrugflap"
"spEuplealb","Witvlerkflap"
"spEupleard","Rooikeelflap"
"spEuplepro","Langstertflap (Sakabula)"
"spSpermcuc","Gewone Fret"
"spSpermfri","Dikbekfret"
"spCoccoqua","Tropiese Swie (Tropiese Swiesysie)"
"spCoccoboc","Angolaswie"
"spCoccomel","Suidelike Swie (Suidelike Swiesysie)"
"spMandinit","Groenkolpensie (Groenrobbin)"
"spCrypt9rei","Rooirugsaadvretertjie (Rooirugrobbin)"
"spBrunhery","Swartwangsysie"
"spGlauc2per","Gryssysie"
"spGlauc2tho","Swartoogsysie"
"spEstriast","Rooibeksysie (Rooibekkie)"
"spOrtyg1atr","Gewone Kwartelvinkie"
"spPaludloc","Rooivlerkkwartelvinkie"
"spAmadifas","Bandkeelvink"
"spAmadiery","Rooikopvink"
"spAmandsub","Rooiassie"
"spGranagra","Koningblousysie"
"spUraegang","Gewone Blousysie"
"spPyrenmin","Rooistertsaadvretertjie (Rooistertrobbin)"
"spPytilmel","Gewone Melba (Melbasysie)"
"spPytilafr","Geelrugmelba (Geelrugsysie, Oranjevlerkmelba)"
"spHyparniv","Rooikeelkolpensie (Rooikeelrobbin)"
"spHyparmar","Rooskeelkolpensie (Rooskeelrobbin)"
"spLagonsen","Rooibekvuurvinkie (Rooibekrobbin)"
"spLagonrub","Kaapse Vuurvinkie (Kaapse Robbin)"
"spLagonrho","Jamesonvuurvinkie (Jamesonrobbin)"
"spLagonnit","Bruinvuurvinkie (Bruinrobbin)"
"spViduacha","Staalblouvinkie"
"spViduapur","Witpootblouvinkie"
"spViduafun","Gewone Blouvinkie"
"spViduacod","Groenblouvinkie"
"spViduawil","Persblouvinkie"
"spViduamac","Koningrooibekkie (Koningweduweetjie)"
"spViduareg","Pylstertrooibekkie (Pylstertweduweetjie)"
"spViduapar","Gewone Paradysvink"
"spViduaobt","Breëstertparadysvink"
"spAnomaimb","Koekoekvink"
"spMotacfla","Geelkwikkie"
"spMotaccit","Sitrienkwikkie"
"spMotaccap","Gewone Kwikkie"
"spMotaccin","Gryskwikkie"
"spMotaccla","Bergkwikkie"
"spMotacalb","Witkwikkie"
"spMotacagu","Bontkwikkie"
"spTmetoten","Goudkoester"
"spMacro6fue","Angolakalkoentjie"
"spMacro6cap","Oranjekeelkalkoentjie"
"spMacro6cro","Geelkeelkalkoentjie"
"spMacro6ame","Rooskeelkalkoentjie"
"spAnthucin","Gewone Koester"
"spAnthuhoe","Bergkoester"
"spAnthusim","Nicholsonkoester"
"spAnthunya","Miombokoester (Boskoester)"
"spAnthuvaa","Vaalkoester"
"spAnthuleu","Donkerkoester"
"spAnthutri","Boomkoester"
"spAnthucer","Rooikeelkoester"
"spAnthulin","Gestreepte Koester"
"spAnthucre","Klipkoester"
"spAnthubra","Kortstertkoester"
"spAnthucaf","Bosveldkoester"
"spAnthuchl","Geelborskoester"
"spFringcoe","Gryskoppie"
"spCrithhyp","Sitrienkanarie"
"spCrithsco","Gestreepte Kanarie"
"spCrithatr","Bergkanarie"
"spCrithcit1","Geelborskanarie"
"spCrithmoz","Geeloogkanarie"
"spCrithtot","Kaapse Pietjiekanarie"
"spCrithsym","Bergpietjiekanarie"
"spCrithfla1","Geelkanarie"
"spCrithsul","Dikbekkanarie"
"spCrithgul","Streepkopkanarie"
"spCrithmen1","Swartoorkanarie"
"spCrithalb","Witkeelkanarie"
"spCrithleu1","Witvlerkkanarie"
"spSerincan1","Kaapse Kanarie"
"spSerinala","Swartkopkanarie"
"spEmberhor","Ortolanstreepkoppie"
"spEmberimp","Vaalstreepkoppie"
"spEmbertah","Klipstreepkoppie"
"spEmbercap","Rooivlerkstreepkoppie"
"spEmberfla","Rooirugstreepkoppie"
"spEmbercab","Geelstreepkoppie"
