"Name","ID","Status"
"Magpie Goose","spAnsersem","rarity"
"Hardhead","spAythyaus","rarity"
"Peaceful Dove","spGeopepla",
"Nicobar Pigeon","spCaloenic","rarity"
"Rose-crowned Fruit-Dove","spPtilireg","rarity"
"Torresian Imperial-Pigeon","spDuculspi","rarity"
"Lesser Coucal","spCentr1ben","rarity"
"Pacific Koel","spEudynori","rarity"
"Channel-billed Cuckoo","spScythnov","rarity"
"Horsfield's Bronze-Cuckoo","spChalc1bas","rarity"
"Black-eared Cuckoo","spChalc1osc","rarity"
"Shining Bronze-Cuckoo","spChalc1luc","rarity"
"Little Bronze-Cuckoo","spChalc1min","rarity"
"Pallid Cuckoo","spHeter2pal","rarity"
"Sahul Brush Cuckoo","spCacomvar","rarity"
"Oriental Cuckoo","spCuculopt","rarity"
"Gray Nightjar","spCaprijot","rarity"
"Large-tailed Nightjar","spCaprimac","rarity"
"White-throated Needletail","spHiruncau","rarity"
"Pacific Swift","spApuspac","rarity"
"House Swift","spApusnip","rarity"
"Buff-banded Rail","spGalli2phi",
"Watercock","spGalli4cin","rarity"
"White-breasted Waterhen","spAmaur1pho","rarity"
"Red-legged Crake","spRalli1fas","rarity"
"Beach Thick-knee","spEsacumag","rarity"
"Pied Stilt","spHiman1leu",
"Pied Oystercatcher","spHaema1lon","rarity"
"Black-bellied Plover","spPluvi2squ",
"Pacific Golden-Plover","spPluvi2ful",
"Masked Lapwing","spVanelmil","rarity"
"Oriental Plover","spAnarhver","rarity"
"Siberian Sand-Plover","spAnarhmon",
"Greater Sand-Plover","spAnarhles",
"Whimbrel","spNumenpha",
"Little Curlew","spNumenmin",
"Far Eastern Curlew","spNumenmad",
"Bar-tailed Godwit","spLimoslap",
"Black-tailed Godwit","spLimoslim",
"Asian Dowitcher","spLimnosem",
"Swinhoe's Snipe","spGalli5meg","rarity"
"Red-necked Phalarope","spPhala1lob","rarity"
"Terek Sandpiper","spXenuscin",
"Common Sandpiper","spActithyp",
"Gray-tailed Tattler","spTringbre",
"Marsh Sandpiper","spTringsta","rarity"
"Wood Sandpiper","spTringgla","rarity"
"Common Redshank","spTringtot","rarity"
"Common Greenshank","spTringneb",
"Ruddy Turnstone","spArenaint",
"Great Knot","spCalidten",
"Red Knot","spCalidcan",
"Broad-billed Sandpiper","spCalidfal","rarity"
"Sharp-tailed Sandpiper","spCalidacu",
"Curlew Sandpiper","spCalidfer",
"Long-toed Stint","spCalidsub","rarity"
"Red-necked Stint","spCalidruf",
"Sanderling","spCalidalb",
"Little Stint","spCalidmin","rarity"
"Red-backed Buttonquail","spTurnimac","rarity"
"Australian Pratincole","spGlareisa","rarity"
"Oriental Pratincole","spGlaremal","rarity"
"Long-tailed Jaeger","spSterclon",
"Parasitic Jaeger","spStercpar",
"Pomarine Jaeger","spStercpom","rarity"
"White Tern","spGygisalb","rarity"
"Brown Noddy","spAnoussto",
"Lesser Noddy","spAnousten",
"Black Noddy","spAnousmin",
"Sooty Tern","spOnychfus",
"Bridled Tern","spOnychana",
"Little Tern","spStern1alb",
"Gull-billed Tern","spGelocnil",
"Whiskered Tern","spChlidhyb","rarity"
"White-winged Tern","spChlidleu","rarity"
"Arctic Tern","spStern2par","rarity"
"Common Tern","spStern2hir1","rarity"
"Black-naped Tern","spStern2sum",
"Roseate Tern","spStern2dou",
"Lesser Crested Tern","spThala1ben","rarity"
"Great Crested Tern","spThala1ber",
"White-tailed Tropicbird","spPhaet2lep",
"Red-billed Tropicbird","spPhaet2aet","rarity"
"Red-tailed Tropicbird","spPhaet2rub",
"Wilson's Storm-Petrel","spOceanoce",
"Leach's Storm-Petrel","spHydro5leu","rarity"
"Swinhoe's Storm-Petrel","spHydro5mon",
"Matsudaira's Storm-Petrel","spHydro5mat",
"Trindade Petrel","spPtero3arm","rarity"
"Bulwer's Petrel","spBulwebul",
"Jouanin's Petrel","spBulwefal",
"Tahiti Petrel","spPseudros",
"Streaked Shearwater","spCalonleu",
"Wedge-tailed Shearwater","spArdenpac",
"Hutton's Shearwater","spPuffihut",
"Persian Shearwater","spPuffiper","rarity"
"Lesser Frigatebird","spFregaari",
"Great Frigatebird","spFregamin",
"Abbott's Booby","spPapasabb","rarity"
"Red-footed Booby","spSulasul",
"Brown Booby","spSulaleu",
"Masked Booby","spSuladac",
"Nazca Booby","spSulagra","rarity"
"Little Pied Cormorant","spMicro5mel","rarity"
"Little Black Cormorant","spPhala2sul","rarity"
"Black Bittern","spBotaufla","rarity"
"Black-crowned Night Heron","spNycti6nyc","rarity"
"Nankeen Night Heron","spNycti6cal",
"Pacific Reef-Heron","spEgretsac",
"Little Egret","spEgretgar",
"White-faced Heron","spEgretnov",
"Striated Heron","spButorstr","rarity"
"Great Egret","spArdeaalb",
"Plumed Egret","spArdeaplu",
"Australian Pelican","spPelec1con","rarity"
"Letter-winged Kite","spElanuscr","rarity"
"Oriental Honey-buzzard","spPernipti","rarity"
"Japanese Sparrowhawk","spTachy3gul","rarity"
"Chinese Sparrowhawk","spTachy3sol","rarity"
"Brown Goshawk","spTachy3fas","rarity"
"Swamp Harrier","spCircuapp","rarity"
"Eastern Barn Owl","spTytojav","rarity"
"Northern Boobook","spNinoxjap","rarity"
"Rainbow Bee-eater","spMerop1orn",
"Azure Kingfisher","spCeyxazu","rarity"
"Red-backed Kingfisher","spTodirpyr",
"Forest Kingfisher","spTodirmac","rarity"
"Sacred Kingfisher","spTodirsan",
"Collared Kingfisher","spTodirchl",
"Dollarbird","spEurysori","rarity"
"Nankeen Kestrel","spFalcocen","rarity"
"Australian Hobby","spFalcolon","rarity"
"Peregrine Falcon","spFalcoper","rarity"
"Rufous-throated Honeyeater","spConop2ruf","rarity"
"Yellow Chat","spEpthicro","rarity"
"Black-faced Cuckooshrike","spCorac2nov",
"White-winged Triller","spLalagtri","rarity"
"Sahul Cicadabird","spEdoliten","rarity"
"Supertramp Fantail","spRhipisem1","rarity"
"Island Monarch","spMonarcin","rarity"
"Australian Spectacled Monarch","spSympotri","rarity"
"Magpie-lark","spGrall2cya","rarity"
"Broad-billed Flycatcher","spMyiagruf","rarity"
"Tiger Shrike","spLaniutig","rarity"
"Brown Shrike","spLaniucri","rarity"
"Torresian Crow","spCorvuorr","rarity"
"Oriental Reed Warbler","spAcroc1ori1","rarity"
"Australian Reed Warbler","spAcroc1aus","rarity"
"Gray's Grasshopper Warbler","spHelopfas","rarity"
"Pallas's Grasshopper Warbler","spHelopcer","rarity"
"Middendorff's Grasshopper Warbler","spHelopoch","rarity"
"Brown Songlark","spCincl2cru","rarity"
"Tawny Grassbird","spCincl2tim","rarity"
"Barn Swallow","spHirun2rus","rarity"
"Eastern Red-rumped Swallow","spCecrodau","rarity"
"Fairy Martin","spPetro2ari","rarity"
"Tree Martin","spPetro2nig","rarity"
"Yellow-browed Warbler","spPhyll5ino","rarity"
"Willow Warbler","spPhyll5tro","rarity"
"Eastern Crowned Warbler","spPhyll5cor","rarity"
"Arctic Warbler","spPhyll5bor1","rarity"
"Kamchatka Leaf Warbler","spPhyll5exa","rarity"
"Asian Stubtail","spUrospsqu","rarity"
"Ashy-bellied White-eye","spZoste1cit","rarity"
"Australian Yellow White-eye","spZoste1lut","rarity"
"Rosy Starling","spPastoros","rarity"
"Chestnut-cheeked Starling","spAgropphi","rarity"
"Siberian Thrush","spGeokisib","rarity"
"Gray-streaked Flycatcher","spMusci3gri","rarity"
"Dark-sided Flycatcher","spMusci3sib","rarity"
"Asian Brown Flycatcher","spMusci3dau","rarity"
"Blue-and-white Flycatcher","spCyano11cya","rarity"
"Siberian Blue Robin","spLarvicya","rarity"
"Scaly-breasted Munia","spLonchpun","rarity"
"Pale-headed Munia","spLonchpal","rarity"
"Eurasian Tree Sparrow","spPassemon","rarity-from-introduced"
"Gray Wagtail","spMotaccin","rarity"
"Eastern Yellow Wagtail","spMotactsc","rarity"
"Pechora Pipit","spAnthugus","rarity"
