"Name","ID","Status"
"Emu","spDromanov",
"Magpie Goose","spAnsersem",
"Spotted Whistling-Duck","spDendrgut","rarity"
"Plumed Whistling-Duck","spDendreyt",
"Wandering Whistling-Duck","spDendrarc",
"Freckled Duck","spStictnae",
"Black Swan","spCygnuatr",
"Radjah Shelduck","spRadjarad",
"Australian Shelduck","spTadortad",
"Muscovy Duck","spCairimos","escaped"
"Green Pygmy-Goose","spNettapul",
"Maned Duck","spChenojub",
"Garganey","spSpatuque","rarity"
"Australasian Shoveler","spSpaturhy",
"Pacific Black Duck","spAnassup",
"Northern Pintail","spAnasacu","rarity"
"Gray Teal","spAnasgra",
"Chestnut Teal","spAnascas",
"Pink-eared Duck","spMalacmem",
"Hardhead","spAythyaus",
"Blue-billed Duck","spOxyuraus",
"Musk Duck","spBiziulob","rarity"
"Orange-footed Megapode","spMegaprei",
"Helmeted Guineafowl","spNumidmel","escaped"
"Indian Peafowl","spPavocri","escaped"
"Brown Quail","spSynoiyps",
"Blue-breasted Quail","spSynoichi",
"Stubble Quail","spCoturpec",
"Rock Pigeon","spColumliv","introduced"
"Spotted Dove","spSpilochi","introduced"
"Pacific Emerald Dove","spChalclon",
"Common Bronzewing","spPhapscha",
"Flock Bronzewing","spPhapshis",
"Crested Pigeon","spOcyphlop",
"Spinifex Pigeon","spGeophplu",
"Partridge Pigeon","spGeophsmi",
"Chestnut-quilled Rock-Pigeon","spPetroruf","endemic"
"White-quilled Rock-Pigeon","spPetroalb",
"Diamond Dove","spGeopecun",
"Peaceful Dove","spGeopepla",
"Bar-shouldered Dove","spGeopehum",
"Black-banded Fruit-Dove","spPtiliall","endemic"
"Rose-crowned Fruit-Dove","spPtilireg",
"Elegant Imperial-Pigeon","spDuculcon","rarity"
"Torresian Imperial-Pigeon","spDuculspi",
"Australian Bustard","spArdeoaus",
"Pheasant Coucal","spCentr1pha",
"Pacific Koel","spEudynori",
"Channel-billed Cuckoo","spScythnov",
"Horsfield's Bronze-Cuckoo","spChalc1bas",
"Black-eared Cuckoo","spChalc1osc",
"Shining Bronze-Cuckoo","spChalc1luc","rarity"
"Little Bronze-Cuckoo","spChalc1min",
"Pallid Cuckoo","spHeter2pal",
"Fan-tailed Cuckoo","spCacomfla","rarity"
"Sahul Brush Cuckoo","spCacomvar",
"Oriental Cuckoo","spCuculopt",
"Spotted Nightjar","spEurosarg",
"Large-tailed Nightjar","spCaprimac",
"Tawny Frogmouth","spPodarstr",
"Papuan Frogmouth","spPodarpap","rarity"
"Australian Owlet-nightjar","spAegotcri1",
"White-throated Needletail","spHiruncau",
"Pacific Swift","spApuspac",
"House Swift","spApusnip","rarity"
"Chestnut Rail","spGalli2cas",
"Buff-banded Rail","spGalli2phi",
"Black-tailed Nativehen","spTriboven",
"Australian Crake","spPorzaflu",
"Dusky Moorhen","spGalli3ten",
"Eurasian Coot","spFulicatr",
"Australasian Swamphen","spPorph1mel",
"White-browed Crake","spPoliocin",
"Pale-vented Bush-hen","spAmaur1mol",
"Baillon's Crake","spZaporpus",
"Spotless Crake","spZaportab",
"Sarus Crane","spAntigant","rarity"
"Brolga","spAntigrub",
"Beach Thick-knee","spEsacumag",
"Bush Thick-knee","spBurhigra",
"Pied Stilt","spHiman1leu",
"Banded Stilt","spCladoleu",
"Red-necked Avocet","spRecurnov",
"Pied Oystercatcher","spHaema1lon",
"Sooty Oystercatcher","spHaema1ful",
"Black-bellied Plover","spPluvi2squ",
"Pacific Golden-Plover","spPluvi2ful",
"Common Ringed Plover","spCharahia","rarity"
"Black-fronted Dotterel","spThinomel",
"Little Ringed Plover","spThinodub","rarity"
"Banded Lapwing","spVaneltri",
"Masked Lapwing","spVanelmil",
"Red-kneed Dotterel","spEryth1cin",
"Inland Dotterel","spPeltoaus",
"Caspian Plover","spAnarhasi","rarity"
"Oriental Plover","spAnarhver",
"Siberian Sand-Plover","spAnarhmon",
"Greater Sand-Plover","spAnarhles",
"Double-banded Plover","spAnarhbic","rarity"
"Red-capped Plover","spAnarhruf",
"Kentish Plover","spAnarhale","rarity"
"Australian Painted-Snipe","spRostraus",
"Pheasant-tailed Jacana","spHydro2chi","rarity"
"Comb-crested Jacana","spIredigal",
"Whimbrel","spNumenpha",
"Little Curlew","spNumenmin",
"Far Eastern Curlew","spNumenmad",
"Bar-tailed Godwit","spLimoslap",
"Black-tailed Godwit","spLimoslim",
"Asian Dowitcher","spLimnosem","rarity"
"Swinhoe's Snipe","spGalli5meg",
"Pin-tailed Snipe","spGalli5ste","rarity"
"Latham's Snipe","spGalli5har",
"Red Phalarope","spPhala1ful","rarity"
"Red-necked Phalarope","spPhala1lob","rarity"
"Terek Sandpiper","spXenuscin",
"Common Sandpiper","spActithyp",
"Green Sandpiper","spTringoch","rarity"
"Gray-tailed Tattler","spTringbre",
"Wandering Tattler","spTringinc","rarity"
"Marsh Sandpiper","spTringsta",
"Wood Sandpiper","spTringgla",
"Common Redshank","spTringtot","rarity"
"Nordmann's Greenshank","spTringgut","rarity"
"Common Greenshank","spTringneb",
"Ruddy Turnstone","spArenaint",
"Great Knot","spCalidten",
"Red Knot","spCalidcan",
"Ruff","spCalidpug",
"Broad-billed Sandpiper","spCalidfal",
"Sharp-tailed Sandpiper","spCalidacu",
"Curlew Sandpiper","spCalidfer",
"Stilt Sandpiper","spCalidhim","rarity"
"Long-toed Stint","spCalidsub",
"Red-necked Stint","spCalidruf",
"Sanderling","spCalidalb",
"Baird's Sandpiper","spCalidbai","rarity"
"Little Stint","spCalidmin","rarity"
"Pectoral Sandpiper","spCalidmel",
"Red-backed Buttonquail","spTurnimac",
"Little Buttonquail","spTurnivel",
"Red-chested Buttonquail","spTurnipyr",
"Chestnut-backed Buttonquail","spTurnicas",
"Australian Pratincole","spGlareisa",
"Oriental Pratincole","spGlaremal",
"Long-tailed Jaeger","spSterclon","rarity"
"Parasitic Jaeger","spStercpar","rarity"
"Pomarine Jaeger","spStercpom","rarity"
"Sabine's Gull","spXemasab","rarity"
"Silver Gull","spChroinov",
"Black-headed Gull","spChroirid","rarity"
"Franklin's Gull","spLeuco3pip","rarity"
"Black-tailed Gull","spLaruscra","rarity"
"Brown Noddy","spAnoussto","rarity"
"Black Noddy","spAnousmin","rarity"
"Sooty Tern","spOnychfus","rarity"
"Bridled Tern","spOnychana","rarity"
"Little Tern","spStern1alb",
"Gull-billed Tern","spGelocnil",
"Australian Tern","spGelocmac",
"Caspian Tern","spHydro4cas",
"Whiskered Tern","spChlidhyb",
"White-winged Tern","spChlidleu",
"Common Tern","spStern2hir1",
"Black-naped Tern","spStern2sum",
"Roseate Tern","spStern2dou",
"Lesser Crested Tern","spThala1ben",
"Great Crested Tern","spThala1ber",
"Little Grebe","spTachy2ruf1","rarity"
"Australasian Grebe","spTachy2nov",
"Hoary-headed Grebe","spPolio1pol",
"Great Crested Grebe","spPodic1cri","rarity"
"White-tailed Tropicbird","spPhaet2lep","rarity"
"Red-tailed Tropicbird","spPhaet2rub",
"Wilson's Storm-Petrel","spOceanoce",
"Tahiti Petrel","spPseudros","rarity"
"Streaked Shearwater","spCalonleu",
"Wedge-tailed Shearwater","spArdenpac","rarity"
"Sooty Shearwater","spArdengri","rarity"
"Short-tailed Shearwater","spArdenten","rarity"
"Hutton's Shearwater","spPuffihut","rarity"
"Tropical Shearwater","spPuffibai","rarity"
"Persian Shearwater","spPuffiper","rarity"
"Black-necked Stork","spEphipasi",
"Lesser Frigatebird","spFregaari",
"Great Frigatebird","spFregamin","rarity"
"Christmas Island Frigatebird","spFregaand","rarity"
"Abbott's Booby","spPapasabb","rarity"
"Red-footed Booby","spSulasul","rarity"
"Brown Booby","spSulaleu",
"Masked Booby","spSuladac","rarity"
"Australasian Darter","spAnhinnov",
"Little Pied Cormorant","spMicro5mel",
"Great Cormorant","spPhala2car",
"Little Black Cormorant","spPhala2sul",
"Pied Cormorant","spPhala2var",
"Glossy Ibis","spPlegafal",
"Australian Ibis","spThresmol",
"Straw-necked Ibis","spThresspi",
"Royal Spoonbill","spPlatareg",
"Yellow-billed Spoonbill","spPlatafla",
"Black Bittern","spBotaufla",
"Black-backed Bittern","spBotaudub",
"Nankeen Night Heron","spNycti6cal",
"Pacific Reef-Heron","spEgretsac",
"Little Egret","spEgretgar",
"Pied Heron","spEgretpic",
"White-faced Heron","spEgretnov",
"Striated Heron","spButorstr",
"Chinese Pond-Heron","spArdeo1bac","rarity"
"Javan Pond-Heron","spArdeo1spe","rarity"
"Eastern Cattle-Egret","spArdeacor",
"Pacific Heron","spArdeapac",
"Great Egret","spArdeaalb",
"Plumed Egret","spArdeaplu",
"Great-billed Heron","spArdeasum",
"Australian Pelican","spPelec1con",
"Osprey","spPandihal",
"Black-shouldered Kite","spElanuaxi",
"Letter-winged Kite","spElanuscr",
"Pacific Baza","spAvicesub",
"Oriental Honey-buzzard","spPernipti","rarity"
"Black-breasted Kite","spHamirmel",
"Square-tailed Kite","spLopho7isu",
"Little Eagle","spHieramor",
"Wedge-tailed Eagle","spAquilaud",
"Collared Sparrowhawk","spTachy3cir",
"Gray Goshawk","spTachy3nov",
"Brown Goshawk","spTachy3fas",
"Red Goshawk","spEryth2rad",
"Swamp Harrier","spCircuapp",
"Spotted Harrier","spCircuass",
"Black Kite","spMilvumig",
"Brahminy Kite","spHaliaind",
"Whistling Kite","spHaliasph",
"White-bellied Sea-Eagle","spIcthyleu",
"Australian Masked-Owl","spTytonov",
"Australasian Grass-Owl","spTytolon",
"Eastern Barn Owl","spTytojav",
"Rufous Owl","spNinoxruf",
"Barking Owl","spNinoxcon",
"Australian Boobook","spNinoxboo",
"Eurasian Hoopoe","spUpupaepo","rarity"
"Rainbow Bee-eater","spMerop1orn",
"Azure Kingfisher","spCeyxazu",
"Little Kingfisher","spCeyxpus",
"Blue-winged Kookaburra","spDacellea",
"Red-backed Kingfisher","spTodirpyr",
"Forest Kingfisher","spTodirmac",
"Torresian Kingfisher","spTodirsor",
"Sacred Kingfisher","spTodirsan",
"Dollarbird","spEurysori",
"Nankeen Kestrel","spFalcocen",
"Australian Hobby","spFalcolon",
"Brown Falcon","spFalcober",
"Gray Falcon","spFalcohyp",
"Black Falcon","spFalcosub1",
"Peregrine Falcon","spFalcoper",
"Red-tailed Black-Cockatoo","spCalyp1ban",
"Cockatiel","spNymphhol",
"Galah","spEolopros",
"Pink Cockatoo","spCacatlea",
"Little Corella","spCacatsan",
"Long-billed Corella","spCacatten","escaped"
"Sulphur-crested Cockatoo","spCacatgal",
"Princess Parrot","spPolyt1ale",
"Red-winged Parrot","spAprosery",
"Night Parrot","spPezop1occ","rarity"
"Bourke's Parrot","spNeopsbou",
"Blue-winged Parrot","spNeoph1chr","rarity"
"Scarlet-chested Parrot","spNeoph1spl",
"Australian Ringneck","spBarnazon",
"Northern Rosella","spPlatyven",
"Mulga Parrot","spPseph1var",
"Hooded Parrot","spPseph1dis","endemic"
"Budgerigar","spMelopund",
"Varied Lorikeet","spPsitt4ver",
"Scaly-breasted Lorikeet","spTrich1chl","rarity"
"Rainbow Lorikeet","spTrich1mol","escaped"
"Red-collared Lorikeet","spTrich1rub1",
"Rainbow Pitta","spPittairi",
"Western Bowerbird","spChlam1gut",
"Great Bowerbird","spChlam1nuc",
"White-browed Treecreeper","spClimaaff",
"Black-tailed Treecreeper","spClimamel",
"Sandhill Grasswren","spAmytoowe",
"White-throated Grasswren","spAmytowoo","endemic"
"Carpentarian Grasswren","spAmytodor",
"Thick-billed Grasswren","spAmytomod","extinct"
"Eyrean Grasswren","spAmytogoy",
"Dusky Grasswren","spAmytopur",
"Kalkadoon Grasswren","spAmytobal",
"Rufous-crowned Emuwren","spStipiruf",
"Purple-crowned Fairywren","spMalurcor",
"Purple-backed Fairywren","spMalurass",
"Splendid Fairywren","spMalurspl",
"White-winged Fairywren","spMalurleu",
"Red-backed Fairywren","spMalurmel",
"Pied Honeyeater","spCerth2var",
"White-lined Honeyeater","spMelipalb","endemic"
"White-gaped Honeyeater","spStomiuni",
"White-fronted Honeyeater","spPurnealb",
"Yellow-throated Miner","spManorfla",
"Spiny-cheeked Honeyeater","spAcant2ruf",
"Singing Honeyeater","spGavicvir",
"White-plumed Honeyeater","spPtilo3pen",
"Yellow-tinted Honeyeater","spPtilo3fla",
"Gray-headed Honeyeater","spPtilo3kea",
"Gray-fronted Honeyeater","spPtilo3plu",
"Bar-breasted Honeyeater","spRamsafas",
"Rufous-banded Honeyeater","spConop2alb",
"Rufous-throated Honeyeater","spConop2ruf",
"Gray Honeyeater","spConop2whi",
"Gibberbird","spAshbylov",
"Yellow Chat","spEpthicro",
"Crimson Chat","spEpthitri",
"Orange Chat","spEpthiaur",
"Black Honeyeater","spSugomnig",
"Dusky Myzomela","spMyzomobs",
"Red-headed Myzomela","spMyzomery1",
"Banded Honeyeater","spCissopec",
"Brown Honeyeater","spLichmind",
"Blue-faced Honeyeater","spEntomcya",
"White-throated Honeyeater","spMelitalb",
"Black-chinned Honeyeater","spMelitgul",
"Painted Honeyeater","spGrantpic","rarity"
"Little Friarbird","spPhile1cit",
"Helmeted Friarbird","spPhile1buc",
"Silver-crowned Friarbird","spPhile1arg",
"Red-browed Pardalote","spPardarub",
"Striated Pardalote","spPardastr",
"Redthroat","spPyrrh2bru",
"Weebill","spSmicrbre",
"Southern Whiteface","spAphelleu",
"Banded Whiteface","spAphelnig",
"Yellow-rumped Thornbill","spAcant4chr",
"Inland Thornbill","spAcant4api",
"Slaty-backed Thornbill","spAcant4rob",
"Chestnut-rumped Thornbill","spAcant4uro",
"Green-backed Gerygone","spGerygchl",
"Large-billed Gerygone","spGerygmag",
"White-throated Gerygone","spGerygoli",
"Mangrove Gerygone","spGeryglev",
"Western Gerygone","spGerygfus",
"Gray-crowned Babbler","spPomattem",
"White-browed Babbler","spPomatsup",
"Copperback Quail-thrush","spCincl1cla",
"Western Quail-thrush","spCincl1mar",
"Cinnamon Quail-thrush","spCincl1cin",
"Ground Cuckooshrike","spCorac2max",
"Black-faced Cuckooshrike","spCorac2nov",
"White-bellied Cuckooshrike","spCorac2pap",
"White-winged Triller","spLalagtri",
"Varied Triller","spLalagleu2",
"Sahul Cicadabird","spEdoliten",
"Varied Sittella","spDaphochr",
"Chiming Wedgebill","spPsoph1occ",
"Chirruping Wedgebill","spPsoph1cri",
"Crested Bellbird","spOreoigut",
"Northern Shrike-tit","spFalcuwhi",
"Sandstone Shrikethrush","spColluwoo",
"Gray Shrikethrush","spColluhar",
"Arafura Shrikethrush","spCollumeg",
"Rufous Shrikethrush","spColluruf",
"Black-tailed Whistler","spPachy5mel",
"Gray Whistler","spPachy5sim",
"Rufous Whistler","spPachy5ruf1",
"White-breasted Whistler","spPachy5lan",
"Olive-backed Oriole","spOriolsag",
"Green Oriole","spOriolfla",
"Australasian Figbird","spSphecvie",
"White-breasted Woodswallow","spArtamleu",
"Masked Woodswallow","spArtamper",
"White-browed Woodswallow","spArtamsup",
"Black-faced Woodswallow","spArtamcin",
"Little Woodswallow","spArtammin",
"Gray Butcherbird","spCracttor",
"Silver-backed Butcherbird","spCractarg",
"Pied Butcherbird","spCractnig",
"Black Butcherbird","spMelloquo",
"Australian Magpie","spGymno8tib",
"Gray Currawong","spStrep2ver",
"Northern Fantail","spRhipiruf",
"Willie-wagtail","spRhipileu1",
"Arafura Fantail","spRhipidry",
"Gray Fantail","spRhipialb4",
"Mangrove Fantail","spRhipipha",
"Spangled Drongo","spDicrubra",
"Australian Spectacled Monarch","spSympotri","rarity"
"Magpie-lark","spGrall2cya",
"Leaden Flycatcher","spMyiagrub",
"Broad-billed Flycatcher","spMyiagruf",
"Satin Flycatcher","spMyiagcya","rarity"
"Restless Flycatcher","spMyiaginq",
"Paperbark Flycatcher","spMyiagnan",
"Shining Flycatcher","spMyiagale",
"Apostlebird","spStrut1cin",
"Torresian Crow","spCorvuorr",
"Little Crow","spCorvuben",
"Australian Raven","spCorvucor2",
"Red-capped Robin","spPetro1goo",
"Lemon-bellied Flyrobin","spMicro14fla",
"Jacky-winter","spMicro14fas",
"Buff-sided Robin","spPoeci1cer",
"Hooded Robin","spMelan6cuc",
"Mangrove Robin","spMelan6pul",
"Singing Bushlark","spMirafjav",
"Zitting Cisticola","spCistijun",
"Golden-headed Cisticola","spCistiexi1",
"Oriental Reed Warbler","spAcroc1ori1","rarity"
"Australian Reed Warbler","spAcroc1aus",
"Spinifexbird","spPoodycar",
"Little Grassbird","spPoodygra",
"Brown Songlark","spCincl2cru",
"Rufous Songlark","spCincl2mat",
"Tawny Grassbird","spCincl2tim",
"White-backed Swallow","spCheraleu",
"Welcome Swallow","spHirun2neo",
"Barn Swallow","spHirun2rus",
"Eastern Red-rumped Swallow","spCecrodau",
"Fairy Martin","spPetro2ari",
"Tree Martin","spPetro2nig",
"Australian Yellow White-eye","spZoste1lut",
"Silvereye","spZoste1lat","rarity"
"Metallic Starling","spAplonmet","rarity"
"European Starling","spSturnvul","introduced"
"Rosy Starling","spPastoros","rarity"
"Mistletoebird","spDicaehir",
"Sahul Sunbird","spCinny2fre","rarity"
"Pictorella Munia","spHeter10pec",
"Crimson Finch","spNeochpha",
"Painted Firetail","spEmblepic",
"Star Finch","spEmbleruf",
"Double-barred Finch","spStizo1bic",
"Zebra Finch","spTaeni2gut",
"Masked Finch","spPoephper",
"Long-tailed Finch","spPoephacu",
"Yellow-rumped Munia","spLonchfla",
"Chestnut-breasted Munia","spLonchcas",
"Gouldian Finch","spChloe1gou",
"House Sparrow","spPassedom","introduced"
"Eurasian Tree Sparrow","spPassemon","rarity-from-introduced"
"Forest Wagtail","spDendr12ind","rarity"
"Gray Wagtail","spMotaccin","rarity"
"Eastern Yellow Wagtail","spMotactsc",
"Citrine Wagtail","spMotaccit","rarity"
"White Wagtail","spMotacalb","rarity"
"Australian Pipit","spAnthuaus",
