"Name","ID","Status"
"White-faced Whistling-Duck","spDendrvid","rarity"
"Black-bellied Whistling-Duck","spDendraut",
"Fulvous Whistling-Duck","spDendrbic","rarity"
"Greater White-fronted Goose","spAnser1alb","rarity"
"Comb Duck","spSarkisyl","rarity"
"Muscovy Duck","spCairimos","introduced"
"Blue-winged Teal","spSpatudis",
"Cinnamon Teal","spSpatucya","rarity"
"Northern Shoveler","spSpatucly",
"Gadwall","spMarecstr","rarity"
"American Wigeon","spMarecame",
"White-cheeked Pintail","spAnasbah",
"Northern Pintail","spAnasacu","rarity"
"Green-winged Teal","spAnascre","rarity"
"Ring-necked Duck","spAythycol",
"Greater Scaup","spAythymar","rarity"
"Lesser Scaup","spAythyaff","rarity"
"Masked Duck","spNomondom","rarity"
"Crested Bobwhite","spColincri",
"Rock Pigeon","spColumliv","introduced"
"Scaly-naped Pigeon","spPatagsqu","extinct"
"Bare-eyed Pigeon","spPatagcor",
"Common Ground Dove","spColum1pas",
"White-tipped Dove","spLepto1ver",
"Eared Dove","spZenaiaur1",
"Greater Ani","spCrotomaj","rarity"
"Smooth-billed Ani","spCrotoani","rarity"
"Groove-billed Ani","spCrotosul",
"Yellow-billed Cuckoo","spCoccy1ame",
"Mangrove Cuckoo","spCoccy1min","rarity"
"Common Nighthawk","spChordmin",
"Antillean Nighthawk","spChordgun","rarity"
"White-tailed Nightjar","spHydrocay",
"Chuck-will's-widow","spAntrocar","rarity"
"Oilbird","spSteatcar","rarity"
"Black Swift","spCypsenig","rarity"
"White-collared Swift","spStrep1zon","rarity"
"Gray-rumped Swift","spChaetcin","rarity"
"Chimney Swift","spChaetpel",
"Vaux's Swift","spChaetvau","rarity"
"Chapman's Swift","spChaetcha","rarity"
"Fork-tailed Palm Swift","spTachosqu","rarity"
"White-necked Jacobin","spFlorimel","rarity"
"Ruby-topaz Hummingbird","spChrys2mos",
"Blue-tailed Emerald","spChlormel",
"Sora","spPorzacar",
"Common Gallinule","spGalli3gal",
"American Coot","spFulicame",
"Purple Gallinule","spPorph1mar",
"Limpkin","spAramugua","rarity"
"Black-necked Stilt","spHiman1mex",
"American Oystercatcher","spHaema1pal",
"Black-bellied Plover","spPluvi2squ",
"American Golden-Plover","spPluvi2dom",
"Killdeer","spCharavoc",
"Semipalmated Plover","spCharasem",
"Southern Lapwing","spVanelchi",
"Wilson's Plover","spAnarhwil",
"Collared Plover","spAnarhcol",
"Snowy Plover","spAnarhniv",
"Wattled Jacana","spJacanjac","rarity"
"Upland Sandpiper","spBartrlon","rarity"
"Whimbrel","spNumenpha",
"Hudsonian Godwit","spLimoshae","rarity"
"Short-billed Dowitcher","spLimnogri",
"Long-billed Dowitcher","spLimnosco","rarity"
"Wilson's Snipe","spGalli5del",
"Wilson's Phalarope","spPhala1tri","rarity"
"Spotted Sandpiper","spActitmac",
"Solitary Sandpiper","spTringsol",
"Lesser Yellowlegs","spTringfla",
"Willet","spTringsem",
"Greater Yellowlegs","spTringmel",
"Ruddy Turnstone","spArenaint",
"Red Knot","spCalidcan",
"Ruff","spCalidpug","rarity"
"Curlew Sandpiper","spCalidfer","rarity"
"Stilt Sandpiper","spCalidhim",
"Buff-breasted Sandpiper","spCalidsub1","rarity"
"Sanderling","spCalidalb",
"Baird's Sandpiper","spCalidbai","rarity"
"White-rumped Sandpiper","spCalidfus",
"Least Sandpiper","spCalidmin1",
"Pectoral Sandpiper","spCalidmel",
"Western Sandpiper","spCalidmau",
"Semipalmated Sandpiper","spCalidpus",
"Long-tailed Jaeger","spSterclon","rarity"
"Parasitic Jaeger","spStercpar",
"Pomarine Jaeger","spStercpom","rarity"
"South Polar Skua","spStercmac","rarity"
"Laughing Gull","spLeuco3atr",
"Franklin's Gull","spLeuco3pip","rarity"
"Ring-billed Gull","spLarusdel","rarity"
"American Herring Gull","spLarussmi",
"Great Black-backed Gull","spLarusmar","rarity"
"Lesser Black-backed Gull","spLarusfus",
"Black Skimmer","spRynchnig",
"Brown Noddy","spAnoussto",
"Black Noddy","spAnousmin",
"Sooty Tern","spOnychfus",
"Bridled Tern","spOnychana",
"Least Tern","spStern1ant",
"Large-billed Tern","spPhaet1sim","rarity"
"Gull-billed Tern","spGelocnil",
"Caspian Tern","spHydro4cas","rarity"
"Black Tern","spChlidnig",
"Forster's Tern","spStern2for","rarity"
"Common Tern","spStern2hir1",
"Roseate Tern","spStern2dou",
"Sandwich Tern","spThala1san",
"Elegant Tern","spThala1ele","rarity"
"Royal Tern","spThala1max",
"American Flamingo","spPhoenrub",
"Least Grebe","spTachy2dom",
"Pied-billed Grebe","spPodilpod",
"Red-billed Tropicbird","spPhaet2aet","rarity"
"Wilson's Storm-Petrel","spOceanoce","rarity"
"Black-capped Petrel","spPtero3has",
"Bulwer's Petrel","spBulwebul","rarity"
"Cory's Shearwater","spCalonbor","rarity"
"Sargasso Shearwater","spPuffilhe","rarity"
"Wood Stork","spMycteame","rarity"
"Magnificent Frigatebird","spFregamag",
"Great Frigatebird","spFregamin","rarity"
"Red-footed Booby","spSulasul",
"Brown Booby","spSulaleu",
"Masked Booby","spSuladac",
"Neotropic Cormorant","spNanno1bra",
"White Ibis","spEudocalb",
"Scarlet Ibis","spEudocrub",
"Glossy Ibis","spPlegafal",
"White-faced Ibis","spPlegachi","rarity"
"Roseate Spoonbill","spPlataaja",
"Pinnated Bittern","spBotaupin","rarity"
"Least Bittern","spBotauexi","rarity"
"Yellow-crowned Night Heron","spNyctavio",
"Black-crowned Night Heron","spNycti6nyc",
"Whistling Heron","spSyrigsib",
"Little Blue Heron","spEgretcae",
"Tricolored Heron","spEgrettri",
"Reddish Egret","spEgretruf",
"Snowy Egret","spEgretthu",
"Little Egret","spEgretgar","rarity"
"Striated Heron","spButorstr","rarity"
"Green Heron","spButorvir",
"Western Cattle-Egret","spArdeaibi",
"Great Egret","spArdeaalb",
"Great Blue Heron","spArdeaher",
"Brown Pelican","spPelec1occ",
"Black Vulture","spCoragatr","rarity"
"Turkey Vulture","spCathaaur","rarity"
"Osprey","spPandihal",
"White-tailed Kite","spElanuleu","rarity"
"Swallow-tailed Kite","spElanofor","rarity"
"Northern Harrier","spCircuhud","rarity"
"Snail Kite","spRostr1soc","rarity"
"White-tailed Hawk","spGeran1alb",
"Swainson's Hawk","spButeo1swa","rarity"
"Burrowing Owl","spAthencun",
"Ringed Kingfisher","spMegac1tor","rarity"
"Belted Kingfisher","spMegac1alc",
"Amazon Kingfisher","spChlor2ama","rarity"
"Yellow-bellied Sapsucker","spSphyrvar","rarity"
"Smoky-brown Woodpecker","spDryobfum",
"Crested Caracara","spCaracpla",
"Yellow-headed Caracara","spDaptrchi","rarity"
"American Kestrel","spFalcospa",
"Merlin","spFalcocol",
"Aplomado Falcon","spFalcofem","rarity"
"Peregrine Falcon","spFalcoper",
"Rose-ringed Parakeet","spPsitt2kra","escaped"
"Yellow-shouldered Amazon","spAmazo1bar","extinct"
"Brown-throated Parakeet","spEupsiper",
"Chestnut-fronted Macaw","spArasev","introduced"
"Southern Beardless-Tyrannulet","spCampt1obs","rarity"
"Mouse-colored Tyrannulet","spNesotmur","rarity"
"Slaty Elaenia","spElaenstr","rarity"
"Small-billed Elaenia","spElaenpar","rarity"
"Caribbean Elaenia","spElaenmar","rarity"
"Olive-sided Flycatcher","spContocoo","rarity"
"Eastern Wood-Pewee","spContovir","rarity"
"Willow Flycatcher","spEmpidtra","rarity"
"Northern Scrub-Flycatcher","spSubleare",
"Vermilion Flycatcher","spPyrocrub","rarity"
"Swainson's Flycatcher","spMyiarswa","rarity"
"Brown-crested Flycatcher","spMyiartyr",
"Cattle Tyrant","spMache1rix","rarity"
"Streaked Flycatcher","spMyiodmac","rarity"
"Piratic Flycatcher","spLegatleu","rarity"
"Variegated Flycatcher","spEmpid1var","rarity"
"Crowned Slaty Flycatcher","spEmpid1aur","rarity"
"Tropical Kingbird","spTyran4mel",
"Eastern Kingbird","spTyran4tyr","rarity"
"Gray Kingbird","spTyran4dom",
"Loggerhead Kingbird","spTyran4cau","rarity"
"Fork-tailed Flycatcher","spTyran4sav",
"Yellow-throated Vireo","spVireo1fla","rarity"
"Philadelphia Vireo","spVireo1phi","rarity"
"Red-eyed Vireo","spVireo1oli","rarity"
"Chivi Vireo","spVireo1chi","rarity"
"Yellow-green Vireo","spVireo1fla1","rarity"
"Black-whiskered Vireo","spVireo1alt",
"Bank Swallow","spRiparrip",
"Purple Martin","spPrognsub","rarity"
"Cuban Martin","spProgncry","rarity"
"Caribbean Martin","spProgndom","rarity"
"Gray-breasted Martin","spProgncha","rarity"
"Brown-chested Martin","spProgntap",
"Southern Rough-winged Swallow","spStelgruf","rarity"
"Barn Swallow","spHirun2rus",
"Cliff Swallow","spPetro2pyr",
"Cave Swallow","spPetro2ful","rarity"
"European Starling","spSturnvul","rarity-from-introduced"
"Gray Catbird","spDumet1car","rarity"
"Pearly-eyed Thrasher","spMarga3fus","rarity"
"Tropical Mockingbird","spMimusgil",
"Veery","spCatha1fus1","rarity"
"Gray-cheeked Thrush","spCatha1min","rarity"
"Hermit Thrush","spCatha1gut","rarity"
"Wood Thrush","spHyloc1mus","rarity"
"Cedar Waxwing","spBombyced","rarity"
"Java Sparrow","spPaddaory","introduced"
"House Sparrow","spPassedom","introduced"
"Rufous-collared Sparrow","spZonotcap",
"White-throated Sparrow","spZonotalb","rarity"
"Bobolink","spDolicory",
"Red-breasted Meadowlark","spLeistmil","rarity"
"Venezuelan Troupial","spIcter1ict",
"Yellow Oriole","spIcter1nig",
"Baltimore Oriole","spIcter1gal","rarity"
"Shiny Cowbird","spMolotbon","rarity"
"Bronzed Cowbird","spMolotaen",
"Boat-tailed Grackle","spQuiscmaj","rarity"
"Great-tailed Grackle","spQuiscmex","rarity"
"Carib Grackle","spQuisclug","introduced"
"Oriole Blackbird","spGymno11mex","rarity"
"Yellow-hooded Blackbird","spChrys8ict","rarity"
"Ovenbird","spSeiuraur",
"Worm-eating Warbler","spHelmiver","rarity"
"Louisiana Waterthrush","spParkemot","rarity"
"Northern Waterthrush","spParkenov",
"Golden-winged Warbler","spVermichr","rarity"
"Blue-winged Warbler","spVermicya","rarity"
"Black-and-white Warbler","spMniotvar",
"Prothonotary Warbler","spProtocit",
"Swainson's Warbler","spLimno3swa","rarity"
"Tennessee Warbler","spLeiot1per","rarity"
"Nashville Warbler","spLeiot1ruf","rarity"
"Connecticut Warbler","spOporoagi",
"Mourning Warbler","spGeothphi","rarity"
"Kentucky Warbler","spGeothfor","rarity"
"Common Yellowthroat","spGeothtri",
"Hooded Warbler","spSetop1cit",
"American Redstart","spSetop1rut",
"Cape May Warbler","spSetop1tig",
"Northern Parula","spSetop1ame",
"Magnolia Warbler","spSetop1mag","rarity"
"Bay-breasted Warbler","spSetop1cas","rarity"
"Blackburnian Warbler","spSetop1fus","rarity"
"Yellow Warbler","spSetop1pet",
"Chestnut-sided Warbler","spSetop1pen","rarity"
"Blackpoll Warbler","spSetop1str",
"Black-throated Blue Warbler","spSetop1cae","rarity"
"Palm Warbler","spSetop1pal","rarity"
"Yellow-rumped Warbler","spSetop1cor","rarity"
"Prairie Warbler","spSetop1dis","rarity"
"Black-throated Green Warbler","spSetop1vir","rarity"
"Canada Warbler","spCardecan","rarity"
"Summer Tanager","spPiranrub","rarity"
"Scarlet Tanager","spPiranoli","rarity"
"Rose-breasted Grosbeak","spPheuclud","rarity"
"Blue Grosbeak","spPasse3cae","rarity"
"Indigo Bunting","spPasse3cya","rarity"
"Dickcissel","spSpiza1ame",
"Saffron Finch","spSicalfla","extinct"
"Yellow-bellied Seedeater","spSporo1nig1","rarity"
"Bananaquit","spCoerefla",
"Black-faced Grassquit","spMelan14bic",
