"Name","ID","Status"
"Common Ostrich","spStrutcam",
"White-faced Whistling-Duck","spDendrvid",
"Fulvous Whistling-Duck","spDendrbic",
"White-backed Duck","spThalaleu",
"Knob-billed Duck","spSarkimel",
"Egyptian Goose","spAlopoaeg",
"South African Shelduck","spTadorcan",
"Spur-winged Goose","spPlectgam",
"African Pygmy-Goose","spNettaaur",
"Garganey","spSpatuque","rarity"
"Blue-billed Teal","spSpatuhot",
"Cape Shoveler","spSpatusmi",
"African Black Duck","spAnasspa",
"Yellow-billed Duck","spAnasund",
"Cape Teal","spAnascap",
"Red-billed Duck","spAnasery",
"Northern Pintail","spAnasacu","rarity"
"Southern Pochard","spNetta1ery",
"Maccoa Duck","spOxyurmac",
"Helmeted Guineafowl","spNumidmel",
"Southern Crested Guineafowl","spGutteedo","rarity"
"Crested Francolin","spOrtygsep",
"Coqui Francolin","spCampocoq",
"Orange River Francolin","spSclergut",
"Common Quail","spCoturcot","rarity"
"Harlequin Quail","spCoturdel",
"Red-billed Spurfowl","spPternads",
"Natal Spurfowl","spPternnat",
"Swainson's Spurfowl","spPternswa",
"Rock Pigeon","spColumliv","introduced"
"Speckled Pigeon","spColumgui",
"European Turtle-Dove","spStreptur","rarity"
"Mourning Collared-Dove","spStrepdec1",
"Red-eyed Dove","spStrepsem",
"Ring-necked Dove","spStrepcap",
"Laughing Dove","spSpilosen",
"Emerald-spotted Wood-Dove","spTurtucha",
"Namaqua Dove","spOenacap",
"African Green-Pigeon","spTrerocal",
"Namaqua Sandgrouse","spPtero1nam",
"Yellow-throated Sandgrouse","spPtero1gut",
"Double-banded Sandgrouse","spPtero1bic",
"Burchell's Sandgrouse","spPtero1bur",
"Kori Bustard","spArdeokor",
"Ludwig's Bustard","spNeotilud","rarity"
"Denham's Bustard","spNeotiden","rarity"
"White-bellied Bustard","spEupodsen","rarity"
"Red-crested Bustard","spLopho4ruf",
"White-quilled Bustard","spAfrotafr1",
"Black-bellied Bustard","spLissomel",
"Gray Go-away-bird","spCrinicon",
"Purple-crested Turaco","spGalli1por","rarity"
"Ross's Turaco","spTauraros","rarity"
"Schalow's Turaco","spTaurasch1","rarity"
"Senegal Coucal","spCentr1sen",
"Coppery-tailed Coucal","spCentr1cup",
"White-browed Coucal","spCentr1sup",
"Burchell's Coucal","spCentr1bur",
"Black Coucal","spCentr1gri",
"Great Spotted Cuckoo","spClamagla",
"Levaillant's Cuckoo","spClamalev",
"Pied Cuckoo","spClamajac",
"Thick-billed Cuckoo","spPachyaud","rarity"
"Dideric Cuckoo","spChrys1cap",
"Klaas's Cuckoo","spChrys1kla",
"African Emerald Cuckoo","spChrys1cup","rarity"
"Black Cuckoo","spCuculcla",
"Red-chested Cuckoo","spCuculsol",
"African Cuckoo","spCuculgul",
"Common Cuckoo","spCuculcan",
"Pennant-winged Nightjar","spCaprivex",
"Eurasian Nightjar","spCaprieur","rarity"
"Rufous-cheeked Nightjar","spCapriruf1",
"Fiery-necked Nightjar","spCapripec",
"Swamp Nightjar","spCaprinat",
"Freckled Nightjar","spCapritri",
"Square-tailed Nightjar","spCaprifos",
"Bat-like Spinetail","spNeafrboe","rarity"
"Alpine Swift","spTachy1mel",
"Common Swift","spApusapu",
"African Swift","spApusbar",
"Bradfield's Swift","spApusbra","rarity"
"Little Swift","spApusaff",
"Horus Swift","spApushor",
"White-rumped Swift","spApuscaf",
"African Palm Swift","spCypsipar",
"Buff-spotted Flufftail","spSarotele","rarity"
"Red-chested Flufftail","spSarotruf",
"African Rail","spRallucae",
"Corn Crake","spCrexcre","rarity"
"African Crake","spCrecoegr",
"Spotted Crake","spPorzapor",
"Lesser Moorhen","spParagang",
"Eurasian Moorhen","spGalli3chl",
"Red-knobbed Coot","spFuliccri",
"Allen's Gallinule","spPorph1all",
"African Swamphen","spPorph1mad",
"Striped Crake","spAenigmar","rarity"
"Black Crake","spZaporfla",
"Baillon's Crake","spZaporpus","rarity"
"African Finfoot","spPodicsen",
"Gray Crowned-Crane","spBaleareg",
"Blue Crane","spAnthr1par","rarity"
"Wattled Crane","spBugercar",
"Spotted Thick-knee","spBurhicap",
"Water Thick-knee","spBurhiver",
"Black-winged Stilt","spHiman1him",
"Pied Avocet","spRecuravo",
"Black-bellied Plover","spPluvi2squ",
"American Golden-Plover","spPluvi2dom","rarity"
"Common Ringed Plover","spCharahia",
"Three-banded Plover","spThinotri",
"Long-toed Lapwing","spVanelcra",
"Blacksmith Lapwing","spVanelarm",
"Spur-winged Lapwing","spVanelspi","rarity"
"White-crowned Lapwing","spVanelalb",
"Senegal Lapwing","spVanellug","rarity"
"Crowned Lapwing","spVanelcor",
"Wattled Lapwing","spVanelsen",
"Caspian Plover","spAnarhasi",
"Tibetan Sand-Plover","spAnarhatr","rarity"
"Greater Sand-Plover","spAnarhles","rarity"
"Kittlitz's Plover","spAnarhpec",
"Chestnut-banded Plover","spAnarhpal",
"White-fronted Plover","spAnarhmar",
"Greater Painted-Snipe","spRostrben",
"Lesser Jacana","spMicro4cap",
"African Jacana","spActopafr",
"Whimbrel","spNumenpha","rarity"
"Eurasian Curlew","spNumenarq",
"Bar-tailed Godwit","spLimoslap","rarity"
"Black-tailed Godwit","spLimoslim",
"Great Snipe","spGalli5med","rarity"
"African Snipe","spGalli5nig",
"Red Phalarope","spPhala1ful","rarity"
"Red-necked Phalarope","spPhala1lob","rarity"
"Terek Sandpiper","spXenuscin","rarity"
"Common Sandpiper","spActithyp",
"Green Sandpiper","spTringoch","rarity"
"Marsh Sandpiper","spTringsta",
"Wood Sandpiper","spTringgla",
"Common Redshank","spTringtot","rarity"
"Lesser Yellowlegs","spTringfla","rarity"
"Spotted Redshank","spTringery","rarity"
"Common Greenshank","spTringneb",
"Greater Yellowlegs","spTringmel","rarity"
"Ruddy Turnstone","spArenaint",
"Red Knot","spCalidcan","rarity"
"Ruff","spCalidpug",
"Curlew Sandpiper","spCalidfer",
"Temminck's Stint","spCalidtem","rarity"
"Buff-breasted Sandpiper","spCalidsub1","rarity"
"Sanderling","spCalidalb",
"Dunlin","spCalidalp","rarity"
"Little Stint","spCalidmin",
"Pectoral Sandpiper","spCalidmel","rarity"
"Small Buttonquail","spTurnisyl",
"Double-banded Courser","spSmutsafr",
"Bronze-winged Courser","spRhino1cha",
"Three-banded Courser","spRhino1cin",
"Temminck's Courser","spCursotem",
"Burchell's Courser","spCursoruf","rarity"
"Rock Pratincole","spGlarenuc",
"Collared Pratincole","spGlarepra",
"Black-winged Pratincole","spGlarenor",
"Long-tailed Jaeger","spSterclon","rarity"
"Black-headed Gull","spChroirid","rarity"
"Gray-hooded Gull","spChroicir",
"Lesser Black-backed Gull","spLarusfus","rarity"
"African Skimmer","spRynchfla",
"Gull-billed Tern","spGelocnil","rarity"
"Caspian Tern","spHydro4cas",
"Whiskered Tern","spChlidhyb",
"Black Tern","spChlidnig","rarity"
"White-winged Tern","spChlidleu",
"Greater Flamingo","spPhoenros",
"Lesser Flamingo","spPhoen1min",
"Little Grebe","spTachy2ruf1",
"Great Crested Grebe","spPodic1cri",
"Eared Grebe","spPodic1nig",
"African Openbill","spAnastlam",
"Black Stork","spCiconnig",
"Abdim's Stork","spCiconabd",
"African Woolly-necked Stork","spCiconmic",
"White Stork","spCiconcic",
"Saddle-billed Stork","spEphipsen",
"Marabou Stork","spLepto2cru",
"Yellow-billed Stork","spMycteibi",
"African Darter","spAnhinruf",
"Reed Cormorant","spMicro5afr",
"Great Cormorant","spPhala2car",
"Glossy Ibis","spPlegafal",
"African Sacred Ibis","spThresaet",
"Southern Bald Ibis","spGeroncal","rarity"
"Hadada Ibis","spBostrhag",
"African Spoonbill","spPlataalb",
"Eurasian Bittern","spBotauste","rarity"
"Dwarf Bittern","spBotaustu",
"Little Bittern","spBotaumin",
"Black-crowned Night Heron","spNycti6nyc",
"Slaty Egret","spEgretvin",
"Black Heron","spEgretard",
"Little Egret","spEgretgar",
"White-backed Night Heron","spCalheleu",
"Striated Heron","spButorstr",
"Rufous-bellied Heron","spArdeo1ruf",
"Squacco Heron","spArdeo1ral",
"Western Cattle-Egret","spArdeaibi",
"Great Egret","spArdeaalb",
"Yellow-billed Egret","spArdeabra",
"Gray Heron","spArdeacin",
"Purple Heron","spArdeapur",
"Black-headed Heron","spArdeamel",
"Goliath Heron","spArdeagol",
"Hamerkop","spScopuumb",
"Great White Pelican","spPelec1ono",
"Pink-backed Pelican","spPelec1ruf",
"Secretarybird","spSagitser",
"Osprey","spPandihal",
"Black-winged Kite","spElanucae",
"African Harrier-Hawk","spPolybtyp",
"Palm-nut Vulture","spGypohang","rarity"
"Egyptian Vulture","spNeophper","rarity"
"African Cuckoo-Hawk","spAvicecuc","rarity"
"European Honey-buzzard","spPerniapi","rarity"
"White-headed Vulture","spTrigoocc",
"Lappet-faced Vulture","spTorgotra",
"Hooded Vulture","spNecromon",
"White-backed Vulture","spGypsafr",
"Cape Griffon","spGypscop",
"Bateleur","spTerateca",
"Western Banded Snake-Eagle","spCircacin",
"Black-chested Snake-Eagle","spCircapec",
"Brown Snake-Eagle","spCircacin1",
"Crowned Eagle","spSteph1cor","rarity"
"Martial Eagle","spPolembel",
"Long-crested Eagle","spLophaocc",
"Lesser Spotted Eagle","spClang1pom",
"Wahlberg's Eagle","spHierawah",
"Ayres's Hawk-Eagle","spHieraayr",
"Booted Eagle","spHierapen",
"Steppe Eagle","spAquilnip",
"Tawny Eagle","spAquilrap",
"Verreaux's Eagle","spAquilver",
"African Hawk-Eagle","spAquilspi",
"Bat Hawk","spMachealc",
"Gabar Goshawk","spMicro6gab",
"Dark Chanting-Goshawk","spMeliemet",
"Pale Chanting-Goshawk","spMeliecan",
"Lizard Buzzard","spKaupimon",
"African Goshawk","spAerostac",
"Little Sparrowhawk","spTachy3min",
"Shikra","spTachy3bad",
"Ovambo Sparrowhawk","spAccipova",
"Black Goshawk","spAsturmel",
"Western Marsh Harrier","spCircuaer","rarity"
"African Marsh Harrier","spCircuran",
"Black Harrier","spCircumau","rarity"
"Pallid Harrier","spCircumac1",
"Montagu's Harrier","spCircupyg",
"Black Kite","spMilvumig",
"African Fish-Eagle","spIcthyvoc",
"Red-necked Buzzard","spButeo1aug","rarity"
"Augur Buzzard","spButeo1aug1","rarity"
"Jackal Buzzard","spButeo1ruf","rarity"
"Common Buzzard","spButeo1but",
"Long-legged Buzzard","spButeo1ruf1","rarity"
"African Grass-Owl","spTytocap","rarity"
"Western Barn Owl","spTytoalb",
"African Scops-Owl","spOtussen",
"Southern White-faced Owl","spPtilo1gra",
"Spotted Eagle-Owl","spBuboafr",
"Verreaux's Eagle-Owl","spKetuplac",
"Pel's Fishing-Owl","spScotopel",
"Pearl-spotted Owlet","spGlauc1per",
"African Barred Owlet","spGlauc1cap",
"African Wood-Owl","spStrixwoo",
"Marsh Owl","spAsiocap",
"Speckled Mousebird","spColiustr",
"White-backed Mousebird","spColiucol",
"Red-faced Mousebird","spUrocoind",
"Narina Trogon","spApalonar","rarity"
"Eurasian Hoopoe","spUpupaepo",
"Green Woodhoopoe","spPhoen3pur",
"Common Scimitarbill","spRhino2cya",
"Southern Ground-Hornbill","spBucorlea",
"Crowned Hornbill","spLopho11alb","rarity"
"Bradfield's Hornbill","spLopho11bra",
"African Gray Hornbill","spLopho11nas",
"Southern Yellow-billed Hornbill","spTockuleu",
"Southern Red-billed Hornbill","spTockuruf",
"Trumpeter Hornbill","spBycanbuc",
"White-fronted Bee-eater","spMerop1bul1",
"Little Bee-eater","spMerop1pus",
"Swallow-tailed Bee-eater","spMerop1hir",
"Blue-cheeked Bee-eater","spMerop1per",
"Olive Bee-eater","spMerop1sup","rarity"
"European Bee-eater","spMerop1api",
"Southern Carmine Bee-eater","spMerop1nub1",
"Half-collared Kingfisher","spAlcedsem",
"Malachite Kingfisher","spCoryt1cri",
"African Pygmy Kingfisher","spIspidpic",
"Gray-headed Kingfisher","spHalcyleu",
"Woodland Kingfisher","spHalcysen",
"Brown-hooded Kingfisher","spHalcyalb",
"Striped Kingfisher","spHalcyche",
"Giant Kingfisher","spMegac1max",
"Pied Kingfisher","spCerylrud",
"European Roller","spCoracgar",
"Lilac-breasted Roller","spCoraccau",
"Racket-tailed Roller","spCoracspa",
"Purple Roller","spCoracnae",
"Broad-billed Roller","spEurysgla",
"Crested Barbet","spTrach1vai",
"Yellow-fronted Tinkerbird","spPogonchr",
"Pied Barbet","spTrichleu",
"Black-collared Barbet","spLybiutor",
"Green-backed Honeybird","spProdozam","rarity"
"Brown-backed Honeybird","spProdoreg",
"Lesser Honeyguide","spIndicmin",
"Scaly-throated Honeyguide","spIndicvar","rarity"
"Greater Honeyguide","spIndicind",
"Red-throated Wryneck","spJynxruf","rarity"
"Bearded Woodpecker","spChlor3nam",
"Cardinal Woodpecker","spDendr4fus",
"Olive Woodpecker","spDendr4gri","rarity"
"Bennett's Woodpecker","spCampe1ben",
"Golden-tailed Woodpecker","spCampe1abi",
"Pygmy Falcon","spPolihsem",
"Lesser Kestrel","spFalconau",
"Rock Kestrel","spFalcorup",
"Greater Kestrel","spFalcorup1",
"Dickinson's Kestrel","spFalcodic",
"Red-necked Falcon","spFalcochi",
"Red-footed Falcon","spFalcoves",
"Amur Falcon","spFalcoamu",
"Sooty Falcon","spFalcocon","rarity"
"Eurasian Hobby","spFalcosub",
"African Hobby","spFalcocuv","rarity"
"Lanner Falcon","spFalcobia",
"Peregrine Falcon","spFalcoper",
"Rosy-faced Lovebird","spAgaporos","rarity"
"Black-cheeked Lovebird","spAgaponig","rarity"
"Brown-necked Parrot","spPoicefus",
"Meyer's Parrot","spPoicemey",
"African Broadbill","spSmithcap","rarity"
"African Pitta","spPittaang","rarity"
"White-breasted Cuckooshrike","spCeblepec",
"Black Cuckooshrike","spCampe2fla",
"Eurasian Golden Oriole","spOriolori",
"African Golden Oriole","spOriolaur",
"African Black-headed Oriole","spOriollar",
"Cape Batis","spBatiscap","rarity"
"Chinspot Batis","spBatismol",
"Pririt Batis","spBatispri",
"White-crested Helmetshrike","spPrion2plu",
"Retz's Helmetshrike","spPrion2ret",
"Brubru","spNilauafe",
"Black-backed Puffback","spDryoscub",
"Black-crowned Tchagra","spTchagsen",
"Brown-crowned Tchagra","spTchagaus",
"Tropical Boubou","spLaniamaj",
"Gabon Boubou","spLaniabic",
"Southern Boubou","spLaniafer",
"Crimson-breasted Gonolek","spLaniaatr",
"Bokmakierie","spTelopzey","rarity"
"Sulphur-breasted Bushshrike","spChlor5sul",
"Gray-headed Bushshrike","spMalac2bla",
"Fork-tailed Drongo","spDicruads",
"African Paradise-Flycatcher","spTerpsvir",
"Magpie Shrike","spUrolemel",
"Red-backed Shrike","spLaniucol",
"Isabelline Shrike","spLaniuisa","rarity"
"Lesser Gray Shrike","spLaniumin",
"Northern Fiscal","spLaniuhum",
"Southern Fiscal","spLaniucol2",
"Souza's Shrike","spLaniusou","rarity"
"White-crowned Shrike","spEurocang",
"Cape Crow","spCorvucap",
"Pied Crow","spCorvualb",
"White-necked Raven","spCorvualb1","rarity"
"Fairy Flycatcher","spStenosci",
"Rufous-bellied Tit","spMelan8ruf","rarity"
"Southern Black-Tit","spMelan8nig",
"Ashy Tit","spMelan8cin",
"African Penduline-Tit","spAntho3car",
"Southern Penduline-Tit","spAntho3min",
"Spike-heeled Lark","spChersalb",
"Short-clawed Lark","spCerth3chu",
"Dusky Lark","spPinarnig",
"Black-eared Sparrow-Lark","spEremoaus","rarity"
"Chestnut-backed Sparrow-Lark","spEremoleu",
"Gray-backed Sparrow-Lark","spEremover",
"Sabota Lark","spCalensab",
"Fawn-colored Lark","spCalenafr",
"Monotonous Lark","spMirafpas",
"Melodious Lark","spMirafche","rarity"
"Flappet Lark","spAmiraruf",
"Eastern Clapper Lark","spCoryp1fas",
"Rufous-naped Lark","spCoryp1afr",
"Stark's Lark","spSpizosta",
"Pink-billed Lark","spSpizocon",
"Red-capped Lark","spCalancin",
"Red-faced Crombec","spSylvi2why","rarity"
"Long-billed Crombec","spSylvi2ruf1",
"Yellow-bellied Eremomela","spEremo2ict",
"Green-capped Eremomela","spEremo2sco",
"Burnt-neck Eremomela","spEremo2ust",
"Stierling's Wren-Warbler","spCalam1sti",
"Barred Wren-Warbler","spCalam1fas",
"Green-backed Camaroptera","spCamarbra",
"Bar-throated Apalis","spApalitho",
"Yellow-breasted Apalis","spApalifla1",
"Tawny-flanked Prinia","spPrinisub",
"Black-chested Prinia","spPrinifla1",
"Rufous-eared Warbler","spMalcopec",
"Red-faced Cisticola","spCistiery",
"Rock-loving Cisticola","spCistiabe",
"Rattling Cisticola","spCistichi",
"Tinkling Cisticola","spCistiruf1",
"Luapula Cisticola","spCistilua",
"Chirping Cisticola","spCistipip",
"Levaillant's Cisticola","spCistitin","rarity"
"Croaking Cisticola","spCistinat","rarity"
"Piping Cisticola","spCistiful",
"Zitting Cisticola","spCistijun",
"Desert Cisticola","spCistiari",
"Cloud Cisticola","spCistitex","rarity"
"Pale-crowned Cisticola","spCisticin1","rarity"
"African Yellow-Warbler","spIdunanat","rarity"
"Olive-tree Warbler","spHippooli",
"Icterine Warbler","spHippoict",
"Sedge Warbler","spAcroc1sch",
"Marsh Warbler","spAcroc1pal1",
"Common Reed Warbler","spAcroc1sci",
"Basra Reed Warbler","spAcroc1gri","rarity"
"Lesser Swamp Warbler","spAcroc1gra",
"Greater Swamp Warbler","spAcroc1ruf",
"Great Reed Warbler","spAcroc1aru",
"River Warbler","spLocusflu","rarity"
"Little Rush Warbler","spBradybab",
"Black Sawwing","spPsalipri","rarity"
"Gray-rumped Swallow","spPseud15gri",
"Banded Martin","spNeoph3cin",
"Plain Martin","spRiparpal",
"Bank Swallow","spRiparrip",
"Southern Crag-Martin","spPtyonful",
"Pearl-breasted Swallow","spHirun2dim",
"Barn Swallow","spHirun2rus",
"Angola Swallow","spHirun2ang","rarity"
"White-throated Swallow","spHirun2alb",
"Wire-tailed Swallow","spHirun2smi",
"Western House-Martin","spDelicurb",
"Greater Striped Swallow","spCecrocuc",
"Lesser Striped Swallow","spCecroaby",
"Rufous-chested Swallow","spCecrosem",
"Mosque Swallow","spCecrosen",
"South African Swallow","spPetro2spi",
"Yellow-bellied Greenbul","spChlor6fla",
"Terrestrial Brownbul","spPhyll4ter",
"Common Bulbul","spPycno2bar",
"Black-fronted Bulbul","spPycno2nig",
"Willow Warbler","spPhyll5tro",
"Eurasian Blackcap","spSylvi3atr","rarity"
"Garden Warbler","spSylvi3bor",
"Chestnut-vented Warbler","spCurrusub",
"Greater Whitethroat","spCurrucom",
"Orange River White-eye","spZoste1pal1","rarity"
"Cape White-eye","spZoste1vir",
"Southern Yellow White-eye","spZoste1and",
"Arrow-marked Babbler","spTurdojar",
"Southern Pied-Babbler","spTurdobic",
"Hartlaub's Babbler","spTurdohar",
"Black-faced Babbler","spTurdomel",
"African Spotted Creeper","spSalposal","rarity"
"Red-billed Oxpecker","spBuphaery",
"Yellow-billed Oxpecker","spBuphaafr",
"European Starling","spSturnvul","rarity-from-introduced"
"Wattled Starling","spCreatcin",
"Rosy Starling","spPastoros","rarity"
"Common Myna","spAcridtri","introduced"
"Violet-backed Starling","spCinny1leu",
"Pale-winged Starling","spOnych2nab","rarity"
"Red-winged Starling","spOnych2mor",
"Burchell's Starling","spLampr2aus",
"Meves's Starling","spLampr2mev",
"African Pied Starling","spLampr2bic","rarity"
"Lesser Blue-eared Starling","spLampr2chl","rarity"
"Sharp-tailed Starling","spLampr2acu","rarity"
"Greater Blue-eared Starling","spLampr2cha",
"Cape Starling","spLampr2nit",
"Boulder Chat","spPinar1plu",
"Groundscraper Thrush","spTurdulit",
"Kurrichane Thrush","spTurdulib",
"Karoo Thrush","spTurdusmi",
"Spotted Flycatcher","spMusci3str",
"Marico Flycatcher","spBradomar",
"Pale Flycatcher","spAgricpal",
"Chat Flycatcher","spAgricinf",
"Gray Tit-Flycatcher","spFraseplu",
"Ashy Flycatcher","spFrasecae",
"Fiscal Flycatcher","spSigelsil",
"Southern Black-Flycatcher","spMelaepam",
"Bearded Scrub-Robin","spTychaqua",
"Kalahari Scrub-Robin","spCerco3pae",
"White-browed Scrub-Robin","spCerco3leu",
"Cape Robin-Chat","spDessocaf","rarity"
"White-throated Robin-Chat","spDessohum",
"White-browed Robin-Chat","spCossy1heu",
"Red-capped Robin-Chat","spCossy1nat","rarity"
"Collared Palm-Thrush","spCichl2arq",
"Thrush Nightingale","spLuscilus",
"Collared Flycatcher","spFicedalb1","rarity"
"Short-toed Rock-Thrush","spMontibre",
"Miombo Rock-Thrush","spMontiang",
"Whinchat","spSaxicrub","rarity"
"African Stonechat","spSaxictor",
"Sickle-winged Chat","spEmargsin","rarity"
"Mocking Cliff-Chat","spThamn4cin",
"Southern Anteater-Chat","spMyrme2for",
"Mountain Chat","spMyrme2mon","rarity"
"Arnot's Chat","spMyrme2arn",
"Northern Wheatear","spOenanoen","rarity"
"Capped Wheatear","spOenanpil",
"Isabelline Wheatear","spOenanisa","rarity"
"Pied Wheatear","spOenanple","rarity"
"Familiar Chat","spOenanfam",
"Collared Sunbird","spHedydcol",
"Amethyst Sunbird","spChalc5ame",
"Scarlet-chested Sunbird","spChalc5sen",
"Eastern Miombo Sunbird","spCinny2man","rarity"
"Marico Sunbird","spCinny2mar",
"Purple-banded Sunbird","spCinny2bif",
"White-bellied Sunbird","spCinny2tal",
"Dusky Sunbird","spCinny2fus",
"Copper Sunbird","spCinny2cup",
"Red-billed Buffalo-Weaver","spBubalnig",
"Scaly Weaver","spSporosqu",
"White-browed Sparrow-Weaver","spPloce1mah",
"Sociable Weaver","spPhile4soc",
"Red-headed Weaver","spAnaplrub",
"Spectacled Weaver","spPloce2ocu",
"Holub's Golden-Weaver","spPloce2xan",
"Southern Brown-throated Weaver","spPloce2xan1",
"Lesser Masked-Weaver","spPloce2int",
"Southern Masked-Weaver","spPloce2vel",
"Village Weaver","spPloce2cuc",
"Chestnut Weaver","spPloce2rub",
"Red-headed Quelea","spQueleery",
"Red-billed Quelea","spQueleque",
"Southern Red Bishop","spEupleori",
"Yellow-crowned Bishop","spEupleafe",
"Yellow Bishop","spEuplecap",
"White-winged Widowbird","spEuplealb",
"Red-collared Widowbird","spEupleard","rarity"
"Fan-tailed Widowbird","spEupleaxi",
"Long-tailed Widowbird","spEuplepro",
"Grosbeak Weaver","spAmbly1alb",
"Bronze Mannikin","spSpermcuc",
"Magpie Mannikin","spSpermfri","rarity"
"Black-faced Waxbill","spBrunhery",
"Common Waxbill","spEstriast",
"Quailfinch","spOrtyg1atr",
"Locustfinch","spPaludloc","rarity"
"Cut-throat","spAmadifas",
"Red-headed Finch","spAmadiery",
"Zebra Waxbill","spAmandsub",
"Violet-eared Waxbill","spGranagra",
"Southern Cordonbleu","spUraegang",
"Green-winged Pytilia","spPytilmel",
"Orange-winged Pytilia","spPytilafr",
"Red-throated Twinspot","spHyparniv","rarity"
"Red-billed Firefinch","spLagonsen",
"Jameson's Firefinch","spLagonrho",
"Brown Firefinch","spLagonnit",
"Pin-tailed Whydah","spViduamac",
"Broad-tailed Paradise-Whydah","spViduaobt",
"Eastern Paradise-Whydah","spViduapar",
"Shaft-tailed Whydah","spViduareg",
"Village Indigobird","spViduacha",
"Purple Indigobird","spViduapur",
"Parasitic Weaver","spAnomaimb","rarity"
"House Sparrow","spPassedom","introduced"
"Great Rufous Sparrow","spPassemot",
"Cape Sparrow","spPassemel",
"Northern Gray-headed Sparrow","spPassegri",
"Southern Gray-headed Sparrow","spPassedif",
"Yellow-throated Bush Sparrow","spGymno10sup",
"Cape Wagtail","spMotaccap",
"Mountain Wagtail","spMotaccla","rarity"
"Gray Wagtail","spMotaccin","rarity"
"Western Yellow Wagtail","spMotacfla1",
"African Pied Wagtail","spMotacagu",
"African Pipit","spAnthucin",
"Mountain Pipit","spAnthuhoe","rarity"
"Woodland Pipit","spAnthunya","rarity"
"Nicholson's Pipit","spAnthunic",
"Plain-backed Pipit","spAnthuleu",
"Buffy Pipit","spAnthuvaa",
"Striped Pipit","spAnthulin",
"Tree Pipit","spAnthutri","rarity"
"Red-throated Pipit","spAnthucer","rarity"
"Bush Pipit","spAnthucaf","rarity"
"Orange-throated Longclaw","spMacro6cap",
"Rosy-throated Longclaw","spMacro6ame",
"Yellow-fronted Canary","spCrithmoz",
"Black-throated Canary","spCrithatr",
"Yellow Canary","spCrithfla1",
"White-throated Canary","spCrithalb","rarity"
"Black-eared Seedeater","spCrithmen","rarity"
"Streaky-headed Seedeater","spCrithgul",
"Black-headed Canary","spSerinala","rarity"
"Golden-breasted Bunting","spEmberfla",
"Cape Bunting","spEmbercap","rarity"
"Lark-like Bunting","spEmberimp",
"Cinnamon-breasted Bunting","spEmbertah",
