"Name","ID","Status"
"Black-bellied Whistling-Duck","spDendraut","rarity"
"Fulvous Whistling-Duck","spDendrbic","rarity"
"Snow Goose","spAnser1cae",
"Ross's Goose","spAnser1ros","rarity"
"Graylag Goose","spAnser1ans","rarity"
"Greater White-fronted Goose","spAnser1alb",
"Tundra Bean-Goose","spAnser1ser","rarity"
"Pink-footed Goose","spAnser1bra","rarity"
"Brant","spBrantber",
"Barnacle Goose","spBrantleu","rarity"
"Cackling Goose","spBranthut","rarity"
"Canada Goose","spBrantcan",
"Mute Swan","spCygnuolo","rarity-from-introduced"
"Trumpeter Swan","spCygnubuc","rarity"
"Tundra Swan","spCygnucol","rarity"
"Wood Duck","spAixspo",
"Garganey","spSpatuque","rarity"
"Blue-winged Teal","spSpatudis",
"Cinnamon Teal","spSpatucya","rarity"
"Northern Shoveler","spSpatucly",
"Gadwall","spMarecstr",
"Eurasian Wigeon","spMarecpen",
"American Wigeon","spMarecame",
"Mallard","spAnaspla",
"American Black Duck","spAnasrub",
"Northern Pintail","spAnasacu",
"Green-winged Teal","spAnascre",
"Canvasback","spAythyval",
"Redhead","spAythyame",
"Ring-necked Duck","spAythycol",
"Tufted Duck","spAythyful",
"Greater Scaup","spAythymar",
"Lesser Scaup","spAythyaff",
"Labrador Duck","spCamptlab","extinct"
"King Eider","spSomatspe",
"Common Eider","spSomatmol",
"Harlequin Duck","spHistrhis",
"Surf Scoter","spMelanper",
"White-winged Scoter","spMelandeg",
"Black Scoter","spMelaname",
"Long-tailed Duck","spClanghye",
"Bufflehead","spBucepalb",
"Common Goldeneye","spBucepcla",
"Barrow's Goldeneye","spBucepisl",
"Hooded Merganser","spLopho1cuc",
"Common Merganser","spMergumer",
"Red-breasted Merganser","spMerguser",
"Ruddy Duck","spOxyurjam",
"Ruffed Grouse","spBonasumb",
"Willow Ptarmigan","spLagoplag",
"Rock Ptarmigan","spLagopmut","rarity"
"Spruce Grouse","spCanaccan",
"Gray Partridge","spPerdiper","introduced"
"Ring-necked Pheasant","spPhasicol","introduced"
"Rock Pigeon","spColumliv","introduced"
"Band-tailed Pigeon","spPatagfas","rarity"
"Passenger Pigeon","spEctopmig","extinct"
"Eurasian Collared-Dove","spStrepdec","rarity-from-introduced"
"Common Ground Dove","spColum1pas","rarity"
"White-winged Dove","spZenaiasi","rarity"
"Mourning Dove","spZenaimac",
"Yellow-billed Cuckoo","spCoccy1ame",
"Black-billed Cuckoo","spCoccy1ery",
"Common Nighthawk","spChordmin",
"Chuck-will's-widow","spAntrocar","rarity"
"Eastern Whip-poor-will","spAntrovoc",
"Chimney Swift","spChaetpel",
"Ruby-throated Hummingbird","spArchicol",
"Black-chinned Hummingbird","spArchiale","rarity"
"Calliope Hummingbird","spSelascal","rarity"
"Rufous Hummingbird","spSelasruf","rarity"
"King Rail","spRalluele","rarity"
"Clapper Rail","spRallucre","rarity"
"Virginia Rail","spRallulim",
"Corn Crake","spCrexcre","rarity"
"Sora","spPorzacar",
"Common Gallinule","spGalli3gal",
"American Coot","spFulicame",
"Purple Gallinule","spPorph1mar","rarity"
"Yellow Rail","spCotur1nov",
"Black Rail","spLaterjam",
"Limpkin","spAramugua","rarity"
"Sandhill Crane","spAntigcan","rarity"
"Black-necked Stilt","spHiman1mex","rarity"
"American Avocet","spRecurame","rarity"
"American Oystercatcher","spHaema1pal","rarity"
"Black-bellied Plover","spPluvi2squ",
"European Golden-Plover","spPluvi2apr","rarity"
"American Golden-Plover","spPluvi2dom",
"Pacific Golden-Plover","spPluvi2ful","rarity"
"Killdeer","spCharavoc",
"Common Ringed Plover","spCharahia","rarity"
"Semipalmated Plover","spCharasem",
"Piping Plover","spCharamel",
"Northern Lapwing","spVanelvan","rarity"
"Wilson's Plover","spAnarhwil","rarity"
"Snowy Plover","spAnarhniv","rarity"
"Upland Sandpiper","spBartrlon",
"Whimbrel","spNumenpha",
"Eskimo Curlew","spNumenbor","extinct"
"Long-billed Curlew","spNumename","rarity"
"Eurasian Curlew","spNumenarq","rarity"
"Bar-tailed Godwit","spLimoslap","rarity"
"Black-tailed Godwit","spLimoslim","rarity"
"Hudsonian Godwit","spLimoshae",
"Marbled Godwit","spLimosfed",
"Short-billed Dowitcher","spLimnogri",
"Long-billed Dowitcher","spLimnosco","rarity"
"American Woodcock","spScolomin",
"Wilson's Snipe","spGalli5del",
"Wilson's Phalarope","spPhala1tri",
"Red Phalarope","spPhala1ful",
"Red-necked Phalarope","spPhala1lob",
"Spotted Sandpiper","spActitmac",
"Solitary Sandpiper","spTringsol",
"Common Redshank","spTringtot","rarity"
"Lesser Yellowlegs","spTringfla",
"Willet","spTringsem",
"Spotted Redshank","spTringery","rarity"
"Common Greenshank","spTringneb","rarity"
"Greater Yellowlegs","spTringmel",
"Ruddy Turnstone","spArenaint",
"Red Knot","spCalidcan",
"Ruff","spCalidpug",
"Broad-billed Sandpiper","spCalidfal","rarity"
"Curlew Sandpiper","spCalidfer","rarity"
"Stilt Sandpiper","spCalidhim",
"Buff-breasted Sandpiper","spCalidsub1",
"Sanderling","spCalidalb",
"Dunlin","spCalidalp",
"Purple Sandpiper","spCalidmar",
"Baird's Sandpiper","spCalidbai",
"Little Stint","spCalidmin","rarity"
"White-rumped Sandpiper","spCalidfus",
"Least Sandpiper","spCalidmin1",
"Pectoral Sandpiper","spCalidmel",
"Western Sandpiper","spCalidmau",
"Semipalmated Sandpiper","spCalidpus",
"Long-tailed Jaeger","spSterclon",
"Parasitic Jaeger","spStercpar",
"Pomarine Jaeger","spStercpom",
"Great Skua","spStercsku","rarity"
"South Polar Skua","spStercmac",
"Atlantic Puffin","spFratearc",
"Black Guillemot","spCepphgry",
"Razorbill","spAlcator",
"Great Auk","spPinguimp","extinct"
"Dovekie","spAlleall",
"Thick-billed Murre","spUrialom",
"Common Murre","spUriaaal",
"Little Gull","spHydro3min",
"Ross's Gull","spRhodo2ros","rarity"
"Black-legged Kittiwake","spRissatri",
"Ivory Gull","spPagopebu",
"Sabine's Gull","spXemasab",
"Bonaparte's Gull","spChroiphi",
"Black-headed Gull","spChroirid",
"Laughing Gull","spLeuco3atr",
"Franklin's Gull","spLeuco3pip",
"Black-tailed Gull","spLaruscra","rarity"
"Common Gull","spLaruscan","rarity"
"Ring-billed Gull","spLarusdel",
"Kelp Gull","spLarusdom","rarity"
"American Herring Gull","spLarussmi",
"European Herring Gull","spLarusarg","rarity"
"Great Black-backed Gull","spLarusmar",
"Glaucous Gull","spLarushyp",
"Lesser Black-backed Gull","spLarusfus",
"California Gull","spLaruscal","rarity"
"Slaty-backed Gull","spLarussch","rarity"
"Iceland Gull","spLarusgla1",
"Black Skimmer","spRynchnig","rarity"
"Sooty Tern","spOnychfus","rarity"
"Bridled Tern","spOnychana","rarity"
"Least Tern","spStern1ant","rarity"
"Gull-billed Tern","spGelocnil","rarity"
"Caspian Tern","spHydro4cas",
"Black Tern","spChlidnig",
"White-winged Tern","spChlidleu","rarity"
"Forster's Tern","spStern2for","rarity"
"Arctic Tern","spStern2par",
"Common Tern","spStern2hir1",
"Roseate Tern","spStern2dou",
"Sandwich Tern","spThala1san",
"Royal Tern","spThala1max","rarity"
"American Flamingo","spPhoenrub","rarity"
"Pied-billed Grebe","spPodilpod",
"Horned Grebe","spPodic1aur",
"Red-necked Grebe","spPodic1gri",
"Eared Grebe","spPodic1nig","rarity"
"Western Grebe","spAechmocc","rarity"
"White-tailed Tropicbird","spPhaet2lep","rarity"
"Red-billed Tropicbird","spPhaet2aet","rarity"
"Red-throated Loon","spGaviaste",
"Pacific Loon","spGaviapac","rarity"
"Common Loon","spGaviaimm",
"Atlantic Yellow-nosed Albatross","spThala2chl","rarity"
"Black-browed Albatross","spThala2mel","rarity"
"Wilson's Storm-Petrel","spOceanoce",
"White-faced Storm-Petrel","spPelagmar","rarity"
"European Storm-Petrel","spHydro5pel","rarity"
"Leach's Storm-Petrel","spHydro5leu",
"Band-rumped Storm-Petrel","spHydro5cas","rarity"
"Northern Fulmar","spFulmagla",
"Fea's Petrel","spPtero3fea","rarity"
"Black-capped Petrel","spPtero3has","rarity"
"Cory's Shearwater","spCalonbor",
"Scopoli's Shearwater","spCalondio","rarity"
"Great Shearwater","spArdengra",
"Sooty Shearwater","spArdengri",
"Manx Shearwater","spPuffipuf",
"Barolo Shearwater","spPuffibar","rarity"
"Sargasso Shearwater","spPuffilhe","rarity"
"Wood Stork","spMycteame","rarity"
"Magnificent Frigatebird","spFregamag","rarity"
"Northern Gannet","spMorusbas",
"Red-footed Booby","spSulasul","rarity"
"Brown Booby","spSulaleu","rarity"
"Masked Booby","spSuladac","rarity"
"Great Cormorant","spPhala2car",
"Double-crested Cormorant","spNanno1aur",
"White Ibis","spEudocalb","rarity"
"Glossy Ibis","spPlegafal",
"White-faced Ibis","spPlegachi","rarity"
"American Bittern","spBotaulen",
"Least Bittern","spBotauexi",
"Yellow-crowned Night Heron","spNyctavio","rarity"
"Black-crowned Night Heron","spNycti6nyc",
"Little Blue Heron","spEgretcae","rarity"
"Tricolored Heron","spEgrettri","rarity"
"Reddish Egret","spEgretruf","rarity"
"Snowy Egret","spEgretthu",
"Little Egret","spEgretgar","rarity"
"Western Reef-Heron","spEgretgul","rarity"
"Green Heron","spButorvir",
"Western Cattle-Egret","spArdeaibi",
"Great Egret","spArdeaalb",
"Gray Heron","spArdeacin","rarity"
"Great Blue Heron","spArdeaher",
"American White Pelican","spPelec1ery","rarity"
"Brown Pelican","spPelec1occ","rarity"
"Black Vulture","spCoragatr","rarity"
"Turkey Vulture","spCathaaur",
"Osprey","spPandihal",
"Swallow-tailed Kite","spElanofor","rarity"
"Golden Eagle","spAquilchr",
"Sharp-shinned Hawk","spAccipstr",
"Cooper's Hawk","spAsturcoo",
"American Goshawk","spAsturatr",
"Northern Harrier","spCircuhud",
"Bald Eagle","spHalia1leu",
"Steller's Sea-Eagle","spHalia1pel","rarity"
"Mississippi Kite","spIctin1mis","rarity"
"Broad-winged Hawk","spButeo1pla1",
"Red-shouldered Hawk","spButeo1lin",
"Zone-tailed Hawk","spButeo1alb","rarity"
"Swainson's Hawk","spButeo1swa","rarity"
"Red-tailed Hawk","spButeo1jam",
"Rough-legged Hawk","spButeo1lag",
"American Barn Owl","spTytofur","rarity"
"Eastern Screech-Owl","spMegasasi","rarity"
"Snowy Owl","spBubosca",
"Great Horned Owl","spBubovir",
"Northern Hawk Owl","spSurni1ulu",
"Burrowing Owl","spAthencun","rarity"
"Barred Owl","spStrixvar",
"Great Gray Owl","spStrixneb",
"Long-eared Owl","spAsiootu",
"Short-eared Owl","spAsiofla",
"Boreal Owl","spAegolfun",
"Northern Saw-whet Owl","spAegolaca",
"Belted Kingfisher","spMegac1alc",
"Yellow-bellied Sapsucker","spSphyrvar",
"Lewis's Woodpecker","spMelan2lew","rarity"
"Red-headed Woodpecker","spMelan2ery",
"Red-bellied Woodpecker","spMelan2car",
"American Three-toed Woodpecker","spPicoidor",
"Black-backed Woodpecker","spPicoiarc",
"Downy Woodpecker","spDryobpub",
"Hairy Woodpecker","spDryobvil",
"Pileated Woodpecker","spDryocpil",
"Northern Flicker","spColapaur1",
"Crested Caracara","spCaracpla","rarity"
"Eurasian Kestrel","spFalcotin","rarity"
"American Kestrel","spFalcospa",
"Merlin","spFalcocol",
"Gyrfalcon","spFalcorus",
"Peregrine Falcon","spFalcoper",
"Olive-sided Flycatcher","spContocoo",
"Western Wood-Pewee","spContosor","rarity"
"Eastern Wood-Pewee","spContovir",
"Yellow-bellied Flycatcher","spEmpidfla",
"Acadian Flycatcher","spEmpidvir","rarity"
"Alder Flycatcher","spEmpidaln",
"Willow Flycatcher","spEmpidtra",
"Least Flycatcher","spEmpidmin",
"Hammond's Flycatcher","spEmpidham","rarity"
"Dusky Flycatcher","spEmpidobe","rarity"
"Western Flycatcher","spEmpiddif","rarity"
"Eastern Phoebe","spSayorpho",
"Say's Phoebe","spSayorsay","rarity"
"Vermilion Flycatcher","spPyrocrub","rarity"
"Ash-throated Flycatcher","spMyiarcin","rarity"
"Great Crested Flycatcher","spMyiarcri",
"Sulphur-bellied Flycatcher","spMyiodlut","rarity"
"Tropical Kingbird","spTyran4mel","rarity"
"Cassin's Kingbird","spTyran4voc","rarity"
"Western Kingbird","spTyran4ver","rarity"
"Eastern Kingbird","spTyran4tyr",
"Gray Kingbird","spTyran4dom","rarity"
"Scissor-tailed Flycatcher","spTyran4for","rarity"
"Fork-tailed Flycatcher","spTyran4sav","rarity"
"White-eyed Vireo","spVireo1gri","rarity"
"Bell's Vireo","spVireo1bel","rarity"
"Yellow-throated Vireo","spVireo1fla","rarity"
"Blue-headed Vireo","spVireo1sol",
"Plumbeous Vireo","spVireo1plu","rarity"
"Philadelphia Vireo","spVireo1phi","rarity"
"Warbling Vireo","spVireo1gil","rarity"
"Red-eyed Vireo","spVireo1oli",
"Brown Shrike","spLaniucri","rarity"
"Loggerhead Shrike","spLaniulud","rarity"
"Northern Shrike","spLaniubor",
"Canada Jay","spPeris1can",
"Blue Jay","spCyano8cri",
"Eurasian Jackdaw","spColoemon","rarity"
"American Crow","spCorvubra",
"Fish Crow","spCorvuoss","rarity"
"Common Raven","spCorvucor3",
"Black-capped Chickadee","spPoeci2atr",
"Boreal Chickadee","spPoeci2hud",
"Horned Lark","spEremo1alp",
"Bank Swallow","spRiparrip",
"Tree Swallow","spTachy4bic",
"Violet-green Swallow","spTachy4tha","rarity"
"Purple Martin","spPrognsub",
"Northern Rough-winged Swallow","spStelgser",
"Barn Swallow","spHirun2rus",
"Cliff Swallow","spPetro2pyr",
"Cave Swallow","spPetro2ful","rarity"
"Ruby-crowned Kinglet","spCorthcal",
"Golden-crowned Kinglet","spRegulsat",
"White-breasted Nuthatch","spSitta1car",
"Red-breasted Nuthatch","spSitta1can",
"Brown Creeper","spCerth4ame",
"Blue-gray Gnatcatcher","spPolio4cae",
"Rock Wren","spSalpiobs","rarity"
"Northern House Wren","spTroglaed",
"Winter Wren","spTroglhie",
"Sedge Wren","spCistoste","rarity"
"Marsh Wren","spCistopal",
"Carolina Wren","spThryo1lud","rarity"
"Bewick's Wren","spThryo2bew","rarity"
"European Starling","spSturnvul","introduced"
"Gray Catbird","spDumet1car",
"Brown Thrasher","spToxosruf","rarity"
"Northern Mockingbird","spMimuspol",
"Eastern Bluebird","spSialisia",
"Mountain Bluebird","spSialicur","rarity"
"Townsend's Solitaire","spMyadetow","rarity"
"Varied Thrush","spIxorenae","rarity"
"Veery","spCatha1fus1",
"Gray-cheeked Thrush","spCatha1min",
"Bicknell's Thrush","spCatha1bic",
"Swainson's Thrush","spCatha1ust",
"Hermit Thrush","spCatha1gut",
"Wood Thrush","spHyloc1mus",
"Redwing","spTurduili","rarity"
"American Robin","spTurdumig",
"Fieldfare","spTurdupil","rarity"
"Northern Wheatear","spOenanoen",
"Bohemian Waxwing","spBombygar",
"Cedar Waxwing","spBombyced",
"House Sparrow","spPassedom","introduced"
"American Pipit","spAnthurub",
"Common Chaffinch","spFringcoe","rarity"
"Brambling","spFringmon","rarity"
"Evening Grosbeak","spCocco1ves",
"Pine Grosbeak","spPinicenu",
"Gray-crowned Rosy-Finch","spLeuco9tep","rarity"
"House Finch","spHaemomex","introduced"
"Purple Finch","spHaemopur",
"Redpoll","spAcant5fla",
"Red Crossbill","spLoxiacur",
"White-winged Crossbill","spLoxialeu",
"Pine Siskin","spSpinupin",
"American Goldfinch","spSpinutri",
"Lapland Longspur","spCalcalap",
"Chestnut-collared Longspur","spCalcaorn","rarity"
"Smith's Longspur","spCalcapic","rarity"
"Snow Bunting","spPlect2niv",
"Cassin's Sparrow","spPeucacas","rarity"
"Grasshopper Sparrow","spAmmodsav","rarity"
"Chipping Sparrow","spSpizepas",
"Clay-colored Sparrow","spSpizepal","rarity"
"Field Sparrow","spSpizepus","rarity"
"Brewer's Sparrow","spSpizebre","rarity"
"Lark Sparrow","spChond1gra","rarity"
"Lark Bunting","spCalam3mel","rarity"
"American Tree Sparrow","spSpize1arb",
"Fox Sparrow","spPasse1ili",
"Dark-eyed Junco","spJuncohye",
"White-crowned Sparrow","spZonotleu",
"Golden-crowned Sparrow","spZonotatr","rarity"
"Harris's Sparrow","spZonotque","rarity"
"White-throated Sparrow","spZonotalb",
"Bell's Sparrow","spArtembel","rarity"
"Vesper Sparrow","spPooecgra",
"LeConte's Sparrow","spAmmoslec","rarity"
"Seaside Sparrow","spAmmosmar","rarity"
"Nelson's Sparrow","spAmmosnel",
"Saltmarsh Sparrow","spAmmoscau","rarity"
"Savannah Sparrow","spPasse2san",
"Henslow's Sparrow","spCentr2hen","rarity"
"Song Sparrow","spMelosmel",
"Lincoln's Sparrow","spMeloslin",
"Swamp Sparrow","spMelosgeo",
"Green-tailed Towhee","spPipil1chl","rarity"
"Spotted Towhee","spPipil1mac","rarity"
"Eastern Towhee","spPipil1ery",
"Yellow-breasted Chat","spIctervir","rarity"
"Yellow-headed Blackbird","spXanth2xan","rarity"
"Bobolink","spDolicory",
"Western Meadowlark","spSturn3neg","rarity"
"Eastern Meadowlark","spSturn3mag",
"Orchard Oriole","spIcter1spu","rarity"
"Hooded Oriole","spIcter1cuc","rarity"
"Bullock's Oriole","spIcter1bul","rarity"
"Baltimore Oriole","spIcter1gal",
"Red-winged Blackbird","spAgela1pho",
"Shiny Cowbird","spMolotbon","rarity"
"Bronzed Cowbird","spMolotaen","rarity"
"Brown-headed Cowbird","spMolotate",
"Rusty Blackbird","spEuphacar",
"Brewer's Blackbird","spEuphacya","rarity"
"Common Grackle","spQuiscqui",
"Boat-tailed Grackle","spQuiscmaj","rarity"
"Great-tailed Grackle","spQuiscmex","rarity"
"Ovenbird","spSeiuraur",
"Worm-eating Warbler","spHelmiver","rarity"
"Louisiana Waterthrush","spParkemot","rarity"
"Northern Waterthrush","spParkenov",
"Golden-winged Warbler","spVermichr","rarity"
"Blue-winged Warbler","spVermicya","rarity"
"Black-and-white Warbler","spMniotvar",
"Prothonotary Warbler","spProtocit","rarity"
"Swainson's Warbler","spLimno3swa","rarity"
"Tennessee Warbler","spLeiot1per",
"Orange-crowned Warbler","spLeiot1cel","rarity"
"Nashville Warbler","spLeiot1ruf",
"Virginia's Warbler","spLeiot1vir","rarity"
"Connecticut Warbler","spOporoagi",
"MacGillivray's Warbler","spGeothtol","rarity"
"Mourning Warbler","spGeothphi",
"Kentucky Warbler","spGeothfor","rarity"
"Common Yellowthroat","spGeothtri",
"Hooded Warbler","spSetop1cit","rarity"
"American Redstart","spSetop1rut",
"Cape May Warbler","spSetop1tig",
"Cerulean Warbler","spSetop1cer","rarity"
"Northern Parula","spSetop1ame",
"Magnolia Warbler","spSetop1mag",
"Bay-breasted Warbler","spSetop1cas",
"Blackburnian Warbler","spSetop1fus",
"Yellow Warbler","spSetop1pet",
"Chestnut-sided Warbler","spSetop1pen",
"Blackpoll Warbler","spSetop1str",
"Black-throated Blue Warbler","spSetop1cae",
"Palm Warbler","spSetop1pal",
"Pine Warbler","spSetop1pin","rarity"
"Yellow-rumped Warbler","spSetop1cor",
"Yellow-throated Warbler","spSetop1dom","rarity"
"Prairie Warbler","spSetop1dis","rarity"
"Black-throated Gray Warbler","spSetop1nig","rarity"
"Townsend's Warbler","spSetop1tow","rarity"
"Hermit Warbler","spSetop1occ","rarity"
"Black-throated Green Warbler","spSetop1vir",
"Canada Warbler","spCardecan",
"Wilson's Warbler","spCardepus",
"Summer Tanager","spPiranrub","rarity"
"Scarlet Tanager","spPiranoli","rarity"
"Western Tanager","spPiranlud","rarity"
"Northern Cardinal","spCardicar",
"Rose-breasted Grosbeak","spPheuclud",
"Black-headed Grosbeak","spPheucmel","rarity"
"Blue Grosbeak","spPasse3cae",
"Lazuli Bunting","spPasse3amo","rarity"
"Indigo Bunting","spPasse3cya",
"Painted Bunting","spPasse3cir","rarity"
"Dickcissel","spSpiza1ame",
