"Name","ID","Status"
"Common Ostrich","spStrutcam",
"White-faced Whistling-Duck","spDendrvid",
"Fulvous Whistling-Duck","spDendrbic",
"White-backed Duck","spThalaleu",
"Knob-billed Duck","spSarkimel",
"Hartlaub's Duck","spPterohar",
"Egyptian Goose","spAlopoaeg",
"Spur-winged Goose","spPlectgam",
"African Pygmy-Goose","spNettaaur",
"Garganey","spSpatuque",
"Blue-billed Teal","spSpatuhot",
"Northern Shoveler","spSpatucly","rarity"
"Gadwall","spMarecstr","rarity"
"Eurasian Wigeon","spMarecpen","rarity"
"African Black Duck","spAnasspa",
"Yellow-billed Duck","spAnasund",
"Mallard","spAnaspla","rarity"
"Northern Pintail","spAnasacu",
"Green-winged Teal","spAnascre",
"Marbled Duck","spMarmaang","rarity"
"Ferruginous Duck","spAythynyr",
"Tufted Duck","spAythyful","rarity"
"Helmeted Guineafowl","spNumidmel",
"Black Guineafowl","spAgelanig",
"Plumed Guineafowl","spGutteplu",
"Western Crested Guineafowl","spGuttever",
"Stone Partridge","spPtilopet",
"Latham's Francolin","spPeliplat",
"White-throated Francolin","spCampoalb",
"Schlegel's Francolin","spCamposch",
"Ring-necked Francolin","spSclerstr",
"Blue Quail","spSynoiada",
"Common Quail","spCoturcot","rarity"
"Harlequin Quail","spCoturdel",
"Mount Cameroon Spurfowl","spPterncam","endemic"
"Double-spurred Spurfowl","spPternbic",
"Scaly Spurfowl","spPternsqu",
"Heuglin's Spurfowl","spPternict",
"Clapperton's Spurfowl","spPterncla",
"Rock Pigeon","spColumliv","introduced"
"Speckled Pigeon","spColumgui",
"Afep Pigeon","spColumuni",
"Cameroon Pigeon","spColumsjo",
"Western Bronze-naped Pigeon","spColumiri",
"White-naped Pigeon","spColumalb1",
"Lemon Dove","spAploplar",
"European Turtle-Dove","spStreptur",
"Adamawa Turtle-Dove","spStrephyp",
"African Collared-Dove","spStrepros",
"Mourning Collared-Dove","spStrepdec1",
"Red-eyed Dove","spStrepsem",
"Vinaceous Dove","spStrepvin",
"Laughing Dove","spSpilosen",
"Black-billed Wood-Dove","spTurtuaby",
"Blue-spotted Wood-Dove","spTurtuafe",
"Tambourine Dove","spTurtutym",
"Blue-headed Wood-Dove","spTurtubre",
"Namaqua Dove","spOenacap",
"Bruce's Green-Pigeon","spTrerowaa",
"African Green-Pigeon","spTrerocal",
"Chestnut-bellied Sandgrouse","spPtero1exu",
"Four-banded Sandgrouse","spPtero1qua",
"Arabian Bustard","spArdeoara",
"Denham's Bustard","spNeotiden",
"Nubian Bustard","spNeotinub","rarity"
"White-bellied Bustard","spEupodsen",
"Savile's Bustard","spLopho4sav",
"Black-bellied Bustard","spLissomel",
"Great Blue Turaco","spCorytcri",
"Western Plantain-eater","spCrinipis",
"Violet Turaco","spTauravio",
"Ross's Turaco","spTauraros",
"Yellow-billed Turaco","spTauramac",
"Bannerman's Turaco","spTauraban","endemic"
"White-crested Turaco","spTauraleu",
"Guinea Turaco","spTauraper",
"Gabon Coucal","spCentr1ans",
"Black-throated Coucal","spCentr1leu",
"Senegal Coucal","spCentr1sen",
"Blue-headed Coucal","spCentr1mon",
"Black Coucal","spCentr1gri",
"Blue Malkoha","spCeuthaer",
"Great Spotted Cuckoo","spClamagla",
"Levaillant's Cuckoo","spClamalev",
"Pied Cuckoo","spClamajac",
"Thick-billed Cuckoo","spPachyaud","rarity"
"Dideric Cuckoo","spChrys1cap",
"Klaas's Cuckoo","spChrys1kla",
"Yellow-throated Cuckoo","spChrys1fla",
"African Emerald Cuckoo","spChrys1cup",
"Dusky Long-tailed Cuckoo","spCercomec",
"Olive Long-tailed Cuckoo","spCercooli",
"Black Cuckoo","spCuculcla",
"Red-chested Cuckoo","spCuculsol",
"African Cuckoo","spCuculgul",
"Common Cuckoo","spCuculcan",
"Brown Nightjar","spVelesbin",
"Pennant-winged Nightjar","spCaprivex",
"Standard-winged Nightjar","spCaprilon",
"Eurasian Nightjar","spCaprieur",
"Rufous-cheeked Nightjar","spCapriruf1",
"Golden Nightjar","spCapriexi","rarity"
"Fiery-necked Nightjar","spCapripec",
"Swamp Nightjar","spCaprinat",
"Plain Nightjar","spCapriino",
"Freckled Nightjar","spCapritri",
"Itombwe Nightjar","spCapripri",
"Bates's Nightjar","spCapribat",
"Long-tailed Nightjar","spCapricli",
"Mottled Spinetail","spTelacuss",
"Black Spinetail","spTelacmel",
"Sabine's Spinetail","spRhaphsab",
"Cassin's Spinetail","spNeafrcas",
"Scarce Swift","spSchoumyo",
"Alpine Swift","spTachy1mel","rarity"
"Mottled Swift","spTachy1aeq",
"Common Swift","spApusapu",
"Pallid Swift","spApuspal","rarity"
"African Swift","spApusbar",
"Little Swift","spApusaff",
"Horus Swift","spApushor",
"White-rumped Swift","spApuscaf",
"Bates's Swift","spApusbat",
"African Palm Swift","spCypsipar",
"White-spotted Flufftail","spSarotpul",
"Buff-spotted Flufftail","spSarotele",
"Red-chested Flufftail","spSarotruf",
"Chestnut-headed Flufftail","spSarotlug",
"Streaky-breasted Flufftail","spSarotboe",
"African Rail","spRallucae",
"Corn Crake","spCrexcre","rarity"
"African Crake","spCrecoegr",
"Gray-throated Rail","spCanirocu",
"Spotted Crake","spPorzapor","rarity"
"Lesser Moorhen","spParagang",
"Eurasian Moorhen","spGalli3chl",
"Allen's Gallinule","spPorph1all",
"African Swamphen","spPorph1mad",
"Nkulengu Rail","spHimanhae",
"Striped Crake","spAenigmar",
"Black Crake","spZaporfla",
"Little Crake","spZaporpar","rarity"
"African Finfoot","spPodicsen",
"Black Crowned-Crane","spBaleapav",
"Spotted Thick-knee","spBurhicap",
"Senegal Thick-knee","spBurhisen",
"Egyptian Plover","spPluvi1aeg",
"Black-winged Stilt","spHiman1him",
"Pied Avocet","spRecuravo",
"Eurasian Oystercatcher","spHaema1ost","rarity"
"Black-bellied Plover","spPluvi2squ",
"American Golden-Plover","spPluvi2dom","rarity"
"Common Ringed Plover","spCharahia",
"Forbes's Plover","spThinofor",
"Three-banded Plover","spThinotri",
"Little Ringed Plover","spThinodub",
"Long-toed Lapwing","spVanelcra",
"Spur-winged Lapwing","spVanelspi",
"Black-headed Lapwing","spVaneltec",
"White-crowned Lapwing","spVanelalb",
"Senegal Lapwing","spVanellug","rarity"
"Wattled Lapwing","spVanelsen",
"Brown-chested Lapwing","spVanelsup",
"Sociable Lapwing","spVanelgre","rarity"
"Caspian Plover","spAnarhasi","rarity"
"Kittlitz's Plover","spAnarhpec",
"White-fronted Plover","spAnarhmar",
"Kentish Plover","spAnarhale",
"Greater Painted-Snipe","spRostrben",
"Lesser Jacana","spMicro4cap",
"African Jacana","spActopafr",
"Whimbrel","spNumenpha",
"Eurasian Curlew","spNumenarq",
"Bar-tailed Godwit","spLimoslap",
"Black-tailed Godwit","spLimoslim",
"Jack Snipe","spLymnomin","rarity"
"Great Snipe","spGalli5med",
"Common Snipe","spGalli5gal",
"Red Phalarope","spPhala1ful","rarity"
"Terek Sandpiper","spXenuscin","rarity"
"Common Sandpiper","spActithyp",
"Spotted Sandpiper","spActitmac","rarity"
"Green Sandpiper","spTringoch",
"Marsh Sandpiper","spTringsta",
"Wood Sandpiper","spTringgla",
"Common Redshank","spTringtot",
"Spotted Redshank","spTringery",
"Common Greenshank","spTringneb",
"Ruddy Turnstone","spArenaint",
"Red Knot","spCalidcan",
"Ruff","spCalidpug",
"Broad-billed Sandpiper","spCalidfal","rarity"
"Curlew Sandpiper","spCalidfer",
"Temminck's Stint","spCalidtem","rarity"
"Sanderling","spCalidalb",
"Dunlin","spCalidalp","rarity"
"Little Stint","spCalidmin",
"Pectoral Sandpiper","spCalidmel","rarity"
"Small Buttonquail","spTurnisyl","rarity"
"Black-rumped Buttonquail","spTurninan",
"Quail-plover","spOrtyxmei",
"Bronze-winged Courser","spRhino1cha",
"Temminck's Courser","spCursotem",
"Rock Pratincole","spGlarenuc",
"Gray Pratincole","spGlarecin",
"Collared Pratincole","spGlarepra",
"Black-winged Pratincole","spGlarenor",
"Parasitic Jaeger","spStercpar","rarity"
"Little Gull","spHydro3min","rarity"
"Sabine's Gull","spXemasab","rarity"
"Black-headed Gull","spChroirid","rarity"
"Gray-hooded Gull","spChroicir",
"Yellow-legged Gull","spLarusmic","rarity"
"Lesser Black-backed Gull","spLarusfus",
"African Skimmer","spRynchfla",
"Brown Noddy","spAnoussto",
"Sooty Tern","spOnychfus",
"Bridled Tern","spOnychana","rarity"
"Little Tern","spStern1alb","rarity"
"Damara Tern","spStern1bal",
"Gull-billed Tern","spGelocnil",
"Caspian Tern","spHydro4cas",
"Whiskered Tern","spChlidhyb",
"Black Tern","spChlidnig",
"White-winged Tern","spChlidleu",
"Arctic Tern","spStern2par",
"Common Tern","spStern2hir1",
"Sandwich Tern","spThala1san",
"West African Crested Tern","spThala1alb",
"Greater Flamingo","spPhoenros","rarity"
"Lesser Flamingo","spPhoen1min",
"Little Grebe","spTachy2ruf1",
"Eared Grebe","spPodic1nig","rarity"
"White-tailed Tropicbird","spPhaet2lep","rarity"
"Wilson's Storm-Petrel","spOceanoce",
"African Openbill","spAnastlam",
"Black Stork","spCiconnig","rarity"
"Abdim's Stork","spCiconabd",
"African Woolly-necked Stork","spCiconmic",
"White Stork","spCiconcic",
"Saddle-billed Stork","spEphipsen",
"Marabou Stork","spLepto2cru",
"Yellow-billed Stork","spMycteibi",
"Cape Gannet","spMoruscap",
"Brown Booby","spSulaleu","rarity"
"African Darter","spAnhinruf",
"Reed Cormorant","spMicro5afr",
"Great Cormorant","spPhala2car",
"Glossy Ibis","spPlegafal",
"African Sacred Ibis","spThresaet",
"Olive Ibis","spBostroli",
"Spot-breasted Ibis","spBostrrar",
"Hadada Ibis","spBostrhag",
"Eurasian Spoonbill","spPlataleu","rarity"
"African Spoonbill","spPlataalb",
"White-crested Tiger-Heron","spTigrileu",
"Eurasian Bittern","spBotauste","rarity"
"Dwarf Bittern","spBotaustu",
"Little Bittern","spBotaumin",
"Black-crowned Night Heron","spNycti6nyc",
"Black Heron","spEgretard",
"Little Egret","spEgretgar",
"Western Reef-Heron","spEgretgul",
"White-backed Night Heron","spCalheleu",
"Striated Heron","spButorstr",
"Squacco Heron","spArdeo1ral",
"Western Cattle-Egret","spArdeaibi",
"Great Egret","spArdeaalb",
"Yellow-billed Egret","spArdeabra",
"Gray Heron","spArdeacin",
"Purple Heron","spArdeapur",
"Black-headed Heron","spArdeamel",
"Goliath Heron","spArdeagol",
"Hamerkop","spScopuumb",
"Great White Pelican","spPelec1ono",
"Pink-backed Pelican","spPelec1ruf",
"Secretarybird","spSagitser",
"Osprey","spPandihal",
"Scissor-tailed Kite","spChelirio",
"Black-winged Kite","spElanucae",
"African Harrier-Hawk","spPolybtyp",
"Palm-nut Vulture","spGypohang",
"Egyptian Vulture","spNeophper",
"African Cuckoo-Hawk","spAvicecuc",
"European Honey-buzzard","spPerniapi",
"White-headed Vulture","spTrigoocc",
"Lappet-faced Vulture","spTorgotra",
"Hooded Vulture","spNecromon",
"White-backed Vulture","spGypsafr",
"Rüppell's Griffon","spGypsrue",
"Eurasian Griffon","spGypsful","rarity"
"Bateleur","spTerateca",
"Western Banded Snake-Eagle","spCircacin",
"Congo Snake-Eagle","spCircaspe",
"Beaudouin's Snake-Eagle","spCircabea",
"Short-toed Snake-Eagle","spCircagal",
"Brown Snake-Eagle","spCircacin1",
"Crowned Eagle","spSteph1cor",
"Martial Eagle","spPolembel",
"Long-crested Eagle","spLophaocc",
"Lesser Spotted Eagle","spClang1pom",
"Greater Spotted Eagle","spClang1cla","rarity"
"Wahlberg's Eagle","spHierawah",
"Ayres's Hawk-Eagle","spHieraayr",
"Booted Eagle","spHierapen",
"Steppe Eagle","spAquilnip","rarity"
"Imperial Eagle","spAquilhel","rarity"
"Tawny Eagle","spAquilrap",
"Cassin's Hawk-Eagle","spAquilafr",
"Verreaux's Eagle","spAquilver","rarity"
"African Hawk-Eagle","spAquilspi",
"Bat Hawk","spMachealc",
"Gabar Goshawk","spMicro6gab",
"Long-tailed Hawk","spUrotrmac",
"Dark Chanting-Goshawk","spMeliemet",
"Lizard Buzzard","spKaupimon",
"African Goshawk","spAerostac",
"Chestnut-flanked Sparrowhawk","spAeroscas",
"Red-thighed Sparrowhawk","spTachy3ery",
"Shikra","spTachy3bad",
"Ovambo Sparrowhawk","spAccipova",
"Black Goshawk","spAsturmel",
"Western Marsh Harrier","spCircuaer",
"Pallid Harrier","spCircumac1",
"Montagu's Harrier","spCircupyg",
"Black Kite","spMilvumig",
"African Fish-Eagle","spIcthyvoc",
"Grasshopper Buzzard","spButasruf",
"Red-necked Buzzard","spButeo1aug",
"Common Buzzard","spButeo1but","rarity"
"Long-legged Buzzard","spButeo1ruf1","rarity"
"African Grass-Owl","spTytocap",
"Western Barn Owl","spTytoalb",
"Sandy Scops-Owl","spOtusict",
"Eurasian Scops-Owl","spOtussco",
"African Scops-Owl","spOtussen",
"Northern White-faced Owl","spPtilo1leu",
"Maned Owl","spJubullet",
"Grayish Eagle-Owl","spBubocin",
"Fraser's Eagle-Owl","spKetuppoe",
"Akun Eagle-Owl","spKetupleu",
"Verreaux's Eagle-Owl","spKetuplac",
"Shelley's Eagle-Owl","spKetupshe",
"Pel's Fishing-Owl","spScotopel",
"Vermiculated Fishing-Owl","spScotobou",
"Pearl-spotted Owlet","spGlauc1per",
"Red-chested Owlet","spGlauc1tep",
"Sjöstedt's Owlet","spGlauc1sjo",
"African Barred Owlet","spGlauc1cap",
"African Wood-Owl","spStrixwoo",
"Short-eared Owl","spAsiofla","rarity"
"Marsh Owl","spAsiocap",
"Speckled Mousebird","spColiustr",
"Blue-naped Mousebird","spUrocomac",
"Narina Trogon","spApalonar",
"Bare-cheeked Trogon","spApaloaeq",
"Bar-tailed Trogon","spApalovit",
"Eurasian Hoopoe","spUpupaepo",
"Green Woodhoopoe","spPhoen3pur",
"White-headed Woodhoopoe","spPhoen3bol",
"Forest Scimitarbill","spRhino2cas",
"Black Scimitarbill","spRhino2ate",
"Abyssinian Ground-Hornbill","spBucoraby",
"Red-billed Dwarf Hornbill","spLopho11cam",
"Congo Pied Hornbill","spLopho11fas",
"African Gray Hornbill","spLopho11nas",
"Northern Red-billed Hornbill","spTockuery",
"Eastern Long-tailed Hornbill","spHorizcas",
"Western Dwarf Hornbill","spHorizhar",
"Yellow-casqued Hornbill","spCeratela",
"Black-casqued Hornbill","spCeratatr",
"Black-and-white-casqued Hornbill","spBycansub",
"White-thighed Hornbill","spBycanalb",
"Piping Hornbill","spBycanfis",
"Black Bee-eater","spMerop1gul",
"Blue-moustached Bee-eater","spMerop1men",
"Blue-headed Bee-eater","spMerop1mue",
"Red-throated Bee-eater","spMerop1bul",
"Little Bee-eater","spMerop1pus",
"Blue-breasted Bee-eater","spMerop1var",
"Swallow-tailed Bee-eater","spMerop1hir",
"Black-headed Bee-eater","spMerop1bre","rarity"
"White-throated Bee-eater","spMerop1alb",
"African Green Bee-eater","spMerop1vir",
"Blue-cheeked Bee-eater","spMerop1per",
"European Bee-eater","spMerop1api",
"Rosy Bee-eater","spMerop1mal","rarity"
"Northern Carmine Bee-eater","spMerop1nub",
"Shining-blue Kingfisher","spAlcedqua",
"Malachite Kingfisher","spCoryt1cri",
"White-bellied Kingfisher","spCoryt1leu",
"African Pygmy Kingfisher","spIspidpic",
"African Dwarf Kingfisher","spIspidlec",
"Chocolate-backed Kingfisher","spHalcybad",
"Gray-headed Kingfisher","spHalcyleu",
"Woodland Kingfisher","spHalcysen",
"Blue-breasted Kingfisher","spHalcymal",
"Striped Kingfisher","spHalcyche",
"Giant Kingfisher","spMegac1max",
"Pied Kingfisher","spCerylrud",
"European Roller","spCoracgar",
"Abyssinian Roller","spCoracaby",
"Purple Roller","spCoracnae",
"Blue-bellied Roller","spCoraccya",
"Broad-billed Roller","spEurysgla",
"Blue-throated Roller","spEurysgul",
"Eastern Yellow-billed Barbet","spTrachpur",
"Gray-throated Barbet","spGymno3bon",
"Bristle-nosed Barbet","spGymno3pel",
"Naked-faced Barbet","spGymno3cal",
"Speckled Tinkerbird","spPogonsco",
"Western Tinkerbird","spPogoncor",
"Red-rumped Tinkerbird","spPogonatr",
"Yellow-throated Tinkerbird","spPogonsub",
"Yellow-rumped Tinkerbird","spPogonbil",
"Yellow-fronted Tinkerbird","spPogonchr",
"Yellow-spotted Barbet","spBuccaduc",
"Hairy-breasted Barbet","spTrichhir",
"Vieillot's Barbet","spLybiuvie",
"White-headed Barbet","spLybiuleu",
"Black-billed Barbet","spLybiugui","rarity"
"Double-toothed Barbet","spPogon1bid",
"Bearded Barbet","spPogon1dub",
"Cassin's Honeybird","spProdoins",
"Brown-backed Honeybird","spProdoreg",
"Zenker's Honeyguide","spMeligzen",
"Yellow-footed Honeyguide","spMeligeis",
"Willcocks's Honeyguide","spIndicwil",
"Least Honeyguide","spIndicexi",
"Lesser Honeyguide","spIndicmin",
"Spotted Honeyguide","spIndicmac",
"Greater Honeyguide","spIndicind",
"Lyre-tailed Honeyguide","spMelicrob",
"Eurasian Wryneck","spJynxtor",
"Red-throated Wryneck","spJynxruf",
"African Piculet","spVerreafr",
"Fire-bellied Woodpecker","spChlor3pyr",
"Golden-crowned Woodpecker","spChlor3xan",
"Gabon Woodpecker","spDendr4gab",
"Elliot's Woodpecker","spDendr4ell",
"Little Gray Woodpecker","spDendr4ela",
"Speckle-breasted Woodpecker","spDendr4poe",
"Cardinal Woodpecker","spDendr4fus",
"Brown-backed Woodpecker","spDendr4obs",
"African Gray Woodpecker","spDendr4goe",
"Brown-eared Woodpecker","spPardi1car",
"Buff-spotted Woodpecker","spPardi1niv",
"Tullberg's Woodpecker","spCampe1tul",
"Green-backed Woodpecker","spCampe1mac",
"Fine-spotted Woodpecker","spCampe1pun",
"Golden-tailed Woodpecker","spCampe1abi",
"Lesser Kestrel","spFalconau","rarity"
"Eurasian Kestrel","spFalcotin",
"Fox Kestrel","spFalcoalo",
"Gray Kestrel","spFalcoard",
"Red-necked Falcon","spFalcochi",
"Red-footed Falcon","spFalcoves",
"Eleonora's Falcon","spFalcoele",
"Sooty Falcon","spFalcocon","rarity"
"Eurasian Hobby","spFalcosub","rarity"
"African Hobby","spFalcocuv",
"Lanner Falcon","spFalcobia",
"Saker Falcon","spFalcoche","rarity"
"Peregrine Falcon","spFalcoper",
"Rose-ringed Parakeet","spPsitt2kra",
"Black-collared Lovebird","spAgaposwi",
"Red-headed Lovebird","spAgapopul",
"Gray Parrot","spPsitt5eri",
"Red-fronted Parrot","spPoicegul",
"Senegal Parrot","spPoicesen",
"African Broadbill","spSmithcap",
"Gray-headed Broadbill","spSmithsha",
"Rufous-sided Broadbill","spSmithruf",
"African Pitta","spPittaang",
"Green-breasted Pitta","spPittarei",
"Gray Cuckooshrike","spCeblecae",
"White-breasted Cuckooshrike","spCeblepec",
"Oriole Cuckooshrike","spLobotori",
"Petit's Cuckooshrike","spCampe2pet",
"Red-shouldered Cuckooshrike","spCampe2pho",
"Purple-throated Cuckooshrike","spCampe2qui",
"Blue Cuckooshrike","spCyano4azu",
"Eurasian Golden Oriole","spOriolori",
"African Golden Oriole","spOriolaur",
"Western Black-headed Oriole","spOriolbra",
"Black-winged Oriole","spOriolnig",
"Chestnut Wattle-eye","spDyaphcas",
"White-spotted Wattle-eye","spDyaphton",
"Brown-throated Wattle-eye","spPlaty2cya",
"Banded Wattle-eye","spPlaty2lat","endemic"
"Red-cheeked Wattle-eye","spPlaty2bli",
"Black-necked Wattle-eye","spPlaty2cha",
"Yellow-bellied Wattle-eye","spPlaty2con",
"Senegal Batis","spBatissen",
"Gray-headed Batis","spBatisori",
"Western Black-headed Batis","spBatiserl",
"Verreaux's Batis","spBatismin1",
"West African Batis","spBatisocc",
"White-crested Helmetshrike","spPrion2plu",
"Red-billed Helmetshrike","spPrion2can",
"Rufous-bellied Helmetshrike","spPrion2ruf",
"African Shrike-flycatcher","spMegabfla",
"Black-and-white Shrike-flycatcher","spBiasmus",
"Brubru","spNilauafe",
"Northern Puffback","spDryosgam",
"Red-eyed Puffback","spDryossen",
"Pink-footed Puffback","spDryosang",
"Sabine's Puffback","spDryossab",
"Marsh Tchagra","spBocagmin",
"Black-crowned Tchagra","spTchagsen",
"Brown-crowned Tchagra","spTchagaus",
"Lühder's Bushshrike","spLanialue",
"Tropical Boubou","spLaniamaj",
"Gabon Boubou","spLaniabic",
"Yellow-crowned Gonolek","spLaniabar",
"Black-headed Gonolek","spLaniaery",
"Yellow-breasted Boubou","spLaniaatr1",
"Lowland Sooty Boubou","spLanialeu",
"Western Boubou","spLaniapoe",
"Gray-green Bushshrike","spChlor5boc",
"Sulphur-breasted Bushshrike","spChlor5sul",
"Many-colored Bushshrike","spChlor5mul",
"Mount Kupe Bushshrike","spChlor5kup",
"Fiery-breasted Bushshrike","spMalac2cru",
"Green-breasted Bushshrike","spMalac2gla",
"Gray-headed Bushshrike","spMalac2bla",
"Monteiro's Bushshrike","spMalac2mon","rarity"
"Sharpe's Drongo","spDicrusha",
"Shining Drongo","spDicruatr",
"Fork-tailed Drongo","spDicruads",
"Velvet-mantled Drongo","spDicrumod",
"Blue-headed Crested Flycatcher","spTroch1nit",
"Black-headed Paradise-Flycatcher","spTerpsruf",
"Rufous-vented Paradise-Flycatcher","spTerpsruf1",
"Bates's Paradise-Flycatcher","spTerpsbat",
"African Paradise-Flycatcher","spTerpsvir",
"Yellow-billed Shrike","spCorvicor",
"Red-backed Shrike","spLaniucol","rarity"
"Red-tailed Shrike","spLaniupho",
"Emin's Shrike","spLaniugub",
"Great Gray Shrike","spLaniuexc",
"Lesser Gray Shrike","spLaniumin","rarity"
"Gray-backed Fiscal","spLaniuexc1",
"Mackinnon's Shrike","spLaniumac",
"Northern Fiscal","spLaniuhum",
"Masked Shrike","spLaniunub","rarity"
"Woodchat Shrike","spLaniusen",
"Piapiac","spPtilo7afe",
"Pied Crow","spCorvualb",
"Gray-necked Rockfowl","spPicatore",
"Yellow-bellied Hyliota","spHyliofla",
"Southern Hyliota","spHylioaus",
"Violet-backed Hyliota","spHyliovio",
"African Blue Flycatcher","spElminlon",
"Dusky Crested Flycatcher","spElminnig",
"White-bellied Crested Flycatcher","spElminalb1",
"White-shouldered Black-Tit","spMelan8gui",
"White-bellied Tit","spMelan8alb",
"Dusky Tit","spMelan8fun",
"Sennar Penduline-Tit","spAntho3pun",
"Yellow Penduline-Tit","spAntho3par",
"Forest Penduline-Tit","spAntho3fla",
"Rufous-rumped Lark","spPinarery",
"Chestnut-backed Sparrow-Lark","spEremoleu",
"Singing Bushlark","spMirafjav",
"Flappet Lark","spAmiraruf",
"Highland Lark","spCoryp1kur",
"Sun Lark","spGalermod",
"Crested Lark","spGalercri",
"Greater Short-toed Lark","spCalanbra","rarity"
"Western Nicator","spNicatchl",
"Yellow-throated Nicator","spNicatvir",
"Green Crombec","spSylvi2vir",
"Lemon-bellied Crombec","spSylvi2den",
"Northern Crombec","spSylvi2bra",
"Moustached Grass-Warbler","spMelocmen",
"Kemp's Longbill","spMacro4kem",
"Yellow Longbill","spMacro4fla",
"Gray Longbill","spMacro4con",
"Yellow-bellied Eremomela","spEremo2ict",
"Senegal Eremomela","spEremo2pus",
"Green-backed Eremomela","spEremo2can",
"Rufous-crowned Eremomela","spEremo2bad",
"Red-winged Gray Warbler","spDrymo4inc",
"White-chinned Prinia","spSchis1leu",
"Green Longtail","spUrolaepi",
"Black-collared Apalis","spOreolpul",
"White-tailed Warbler","spPolio3lop",
"Green-backed Camaroptera","spCamarbra",
"Yellow-browed Camaroptera","spCamarsup",
"Olive-green Camaroptera","spCamarchl",
"Cricket Longtail","spSpilo2cla","rarity"
"Buff-bellied Warbler","spPhyll3pul",
"Black-capped Apalis","spApalinig",
"Black-throated Apalis","spApalijac",
"Masked Apalis","spApalibin",
"Yellow-breasted Apalis","spApalifla1",
"Buff-throated Apalis","spApaliruf",
"Bamenda Apalis","spApalibam",
"Gosling's Apalis","spApaligos",
"Gray Apalis","spApalicin",
"Tawny-flanked Prinia","spPrinisub",
"River Prinia","spPriniflu",
"Banded Prinia","spPrinibai",
"Red-winged Prinia","spPriniery",
"Black-faced Rufous-Warbler","spBathmruf",
"Oriole Warbler","spHyperatr",
"Red-faced Cisticola","spCistiery",
"Singing Cisticola","spCistican",
"Whistling Cisticola","spCistilat",
"Chattering Cisticola","spCistiano",
"Chubb's Cisticola","spCistichu",
"Rock-loving Cisticola","spCistiabe",
"Red-pate Cisticola","spCistiruf",
"Dorst's Cisticola","spCistigui",
"Winding Cisticola","spCistimar",
"Stout Cisticola","spCistirob",
"Croaking Cisticola","spCistinat",
"Siffling Cisticola","spCistibra",
"Rufous Cisticola","spCistiruf2",
"Zitting Cisticola","spCistijun",
"Desert Cisticola","spCistiari",
"Black-backed Cisticola","spCistiexi",
"Pectoral-patch Cisticola","spCistibru",
"Eastern Olivaceous Warbler","spIdunapal",
"Western Olivaceous Warbler","spIdunaopa",
"African Yellow-Warbler","spIdunanat",
"Melodious Warbler","spHippopol",
"Icterine Warbler","spHippoict","rarity"
"Sedge Warbler","spAcroc1sch",
"Common Reed Warbler","spAcroc1sci",
"Greater Swamp Warbler","spAcroc1ruf",
"Great Reed Warbler","spAcroc1aru",
"Savi's Warbler","spLocuslus","rarity"
"Fan-tailed Grassbird","spCatribre",
"Bangwa Warbler","spBradyban",
"Evergreen-forest Warbler","spBradylop",
"Dja River Swamp Warbler","spBradygra",
"Little Rush Warbler","spBradybab",
"Highland Rush Warbler","spBradycen",
"Square-tailed Sawwing","spPsalinit",
"Mountain Sawwing","spPsaliful",
"Black Sawwing","spPsalipri",
"Fanti Sawwing","spPsaliobs",
"Gray-rumped Swallow","spPseud15gri",
"Banded Martin","spNeoph3cin",
"Plain Martin","spRiparpal",
"Bank Swallow","spRiparrip",
"Red-throated Crag-Martin","spPtyonruf",
"Barn Swallow","spHirun2rus",
"Ethiopian Swallow","spHirun2aet",
"White-throated Blue Swallow","spHirun2nig1",
"Wire-tailed Swallow","spHirun2smi",
"Forest Swallow","spAtronful",
"Western House-Martin","spDelicurb",
"European Red-rumped Swallow","spCecroruf",
"African Red-rumped Swallow","spCecromel",
"Lesser Striped Swallow","spCecroaby",
"Rufous-chested Swallow","spCecrosem",
"Mosque Swallow","spCecrosen",
"Preuss's Swallow","spPetro2pre",
"Slender-billed Greenbul","spStelg1gra",
"Golden Greenbul","spCalyp4ser",
"Red-tailed Bristlebill","spBledasyn",
"Yellow-lored Bristlebill","spBledanot",
"Gray-headed Bristlebill","spBledacan",
"Yellow-gorgeted Greenbul","spAtimafla",
"Pale-throated Greenbul","spAtimafla1",
"Spotted Greenbul","spIxonogut",
"Swamp Greenbul","spThescleu",
"Yellow-necked Greenbul","spChlor6fal",
"Simple Greenbul","spChlor6sim",
"Honeyguide Greenbul","spBaeopind",
"Sjöstedt's Greenbul","spBaeopcla",
"Cameroon Mountain Greenbul","spArizemon",
"Western Mountain Greenbul","spArizetep",
"Eastern Bearded-Greenbul","spCrini1chl",
"Red-tailed Greenbul","spCrini1cal",
"White-bearded Greenbul","spCrini1ndu",
"Little Greenbul","spEurilvir",
"Yellow-whiskered Greenbul","spEurillat",
"Plain Greenbul","spEurilcur",
"Gray Greenbul","spEurilgra",
"Ansorge's Greenbul","spEurilans",
"White-throated Greenbul","spPhyll4alb1",
"Xavier's Greenbul","spPhyll4xav",
"Icterine Greenbul","spPhyll4ict",
"Cameroon Olive-Greenbul","spPhyll4poe",
"Leaf-love","spPhyll4sca",
"Gray-headed Greenbul","spPhyll4pol",
"Baumann's Greenbul","spPhyll4bau","rarity"
"Common Bulbul","spPycno2bar",
"Wood Warbler","spPhyll5sib",
"Western Bonelli's Warbler","spPhyll5bon",
"Willow Warbler","spPhyll5tro",
"Common Chiffchaff","spPhyll5col","rarity"
"Black-capped Woodland-Warbler","spPhyll5her",
"Uganda Woodland-Warbler","spPhyll5bud",
"Green Hylia","spHyliapra",
"Tit-hylia","spPholirus",
"Chestnut-capped Flycatcher","spEryth4mcc",
"Eurasian Blackcap","spSylvi3atr","rarity"
"Garden Warbler","spSylvi3bor",
"African Hill Babbler","spSylvi3aby",
"Rwenzori Hill Babbler","spSylvi3atr1",
"Lesser Whitethroat","spCurrucur",
"Eastern Subalpine Warbler","spCurrucan",
"Greater Whitethroat","spCurrucom",
"Cameroon Speirops","spZoste1mel","endemic"
"Forest White-eye","spZoste1ste",
"Northern Yellow White-eye","spZoste1sen",
"Brown Illadopsis","spIlladful",
"Pale-breasted Illadopsis","spIlladruf",
"Blackcap Illadopsis","spIlladcle",
"Thrush Babbler","spIlladtur",
"Puvel's Illadopsis","spIlladpuv",
"Capuchin Babbler","spTurdoatr",
"White-throated Mountain-Babbler","spTurdogil",
"Brown Babbler","spTurdople",
"Blackcap Babbler","spTurdorei",
"African Spotted Creeper","spSalposal",
"Yellow-billed Oxpecker","spBuphaafr",
"Wattled Starling","spCreatcin","rarity"
"Violet-backed Starling","spCinny1leu",
"Neumann's Starling","spOnych2neu",
"Chestnut-winged Starling","spOnych2ful",
"Waller's Starling","spOnych2wal",
"White-collared Starling","spGrafitor",
"Narrow-tailed Starling","spPoeoplug",
"Purple-headed Starling","spHylop3pur",
"Long-tailed Glossy Starling","spLampr2cau",
"Splendid Starling","spLampr2spl",
"Chestnut-bellied Starling","spLampr2pul",
"Lesser Blue-eared Starling","spLampr2chl",
"Greater Blue-eared Starling","spLampr2cha",
"Purple Starling","spLampr2pur1",
"Bronze-tailed Starling","spLampr2cha1",
"Rufous Flycatcher-Thrush","spStizofra",
"Red-tailed Ant-Thrush","spNeocoruf",
"White-tailed Ant-Thrush","spNeocopoe",
"Black-eared Ground-Thrush","spGeokicam",
"Gray Ground-Thrush","spGeokipri",
"Crossley's Ground-Thrush","spGeokicro",
"African Thrush","spTurdupel",
"African Dusky Flycatcher","spMusci3adu",
"Little Flycatcher","spMusci3epu",
"Yellow-footed Flycatcher","spMusci3set",
"Spotted Flycatcher","spMusci3str",
"Gambaga Flycatcher","spMusci3gam",
"Swamp Flycatcher","spMusci3aqu",
"Cassin's Flycatcher","spMusci3cas",
"Ussher's Flycatcher","spArtomuss",
"Sooty Flycatcher","spArtomful",
"Dusky-blue Flycatcher","spBradocom",
"Pale Flycatcher","spAgricpal",
"White-browed Forest-Flycatcher","spFrasecin",
"African Forest-Flycatcher","spFraseocr",
"Gray-throated Tit-Flycatcher","spFrasegri",
"Gray Tit-Flycatcher","spFraseplu",
"Olivaceous Flycatcher","spFraseoli",
"Tessmann's Flycatcher","spFrasetes",
"Ashy Flycatcher","spFrasecae",
"Northern Black-Flycatcher","spMelaeedo",
"Fire-crested Alethe","spAlethcas",
"Black Scrub-Robin","spCerco3pod",
"Rufous-tailed Scrub-Robin","spCerco3gal",
"Brown-backed Scrub-Robin","spCerco3har",
"White-bellied Robin-Chat","spCossyrob",
"Mountain Robin-Chat","spCossyisa",
"Blue-shouldered Robin-Chat","spCossy1cya",
"White-browed Robin-Chat","spCossy1heu",
"Red-capped Robin-Chat","spCossy1nat",
"Snowy-crowned Robin-Chat","spCossy1niv",
"White-crowned Robin-Chat","spCossy1alb",
"Rufous-tailed Palm-Thrush","spCichl2ruf","rarity"
"Brown-chested Alethe","spChama3pol",
"Orange-breasted Forest Robin","spStiphery",
"Yellow-breasted Forest Robin","spStiphmab",
"Gray-winged Robin-Chat","spShepppol",
"Short-tailed Akalat","spShepppoe",
"Lowland Akalat","spSheppcyo",
"Common Nightingale","spLuscimeg",
"European Pied Flycatcher","spFicedhyp1",
"Collared Flycatcher","spFicedalb1",
"Common Redstart","spPhoen5pho",
"Rufous-tailed Rock-Thrush","spMontisax",
"Blue Rock-Thrush","spMontisol",
"Whinchat","spSaxicrub",
"African Stonechat","spSaxictor",
"Mocking Cliff-Chat","spThamn4cin",
"Sooty Chat","spMyrme2nig",
"Northern Anteater-Chat","spMyrme2aet",
"Northern Wheatear","spOenanoen",
"Isabelline Wheatear","spOenanisa","rarity"
"Heuglin's Wheatear","spOenanheu",
"Desert Wheatear","spOenandes","rarity"
"Western Black-eared Wheatear","spOenanhis","rarity"
"White-fronted Black-Chat","spOenanalb",
"Familiar Chat","spOenanfam",
"Gray-chested Babbler","spKakampol",
"Fraser's Sunbird","spDeleofra",
"Mouse-brown Sunbird","spAnthr3gab",
"Western Violet-backed Sunbird","spAnthr3lon",
"Violet-tailed Sunbird","spAnthr3aur",
"Little Green Sunbird","spAnthr3sei",
"Gray-chinned Sunbird","spAnthr3tep",
"Collared Sunbird","spHedydcol",
"Pygmy Sunbird","spHedydpla",
"Reichenbach's Sunbird","spAnaba2rei",
"Green-headed Sunbird","spCyano12ver",
"Blue-throated Brown Sunbird","spCyano12cya",
"Cameroon Sunbird","spCyano12ori",
"Olive Sunbird","spCyano12oli",
"Buff-throated Sunbird","spChalc5ade",
"Carmelite Sunbird","spChalc5ful",
"Green-throated Sunbird","spChalc5rub",
"Scarlet-chested Sunbird","spChalc5sen",
"Olive-bellied Sunbird","spCinny2chl",
"Tiny Sunbird","spCinny2min",
"Northern Double-collared Sunbird","spCinny2rei",
"Beautiful Sunbird","spCinny2pul",
"Orange-tufted Sunbird","spCinny2bou",
"Palestine Sunbird","spCinny2ose",
"Splendid Sunbird","spCinny2coc",
"Johanna's Sunbird","spCinny2joh",
"Superb Sunbird","spCinny2sup",
"Variable Sunbird","spCinny2ven",
"Ursula's Sunbird","spCinny2urs",
"Bates's Sunbird","spCinny2bat",
"Copper Sunbird","spCinny2cup",
"White-billed Buffalo-Weaver","spBubalalb",
"Speckle-fronted Weaver","spSporofro",
"Chestnut-crowned Sparrow-Weaver","spPloce1sup",
"Red-crowned Malimbe","spMalimcor",
"Black-throated Malimbe","spMalimcas",
"Rachel's Malimbe","spMalimrac",
"Red-vented Malimbe","spMalimscu",
"Red-bellied Malimbe","spMalimery",
"Blue-billed Malimbe","spMalimnit",
"Crested Malimbe","spMalimmal",
"Red-headed Malimbe","spMalimrub",
"Red-headed Weaver","spAnaplrub",
"Baglafecht Weaver","spPloce2bag",
"Bannerman's Weaver","spPloce2ban",
"Bates's Weaver","spPloce2bat","endemic"
"Little Weaver","spPloce2lut",
"Slender-billed Weaver","spPloce2pel",
"Olive-naped Weaver","spPloce2bra",
"Black-necked Weaver","spPloce2nig1",
"Spectacled Weaver","spPloce2ocu",
"Black-billed Weaver","spPloce2mel",
"Orange Weaver","spPloce2aur",
"Vitelline Masked-Weaver","spPloce2vit",
"Heuglin's Masked-Weaver","spPloce2heu",
"Vieillot's Black Weaver","spPloce2nig2",
"Village Weaver","spPloce2cuc",
"Black-headed Weaver","spPloce2mel1",
"Yellow-mantled Weaver","spPloce2tri",
"Maxwell's Black Weaver","spPloce2alb",
"Dark-backed Weaver","spPloce2bic",
"Brown-capped Weaver","spPloce2ins",
"Yellow-capped Weaver","spPloce2dor",
"Preuss's Weaver","spPloce2pre",
"Compact Weaver","spPachy8sup",
"Red-headed Quelea","spQueleery",
"Red-billed Quelea","spQueleque",
"Bob-tailed Weaver","spBrach4ano",
"Northern Red Bishop","spEuplefra",
"Black-winged Bishop","spEuplehor",
"Black Bishop","spEuplegie",
"Yellow-crowned Bishop","spEupleafe",
"Yellow Bishop","spEuplecap",
"Yellow-mantled Widowbird","spEuplemac",
"Red-collared Widowbird","spEupleard",
"Fan-tailed Widowbird","spEupleaxi",
"Marsh Widowbird","spEuplehar",
"Grosbeak Weaver","spAmbly1alb",
"Bronze Mannikin","spSpermcuc",
"Magpie Mannikin","spSpermfri",
"Black-and-white Mannikin","spSpermbic",
"African Silverbill","spEuodican",
"Shelley's Oliveback","spNesoc1she",
"Green-backed Twinspot","spMandinit",
"Red-faced Crimsonwing","spCrypt9rei",
"Woodhouse's Antpecker","spParmowoo",
"White-breasted Nigrita","spNigrifus",
"Chestnut-breasted Nigrita","spNigribic",
"Gray-headed Nigrita","spNigrican",
"Pale-fronted Nigrita","spNigrilut",
"Gray-headed Oliveback","spDelaccap",
"Lavender Waxbill","spGlauc2cae",
"Black-crowned Waxbill","spEstrinon",
"Black-headed Waxbill","spEstriatr",
"Orange-cheeked Waxbill","spEstrimel",
"Fawn-breasted Waxbill","spEstripal","rarity"
"Common Waxbill","spEstriast",
"Black-rumped Waxbill","spEstritro",
"Quailfinch","spOrtyg1atr",
"Locustfinch","spPaludloc",
"Cut-throat","spAmadifas",
"Zebra Waxbill","spAmandsub",
"Red-cheeked Cordonbleu","spUraegben",
"Grant's Bluebill","spSperm1pol",
"Western Bluebill","spSperm1hae",
"Black-bellied Seedcracker","spPyrenost",
"Green-winged Pytilia","spPytilmel",
"Red-winged Pytilia","spPytilpho",
"Red-faced Pytilia","spPytilhyp",
"Dybowski's Twinspot","spEuschdyb",
"Brown Twinspot","spClyto3mon",
"Red-billed Firefinch","spLagonsen",
"African Firefinch","spLagonrub",
"Rock Firefinch","spLagonsan",
"Chad Firefinch","spLagonumb",
"Black-bellied Firefinch","spLagonrar",
"Bar-breasted Firefinch","spLagonruf",
"Black-faced Firefinch","spLagonlar",
"Pin-tailed Whydah","spViduamac",
"Sahel Paradise-Whydah","spViduaori",
"Exclamatory Paradise-Whydah","spViduaint",
"Togo Paradise-Whydah","spViduatog",
"Village Indigobird","spViduacha",
"Wilson's Indigobird","spViduawil",
"Quailfinch Indigobird","spViduanig",
"Jos Plateau Indigobird","spViduamar",
"Jambandu Indigobird","spViduarar",
"Barka Indigobird","spVidualar",
"Cameroon Indigobird","spViduacam",
"Parasitic Weaver","spAnomaimb",
"Northern Gray-headed Sparrow","spPassegri",
"Sudan Golden Sparrow","spPasselut",
"Sahel Bush Sparrow","spGymno10den",
"Mountain Wagtail","spMotaccla",
"Gray Wagtail","spMotaccin","rarity"
"Western Yellow Wagtail","spMotacfla1",
"African Pied Wagtail","spMotacagu",
"White Wagtail","spMotacalb",
"African Pipit","spAnthucin",
"Long-billed Pipit","spAnthusim",
"Tawny Pipit","spAnthucam","rarity"
"Plain-backed Pipit","spAnthuleu",
"Long-legged Pipit","spAnthupal",
"Tree Pipit","spAnthutri",
"Red-throated Pipit","spAnthucer",
"Yellow-throated Longclaw","spMacro6cro",
"Oriole Finch","spLinuroli",
"White-rumped Seedeater","spCrithleu",
"Yellow-fronted Canary","spCrithmoz",
"Thick-billed Seedeater","spCrithbur",
"West African Seedeater","spCrithcan",
"Brown-rumped Bunting","spEmberaff",
"Ortolan Bunting","spEmberhor","rarity"
"Cabanis's Bunting","spEmbercab",
"Golden-breasted Bunting","spEmberfla",
"Gosling's Bunting","spEmbergos",
