"Name","ID","Status"
"Graylag Goose","spAnser1ans",
"Greater White-fronted Goose","spAnser1alb",
"Lesser White-fronted Goose","spAnser1ery","rarity"
"Red-breasted Goose","spBrantruf","rarity"
"Mute Swan","spCygnuolo",
"Tundra Swan","spCygnucol","rarity"
"Whooper Swan","spCygnucyg","rarity"
"Egyptian Goose","spAlopoaeg","rarity"
"Ruddy Shelduck","spTadorfer",
"Common Shelduck","spTadortad1",
"Garganey","spSpatuque",
"Northern Shoveler","spSpatucly",
"Gadwall","spMarecstr",
"Eurasian Wigeon","spMarecpen",
"Mallard","spAnaspla",
"Northern Pintail","spAnasacu",
"Green-winged Teal","spAnascre",
"Marbled Duck","spMarmaang","rarity"
"Red-crested Pochard","spNetta1ruf",
"Common Pochard","spAythyfer",
"Ferruginous Duck","spAythynyr",
"Tufted Duck","spAythyful",
"Greater Scaup","spAythymar","rarity"
"Common Scoter","spMelannig","rarity"
"Common Goldeneye","spBucepcla","rarity"
"Smew","spMergealb","rarity"
"Common Merganser","spMergumer","rarity"
"Red-breasted Merganser","spMerguser",
"Ruddy Duck","spOxyurjam","rarity"
"White-headed Duck","spOxyurleu","rarity"
"Black Francolin","spFrancfra",
"Common Quail","spCoturcot",
"Chukar","spAlect1chu",
"Rock Pigeon","spColumliv",
"Stock Dove","spColumoen",
"Common Wood-Pigeon","spColumpal",
"European Turtle-Dove","spStreptur",
"Oriental Turtle-Dove","spStrepori","rarity"
"Eurasian Collared-Dove","spStrepdec",
"Laughing Dove","spSpilosen",
"Namaqua Dove","spOenacap","rarity"
"Pin-tailed Sandgrouse","spPtero1alc","rarity"
"Black-bellied Sandgrouse","spPtero1ori","rarity"
"Great Bustard","spOtistar","rarity"
"Asian Houbara","spChlammac","rarity"
"Little Bustard","spTetra4tet","rarity"
"Great Spotted Cuckoo","spClamagla",
"Dideric Cuckoo","spChrys1cap","rarity"
"Common Cuckoo","spCuculcan",
"Eurasian Nightjar","spCaprieur",
"Alpine Swift","spTachy1mel",
"Common Swift","spApusapu",
"Pallid Swift","spApuspal",
"Little Swift","spApusaff","rarity"
"Water Rail","spRalluaqu",
"Corn Crake","spCrexcre",
"Spotted Crake","spPorzapor",
"Eurasian Moorhen","spGalli3chl",
"Eurasian Coot","spFulicatr",
"Allen's Gallinule","spPorph1all","rarity"
"Gray-headed Swamphen","spPorph1pol","rarity"
"Little Crake","spZaporpar",
"Baillon's Crake","spZaporpus","rarity"
"Demoiselle Crane","spAnthr1vir",
"Common Crane","spGrusgru",
"Eurasian Thick-knee","spBurhioed",
"Black-winged Stilt","spHiman1him",
"Pied Avocet","spRecuravo",
"Eurasian Oystercatcher","spHaema1ost",
"Black-bellied Plover","spPluvi2squ",
"European Golden-Plover","spPluvi2apr",
"Pacific Golden-Plover","spPluvi2ful","rarity"
"Eurasian Dotterel","spEudro1mor","rarity"
"Common Ringed Plover","spCharahia",
"Little Ringed Plover","spThinodub",
"Northern Lapwing","spVanelvan",
"Spur-winged Lapwing","spVanelspi",
"Sociable Lapwing","spVanelgre","rarity"
"White-tailed Lapwing","spVanelleu","rarity"
"Caspian Plover","spAnarhasi","rarity"
"Tibetan Sand-Plover","spAnarhatr","rarity"
"Greater Sand-Plover","spAnarhles",
"Kittlitz's Plover","spAnarhpec","rarity"
"Kentish Plover","spAnarhale",
"Whimbrel","spNumenpha",
"Slender-billed Curlew","spNumenten","extinct"
"Eurasian Curlew","spNumenarq",
"Bar-tailed Godwit","spLimoslap","rarity"
"Black-tailed Godwit","spLimoslim",
"Jack Snipe","spLymnomin",
"Eurasian Woodcock","spScolorus",
"Great Snipe","spGalli5med",
"Common Snipe","spGalli5gal",
"Red Phalarope","spPhala1ful","rarity"
"Red-necked Phalarope","spPhala1lob",
"Terek Sandpiper","spXenuscin","rarity"
"Common Sandpiper","spActithyp",
"Green Sandpiper","spTringoch",
"Marsh Sandpiper","spTringsta",
"Wood Sandpiper","spTringgla",
"Common Redshank","spTringtot",
"Spotted Redshank","spTringery",
"Common Greenshank","spTringneb",
"Ruddy Turnstone","spArenaint",
"Red Knot","spCalidcan",
"Ruff","spCalidpug",
"Broad-billed Sandpiper","spCalidfal",
"Curlew Sandpiper","spCalidfer",
"Temminck's Stint","spCalidtem",
"Sanderling","spCalidalb",
"Dunlin","spCalidalp",
"Baird's Sandpiper","spCalidbai","rarity"
"Little Stint","spCalidmin",
"Pectoral Sandpiper","spCalidmel","rarity"
"Cream-colored Courser","spCursocur",
"Collared Pratincole","spGlarepra",
"Black-winged Pratincole","spGlarenor","rarity"
"Oriental Pratincole","spGlaremal","rarity"
"Parasitic Jaeger","spStercpar","rarity"
"Pomarine Jaeger","spStercpom","rarity"
"Little Gull","spHydro3min",
"Black-legged Kittiwake","spRissatri","rarity"
"Slender-billed Gull","spChroigen",
"Black-headed Gull","spChroirid",
"Franklin's Gull","spLeuco3pip","rarity"
"Pallas's Gull","spIchthich",
"Audouin's Gull","spIchthaud",
"Mediterranean Gull","spIchthmel",
"White-eyed Gull","spIchthleu","rarity"
"Common Gull","spLaruscan",
"Caspian Gull","spLaruscac",
"European Herring Gull","spLarusarg","rarity"
"Yellow-legged Gull","spLarusmic",
"Armenian Gull","spLarusarm",
"Great Black-backed Gull","spLarusmar","rarity"
"Lesser Black-backed Gull","spLarusfus",
"Little Tern","spStern1alb",
"Gull-billed Tern","spGelocnil",
"Caspian Tern","spHydro4cas",
"Whiskered Tern","spChlidhyb",
"Black Tern","spChlidnig",
"White-winged Tern","spChlidleu",
"Arctic Tern","spStern2par","rarity"
"Common Tern","spStern2hir1",
"Sandwich Tern","spThala1san",
"Greater Flamingo","spPhoenros",
"Little Grebe","spTachy2ruf1",
"Horned Grebe","spPodic1aur","rarity"
"Red-necked Grebe","spPodic1gri","rarity"
"Great Crested Grebe","spPodic1cri",
"Eared Grebe","spPodic1nig",
"Red-throated Loon","spGaviaste","rarity"
"Arctic Loon","spGaviaarc","rarity"
"European Storm-Petrel","spHydro5pel","rarity"
"Scopoli's Shearwater","spCalondio",
"Yelkouan Shearwater","spPuffiyel",
"Black Stork","spCiconnig",
"White Stork","spCiconcic",
"Northern Gannet","spMorusbas","rarity"
"Pygmy Cormorant","spMicro5pyg","rarity"
"Great Cormorant","spPhala2car",
"European Shag","spGulosari",
"Glossy Ibis","spPlegafal",
"Eurasian Spoonbill","spPlataleu",
"Eurasian Bittern","spBotauste",
"Little Bittern","spBotaumin",
"Black-crowned Night Heron","spNycti6nyc",
"Little Egret","spEgretgar",
"Striated Heron","spButorstr","rarity"
"Squacco Heron","spArdeo1ral",
"Western Cattle-Egret","spArdeaibi",
"Great Egret","spArdeaalb",
"Gray Heron","spArdeacin",
"Purple Heron","spArdeapur",
"Great White Pelican","spPelec1ono",
"Dalmatian Pelican","spPelec1cri","rarity"
"Osprey","spPandihal",
"Black-winged Kite","spElanucae","rarity"
"Bearded Vulture","spGypaebar","rarity"
"Egyptian Vulture","spNeophper",
"European Honey-buzzard","spPerniapi",
"Cinereous Vulture","spAegypmon","rarity"
"Eurasian Griffon","spGypsful",
"Bateleur","spTerateca","rarity"
"Short-toed Snake-Eagle","spCircagal",
"Lesser Spotted Eagle","spClang1pom",
"Greater Spotted Eagle","spClang1cla","rarity"
"Booted Eagle","spHierapen",
"Imperial Eagle","spAquilhel","rarity"
"Golden Eagle","spAquilchr","rarity"
"Bonelli's Eagle","spAquilfas",
"Levant Sparrowhawk","spTachy3bre","rarity"
"Eurasian Sparrowhawk","spAccipnis",
"Eurasian Goshawk","spAsturgen",
"Western Marsh Harrier","spCircuaer",
"Hen Harrier","spCircucya",
"Pallid Harrier","spCircumac1",
"Montagu's Harrier","spCircupyg",
"Red Kite","spMilvumil","rarity"
"Black Kite","spMilvumig",
"White-tailed Eagle","spHalia1alb","rarity"
"Rough-legged Hawk","spButeo1lag","rarity"
"Common Buzzard","spButeo1but",
"Long-legged Buzzard","spButeo1ruf1",
"Western Barn Owl","spTytoalb",
"Eurasian Scops-Owl","spOtussco",
"Cyprus Scops-Owl","spOtuscyp","endemic"
"Little Owl","spAthennoc",
"Long-eared Owl","spAsiootu",
"Short-eared Owl","spAsiofla",
"Eurasian Hoopoe","spUpupaepo",
"Blue-cheeked Bee-eater","spMerop1per",
"European Bee-eater","spMerop1api",
"Common Kingfisher","spAlcedatt",
"White-throated Kingfisher","spHalcysmy","rarity"
"Pied Kingfisher","spCerylrud",
"European Roller","spCoracgar",
"Eurasian Wryneck","spJynxtor",
"Lesser Kestrel","spFalconau",
"Eurasian Kestrel","spFalcotin",
"Red-footed Falcon","spFalcoves",
"Amur Falcon","spFalcoamu","rarity"
"Eleonora's Falcon","spFalcoele",
"Sooty Falcon","spFalcocon","rarity"
"Merlin","spFalcocol",
"Eurasian Hobby","spFalcosub",
"Lanner Falcon","spFalcobia","rarity"
"Saker Falcon","spFalcoche",
"Peregrine Falcon","spFalcoper",
"Eurasian Golden Oriole","spOriolori",
"Red-backed Shrike","spLaniucol",
"Red-tailed Shrike","spLaniupho","rarity"
"Isabelline Shrike","spLaniuisa",
"Great Gray Shrike","spLaniuexc","rarity"
"Lesser Gray Shrike","spLaniumin",
"Masked Shrike","spLaniunub",
"Woodchat Shrike","spLaniusen",
"Eurasian Jay","spGarrugla",
"Eurasian Magpie","spPicapic",
"Eurasian Jackdaw","spColoemon",
"House Crow","spCorvuspl","rarity-from-introduced"
"Rook","spCorvufru","rarity"
"Hooded Crow","spCorvucor1",
"Brown-necked Raven","spCorvuruf","rarity"
"Common Raven","spCorvucor3",
"Coal Tit","spPeripate",
"Eurasian Blue Tit","spCyanicae","rarity"
"Great Tit","spParusmaj",
"Eurasian Penduline-Tit","spRemizpen",
"Bar-tailed Lark","spAmmom1cin","rarity"
"Desert Lark","spAmmom1des","rarity"
"Wood Lark","spLulluarb",
"Eurasian Skylark","spAlaudarv",
"Oriental Skylark","spAlaudgul","rarity"
"Crested Lark","spGalercri",
"Horned Lark","spEremo1alp","rarity"
"Temminck's Lark","spEremo1bil","rarity"
"Greater Short-toed Lark","spCalanbra",
"Bimaculated Lark","spMelan9bim",
"Calandra Lark","spMelan9cal",
"Dupont's Lark","spChers1dup","rarity"
"Dunn's Lark","spEremadun","rarity"
"Turkestan Short-toed Lark","spAlaud1hei",
"Bearded Reedling","spPanurbia","rarity"
"Graceful Prinia","spPrinigra","rarity"
"Zitting Cisticola","spCistijun",
"Eastern Olivaceous Warbler","spIdunapal",
"Upcher's Warbler","spHippolan","rarity"
"Olive-tree Warbler","spHippooli","rarity"
"Icterine Warbler","spHippoict",
"Moustached Warbler","spAcroc1mel",
"Sedge Warbler","spAcroc1sch",
"Paddyfield Warbler","spAcroc1agr","rarity"
"Blyth's Reed Warbler","spAcroc1dum","rarity"
"Marsh Warbler","spAcroc1pal1","rarity"
"Common Reed Warbler","spAcroc1sci",
"Basra Reed Warbler","spAcroc1gri","rarity"
"Great Reed Warbler","spAcroc1aru",
"River Warbler","spLocusflu","rarity"
"Savi's Warbler","spLocuslus",
"Common Grasshopper Warbler","spLocusnae","rarity"
"Plain Martin","spRiparpal","rarity"
"Bank Swallow","spRiparrip",
"Eurasian Crag-Martin","spPtyonrup",
"Barn Swallow","spHirun2rus",
"Western House-Martin","spDelicurb",
"European Red-rumped Swallow","spCecroruf",
"Wood Warbler","spPhyll5sib",
"Eastern Bonelli's Warbler","spPhyll5ori",
"Yellow-browed Warbler","spPhyll5ino","rarity"
"Hume's Warbler","spPhyll5hum","rarity"
"Dusky Warbler","spPhyll5fus","rarity"
"Willow Warbler","spPhyll5tro",
"Mountain Chiffchaff","spPhyll5sin","rarity"
"Common Chiffchaff","spPhyll5col",
"Cetti's Warbler","spCetticet",
"Eurasian Blackcap","spSylvi3atr",
"Garden Warbler","spSylvi3bor",
"Barred Warbler","spCurrunis",
"Lesser Whitethroat","spCurrucur",
"Eastern Orphean Warbler","spCurrucra",
"African Desert Warbler","spCurrudes","rarity"
"Asian Desert Warbler","spCurrunan","rarity"
"Menetries's Warbler","spCurrumys","rarity"
"Rüppell's Warbler","spCurrurup",
"Cyprus Warbler","spCurrumel",
"Sardinian Warbler","spCurrumel1",
"Eastern Subalpine Warbler","spCurrucan",
"Greater Whitethroat","spCurrucom",
"Spectacled Warbler","spCurrucon",
"Goldcrest","spRegulreg",
"Common Firecrest","spRegulign","rarity"
"Wallcreeper","spTichomur",
"Short-toed Treecreeper","spCerth4bra",
"Eurasian Wren","spTrogltro",
"White-throated Dipper","spCincl3cin",
"European Starling","spSturnvul",
"Rosy Starling","spPastoros",
"Mistle Thrush","spTurduvis",
"Song Thrush","spTurduphi",
"Redwing","spTurduili",
"Eurasian Blackbird","spTurdumer",
"Fieldfare","spTurdupil",
"Ring Ouzel","spTurdutor","rarity"
"Naumann's Thrush","spTurdunau","rarity"
"Spotted Flycatcher","spMusci3str",
"Rufous-tailed Scrub-Robin","spCerco3gal",
"European Robin","spErithrub",
"White-throated Robin","spIranigut","rarity"
"Thrush Nightingale","spLuscilus",
"Common Nightingale","spLuscimeg",
"Bluethroat","spLuscisve",
"Red-flanked Bluetail","spTarsicya","rarity"
"Red-breasted Flycatcher","spFicedpar","rarity"
"Semicollared Flycatcher","spFicedsem",
"European Pied Flycatcher","spFicedhyp1",
"Collared Flycatcher","spFicedalb1",
"Common Redstart","spPhoen5pho",
"Black Redstart","spPhoen5och",
"Rufous-tailed Rock-Thrush","spMontisax",
"Blue Rock-Thrush","spMontisol",
"Whinchat","spSaxicrub",
"European Stonechat","spSaxicrub1",
"Siberian Stonechat","spSaxicmau","rarity"
"Pied Bushchat","spSaxiccap","rarity"
"Northern Wheatear","spOenanoen",
"Isabelline Wheatear","spOenanisa",
"Hooded Wheatear","spOenanmon","rarity"
"Desert Wheatear","spOenandes",
"Cyprus Wheatear","spOenancyp",
"Eastern Black-eared Wheatear","spOenanmel",
"Pied Wheatear","spOenanple","rarity"
"White-crowned Wheatear","spOenanleu1","rarity"
"Finsch's Wheatear","spOenanfin","rarity"
"Mourning Wheatear","spOenanlug2","rarity"
"Kurdish Wheatear","spOenanxan","rarity"
"Bohemian Waxwing","spBombygar","rarity"
"Hypocolius","spHypoc3amp","rarity"
"Dunnock","spPrunemod",
"House Sparrow","spPassedom",
"Spanish Sparrow","spPassehis",
"Dead Sea Sparrow","spPassemoa","rarity"
"Eurasian Tree Sparrow","spPassemon","rarity"
"Rock Sparrow","spPetro3pet","rarity"
"Pale Rockfinch","spCarpo3bra","rarity"
"White-winged Snowfinch","spMonti1niv","rarity"
"Gray Wagtail","spMotaccin",
"Western Yellow Wagtail","spMotacfla1",
"Eastern Yellow Wagtail","spMotactsc","rarity"
"Citrine Wagtail","spMotaccit",
"White Wagtail","spMotacalb",
"Richard's Pipit","spAnthuric",
"Long-billed Pipit","spAnthusim","rarity"
"Blyth's Pipit","spAnthugod","rarity"
"Tawny Pipit","spAnthucam",
"Meadow Pipit","spAnthupra",
"Tree Pipit","spAnthutri",
"Olive-backed Pipit","spAnthuhod","rarity"
"Red-throated Pipit","spAnthucer",
"Water Pipit","spAnthuspi",
"Siberian Pipit","spAnthujap","rarity"
"Common Chaffinch","spFringcoe",
"Brambling","spFringmon",
"Hawfinch","spCocco1coc",
"Common Rosefinch","spCarpo4ery","rarity"
"Eurasian Bullfinch","spPyrrh4pyr","rarity"
"Crimson-winged Finch","spRhodo4san","rarity"
"Trumpeter Finch","spBucangit","rarity"
"Desert Finch","spRhodo5obs","rarity"
"European Greenfinch","spChlor11chl",
"Eurasian Linnet","spLinarcan",
"Redpoll","spAcant5fla","rarity"
"Red Crossbill","spLoxiacur",
"European Goldfinch","spCarducar",
"European Serin","spSerinser",
"Fire-fronted Serin","spSerinpus","rarity"
"Eurasian Siskin","spSpinuspi",
"Black-headed Bunting","spEmbermel",
"Corn Bunting","spEmbercal",
"Rock Bunting","spEmbercia","rarity"
"Yellowhammer","spEmbercit","rarity"
"Pine Bunting","spEmberleu","rarity"
"Cinereous Bunting","spEmbercin","rarity"
"Ortolan Bunting","spEmberhor",
"Cretzschmar's Bunting","spEmbercae",
"Striolated Bunting","spEmberstr","rarity"
"Reed Bunting","spEmbersch",
"Yellow-breasted Bunting","spEmberaur","rarity"
"Little Bunting","spEmberpus","rarity"
"Rustic Bunting","spEmberrus","rarity"
