"Name","ID","Status"
"Common Ostrich","spStrutcam","rarity"
"Graylag Goose","spAnser1ans",
"Greater White-fronted Goose","spAnser1alb","rarity"
"Tundra Swan","spCygnucol","rarity"
"Egyptian Goose","spAlopoaeg","rarity"
"Ruddy Shelduck","spTadorfer",
"Common Shelduck","spTadortad1",
"Garganey","spSpatuque",
"Blue-winged Teal","spSpatudis","rarity"
"Northern Shoveler","spSpatucly",
"Gadwall","spMarecstr",
"Eurasian Wigeon","spMarecpen",
"Mallard","spAnaspla",
"Northern Pintail","spAnasacu",
"Green-winged Teal","spAnascre",
"Marbled Duck","spMarmaang",
"Red-crested Pochard","spNetta1ruf",
"Common Pochard","spAythyfer",
"Ring-necked Duck","spAythycol","rarity"
"Ferruginous Duck","spAythynyr",
"Tufted Duck","spAythyful",
"Lesser Scaup","spAythyaff","rarity"
"Common Scoter","spMelannig",
"Smew","spMergealb","rarity"
"Red-breasted Merganser","spMerguser",
"White-headed Duck","spOxyurleu",
"Common Quail","spCoturcot",
"Barbary Partridge","spAlect1bar",
"Rock Pigeon","spColumliv",
"Stock Dove","spColumoen",
"Common Wood-Pigeon","spColumpal",
"European Turtle-Dove","spStreptur",
"Eurasian Collared-Dove","spStrepdec",
"African Collared-Dove","spStrepros",
"Laughing Dove","spSpilosen",
"Namaqua Dove","spOenacap","rarity"
"Pin-tailed Sandgrouse","spPtero1alc",
"Chestnut-bellied Sandgrouse","spPtero1exu","rarity"
"Spotted Sandgrouse","spPtero1sen",
"Black-bellied Sandgrouse","spPtero1ori",
"Crowned Sandgrouse","spPtero1cor",
"Lichtenstein's Sandgrouse","spPtero1lic",
"African Houbara","spChlamund",
"Little Bustard","spTetra4tet",
"Great Spotted Cuckoo","spClamagla",
"Pied Cuckoo","spClamajac","rarity"
"Common Cuckoo","spCuculcan",
"Red-necked Nightjar","spCapriruf",
"Eurasian Nightjar","spCaprieur",
"Egyptian Nightjar","spCapriaeg",
"Alpine Swift","spTachy1mel",
"Common Swift","spApusapu",
"Pallid Swift","spApuspal",
"Little Swift","spApusaff",
"Water Rail","spRalluaqu",
"Corn Crake","spCrexcre",
"African Crake","spCrecoegr","rarity"
"Spotted Crake","spPorzapor",
"Eurasian Moorhen","spGalli3chl",
"Eurasian Coot","spFulicatr",
"Red-knobbed Coot","spFuliccri","extinct"
"Western Swamphen","spPorph1por",
"Striped Crake","spAenigmar","rarity"
"Little Crake","spZaporpar",
"Baillon's Crake","spZaporpus",
"Common Crane","spGrusgru",
"Eurasian Thick-knee","spBurhioed",
"Black-winged Stilt","spHiman1him",
"Pied Avocet","spRecuravo",
"Eurasian Oystercatcher","spHaema1ost",
"Black-bellied Plover","spPluvi2squ",
"European Golden-Plover","spPluvi2apr",
"Eurasian Dotterel","spEudro1mor",
"Common Ringed Plover","spCharahia",
"Little Ringed Plover","spThinodub",
"Northern Lapwing","spVanelvan",
"Kentish Plover","spAnarhale",
"Whimbrel","spNumenpha",
"Slender-billed Curlew","spNumenten","extinct"
"Eurasian Curlew","spNumenarq",
"Bar-tailed Godwit","spLimoslap",
"Black-tailed Godwit","spLimoslim",
"Jack Snipe","spLymnomin",
"Eurasian Woodcock","spScolorus",
"Great Snipe","spGalli5med",
"Common Snipe","spGalli5gal",
"Common Sandpiper","spActithyp",
"Green Sandpiper","spTringoch",
"Marsh Sandpiper","spTringsta",
"Wood Sandpiper","spTringgla",
"Common Redshank","spTringtot",
"Spotted Redshank","spTringery",
"Common Greenshank","spTringneb",
"Ruddy Turnstone","spArenaint",
"Red Knot","spCalidcan",
"Ruff","spCalidpug",
"Curlew Sandpiper","spCalidfer",
"Temminck's Stint","spCalidtem",
"Sanderling","spCalidalb",
"Dunlin","spCalidalp",
"Little Stint","spCalidmin",
"Pectoral Sandpiper","spCalidmel","rarity"
"Small Buttonquail","spTurnisyl",
"Cream-colored Courser","spCursocur",
"Collared Pratincole","spGlarepra",
"Parasitic Jaeger","spStercpar",
"Pomarine Jaeger","spStercpom","rarity"
"Great Skua","spStercsku",
"Atlantic Puffin","spFratearc",
"Razorbill","spAlcator",
"Common Murre","spUriaaal","rarity"
"Little Gull","spHydro3min",
"Black-legged Kittiwake","spRissatri",
"Sabine's Gull","spXemasab","rarity"
"Slender-billed Gull","spChroigen",
"Black-headed Gull","spChroirid",
"Gray-hooded Gull","spChroicir","rarity"
"Audouin's Gull","spIchthaud",
"Mediterranean Gull","spIchthmel",
"Common Gull","spLaruscan",
"Yellow-legged Gull","spLarusmic",
"Great Black-backed Gull","spLarusmar","rarity"
"Lesser Black-backed Gull","spLarusfus",
"Little Tern","spStern1alb",
"Gull-billed Tern","spGelocnil",
"Caspian Tern","spHydro4cas",
"Whiskered Tern","spChlidhyb",
"Black Tern","spChlidnig",
"White-winged Tern","spChlidleu",
"Common Tern","spStern2hir1",
"Sandwich Tern","spThala1san",
"Lesser Crested Tern","spThala1ben",
"Greater Flamingo","spPhoenros",
"Lesser Flamingo","spPhoen1min","rarity"
"Little Grebe","spTachy2ruf1",
"Great Crested Grebe","spPodic1cri",
"Eared Grebe","spPodic1nig",
"Red-throated Loon","spGaviaste","rarity"
"Wilson's Storm-Petrel","spOceanoce","rarity"
"European Storm-Petrel","spHydro5pel","rarity"
"Cory's Shearwater","spCalonbor",
"Scopoli's Shearwater","spCalondio",
"Sooty Shearwater","spArdengri","rarity"
"Yelkouan Shearwater","spPuffiyel",
"Balearic Shearwater","spPuffimau",
"Black Stork","spCiconnig",
"White Stork","spCiconcic",
"Northern Gannet","spMorusbas",
"Great Cormorant","spPhala2car",
"European Shag","spGulosari",
"Glossy Ibis","spPlegafal",
"Eurasian Spoonbill","spPlataleu",
"Eurasian Bittern","spBotauste",
"Little Bittern","spBotaumin",
"Black-crowned Night Heron","spNycti6nyc",
"Little Egret","spEgretgar",
"Western Reef-Heron","spEgretgul","rarity"
"Squacco Heron","spArdeo1ral",
"Western Cattle-Egret","spArdeaibi",
"Great Egret","spArdeaalb",
"Gray Heron","spArdeacin",
"Purple Heron","spArdeapur",
"Osprey","spPandihal",
"Black-winged Kite","spElanucae",
"Bearded Vulture","spGypaebar",
"Egyptian Vulture","spNeophper",
"European Honey-buzzard","spPerniapi",
"Cinereous Vulture","spAegypmon","rarity"
"Lappet-faced Vulture","spTorgotra","rarity"
"Eurasian Griffon","spGypsful",
"Bateleur","spTerateca","rarity"
"Short-toed Snake-Eagle","spCircagal",
"Lesser Spotted Eagle","spClang1pom",
"Greater Spotted Eagle","spClang1cla","rarity"
"Booted Eagle","spHierapen",
"Spanish Eagle","spAquilada","rarity"
"Tawny Eagle","spAquilrap",
"Golden Eagle","spAquilchr",
"Verreaux's Eagle","spAquilver","rarity"
"Bonelli's Eagle","spAquilfas",
"Eurasian Sparrowhawk","spAccipnis",
"Eurasian Goshawk","spAsturgen",
"Western Marsh Harrier","spCircuaer",
"Hen Harrier","spCircucya",
"Pallid Harrier","spCircumac1",
"Montagu's Harrier","spCircupyg",
"Red Kite","spMilvumil",
"Black Kite","spMilvumig",
"White-tailed Eagle","spHalia1alb",
"Common Buzzard","spButeo1but",
"Long-legged Buzzard","spButeo1ruf1",
"Western Barn Owl","spTytoalb",
"Eurasian Scops-Owl","spOtussco",
"Pharaoh Eagle-Owl","spBuboasc",
"Eurasian Eagle-Owl","spBubobub",
"Little Owl","spAthennoc",
"Maghreb Owl","spStrixmau",
"Long-eared Owl","spAsiootu",
"Short-eared Owl","spAsiofla",
"Blue-naped Mousebird","spUrocomac","rarity"
"Eurasian Hoopoe","spUpupaepo",
"White-throated Bee-eater","spMerop1alb","rarity"
"African Green Bee-eater","spMerop1vir",
"Blue-cheeked Bee-eater","spMerop1per",
"European Bee-eater","spMerop1api",
"Common Kingfisher","spAlcedatt",
"European Roller","spCoracgar",
"Eurasian Wryneck","spJynxtor",
"African Gray Woodpecker","spDendr4goe","rarity"
"Great Spotted Woodpecker","spDendr5maj",
"Lesser Spotted Woodpecker","spDryobmin",
"Levaillant's Woodpecker","spPicusvai",
"Lesser Kestrel","spFalconau",
"Eurasian Kestrel","spFalcotin",
"Red-footed Falcon","spFalcoves","rarity"
"Eleonora's Falcon","spFalcoele",
"Sooty Falcon","spFalcocon","rarity"
"Merlin","spFalcocol",
"Eurasian Hobby","spFalcosub",
"Lanner Falcon","spFalcobia",
"Peregrine Falcon","spFalcoper",
"Rose-ringed Parakeet","spPsitt2kra","introduced"
"Eurasian Golden Oriole","spOriolori",
"Black-crowned Tchagra","spTchagsen",
"Red-backed Shrike","spLaniucol","rarity"
"Red-tailed Shrike","spLaniupho","rarity"
"Great Gray Shrike","spLaniuexc",
"Masked Shrike","spLaniunub","rarity"
"Woodchat Shrike","spLaniusen",
"Eurasian Jay","spGarrugla",
"Maghreb Magpie","spPicamau",
"Red-billed Chough","spPyrrh3pyr",
"Eurasian Jackdaw","spColoemon",
"Rook","spCorvufru","rarity"
"Carrion Crow","spCorvucor","rarity"
"Pied Crow","spCorvualb",
"Brown-necked Raven","spCorvuruf",
"Common Raven","spCorvucor3",
"Coal Tit","spPeripate",
"African Blue Tit","spCyaniten",
"Great Tit","spParusmaj",
"Eurasian Penduline-Tit","spRemizpen","rarity"
"Greater Hoopoe-Lark","spAlaemala",
"Thick-billed Lark","spRamph4clo",
"Bar-tailed Lark","spAmmom1cin",
"Desert Lark","spAmmom1des",
"Black-crowned Sparrow-Lark","spEremonig","rarity"
"Wood Lark","spLulluarb",
"Eurasian Skylark","spAlaudarv",
"Thekla's Lark","spGalerthe",
"Crested Lark","spGalercri",
"Horned Lark","spEremo1alp","rarity"
"Temminck's Lark","spEremo1bil",
"Greater Short-toed Lark","spCalanbra",
"Calandra Lark","spMelan9cal",
"Dupont's Lark","spChers1dup",
"Dunn's Lark","spEremadun","rarity"
"Mediterranean Short-toed Lark","spAlaud1ruf",
"Cricket Longtail","spSpilo2cla","rarity"
"Zitting Cisticola","spCistijun",
"Eastern Olivaceous Warbler","spIdunapal",
"Western Olivaceous Warbler","spIdunaopa",
"Melodious Warbler","spHippopol",
"Icterine Warbler","spHippoict",
"Aquatic Warbler","spAcroc1pal",
"Moustached Warbler","spAcroc1mel",
"Sedge Warbler","spAcroc1sch",
"Marsh Warbler","spAcroc1pal1","rarity"
"Common Reed Warbler","spAcroc1sci",
"Great Reed Warbler","spAcroc1aru",
"River Warbler","spLocusflu","rarity"
"Savi's Warbler","spLocuslus",
"Common Grasshopper Warbler","spLocusnae",
"Plain Martin","spRiparpal","rarity"
"Bank Swallow","spRiparrip",
"Eurasian Crag-Martin","spPtyonrup",
"Pale Crag-Martin","spPtyonobs",
"Barn Swallow","spHirun2rus",
"Western House-Martin","spDelicurb",
"European Red-rumped Swallow","spCecroruf",
"Common Bulbul","spPycno2bar",
"Wood Warbler","spPhyll5sib",
"Western Bonelli's Warbler","spPhyll5bon",
"Yellow-browed Warbler","spPhyll5ino","rarity"
"Willow Warbler","spPhyll5tro",
"Common Chiffchaff","spPhyll5col",
"Iberian Chiffchaff","spPhyll5ibe",
"Scrub Warbler","spScoto1inq",
"Cetti's Warbler","spCetticet",
"Eurasian Blackcap","spSylvi3atr",
"Garden Warbler","spSylvi3bor",
"Lesser Whitethroat","spCurrucur",
"Western Orphean Warbler","spCurruhor",
"African Desert Warbler","spCurrudes",
"Tristram's Warbler","spCurrudes1",
"Rüppell's Warbler","spCurrurup","rarity"
"Sardinian Warbler","spCurrumel1",
"Moltoni's Warbler","spCurrusub1","rarity"
"Western Subalpine Warbler","spCurruibe",
"Eastern Subalpine Warbler","spCurrucan",
"Greater Whitethroat","spCurrucom",
"Spectacled Warbler","spCurrucon",
"Marmora's Warbler","spCurrusar",
"Dartford Warbler","spCurruund",
"Fulvous Chatterer","spArgyaful",
"Goldcrest","spRegulreg",
"Common Firecrest","spRegulign",
"Wallcreeper","spTichomur","rarity"
"Algerian Nuthatch","spSitta1led","endemic"
"Short-toed Treecreeper","spCerth4bra",
"Eurasian Wren","spTrogltro",
"White-throated Dipper","spCincl3cin",
"European Starling","spSturnvul",
"Spotless Starling","spSturnuni",
"Mistle Thrush","spTurduvis",
"Song Thrush","spTurduphi",
"Redwing","spTurduili",
"Eurasian Blackbird","spTurdumer",
"Fieldfare","spTurdupil","rarity"
"Ring Ouzel","spTurdutor",
"Spotted Flycatcher","spMusci3str",
"Black Scrub-Robin","spCerco3pod","rarity"
"Rufous-tailed Scrub-Robin","spCerco3gal",
"European Robin","spErithrub",
"Common Nightingale","spLuscimeg",
"Bluethroat","spLuscisve",
"Red-breasted Flycatcher","spFicedpar","rarity"
"European Pied Flycatcher","spFicedhyp1",
"Atlas Flycatcher","spFicedspe",
"Collared Flycatcher","spFicedalb1",
"Moussier's Redstart","spPhoen5mou",
"Common Redstart","spPhoen5pho",
"Black Redstart","spPhoen5och",
"Rufous-tailed Rock-Thrush","spMontisax",
"Blue Rock-Thrush","spMontisol",
"Whinchat","spSaxicrub",
"European Stonechat","spSaxicrub1",
"Northern Wheatear","spOenanoen",
"Atlas Wheatear","spOenansee",
"Isabelline Wheatear","spOenanisa",
"Desert Wheatear","spOenandes",
"Western Black-eared Wheatear","spOenanhis",
"Red-rumped Wheatear","spOenanmoe",
"Black Wheatear","spOenanleu",
"White-crowned Wheatear","spOenanleu1",
"Mourning Wheatear","spOenanlug2",
"Pygmy Sunbird","spHedydpla","rarity"
"African Silverbill","spEuodican","rarity"
"Cut-throat","spAmadifas","rarity"
"Red-billed Firefinch","spLagonsen",
"Village Indigobird","spViduacha","rarity"
"Alpine Accentor","spPrunecol",
"Dunnock","spPrunemod",
"House Sparrow","spPassedom",
"Spanish Sparrow","spPassehis",
"Northern Gray-headed Sparrow","spPassegri","rarity"
"Desert Sparrow","spPassesim",
"Eurasian Tree Sparrow","spPassemon","rarity"
"Sudan Golden Sparrow","spPasselut",
"Rock Sparrow","spPetro3pet",
"Gray Wagtail","spMotaccin",
"Western Yellow Wagtail","spMotacfla1",
"White Wagtail","spMotacalb",
"Tawny Pipit","spAnthucam",
"Meadow Pipit","spAnthupra",
"Tree Pipit","spAnthutri",
"Red-throated Pipit","spAnthucer",
"Water Pipit","spAnthuspi",
"Common Chaffinch","spFringcoe",
"African Chaffinch","spFringspo",
"Brambling","spFringmon",
"Hawfinch","spCocco1coc",
"Crimson-winged Finch","spRhodo4san",
"Trumpeter Finch","spBucangit",
"European Greenfinch","spChlor11chl",
"White-rumped Seedeater","spCrithleu","rarity"
"Eurasian Linnet","spLinarcan",
"Red Crossbill","spLoxiacur",
"European Goldfinch","spCarducar",
"European Serin","spSerinser",
"Eurasian Siskin","spSpinuspi",
"Snow Bunting","spPlect2niv","rarity"
"Black-headed Bunting","spEmbermel","rarity"
"Corn Bunting","spEmbercal",
"Rock Bunting","spEmbercia",
"Cirl Bunting","spEmbercir",
"Yellowhammer","spEmbercit","rarity"
"Ortolan Bunting","spEmberhor",
"House Bunting","spEmbersah",
"Reed Bunting","spEmbersch",
"Little Bunting","spEmberpus","rarity"
"Rustic Bunting","spEmberrus","rarity"
