"Name","ID","Status"
"Common Ostrich","spStrutcam","extinct"
"Graylag Goose","spAnser1ans","rarity"
"Greater White-fronted Goose","spAnser1alb",
"Lesser White-fronted Goose","spAnser1ery","rarity"
"Taiga Bean-Goose","spAnser1fab","rarity"
"Brant","spBrantber","rarity"
"Barnacle Goose","spBrantleu","rarity"
"Red-breasted Goose","spBrantruf","rarity"
"Mute Swan","spCygnuolo",
"Tundra Swan","spCygnucol","rarity"
"Whooper Swan","spCygnucyg","rarity"
"Egyptian Goose","spAlopoaeg",
"Ruddy Shelduck","spTadorfer",
"Common Shelduck","spTadortad1",
"Spur-winged Goose","spPlectgam","rarity"
"Garganey","spSpatuque",
"Blue-winged Teal","spSpatudis","rarity"
"Northern Shoveler","spSpatucly",
"Gadwall","spMarecstr",
"Eurasian Wigeon","spMarecpen",
"Mallard","spAnaspla",
"Northern Pintail","spAnasacu",
"Green-winged Teal","spAnascre",
"Marbled Duck","spMarmaang",
"Red-crested Pochard","spNetta1ruf",
"Common Pochard","spAythyfer",
"Ferruginous Duck","spAythynyr",
"Tufted Duck","spAythyful",
"Velvet Scoter","spMelanfus","rarity"
"Smew","spMergealb",
"Red-breasted Merganser","spMerguser",
"White-headed Duck","spOxyurleu",
"Sand Partridge","spAmmophey",
"Common Quail","spCoturcot",
"Barbary Partridge","spAlect1bar",
"Chukar","spAlect1chu",
"Rock Pigeon","spColumliv",
"Stock Dove","spColumoen",
"Common Wood-Pigeon","spColumpal","rarity"
"European Turtle-Dove","spStreptur",
"Oriental Turtle-Dove","spStrepori","rarity"
"Eurasian Collared-Dove","spStrepdec",
"African Collared-Dove","spStrepros",
"Mourning Collared-Dove","spStrepdec1","rarity"
"Laughing Dove","spSpilosen",
"Namaqua Dove","spOenacap",
"Bruce's Green-Pigeon","spTrerowaa","rarity"
"Pin-tailed Sandgrouse","spPtero1alc","rarity"
"Chestnut-bellied Sandgrouse","spPtero1exu","extinct"
"Spotted Sandgrouse","spPtero1sen",
"Black-bellied Sandgrouse","spPtero1ori",
"Crowned Sandgrouse","spPtero1cor",
"Lichtenstein's Sandgrouse","spPtero1lic",
"Great Bustard","spOtistar","rarity"
"African Houbara","spChlamund",
"Asian Houbara","spChlammac",
"Little Bustard","spTetra4tet",
"Senegal Coucal","spCentr1sen",
"Great Spotted Cuckoo","spClamagla",
"Common Cuckoo","spCuculcan",
"Eurasian Nightjar","spCaprieur",
"Egyptian Nightjar","spCapriaeg",
"Nubian Nightjar","spCaprinub","rarity"
"Alpine Swift","spTachy1mel",
"Common Swift","spApusapu",
"Pallid Swift","spApuspal",
"Little Swift","spApusaff",
"Water Rail","spRalluaqu",
"Corn Crake","spCrexcre",
"Spotted Crake","spPorzapor",
"Lesser Moorhen","spParagang","rarity"
"Eurasian Moorhen","spGalli3chl",
"Eurasian Coot","spFulicatr",
"African Swamphen","spPorph1mad",
"Little Crake","spZaporpar",
"Baillon's Crake","spZaporpus",
"Demoiselle Crane","spAnthr1vir",
"Common Crane","spGrusgru",
"Eurasian Thick-knee","spBurhioed",
"Senegal Thick-knee","spBurhisen",
"Egyptian Plover","spPluvi1aeg","extinct"
"Black-winged Stilt","spHiman1him",
"Pied Avocet","spRecuravo",
"Eurasian Oystercatcher","spHaema1ost",
"Black-bellied Plover","spPluvi2squ",
"European Golden-Plover","spPluvi2apr",
"Eurasian Dotterel","spEudro1mor",
"Common Ringed Plover","spCharahia",
"Three-banded Plover","spThinotri",
"Little Ringed Plover","spThinodub",
"Northern Lapwing","spVanelvan",
"Spur-winged Lapwing","spVanelspi",
"Sociable Lapwing","spVanelgre",
"White-tailed Lapwing","spVanelleu",
"Caspian Plover","spAnarhasi",
"Greater Sand-Plover","spAnarhles",
"Kittlitz's Plover","spAnarhpec",
"Kentish Plover","spAnarhale",
"Greater Painted-Snipe","spRostrben",
"Whimbrel","spNumenpha",
"Slender-billed Curlew","spNumenten","extinct"
"Eurasian Curlew","spNumenarq",
"Bar-tailed Godwit","spLimoslap",
"Black-tailed Godwit","spLimoslim",
"Jack Snipe","spLymnomin",
"Eurasian Woodcock","spScolorus",
"Great Snipe","spGalli5med",
"Common Snipe","spGalli5gal",
"Red Phalarope","spPhala1ful",
"Red-necked Phalarope","spPhala1lob",
"Terek Sandpiper","spXenuscin",
"Common Sandpiper","spActithyp",
"Green Sandpiper","spTringoch",
"Marsh Sandpiper","spTringsta",
"Wood Sandpiper","spTringgla",
"Common Redshank","spTringtot",
"Spotted Redshank","spTringery",
"Common Greenshank","spTringneb",
"Ruddy Turnstone","spArenaint",
"Red Knot","spCalidcan",
"Ruff","spCalidpug",
"Broad-billed Sandpiper","spCalidfal",
"Curlew Sandpiper","spCalidfer",
"Temminck's Stint","spCalidtem",
"Sanderling","spCalidalb",
"Dunlin","spCalidalp",
"Little Stint","spCalidmin",
"Pectoral Sandpiper","spCalidmel","rarity"
"Crab-Plover","spDroma1ard",
"Cream-colored Courser","spCursocur",
"Collared Pratincole","spGlarepra",
"Black-winged Pratincole","spGlarenor",
"Long-tailed Jaeger","spSterclon",
"Parasitic Jaeger","spStercpar",
"Pomarine Jaeger","spStercpom",
"Little Gull","spHydro3min",
"Black-legged Kittiwake","spRissatri",
"Sabine's Gull","spXemasab","rarity"
"Slender-billed Gull","spChroigen",
"Black-headed Gull","spChroirid",
"Gray-hooded Gull","spChroicir","rarity"
"Franklin's Gull","spLeuco3pip","rarity"
"Pallas's Gull","spIchthich",
"Audouin's Gull","spIchthaud",
"Mediterranean Gull","spIchthmel",
"Sooty Gull","spIchthhem",
"White-eyed Gull","spIchthleu",
"Common Gull","spLaruscan",
"Caspian Gull","spLaruscac",
"Yellow-legged Gull","spLarusmic",
"Armenian Gull","spLarusarm",
"Lesser Black-backed Gull","spLarusfus",
"African Skimmer","spRynchfla",
"Bridled Tern","spOnychana",
"Little Tern","spStern1alb",
"Saunders's Tern","spStern1sau","rarity"
"Gull-billed Tern","spGelocnil",
"Caspian Tern","spHydro4cas",
"Whiskered Tern","spChlidhyb",
"Black Tern","spChlidnig",
"White-winged Tern","spChlidleu",
"Common Tern","spStern2hir1",
"White-cheeked Tern","spStern2rep",
"Sandwich Tern","spThala1san",
"Lesser Crested Tern","spThala1ben",
"Great Crested Tern","spThala1ber",
"Greater Flamingo","spPhoenros",
"Lesser Flamingo","spPhoen1min","rarity"
"Little Grebe","spTachy2ruf1",
"Red-necked Grebe","spPodic1gri","rarity"
"Great Crested Grebe","spPodic1cri",
"Eared Grebe","spPodic1nig",
"Red-billed Tropicbird","spPhaet2aet",
"White-capped Albatross","spThala2cau","rarity"
"Wilson's Storm-Petrel","spOceanoce","rarity"
"Leach's Storm-Petrel","spHydro5leu","rarity"
"Streaked Shearwater","spCalonleu","rarity"
"Scopoli's Shearwater","spCalondio",
"Sooty Shearwater","spArdengri",
"Yelkouan Shearwater","spPuffiyel",
"Balearic Shearwater","spPuffimau","rarity"
"African Openbill","spAnastlam","rarity"
"Black Stork","spCiconnig",
"White Stork","spCiconcic",
"Yellow-billed Stork","spMycteibi",
"Northern Gannet","spMorusbas",
"Brown Booby","spSulaleu",
"African Darter","spAnhinruf","extinct"
"Reed Cormorant","spMicro5afr","extinct"
"Great Cormorant","spPhala2car",
"European Shag","spGulosari","rarity"
"Glossy Ibis","spPlegafal",
"African Sacred Ibis","spThresaet","extinct"
"Eurasian Spoonbill","spPlataleu",
"Eurasian Bittern","spBotauste",
"Little Bittern","spBotaumin",
"Yellow Bittern","spBotausin",
"Black-crowned Night Heron","spNycti6nyc",
"Little Egret","spEgretgar",
"Western Reef-Heron","spEgretgul",
"Striated Heron","spButorstr",
"Squacco Heron","spArdeo1ral",
"Western Cattle-Egret","spArdeaibi",
"Great Egret","spArdeaalb",
"Gray Heron","spArdeacin",
"Purple Heron","spArdeapur",
"Goliath Heron","spArdeagol",
"Great White Pelican","spPelec1ono",
"Pink-backed Pelican","spPelec1ruf",
"Dalmatian Pelican","spPelec1cri",
"Osprey","spPandihal",
"Black-winged Kite","spElanucae",
"Bearded Vulture","spGypaebar",
"Egyptian Vulture","spNeophper",
"European Honey-buzzard","spPerniapi",
"Oriental Honey-buzzard","spPernipti","rarity"
"Cinereous Vulture","spAegypmon",
"Lappet-faced Vulture","spTorgotra",
"Hooded Vulture","spNecromon","rarity"
"White-backed Vulture","spGypsafr","rarity"
"Rüppell's Griffon","spGypsrue","rarity"
"Eurasian Griffon","spGypsful",
"Bateleur","spTerateca","rarity"
"Short-toed Snake-Eagle","spCircagal",
"Lesser Spotted Eagle","spClang1pom",
"Greater Spotted Eagle","spClang1cla",
"Wahlberg's Eagle","spHierawah","rarity"
"Booted Eagle","spHierapen",
"Steppe Eagle","spAquilnip",
"Imperial Eagle","spAquilhel",
"Tawny Eagle","spAquilrap","rarity"
"Golden Eagle","spAquilchr",
"Verreaux's Eagle","spAquilver",
"Bonelli's Eagle","spAquilfas",
"Gabar Goshawk","spMicro6gab","rarity"
"Levant Sparrowhawk","spTachy3bre",
"Eurasian Sparrowhawk","spAccipnis",
"Eurasian Goshawk","spAsturgen",
"Western Marsh Harrier","spCircuaer",
"Hen Harrier","spCircucya",
"Pallid Harrier","spCircumac1",
"Montagu's Harrier","spCircupyg",
"Red Kite","spMilvumil",
"Black Kite","spMilvumig",
"White-tailed Eagle","spHalia1alb",
"African Fish-Eagle","spIcthyvoc","rarity"
"Common Buzzard","spButeo1but",
"Long-legged Buzzard","spButeo1ruf1",
"Western Barn Owl","spTytoalb",
"Eurasian Scops-Owl","spOtussco",
"Pallid Scops-Owl","spOtusbru","rarity"
"Pharaoh Eagle-Owl","spBuboasc",
"Little Owl","spAthennoc",
"Desert Owl","spStrixhad",
"Long-eared Owl","spAsiootu",
"Short-eared Owl","spAsiofla",
"Eurasian Hoopoe","spUpupaepo",
"African Green Bee-eater","spMerop1vir",
"Arabian Green Bee-eater","spMerop1cya",
"Blue-cheeked Bee-eater","spMerop1per",
"European Bee-eater","spMerop1api",
"Common Kingfisher","spAlcedatt",
"White-throated Kingfisher","spHalcysmy",
"Pied Kingfisher","spCerylrud",
"European Roller","spCoracgar",
"Abyssinian Roller","spCoracaby","rarity"
"Broad-billed Roller","spEurysgla","rarity"
"Eurasian Wryneck","spJynxtor",
"Syrian Woodpecker","spDendr5syr",
"Lesser Kestrel","spFalconau",
"Eurasian Kestrel","spFalcotin",
"Red-footed Falcon","spFalcoves",
"Eleonora's Falcon","spFalcoele",
"Sooty Falcon","spFalcocon",
"Merlin","spFalcocol",
"Eurasian Hobby","spFalcosub",
"Lanner Falcon","spFalcobia",
"Saker Falcon","spFalcoche",
"Peregrine Falcon","spFalcoper",
"Alexandrine Parakeet","spPsitt2eup","escaped"
"Rose-ringed Parakeet","spPsitt2kra","introduced"
"Eurasian Golden Oriole","spOriolori",
"Rosy-patched Bushshrike","spRhodo3cru",
"Red-backed Shrike","spLaniucol",
"Red-tailed Shrike","spLaniupho","rarity"
"Isabelline Shrike","spLaniuisa",
"Great Gray Shrike","spLaniuexc",
"Lesser Gray Shrike","spLaniumin",
"Masked Shrike","spLaniunub",
"Woodchat Shrike","spLaniusen",
"House Crow","spCorvuspl","introduced"
"Rook","spCorvufru",
"Hooded Crow","spCorvucor1",
"Brown-necked Raven","spCorvuruf",
"Fan-tailed Raven","spCorvurhi",
"Common Raven","spCorvucor3",
"Great Tit","spParusmaj",
"Eurasian Penduline-Tit","spRemizpen",
"Greater Hoopoe-Lark","spAlaemala",
"Thick-billed Lark","spRamph4clo",
"Bar-tailed Lark","spAmmom1cin",
"Desert Lark","spAmmom1des",
"Black-crowned Sparrow-Lark","spEremonig",
"Wood Lark","spLulluarb",
"Eurasian Skylark","spAlaudarv",
"Oriental Skylark","spAlaudgul","rarity"
"Thekla's Lark","spGalerthe",
"Crested Lark","spGalercri",
"Temminck's Lark","spEremo1bil",
"Greater Short-toed Lark","spCalanbra",
"Bimaculated Lark","spMelan9bim",
"Calandra Lark","spMelan9cal",
"Dupont's Lark","spChers1dup",
"Arabian Lark","spEremaere",
"Mediterranean Short-toed Lark","spAlaud1ruf",
"Bearded Reedling","spPanurbia","rarity"
"Graceful Prinia","spPrinigra",
"Zitting Cisticola","spCistijun",
"Eastern Olivaceous Warbler","spIdunapal",
"Western Olivaceous Warbler","spIdunaopa","rarity"
"Upcher's Warbler","spHippolan",
"Olive-tree Warbler","spHippooli",
"Icterine Warbler","spHippoict",
"Moustached Warbler","spAcroc1mel",
"Sedge Warbler","spAcroc1sch",
"Marsh Warbler","spAcroc1pal1",
"Common Reed Warbler","spAcroc1sci",
"Great Reed Warbler","spAcroc1aru",
"Clamorous Reed Warbler","spAcroc1ste",
"River Warbler","spLocusflu",
"Savi's Warbler","spLocuslus",
"Banded Martin","spNeoph3cin","rarity"
"Plain Martin","spRiparpal","rarity"
"Bank Swallow","spRiparrip",
"Eurasian Crag-Martin","spPtyonrup",
"Pale Crag-Martin","spPtyonobs",
"Barn Swallow","spHirun2rus",
"Western House-Martin","spDelicurb",
"European Red-rumped Swallow","spCecroruf",
"Eastern Red-rumped Swallow","spCecrodau","rarity"
"Streak-throated Swallow","spPetro2flu","rarity"
"Common Bulbul","spPycno2bar",
"White-spectacled Bulbul","spPycno2xan2",
"Wood Warbler","spPhyll5sib",
"Western Bonelli's Warbler","spPhyll5bon",
"Eastern Bonelli's Warbler","spPhyll5ori",
"Yellow-browed Warbler","spPhyll5ino",
"Dusky Warbler","spPhyll5fus","rarity"
"Willow Warbler","spPhyll5tro",
"Common Chiffchaff","spPhyll5col",
"Scrub Warbler","spScoto1inq",
"Eurasian Blackcap","spSylvi3atr",
"Garden Warbler","spSylvi3bor",
"Barred Warbler","spCurrunis",
"Lesser Whitethroat","spCurrucur",
"Arabian Warbler","spCurruleu",
"Eastern Orphean Warbler","spCurrucra",
"Asian Desert Warbler","spCurrunan",
"Menetries's Warbler","spCurrumys",
"Rüppell's Warbler","spCurrurup",
"Cyprus Warbler","spCurrumel","rarity"
"Sardinian Warbler","spCurrumel1",
"Eastern Subalpine Warbler","spCurrucan",
"Greater Whitethroat","spCurrucom",
"Spectacled Warbler","spCurrucon",
"Fulvous Chatterer","spArgyaful",
"Arabian Babbler","spArgyasqu",
"Goldcrest","spRegulreg","rarity"
"Common Firecrest","spRegulign","rarity"
"Eurasian Wren","spTrogltro","rarity"
"European Starling","spSturnvul",
"Rosy Starling","spPastoros",
"Common Myna","spAcridtri","introduced"
"Tristram's Starling","spOnych2tri",
"Mistle Thrush","spTurduvis",
"Song Thrush","spTurduphi",
"Redwing","spTurduili",
"Eurasian Blackbird","spTurdumer",
"Fieldfare","spTurdupil",
"Ring Ouzel","spTurdutor",
"Black-throated Thrush","spTurduatr","rarity"
"Spotted Flycatcher","spMusci3str",
"Black Scrub-Robin","spCerco3pod","rarity"
"Rufous-tailed Scrub-Robin","spCerco3gal",
"European Robin","spErithrub",
"White-throated Robin","spIranigut","rarity"
"Thrush Nightingale","spLuscilus",
"Common Nightingale","spLuscimeg",
"Bluethroat","spLuscisve",
"Red-breasted Flycatcher","spFicedpar",
"Semicollared Flycatcher","spFicedsem",
"European Pied Flycatcher","spFicedhyp1",
"Collared Flycatcher","spFicedalb1",
"Common Redstart","spPhoen5pho",
"Black Redstart","spPhoen5och",
"Rufous-tailed Rock-Thrush","spMontisax",
"Blue Rock-Thrush","spMontisol",
"Whinchat","spSaxicrub",
"European Stonechat","spSaxicrub1",
"Siberian Stonechat","spSaxicmau","rarity"
"Pied Bushchat","spSaxiccap","rarity"
"Northern Wheatear","spOenanoen",
"Isabelline Wheatear","spOenanisa",
"Hooded Wheatear","spOenanmon",
"Desert Wheatear","spOenandes",
"Cyprus Wheatear","spOenancyp",
"Eastern Black-eared Wheatear","spOenanmel",
"Pied Wheatear","spOenanple","rarity"
"Red-rumped Wheatear","spOenanmoe",
"Blackstart","spOenanmel1",
"White-crowned Wheatear","spOenanleu1",
"Finsch's Wheatear","spOenanfin",
"Mourning Wheatear","spOenanlug2",
"Kurdish Wheatear","spOenanxan",
"Persian Wheatear","spOenanchr","rarity"
"Hypocolius","spHypoc3amp","rarity"
"Nile Valley Sunbird","spHedydmet",
"Palestine Sunbird","spCinny2ose",
"Abyssinian Sunbird","spCinny2hab","rarity"
"Village Weaver","spPloce2cuc","rarity"
"Streaked Weaver","spPloce2man","introduced"
"African Silverbill","spEuodican",
"Indian Silverbill","spEuodimal",
"Red Avadavat","spAmandama","introduced"
"Dunnock","spPrunemod",
"House Sparrow","spPassedom",
"Spanish Sparrow","spPassehis",
"Dead Sea Sparrow","spPassemoa","rarity"
"Desert Sparrow","spPassesim","rarity"
"Eurasian Tree Sparrow","spPassemon","rarity"
"Sudan Golden Sparrow","spPasselut",
"Yellow-throated Sparrow","spGymno10xan","rarity"
"Pale Rockfinch","spCarpo3bra",
"Gray Wagtail","spMotaccin",
"Western Yellow Wagtail","spMotacfla1",
"Citrine Wagtail","spMotaccit","rarity"
"African Pied Wagtail","spMotacagu",
"White Wagtail","spMotacalb",
"Richard's Pipit","spAnthuric",
"Long-billed Pipit","spAnthusim",
"Tawny Pipit","spAnthucam",
"Meadow Pipit","spAnthupra",
"Tree Pipit","spAnthutri",
"Red-throated Pipit","spAnthucer",
"Water Pipit","spAnthuspi",
"Siberian Pipit","spAnthujap","rarity"
"Common Chaffinch","spFringcoe",
"Brambling","spFringmon",
"Hawfinch","spCocco1coc",
"Common Rosefinch","spCarpo4ery",
"Sinai Rosefinch","spCarpo4syn",
"Trumpeter Finch","spBucangit",
"Desert Finch","spRhodo5obs",
"European Greenfinch","spChlor11chl",
"Eurasian Linnet","spLinarcan",
"European Goldfinch","spCarducar",
"European Serin","spSerinser",
"Fire-fronted Serin","spSerinpus","rarity"
"Syrian Serin","spSerinsyr",
"Eurasian Siskin","spSpinuspi",
"Black-headed Bunting","spEmbermel",
"Red-headed Bunting","spEmberbru","rarity"
"Corn Bunting","spEmbercal",
"Cirl Bunting","spEmbercir","rarity"
"Gray-necked Bunting","spEmberbuc","rarity"
"Cinereous Bunting","spEmbercin","rarity"
"Ortolan Bunting","spEmberhor",
"Cretzschmar's Bunting","spEmbercae",
"Striolated Bunting","spEmberstr",
"Reed Bunting","spEmbersch","rarity"
"Yellow-breasted Bunting","spEmberaur","rarity"
"Little Bunting","spEmberpus","rarity"
"Rustic Bunting","spEmberrus","rarity"
