"Name","ID","Status"
"Northern Shoveler","spSpatucly",
"Eurasian Wigeon","spMarecpen",
"Pacific Black Duck","spAnassup",
"Mallard","spAnaspla",
"Northern Pintail","spAnasacu",
"Green-winged Teal","spAnascre",
"Tufted Duck","spAythyful",
"Greater Scaup","spAythymar",
"Micronesian Megapode","spMegaplap",
"Red Junglefowl","spGallugal","introduced"
"Rock Pigeon","spColumliv","introduced"
"Caroline Islands Ground Dove","spPampukub","endemic"
"White-throated Ground Dove","spPampuxan",
"Nicobar Pigeon","spCaloenic",
"Purple-capped Fruit-Dove","spPtilipon","endemic"
"Kosrae Fruit-Dove","spPtiliher","endemic"
"Micronesian Imperial-Pigeon","spDuculoce",
"Long-tailed Koel","spUrodytai",
"Oriental Cuckoo","spCuculopt",
"Caroline Islands Swiftlet","spAerodinq","endemic"
"Eurasian Moorhen","spGalli3chl",
"Australasian Swamphen","spPorph1mel","rarity"
"White-browed Crake","spPoliocin",
"Spotless Crake","spZaportab",
"Kosrae Crake","spZapormon","extinct"
"Black-winged Stilt","spHiman1him",
"Black-bellied Plover","spPluvi2squ",
"Pacific Golden-Plover","spPluvi2ful",
"Little Ringed Plover","spThinodub","rarity"
"Siberian Sand-Plover","spAnarhmon",
"Greater Sand-Plover","spAnarhles",
"Kentish Plover","spAnarhale","rarity"
"Bristle-thighed Curlew","spNumentah",
"Whimbrel","spNumenpha",
"Far Eastern Curlew","spNumenmad",
"Bar-tailed Godwit","spLimoslap",
"Black-tailed Godwit","spLimoslim",
"Swinhoe's Snipe","spGalli5meg",
"Pin-tailed Snipe","spGalli5ste","rarity"
"Common Snipe","spGalli5gal",
"Terek Sandpiper","spXenuscin",
"Common Sandpiper","spActithyp",
"Gray-tailed Tattler","spTringbre",
"Wandering Tattler","spTringinc",
"Marsh Sandpiper","spTringsta",
"Wood Sandpiper","spTringgla",
"Common Redshank","spTringtot",
"Spotted Redshank","spTringery","rarity"
"Common Greenshank","spTringneb",
"Ruddy Turnstone","spArenaint",
"Great Knot","spCalidten","rarity"
"Ruff","spCalidpug",
"Sharp-tailed Sandpiper","spCalidacu",
"Curlew Sandpiper","spCalidfer","rarity"
"Long-toed Stint","spCalidsub","rarity"
"Red-necked Stint","spCalidruf",
"Buff-breasted Sandpiper","spCalidsub1","rarity"
"Sanderling","spCalidalb",
"Dunlin","spCalidalp",
"Pectoral Sandpiper","spCalidmel",
"Oriental Pratincole","spGlaremal",
"Long-tailed Jaeger","spSterclon",
"Parasitic Jaeger","spStercpar",
"Pomarine Jaeger","spStercpom",
"South Polar Skua","spStercmac","rarity"
"Black-headed Gull","spChroirid",
"Laughing Gull","spLeuco3atr","rarity"
"Franklin's Gull","spLeuco3pip","rarity"
"White Tern","spGygisalb",
"Brown Noddy","spAnoussto",
"Black Noddy","spAnousmin",
"Gray Noddy","spAnousalb",
"Sooty Tern","spOnychfus",
"Bridled Tern","spOnychana","rarity"
"Gray-backed Tern","spOnychlun",
"Little Tern","spStern1alb",
"Whiskered Tern","spChlidhyb",
"White-winged Tern","spChlidleu",
"Common Tern","spStern2hir1",
"Black-naped Tern","spStern2sum",
"Great Crested Tern","spThala1ber",
"White-tailed Tropicbird","spPhaet2lep",
"Red-tailed Tropicbird","spPhaet2rub",
"Wilson's Storm-Petrel","spOceanoce",
"Leach's Storm-Petrel","spHydro5leu",
"Matsudaira's Storm-Petrel","spHydro5mat",
"Kermadec Petrel","spPtero3neg",
"White-necked Petrel","spPtero3cer",
"Black-winged Petrel","spPtero3nig",
"Bulwer's Petrel","spBulwebul",
"Tahiti Petrel","spPseudros",
"Streaked Shearwater","spCalonleu",
"Wedge-tailed Shearwater","spArdenpac",
"Short-tailed Shearwater","spArdenten",
"Tropical Shearwater","spPuffibai",
"Lesser Frigatebird","spFregaari",
"Great Frigatebird","spFregamin",
"Red-footed Booby","spSulasul",
"Brown Booby","spSulaleu",
"Masked Booby","spSuladac",
"Little Pied Cormorant","spMicro5mel","rarity"
"Yellow Bittern","spBotausin",
"Black-crowned Night Heron","spNycti6nyc",
"Nankeen Night Heron","spNycti6cal",
"Pacific Reef-Heron","spEgretsac",
"Little Egret","spEgretgar",
"Striated Heron","spButorstr",
"Eastern Cattle-Egret","spArdeacor","rarity"
"Great Egret","spArdeaalb","rarity"
"Medium Egret","spArdeaint",
"Gray Heron","spArdeacin","rarity"
"Osprey","spPandihal",
"Chinese Sparrowhawk","spTachy3sol",
"Gray-faced Buzzard","spButasind","rarity"
"Short-eared Owl","spAsiofla","rarity"
"Rainbow Bee-eater","spMerop1orn",
"Pohnpei Kingfisher","spTodirrei","endemic"
"Dollarbird","spEurysori",
"Peregrine Falcon","spFalcoper",
"Pohnpei Lorikeet","spTrich1rub","endemic"
"Micronesian Myzomela","spMyzomrub2",
"Pohnpei Cicadabird","spEdoliins","endemic"
"Yap Cicadabird","spEdolines","endemic"
"Micronesian Rufous Fantail","spRhipiver",
"Pohnpei Fantail","spRhipikub","endemic"
"Chuuk Monarch","spMetabrug","endemic"
"Yap Monarch","spMonargod","endemic"
"Pohnpei Flycatcher","spMyiagplu","endemic"
"Chuuk Flycatcher","spMyiagoce","endemic"
"Oriental Reed Warbler","spAcroc1ori1","rarity"
"Caroline Reed Warbler","spAcroc1syr","endemic"
"Barn Swallow","spHirun2rus",
"Tree Martin","spPetro2nig","rarity"
"Teardrop White-eye","spRukiaruk","endemic"
"Long-billed White-eye","spRukialon","endemic"
"Yap White-eye","spZoste1ole","endemic"
"Pohnpei White-eye","spZoste1pon","endemic"
"Kosrae White-eye","spZoste1cin","endemic"
"Caroline Islands White-eye","spZoste1sem1",
"Plain White-eye","spZoste1hyp1","endemic"
"Pohnpei Starling","spAplonpel","endemic"
"Micronesian Starling","spAplonopa",
"Kosrae Starling","spAploncor","extinct"
"Gray-streaked Flycatcher","spMusci3gri","rarity"
"Scaly-breasted Munia","spLonchpun","introduced"
"Mottled Munia","spLonchhun","introduced"
"Blue-faced Parrotfinch","spEryth6tri1",
"Eurasian Tree Sparrow","spPassemon","introduced"
"Eastern Yellow Wagtail","spMotactsc","rarity"
"Red-throated Pipit","spAnthucer","rarity"
