"Name","ID","Status"
"White-backed Duck","spThalaleu","rarity"
"Hartlaub's Duck","spPterohar",
"African Pygmy-Goose","spNettaaur",
"African Black Duck","spAnasspa",
"Helmeted Guineafowl","spNumidmel","extinct"
"Black Guineafowl","spAgelanig",
"Plumed Guineafowl","spGutteplu",
"Latham's Francolin","spPeliplat",
"Harlequin Quail","spCoturdel","rarity"
"Scaly Spurfowl","spPternsqu",
"Rock Pigeon","spColumliv","introduced"
"Afep Pigeon","spColumuni",
"Cameroon Pigeon","spColumsjo",
"Western Bronze-naped Pigeon","spColumiri",
"Sao Tome Pigeon","spColummal",
"Lemon Dove","spAploplar",
"Red-eyed Dove","spStrepsem",
"Laughing Dove","spSpilosen",
"Blue-spotted Wood-Dove","spTurtuafe",
"Tambourine Dove","spTurtutym",
"Blue-headed Wood-Dove","spTurtubre",
"African Green-Pigeon","spTrerocal",
"Great Blue Turaco","spCorytcri",
"Yellow-billed Turaco","spTauramac",
"Guinea Turaco","spTauraper",
"Gabon Coucal","spCentr1ans",
"Black-throated Coucal","spCentr1leu",
"Blue-headed Coucal","spCentr1mon",
"Blue Malkoha","spCeuthaer",
"Great Spotted Cuckoo","spClamagla","rarity"
"Levaillant's Cuckoo","spClamalev",
"Pied Cuckoo","spClamajac","rarity"
"Dideric Cuckoo","spChrys1cap",
"Klaas's Cuckoo","spChrys1kla",
"Yellow-throated Cuckoo","spChrys1fla",
"African Emerald Cuckoo","spChrys1cup",
"Dusky Long-tailed Cuckoo","spCercomec",
"Olive Long-tailed Cuckoo","spCercooli",
"Black Cuckoo","spCuculcla",
"Red-chested Cuckoo","spCuculsol",
"Common Cuckoo","spCuculcan",
"Brown Nightjar","spVelesbin",
"Pennant-winged Nightjar","spCaprivex","rarity"
"Fiery-necked Nightjar","spCapripec",
"Swamp Nightjar","spCaprinat",
"Square-tailed Nightjar","spCaprifos","rarity"
"Mottled Spinetail","spTelacuss",
"Sabine's Spinetail","spRhaphsab",
"Cassin's Spinetail","spNeafrcas",
"Scarce Swift","spSchoumyo",
"Alpine Swift","spTachy1mel",
"Common Swift","spApusapu",
"African Swift","spApusbar",
"Little Swift","spApusaff",
"White-rumped Swift","spApuscaf",
"Bates's Swift","spApusbat",
"African Palm Swift","spCypsipar",
"White-spotted Flufftail","spSarotpul",
"Buff-spotted Flufftail","spSarotele",
"African Crake","spCrecoegr","rarity"
"Gray-throated Rail","spCanirocu",
"Lesser Moorhen","spParagang",
"Eurasian Moorhen","spGalli3chl","extinct"
"Allen's Gallinule","spPorph1all",
"Nkulengu Rail","spHimanhae",
"Black Crake","spZaporfla",
"African Finfoot","spPodicsen",
"Eurasian Oystercatcher","spHaema1ost","rarity"
"Black-bellied Plover","spPluvi2squ",
"Common Ringed Plover","spCharahia",
"Forbes's Plover","spThinofor",
"Little Ringed Plover","spThinodub",
"White-crowned Lapwing","spVanelalb","rarity"
"White-fronted Plover","spAnarhmar",
"Greater Painted-Snipe","spRostrben","rarity"
"African Jacana","spActopafr","rarity"
"Whimbrel","spNumenpha",
"Great Snipe","spGalli5med",
"Common Snipe","spGalli5gal",
"Common Sandpiper","spActithyp",
"Green Sandpiper","spTringoch","rarity"
"Marsh Sandpiper","spTringsta",
"Wood Sandpiper","spTringgla",
"Common Redshank","spTringtot",
"Common Greenshank","spTringneb",
"Sanderling","spCalidalb",
"Rock Pratincole","spGlarenuc",
"Gray Pratincole","spGlarecin","rarity"
"Black-winged Pratincole","spGlarenor","rarity"
"Parasitic Jaeger","spStercpar","rarity"
"African Skimmer","spRynchfla","rarity"
"Brown Noddy","spAnoussto",
"Black Noddy","spAnousmin",
"Sooty Tern","spOnychfus","rarity"
"Bridled Tern","spOnychana",
"Damara Tern","spStern1bal",
"Caspian Tern","spHydro4cas",
"Whiskered Tern","spChlidhyb",
"Black Tern","spChlidnig",
"White-winged Tern","spChlidleu","rarity"
"Arctic Tern","spStern2par",
"Common Tern","spStern2hir1",
"Sandwich Tern","spThala1san",
"West African Crested Tern","spThala1alb",
"Little Grebe","spTachy2ruf1",
"White-tailed Tropicbird","spPhaet2lep",
"Leach's Storm-Petrel","spHydro5leu","rarity"
"Band-rumped Storm-Petrel","spHydro5cas","rarity"
"Sooty Shearwater","spArdengri","rarity"
"African Openbill","spAnastlam","rarity"
"Abdim's Stork","spCiconabd",
"African Woolly-necked Stork","spCiconmic",
"White Stork","spCiconcic","rarity"
"Yellow-billed Stork","spMycteibi","rarity"
"Cape Gannet","spMoruscap",
"Brown Booby","spSulaleu",
"African Darter","spAnhinruf","rarity"
"Reed Cormorant","spMicro5afr",
"African Sacred Ibis","spThresaet",
"Spot-breasted Ibis","spBostrrar",
"Hadada Ibis","spBostrhag",
"African Spoonbill","spPlataalb",
"White-crested Tiger-Heron","spTigrileu",
"Dwarf Bittern","spBotaustu",
"Little Bittern","spBotaumin",
"Black-crowned Night Heron","spNycti6nyc","rarity"
"Little Egret","spEgretgar",
"Western Reef-Heron","spEgretgul",
"White-backed Night Heron","spCalheleu","rarity"
"Striated Heron","spButorstr",
"Squacco Heron","spArdeo1ral",
"Western Cattle-Egret","spArdeaibi",
"Great Egret","spArdeaalb",
"Yellow-billed Egret","spArdeabra",
"Gray Heron","spArdeacin",
"Purple Heron","spArdeapur",
"Black-headed Heron","spArdeamel",
"Hamerkop","spScopuumb",
"Pink-backed Pelican","spPelec1ruf",
"Osprey","spPandihal",
"Black-winged Kite","spElanucae",
"African Harrier-Hawk","spPolybtyp",
"Palm-nut Vulture","spGypohang",
"African Cuckoo-Hawk","spAvicecuc",
"European Honey-buzzard","spPerniapi",
"White-backed Vulture","spGypsafr","rarity"
"Congo Snake-Eagle","spCircaspe",
"Crowned Eagle","spSteph1cor",
"Long-crested Eagle","spLophaocc",
"Wahlberg's Eagle","spHierawah","rarity"
"Ayres's Hawk-Eagle","spHieraayr",
"Cassin's Hawk-Eagle","spAquilafr",
"Bat Hawk","spMachealc",
"Long-tailed Hawk","spUrotrmac",
"Lizard Buzzard","spKaupimon",
"African Goshawk","spAerostac",
"Chestnut-flanked Sparrowhawk","spAeroscas",
"Red-thighed Sparrowhawk","spTachy3ery","rarity"
"Black Goshawk","spAsturmel",
"Western Marsh Harrier","spCircuaer",
"Black Kite","spMilvumig",
"African Fish-Eagle","spIcthyvoc",
"Red-necked Buzzard","spButeo1aug",
"Common Buzzard","spButeo1but","rarity"
"Western Barn Owl","spTytoalb",
"African Scops-Owl","spOtussen",
"Maned Owl","spJubullet",
"Fraser's Eagle-Owl","spKetuppoe",
"Akun Eagle-Owl","spKetupleu",
"Pel's Fishing-Owl","spScotopel",
"Vermiculated Fishing-Owl","spScotobou","rarity"
"Red-chested Owlet","spGlauc1tep",
"Sjöstedt's Owlet","spGlauc1sjo",
"African Wood-Owl","spStrixwoo",
"Speckled Mousebird","spColiustr",
"Narina Trogon","spApalonar",
"Bare-cheeked Trogon","spApaloaeq",
"Bar-tailed Trogon","spApalovit",
"Red-billed Dwarf Hornbill","spLopho11cam",
"Congo Pied Hornbill","spLopho11fas",
"Eastern Long-tailed Hornbill","spHorizcas",
"Western Dwarf Hornbill","spHorizhar",
"Black-casqued Hornbill","spCeratatr",
"Black-and-white-casqued Hornbill","spBycansub",
"White-thighed Hornbill","spBycanalb",
"Piping Hornbill","spBycanfis",
"Black Bee-eater","spMerop1gul",
"Blue-moustached Bee-eater","spMerop1men",
"Blue-headed Bee-eater","spMerop1mue",
"Blue-breasted Bee-eater","spMerop1var",
"White-throated Bee-eater","spMerop1alb",
"European Bee-eater","spMerop1api",
"Rosy Bee-eater","spMerop1mal",
"Shining-blue Kingfisher","spAlcedqua",
"Malachite Kingfisher","spCoryt1cri",
"White-bellied Kingfisher","spCoryt1leu",
"African Pygmy Kingfisher","spIspidpic",
"African Dwarf Kingfisher","spIspidlec",
"Chocolate-backed Kingfisher","spHalcybad",
"Woodland Kingfisher","spHalcysen",
"Blue-breasted Kingfisher","spHalcymal",
"Giant Kingfisher","spMegac1max",
"Pied Kingfisher","spCerylrud",
"Broad-billed Roller","spEurysgla",
"Blue-throated Roller","spEurysgul",
"Eastern Yellow-billed Barbet","spTrachpur",
"Gray-throated Barbet","spGymno3bon",
"Bristle-nosed Barbet","spGymno3pel",
"Naked-faced Barbet","spGymno3cal",
"Speckled Tinkerbird","spPogonsco",
"Red-rumped Tinkerbird","spPogonatr",
"Yellow-throated Tinkerbird","spPogonsub",
"Yellow-rumped Tinkerbird","spPogonbil",
"Yellow-spotted Barbet","spBuccaduc",
"Hairy-breasted Barbet","spTrichhir",
"Double-toothed Barbet","spPogon1bid",
"Cassin's Honeybird","spProdoins",
"Zenker's Honeyguide","spMeligzen",
"Willcocks's Honeyguide","spIndicwil",
"Least Honeyguide","spIndicexi",
"Lesser Honeyguide","spIndicmin",
"Spotted Honeyguide","spIndicmac",
"Lyre-tailed Honeyguide","spMelicrob",
"African Piculet","spVerreafr",
"Golden-crowned Woodpecker","spChlor3xan",
"Gabon Woodpecker","spDendr4gab",
"Elliot's Woodpecker","spDendr4ell",
"Cardinal Woodpecker","spDendr4fus",
"Brown-eared Woodpecker","spPardi1car",
"Buff-spotted Woodpecker","spPardi1niv",
"Tullberg's Woodpecker","spCampe1tul",
"Green-backed Woodpecker","spCampe1mac",
"Lesser Kestrel","spFalconau","rarity"
"Eurasian Kestrel","spFalcotin","rarity"
"African Hobby","spFalcocuv","rarity"
"Peregrine Falcon","spFalcoper",
"Black-collared Lovebird","spAgaposwi",
"Red-headed Lovebird","spAgapopul",
"Gray Parrot","spPsitt5eri",
"Red-fronted Parrot","spPoicegul",
"Gray-headed Broadbill","spSmithsha",
"Rufous-sided Broadbill","spSmithruf",
"Gray Cuckooshrike","spCeblecae",
"Purple-throated Cuckooshrike","spCampe2qui",
"Blue Cuckooshrike","spCyano4azu",
"Eurasian Golden Oriole","spOriolori",
"Western Black-headed Oriole","spOriolbra",
"Black-winged Oriole","spOriolnig",
"Chestnut Wattle-eye","spDyaphcas",
"White-spotted Wattle-eye","spDyaphton",
"Brown-throated Wattle-eye","spPlaty2cya",
"Black-necked Wattle-eye","spPlaty2cha",
"Yellow-bellied Wattle-eye","spPlaty2con",
"Verreaux's Batis","spBatismin1",
"Bioko Batis","spBatispoe","endemic"
"West African Batis","spBatisocc",
"Rufous-bellied Helmetshrike","spPrion2ruf",
"African Shrike-flycatcher","spMegabfla",
"Black-and-white Shrike-flycatcher","spBiasmus",
"Red-eyed Puffback","spDryossen",
"Pink-footed Puffback","spDryosang",
"Sabine's Puffback","spDryossab",
"Brown-crowned Tchagra","spTchagaus",
"Lühder's Bushshrike","spLanialue",
"Lowland Sooty Boubou","spLanialeu",
"Western Boubou","spLaniapoe",
"Gray-green Bushshrike","spChlor5boc",
"Many-colored Bushshrike","spChlor5mul",
"Fiery-breasted Bushshrike","spMalac2cru",
"Sharpe's Drongo","spDicrusha",
"Shining Drongo","spDicruatr",
"Velvet-mantled Drongo","spDicrumod",
"Blue-headed Crested Flycatcher","spTroch1nit",
"Black-headed Paradise-Flycatcher","spTerpsruf",
"Rufous-vented Paradise-Flycatcher","spTerpsruf1",
"African Paradise-Flycatcher","spTerpsvir",
"Mackinnon's Shrike","spLaniumac",
"Pied Crow","spCorvualb",
"Gray-necked Rockfowl","spPicatore",
"Violet-backed Hyliota","spHyliovio",
"African Blue Flycatcher","spElminlon",
"Dusky Crested Flycatcher","spElminnig",
"White-bellied Crested Flycatcher","spElminalb1",
"Dusky Tit","spMelan8fun",
"Western Nicator","spNicatchl",
"Yellow-throated Nicator","spNicatvir",
"Green Crombec","spSylvi2vir",
"Lemon-bellied Crombec","spSylvi2den",
"Yellow Longbill","spMacro4fla",
"Gray Longbill","spMacro4con",
"Rufous-crowned Eremomela","spEremo2bad",
"White-chinned Prinia","spSchis1leu",
"Green Longtail","spUrolaepi",
"White-tailed Warbler","spPolio3lop",
"Green-backed Camaroptera","spCamarbra",
"Yellow-browed Camaroptera","spCamarsup",
"Olive-green Camaroptera","spCamarchl",
"Black-capped Apalis","spApalinig",
"Black-throated Apalis","spApalijac",
"Masked Apalis","spApalibin",
"Yellow-breasted Apalis","spApalifla1",
"Buff-throated Apalis","spApaliruf",
"Gray Apalis","spApalicin",
"Banded Prinia","spPrinibai",
"Black-faced Rufous-Warbler","spBathmruf",
"Chattering Cisticola","spCistiano",
"Zitting Cisticola","spCistijun",
"Greater Swamp Warbler","spAcroc1ruf",
"Great Reed Warbler","spAcroc1aru","rarity"
"Evergreen-forest Warbler","spBradylop",
"Square-tailed Sawwing","spPsalinit",
"Mountain Sawwing","spPsaliful",
"Black Sawwing","spPsalipri",
"Gray-rumped Swallow","spPseud15gri",
"Banded Martin","spNeoph3cin",
"Red-throated Crag-Martin","spPtyonruf","rarity"
"Barn Swallow","spHirun2rus",
"Red-chested Swallow","spHirun2luc",
"Ethiopian Swallow","spHirun2aet",
"White-throated Blue Swallow","spHirun2nig1",
"Forest Swallow","spAtronful",
"Lesser Striped Swallow","spCecroaby",
"Rufous-chested Swallow","spCecrosem",
"Mosque Swallow","spCecrosen",
"Preuss's Swallow","spPetro2pre",
"Slender-billed Greenbul","spStelg1gra",
"Golden Greenbul","spCalyp4ser",
"Red-tailed Bristlebill","spBledasyn",
"Yellow-lored Bristlebill","spBledanot",
"Pale-throated Greenbul","spAtimafla1",
"Spotted Greenbul","spIxonogut",
"Swamp Greenbul","spThescleu",
"Yellow-necked Greenbul","spChlor6fal",
"Simple Greenbul","spChlor6sim",
"Honeyguide Greenbul","spBaeopind",
"Sjöstedt's Greenbul","spBaeopcla",
"Western Mountain Greenbul","spArizetep",
"Eastern Bearded-Greenbul","spCrini1chl",
"Red-tailed Greenbul","spCrini1cal",
"White-bearded Greenbul","spCrini1ndu",
"Little Greenbul","spEurilvir",
"Yellow-whiskered Greenbul","spEurillat",
"Plain Greenbul","spEurilcur",
"Gray Greenbul","spEurilgra",
"Ansorge's Greenbul","spEurilans",
"White-throated Greenbul","spPhyll4alb1",
"Xavier's Greenbul","spPhyll4xav",
"Icterine Greenbul","spPhyll4ict",
"Cameroon Olive-Greenbul","spPhyll4poe",
"Common Bulbul","spPycno2bar",
"Wood Warbler","spPhyll5sib",
"Willow Warbler","spPhyll5tro",
"Common Chiffchaff","spPhyll5col","rarity"
"Black-capped Woodland-Warbler","spPhyll5her",
"Uganda Woodland-Warbler","spPhyll5bud",
"Green Hylia","spHyliapra",
"Tit-hylia","spPholirus",
"Chestnut-capped Flycatcher","spEryth4mcc",
"Garden Warbler","spSylvi3bor",
"African Hill Babbler","spSylvi3aby",
"Forest White-eye","spZoste1ste",
"Bioko Speirops","spZoste1bru","endemic"
"Annobon White-eye","spZoste1gri","endemic"
"Brown Illadopsis","spIlladful",
"Pale-breasted Illadopsis","spIlladruf",
"Blackcap Illadopsis","spIlladcle",
"Chestnut-winged Starling","spOnych2ful",
"Waller's Starling","spOnych2wal",
"Narrow-tailed Starling","spPoeoplug",
"Purple-headed Starling","spHylop3pur",
"Splendid Starling","spLampr2spl",
"Rufous Flycatcher-Thrush","spStizofra",
"Red-tailed Ant-Thrush","spNeocoruf",
"White-tailed Ant-Thrush","spNeocopoe",
"Black-eared Ground-Thrush","spGeokicam",
"Gray Ground-Thrush","spGeokipri",
"African Thrush","spTurdupel",
"African Dusky Flycatcher","spMusci3adu",
"Little Flycatcher","spMusci3epu",
"Yellow-footed Flycatcher","spMusci3set",
"Spotted Flycatcher","spMusci3str",
"Cassin's Flycatcher","spMusci3cas",
"Sooty Flycatcher","spArtomful",
"Dusky-blue Flycatcher","spBradocom",
"White-browed Forest-Flycatcher","spFrasecin",
"African Forest-Flycatcher","spFraseocr",
"Gray-throated Tit-Flycatcher","spFrasegri",
"Gray Tit-Flycatcher","spFraseplu",
"Olivaceous Flycatcher","spFraseoli",
"Tessmann's Flycatcher","spFrasetes",
"Ashy Flycatcher","spFrasecae",
"Fire-crested Alethe","spAlethcas",
"White-bellied Robin-Chat","spCossyrob",
"Blue-shouldered Robin-Chat","spCossy1cya",
"Brown-chested Alethe","spChama3pol",
"Orange-breasted Forest Robin","spStiphery",
"Short-tailed Akalat","spShepppoe",
"Lowland Akalat","spSheppcyo",
"African Stonechat","spSaxictor",
"Gray-chested Babbler","spKakampol",
"Fraser's Sunbird","spDeleofra",
"Mouse-brown Sunbird","spAnthr3gab",
"Violet-tailed Sunbird","spAnthr3aur",
"Little Green Sunbird","spAnthr3sei",
"Gray-chinned Sunbird","spAnthr3tep",
"Collared Sunbird","spHedydcol",
"Reichenbach's Sunbird","spAnaba2rei",
"Green-headed Sunbird","spCyano12ver",
"Blue-throated Brown Sunbird","spCyano12cya",
"Cameroon Sunbird","spCyano12ori",
"Olive Sunbird","spCyano12oli",
"Carmelite Sunbird","spChalc5ful",
"Green-throated Sunbird","spChalc5rub",
"Olive-bellied Sunbird","spCinny2chl",
"Tiny Sunbird","spCinny2min",
"Northern Double-collared Sunbird","spCinny2rei",
"Johanna's Sunbird","spCinny2joh",
"Superb Sunbird","spCinny2sup",
"Ursula's Sunbird","spCinny2urs",
"Bates's Sunbird","spCinny2bat",
"Copper Sunbird","spCinny2cup",
"Red-crowned Malimbe","spMalimcor",
"Black-throated Malimbe","spMalimcas",
"Rachel's Malimbe","spMalimrac",
"Red-bellied Malimbe","spMalimery",
"Blue-billed Malimbe","spMalimnit",
"Crested Malimbe","spMalimmal",
"Red-headed Malimbe","spMalimrub",
"Olive-naped Weaver","spPloce2bra",
"Black-necked Weaver","spPloce2nig1",
"Spectacled Weaver","spPloce2ocu",
"Black-billed Weaver","spPloce2mel",
"Orange Weaver","spPloce2aur",
"Vieillot's Black Weaver","spPloce2nig2",
"Village Weaver","spPloce2cuc",
"Yellow-mantled Weaver","spPloce2tri",
"Maxwell's Black Weaver","spPloce2alb",
"Dark-backed Weaver","spPloce2bic",
"Brown-capped Weaver","spPloce2ins",
"Preuss's Weaver","spPloce2pre",
"Red-headed Quelea","spQueleery",
"Yellow Bishop","spEuplecap",
"Bronze Mannikin","spSpermcuc",
"Magpie Mannikin","spSpermfri",
"Black-and-white Mannikin","spSpermbic",
"Shelley's Oliveback","spNesoc1she",
"Green-backed Twinspot","spMandinit",
"Red-faced Crimsonwing","spCrypt9rei",
"Woodhouse's Antpecker","spParmowoo",
"White-breasted Nigrita","spNigrifus",
"Chestnut-breasted Nigrita","spNigribic",
"Gray-headed Nigrita","spNigrican",
"Pale-fronted Nigrita","spNigrilut",
"Black-crowned Waxbill","spEstrinon",
"Black-headed Waxbill","spEstriatr",
"Orange-cheeked Waxbill","spEstrimel",
"Common Waxbill","spEstriast",
"Quailfinch","spOrtyg1atr",
"Western Bluebill","spSperm1hae",
"Black-bellied Seedcracker","spPyrenost",
"Pin-tailed Whydah","spViduamac",
"House Sparrow","spPassedom","introduced"
"Northern Gray-headed Sparrow","spPassegri",
"Mountain Wagtail","spMotaccla",
"Gray Wagtail","spMotaccin","rarity"
"Western Yellow Wagtail","spMotacfla1",
"African Pied Wagtail","spMotacagu",
"Long-legged Pipit","spAnthupal",
"Tree Pipit","spAnthutri",
"Red-throated Pipit","spAnthucer","rarity"
"Oriole Finch","spLinuroli",
"Yellow-fronted Canary","spCrithmoz","rarity"
"Thick-billed Seedeater","spCrithbur",
"Cabanis's Bunting","spEmbercab",
