"Name","ID","Status"
"Great Tinamou","spTinammaj",
"Little Tinamou","spCryptsou",
"Slaty-breasted Tinamou","spCryptbou",
"Thicket Tinamou","spCryptcin1",
"Black-bellied Whistling-Duck","spDendraut",
"Fulvous Whistling-Duck","spDendrbic",
"Snow Goose","spAnser1cae","rarity"
"Muscovy Duck","spCairimos",
"Wood Duck","spAixspo",
"Blue-winged Teal","spSpatudis",
"Cinnamon Teal","spSpatucya",
"Northern Shoveler","spSpatucly",
"Gadwall","spMarecstr","rarity"
"American Wigeon","spMarecame",
"Mallard","spAnaspla","rarity"
"Northern Pintail","spAnasacu",
"Green-winged Teal","spAnascre",
"Canvasback","spAythyval",
"Redhead","spAythyame",
"Ring-necked Duck","spAythycol",
"Greater Scaup","spAythymar","rarity"
"Lesser Scaup","spAythyaff",
"Surf Scoter","spMelanper","rarity"
"Masked Duck","spNomondom",
"Ruddy Duck","spOxyurjam",
"Plain Chachalaca","spOrtalvet",
"White-bellied Chachalaca","spOrtalleu",
"Crested Guan","spPenelpur",
"Highland Guan","spPenel1nig",
"Horned Guan","spOreopder",
"Great Curassow","spCraxrub",
"Buffy-crowned Wood-Partridge","spDendr1leu",
"Northern Bobwhite","spColinvir",
"Black-throated Bobwhite","spColinnig",
"Spot-bellied Bobwhite","spColinleu",
"Ocellated Quail","spCyrtooce",
"Singing Quail","spDactytho",
"Spotted Wood-Quail","spOdontgut",
"Ocellated Turkey","spMeleaoce",
"Rock Pigeon","spColumliv","introduced"
"Pale-vented Pigeon","spPatagcay",
"Scaled Pigeon","spPatagspe",
"White-crowned Pigeon","spPatagleu","rarity"
"Red-billed Pigeon","spPatagfla",
"Band-tailed Pigeon","spPatagfas",
"Short-billed Pigeon","spPatagnig",
"Eurasian Collared-Dove","spStrepdec","introduced"
"Inca Dove","spColum1inc",
"Common Ground Dove","spColum1pas",
"Plain-breasted Ground Dove","spColum1min",
"Ruddy Ground Dove","spColum1tal",
"Blue Ground Dove","spClarapre",
"Maroon-chested Ground Dove","spParacmon",
"Ruddy Quail-Dove","spGeotrmon",
"White-tipped Dove","spLepto1ver",
"Caribbean Dove","spLepto1jam",
"Gray-chested Dove","spLepto1cas",
"Gray-headed Dove","spLepto1plu",
"White-faced Quail-Dove","spZentralb",
"White-winged Dove","spZenaiasi",
"Mourning Dove","spZenaimac",
"Smooth-billed Ani","spCrotoani","rarity"
"Groove-billed Ani","spCrotosul",
"Striped Cuckoo","spTapernae",
"Pheasant Cuckoo","spDromopha",
"Lesser Ground-Cuckoo","spMorocery",
"Lesser Roadrunner","spGeocovel",
"Squirrel Cuckoo","spPiayacay",
"Yellow-billed Cuckoo","spCoccy1ame",
"Mangrove Cuckoo","spCoccy1min",
"Black-billed Cuckoo","spCoccy1ery",
"Gray-capped Cuckoo","spCoccy1lan","rarity"
"Lesser Nighthawk","spChordacu",
"Common Nighthawk","spChordmin",
"Short-tailed Nighthawk","spLurocsem",
"Common Pauraque","spNycti2alb",
"Spot-tailed Nightjar","spAntiumac","rarity"
"Yucatan Poorwill","spNycti3yuc",
"Chuck-will's-widow","spAntrocar",
"Yucatan Nightjar","spAntrobad",
"Buff-collared Nightjar","spAntrorid",
"Eastern Whip-poor-will","spAntrovoc","rarity"
"Mexican Whip-poor-will","spAntroari",
"Great Potoo","spNycti4gra",
"Northern Potoo","spNycti4jam",
"Black Swift","spCypsenig",
"White-fronted Swift","spCypsesto",
"White-chinned Swift","spCypsecry",
"Chestnut-collared Swift","spStrep1rut",
"White-collared Swift","spStrep1zon",
"Chimney Swift","spChaetpel",
"Vaux's Swift","spChaetvau",
"White-throated Swift","spAeronsax",
"Lesser Swallow-tailed Swift","spPanypcay",
"Great Swallow-tailed Swift","spPanypsan",
"White-necked Jacobin","spFlorimel",
"Band-tailed Barbthroat","spThrenruc",
"Long-billed Hermit","spPhaetlon",
"Stripe-throated Hermit","spPhaetstr",
"Brown Violetear","spColibdel",
"Mexican Violetear","spColibtha",
"Purple-crowned Fairy","spHeliobar",
"Green-breasted Mango","spAnthrpre",
"Black-crested Coquette","spLopho5hel",
"Rivoli's Hummingbird","spEugenful",
"Long-billed Starthroat","spHelio2lon",
"Plain-capped Starthroat","spHelio2con",
"Green-throated Mountain-gem","spLampovir",
"Amethyst-throated Mountain-gem","spLampoame",
"Garnet-throated Hummingbird","spLamprrha",
"Sparkling-tailed Hummingbird","spTilmadup",
"Slender Sheartail","spDoriceni",
"Ruby-throated Hummingbird","spArchicol",
"Broad-tailed Hummingbird","spSelaspla",
"Wine-throated Hummingbird","spSelasell",
"Canivet's Emerald","spCynancan",
"White-eared Hummingbird","spBasilleu",
"Wedge-tailed Sabrewing","spPampacur",
"Rufous Sabrewing","spPamparuf",
"Emerald-chinned Hummingbird","spAbeilabe",
"Violet Sabrewing","spCampyhem",
"Crowned Woodnymph","spThalucol",
"Stripe-tailed Hummingbird","spEupheexi",
"Scaly-breasted Hummingbird","spPhaeo1cuv",
"Green-fronted Hummingbird","spRamosvir",
"Azure-crowned Hummingbird","spSaucecya",
"Berylline Hummingbird","spSauceber",
"Blue-tailed Hummingbird","spSaucecya1",
"Cinnamon Hummingbird","spAmazirut",
"Buff-bellied Hummingbird","spAmaziyuc",
"Rufous-tailed Hummingbird","spAmazitza",
"White-bellied Emerald","spChlor1can",
"Blue-throated Goldentail","spChlor1eli",
"Clapper Rail","spRallucre",
"Virginia Rail","spRallulim",
"Spotted Rail","spPardimac",
"Uniform Crake","spAmaurcon",
"Rufous-necked Wood-Rail","spArami1axi",
"Russet-naped Wood-Rail","spArami1alb",
"Sora","spPorzacar",
"Common Gallinule","spGalli3gal",
"American Coot","spFulicame",
"Purple Gallinule","spPorph1mar",
"Yellow-breasted Crake","spLaterfla",
"Ruddy Crake","spLaterrub",
"Gray-breasted Crake","spLaterexi",
"Black Rail","spLaterjam","extinct"
"Sungrebe","spHelio4ful",
"Limpkin","spAramugua",
"Double-striped Thick-knee","spHespebis",
"Black-necked Stilt","spHiman1mex",
"American Avocet","spRecurame",
"American Oystercatcher","spHaema1pal",
"Black-bellied Plover","spPluvi2squ",
"American Golden-Plover","spPluvi2dom",
"Killdeer","spCharavoc",
"Semipalmated Plover","spCharasem",
"Southern Lapwing","spVanelchi","rarity"
"Wilson's Plover","spAnarhwil",
"Collared Plover","spAnarhcol",
"Snowy Plover","spAnarhniv",
"Northern Jacana","spJacanspi",
"Upland Sandpiper","spBartrlon",
"Whimbrel","spNumenpha",
"Eskimo Curlew","spNumenbor","extinct"
"Long-billed Curlew","spNumename",
"Hudsonian Godwit","spLimoshae",
"Marbled Godwit","spLimosfed",
"Short-billed Dowitcher","spLimnogri",
"Long-billed Dowitcher","spLimnosco",
"Wilson's Snipe","spGalli5del",
"Wilson's Phalarope","spPhala1tri",
"Red Phalarope","spPhala1ful","rarity"
"Red-necked Phalarope","spPhala1lob",
"Spotted Sandpiper","spActitmac",
"Solitary Sandpiper","spTringsol",
"Wandering Tattler","spTringinc",
"Lesser Yellowlegs","spTringfla",
"Willet","spTringsem",
"Greater Yellowlegs","spTringmel",
"Ruddy Turnstone","spArenaint",
"Red Knot","spCalidcan",
"Surfbird","spCalidvir",
"Ruff","spCalidpug","rarity"
"Curlew Sandpiper","spCalidfer","rarity"
"Stilt Sandpiper","spCalidhim",
"Buff-breasted Sandpiper","spCalidsub1",
"Sanderling","spCalidalb",
"Dunlin","spCalidalp",
"Baird's Sandpiper","spCalidbai",
"White-rumped Sandpiper","spCalidfus",
"Least Sandpiper","spCalidmin1",
"Pectoral Sandpiper","spCalidmel",
"Western Sandpiper","spCalidmau",
"Semipalmated Sandpiper","spCalidpus",
"Long-tailed Jaeger","spSterclon","rarity"
"Parasitic Jaeger","spStercpar",
"Pomarine Jaeger","spStercpom",
"South Polar Skua","spStercmac","rarity"
"Little Gull","spHydro3min","rarity"
"Sabine's Gull","spXemasab",
"Bonaparte's Gull","spChroiphi","rarity"
"Gray Gull","spLeuco3mod","rarity"
"Laughing Gull","spLeuco3atr",
"Franklin's Gull","spLeuco3pip",
"Heermann's Gull","spLarushee",
"Ring-billed Gull","spLarusdel",
"Western Gull","spLarusocc","rarity"
"American Herring Gull","spLarussmi",
"Lesser Black-backed Gull","spLarusfus","rarity"
"California Gull","spLaruscal","rarity"
"Black Skimmer","spRynchnig",
"Brown Noddy","spAnoussto","rarity"
"Sooty Tern","spOnychfus",
"Bridled Tern","spOnychana",
"Least Tern","spStern1ant",
"Gull-billed Tern","spGelocnil",
"Caspian Tern","spHydro4cas",
"Inca Tern","spLarosinc","rarity"
"Black Tern","spChlidnig",
"Forster's Tern","spStern2for",
"Arctic Tern","spStern2par","rarity"
"Common Tern","spStern2hir1",
"Roseate Tern","spStern2dou",
"Sandwich Tern","spThala1san",
"Elegant Tern","spThala1ele",
"Royal Tern","spThala1max",
"Least Grebe","spTachy2dom",
"Pied-billed Grebe","spPodilpod",
"Atitlan Grebe","spPodilgig","extinct"
"Eared Grebe","spPodic1nig",
"Sunbittern","spEuryphel",
"White-tailed Tropicbird","spPhaet2lep",
"Red-billed Tropicbird","spPhaet2aet",
"Wilson's Storm-Petrel","spOceanoce",
"Leach's Storm-Petrel","spHydro5leu",
"Wedge-rumped Storm-Petrel","spHydro5tet",
"Black Storm-Petrel","spHydro5mel",
"Least Storm-Petrel","spHydro5mic",
"Bulwer's Petrel","spBulwebul","rarity"
"Tahiti Petrel","spPseudros","rarity"
"Parkinson's Petrel","spProcepar","rarity"
"Pink-footed Shearwater","spArdencre",
"Wedge-tailed Shearwater","spArdenpac",
"Sooty Shearwater","spArdengri",
"Christmas Shearwater","spPuffinat",
"Galapagos Shearwater","spPuffisub",
"Townsend's Shearwater","spPuffiaur",
"Black-vented Shearwater","spPuffiopi",
"Jabiru","spJabirmyc",
"Wood Stork","spMycteame",
"Magnificent Frigatebird","spFregamag",
"Red-footed Booby","spSulasul",
"Brown Booby","spSulaleu",
"Cocos Booby","spSulabre",
"Masked Booby","spSuladac",
"Nazca Booby","spSulagra",
"Blue-footed Booby","spSulaneb",
"Anhinga","spAnhinanh",
"Double-crested Cormorant","spNanno1aur","rarity"
"Neotropic Cormorant","spNanno1bra",
"White Ibis","spEudocalb",
"Glossy Ibis","spPlegafal","rarity"
"White-faced Ibis","spPlegachi","rarity"
"Roseate Spoonbill","spPlataaja",
"Bare-throated Tiger-Heron","spTigri1mex",
"Boat-billed Heron","spCochlcoc",
"Agami Heron","spAgamiaga",
"American Bittern","spBotaulen",
"Pinnated Bittern","spBotaupin",
"Least Bittern","spBotauexi",
"Yellow-crowned Night Heron","spNyctavio",
"Black-crowned Night Heron","spNycti6nyc",
"Little Blue Heron","spEgretcae",
"Tricolored Heron","spEgrettri",
"Reddish Egret","spEgretruf",
"Snowy Egret","spEgretthu",
"Green Heron","spButorvir",
"Western Cattle-Egret","spArdeaibi",
"Great Egret","spArdeaalb",
"Great Blue Heron","spArdeaher",
"American White Pelican","spPelec1ery",
"Brown Pelican","spPelec1occ",
"King Vulture","spSarcopap",
"Black Vulture","spCoragatr",
"Turkey Vulture","spCathaaur",
"Lesser Yellow-headed Vulture","spCathabur",
"Osprey","spPandihal",
"Pearl Kite","spGampsswa","rarity"
"White-tailed Kite","spElanuleu",
"Hook-billed Kite","spChondunc",
"Gray-headed Kite","spLepto3cay",
"Swallow-tailed Kite","spElanofor",
"Black Hawk-Eagle","spSpizatyr",
"Black-and-white Hawk-Eagle","spSpizamel","rarity"
"Ornate Hawk-Eagle","spSpizaorn",
"Crested Eagle","spMorphgui","rarity"
"Harpy Eagle","spHarpihar","rarity"
"Sharp-shinned Hawk","spAccipstr",
"Bicolored Hawk","spAsturbic",
"Cooper's Hawk","spAsturcoo",
"Northern Harrier","spCircuhud",
"Double-toothed Kite","spHarpabid",
"Mississippi Kite","spIctin1mis",
"Plumbeous Kite","spIctin1plu",
"Crane Hawk","spGerancae",
"Black-collared Hawk","spBusarnig",
"Snail Kite","spRostr1soc",
"Common Black Hawk","spButeoant",
"Great Black Hawk","spButeouru",
"Solitary Eagle","spButeosol",
"Roadside Hawk","spRupormag",
"Harris's Hawk","spParabuni",
"White-tailed Hawk","spGeran1alb",
"White Hawk","spPseud2alb",
"Gray Hawk","spButeo1pla",
"Broad-winged Hawk","spButeo1pla1",
"Zone-tailed Hawk","spButeo1alb",
"Short-tailed Hawk","spButeo1bra",
"Swainson's Hawk","spButeo1swa",
"Red-tailed Hawk","spButeo1jam",
"American Barn Owl","spTytofur",
"Flammulated Owl","spPsilofla","rarity"
"Whiskered Screech-Owl","spMegastri",
"Middle American Screech-Owl","spMegasgua",
"Bearded Screech-Owl","spMegasbar",
"Pacific Screech-Owl","spMegascoo",
"Crested Owl","spLopho10cri",
"Spectacled Owl","spPulsaper",
"Great Horned Owl","spBubovir",
"Northern Pygmy-Owl","spGlauc1gno",
"Central American Pygmy-Owl","spGlauc1gri",
"Ferruginous Pygmy-Owl","spGlauc1bra",
"Burrowing Owl","spAthencun","rarity"
"Mottled Owl","spStrixvir",
"Black-and-white Owl","spStrixnig",
"Fulvous Owl","spStrixful",
"Striped Owl","spAsiocla",
"Stygian Owl","spAsiosty",
"Short-eared Owl","spAsiofla","rarity"
"Unspotted Saw-whet Owl","spAegolrid",
"Resplendent Quetzal","spPharomoc",
"Slaty-tailed Trogon","spTrogomas",
"Black-headed Trogon","spTrogomel1",
"Gartered Trogon","spTrogocal",
"Elegant Trogon","spTrogoele",
"Mountain Trogon","spTrogomex",
"Collared Trogon","spTrogocol",
"Tody Motmot","spHylommom",
"Blue-throated Motmot","spAspatgul",
"Russet-crowned Motmot","spMomotmex",
"Lesson's Motmot","spMomotles",
"Keel-billed Motmot","spElectcar",
"Broad-billed Motmot","spElectpla","rarity"
"Turquoise-browed Motmot","spEumomsup",
"Ringed Kingfisher","spMegac1tor",
"Belted Kingfisher","spMegac1alc",
"Amazon Kingfisher","spChlor2ama",
"American Pygmy Kingfisher","spChlor2aen",
"Green Kingfisher","spChlor2ame",
"White-necked Puffbird","spNothahyp",
"White-whiskered Puffbird","spMalac1pan",
"Rufous-tailed Jacamar","spGalburuf",
"Northern Emerald-Toucanet","spAulacpra",
"Collared Aracari","spPtero4tor",
"Keel-billed Toucan","spRamph2sul",
"Olivaceous Piculet","spPicumoli",
"Yellow-bellied Sapsucker","spSphyrvar",
"Acorn Woodpecker","spMelan2for",
"Black-cheeked Woodpecker","spMelan2puc",
"Yucatan Woodpecker","spMelan2pyg",
"Golden-fronted Woodpecker","spMelan2aur",
"Ladder-backed Woodpecker","spDryobsca",
"Hairy Woodpecker","spDryobvil",
"Smoky-brown Woodpecker","spDryobfum",
"Pale-billed Woodpecker","spCampegua",
"Lineated Woodpecker","spDryoclin",
"Chestnut-colored Woodpecker","spCeleucas",
"Rufous-winged Woodpecker","spPiculsim","rarity"
"Golden-olive Woodpecker","spColaprub",
"Guatemalan Flicker","spColapmex",
"Laughing Falcon","spHerpecac",
"Collared Forest-Falcon","spMicra1sem",
"Barred Forest-Falcon","spMicra1ruf",
"Crested Caracara","spCaracpla",
"Red-throated Caracara","spIbyctame","extinct"
"Yellow-headed Caracara","spDaptrchi","rarity"
"American Kestrel","spFalcospa",
"Merlin","spFalcocol",
"Aplomado Falcon","spFalcofem","rarity"
"Bat Falcon","spFalcoruf",
"Orange-breasted Falcon","spFalcodei",
"Peregrine Falcon","spFalcoper",
"Barred Parakeet","spBolbo1lin",
"Orange-chinned Parakeet","spBrotojug",
"Brown-hooded Parrot","spPyrilhae",
"White-crowned Parrot","spPionusen",
"Red-lored Amazon","spAmazo1aut",
"Yellow-naped Amazon","spAmazo1aur",
"Yellow-headed Amazon","spAmazo1ora",
"White-fronted Amazon","spAmazo1alb",
"Yellow-lored Amazon","spAmazo1xan","rarity"
"Mealy Amazon","spAmazo1far",
"Olive-throated Parakeet","spEupsinan",
"Orange-fronted Parakeet","spEupsican",
"Scarlet Macaw","spAramac",
"Green Parakeet","spPsitt6hol",
"Pacific Parakeet","spPsitt6str",
"Great Antshrike","spTarabmaj",
"Barred Antshrike","spThamndol",
"Black-crowned Antshrike","spThamnatr",
"Russet Antshrike","spThamn1ana",
"Plain Antvireo","spDysitmen",
"Slaty Antwren","spMyrmosch",
"Dot-winged Antwren","spMicro12qui",
"Dusky Antbird","spCerco1tyr",
"Bare-crowned Antbird","spGymno4nud",
"Scaled Antpitta","spGrallgua",
"Mayan Antthrush","spFormi1mon",
"Middle American Leaftosser","spScler1mex",
"Scaly-throated Leaftosser","spScler1gua",
"Olivaceous Woodcreeper","spSittagri",
"Ruddy Woodcreeper","spDendr6hom",
"Tawny-winged Woodcreeper","spDendr6ana",
"Wedge-billed Woodcreeper","spGlyphspi",
"Northern Barred-Woodcreeper","spDendr8san",
"Black-banded Woodcreeper","spDendr8pic",
"Strong-billed Woodcreeper","spXiphopro",
"Cocoa Woodcreeper","spXipho1sus",
"Ivory-billed Woodcreeper","spXipho1fla",
"Spotted Woodcreeper","spXipho1ery",
"Streak-headed Woodcreeper","spLepidsou",
"Spot-crowned Woodcreeper","spLepidaff",
"Northern Plain-Xenops","spXenop1mex",
"Scaly-throated Foliage-gleaner","spAnaba1var",
"Ruddy Foliage-gleaner","spClibarub",
"Fawn-throated Foliage-gleaner","spAutomcer",
"Rufous-breasted Spinetail","spSynalery",
"Long-tailed Manakin","spChirolin",
"White-collared Manakin","spManaccan",
"Red-capped Manakin","spCerat1men",
"Lovely Cotinga","spCotinama",
"Rufous Piha","spLipauuni",
"Snowy Cotinga","spCarpo2nit","rarity"
"Black-crowned Tityra","spTityrinq",
"Masked Tityra","spTityrsem",
"Northern Schiffornis","spSchifver",
"Speckled Mourner","spLanioruf",
"Cinnamon Becard","spPachy2cin",
"White-winged Becard","spPachy2pol",
"Gray-collared Becard","spPachy2maj",
"Rose-throated Becard","spPachy2agl",
"Tropical Royal Flycatcher","spOnych1cor",
"Ruddy-tailed Flycatcher","spTeren1ery",
"Sulphur-rumped Flycatcher","spMyiobsul",
"Gray-headed Piprites","spPiprigri",
"Stub-tailed Spadebill","spPlaty1can",
"Ochre-bellied Flycatcher","spMioneole",
"Sepia-capped Flycatcher","spLepto6ama",
"Northern Bentbill","spOncoscin",
"Slate-headed Tody-Flycatcher","spPoecisyl",
"Common Tody-Flycatcher","spTodir1cin",
"Eye-ringed Flatbill","spRhync3bre",
"Yellow-olive Flatbill","spTolmosul",
"Yellow-bellied Tyrannulet","spOrnitsem",
"Northern Beardless-Tyrannulet","spCampt1imb",
"Greenish Elaenia","spMyiop1vir",
"Yellow-bellied Elaenia","spElaenfla",
"Mountain Elaenia","spElaenfra",
"Guatemalan Tyrannulet","spZimmevil1",
"Mistletoe Tyrannulet","spZimmepar",
"Belted Flycatcher","spXenotcal",
"Tufted Flycatcher","spMitrepha",
"Olive-sided Flycatcher","spContocoo",
"Greater Pewee","spContoper",
"Western Wood-Pewee","spContosor",
"Northern Tropical Pewee","spContobog",
"Eastern Wood-Pewee","spContovir",
"Yellow-bellied Flycatcher","spEmpidfla",
"Acadian Flycatcher","spEmpidvir",
"Alder Flycatcher","spEmpidaln",
"Willow Flycatcher","spEmpidtra",
"White-throated Flycatcher","spEmpidalb",
"Least Flycatcher","spEmpidmin",
"Hammond's Flycatcher","spEmpidham",
"Pine Flycatcher","spEmpidaff",
"Yellowish Flycatcher","spEmpidfla1",
"Buff-breasted Flycatcher","spEmpidful",
"Black Phoebe","spSayornig",
"Say's Phoebe","spSayorsay","rarity"
"Vermilion Flycatcher","spPyrocrub",
"Bright-rumped Attila","spAttilspa",
"Rufous Mourner","spRhyti1hol",
"Yucatan Flycatcher","spMyiaryuc",
"Dusky-capped Flycatcher","spMyiartub",
"Ash-throated Flycatcher","spMyiarcin",
"Nutting's Flycatcher","spMyiarnut",
"Great Crested Flycatcher","spMyiarcri",
"Brown-crested Flycatcher","spMyiartyr",
"Great Kiskadee","spPitansul",
"Boat-billed Flycatcher","spMegarpit",
"Social Flycatcher","spMyiozsim",
"Streaked Flycatcher","spMyiodmac",
"Sulphur-bellied Flycatcher","spMyiodlut",
"Piratic Flycatcher","spLegatleu",
"Tropical Kingbird","spTyran4mel",
"Couch's Kingbird","spTyran4cou",
"Cassin's Kingbird","spTyran4voc",
"Thick-billed Kingbird","spTyran4cra","rarity"
"Western Kingbird","spTyran4ver",
"Eastern Kingbird","spTyran4tyr",
"Scissor-tailed Flycatcher","spTyran4for",
"Fork-tailed Flycatcher","spTyran4sav",
"Rufous-browed Peppershrike","spCyclaguj",
"Chestnut-sided Shrike-Vireo","spVireomel",
"Green Shrike-Vireo","spVireopul",
"Tawny-crowned Greenlet","spTunchoch",
"Lesser Greenlet","spPachy4dec",
"White-eyed Vireo","spVireo1gri",
"Mangrove Vireo","spVireo1pal",
"Bell's Vireo","spVireo1bel",
"Hutton's Vireo","spVireo1hut",
"Yellow-throated Vireo","spVireo1fla",
"Blue-headed Vireo","spVireo1sol",
"Plumbeous Vireo","spVireo1plu",
"Philadelphia Vireo","spVireo1phi",
"Warbling Vireo","spVireo1gil",
"Brown-capped Vireo","spVireo1leu",
"Red-eyed Vireo","spVireo1oli",
"Yellow-green Vireo","spVireo1fla1",
"Loggerhead Shrike","spLaniulud","rarity"
"Black-throated Jay","spCyano6pum",
"Azure-hooded Jay","spCyano6cuc",
"White-throated Magpie-Jay","spCyano7for",
"Brown Jay","spCyano7mor",
"Green Jay","spCyano7ync",
"Bushy-crested Jay","spCyano7mel",
"Yucatan Jay","spCyano7yuc",
"Steller's Jay","spCyano8ste",
"Unicolored Jay","spAphel1uni",
"Common Raven","spCorvucor3",
"Bank Swallow","spRiparrip",
"Tree Swallow","spTachy4bic",
"Mangrove Swallow","spTachy4alb1",
"Violet-green Swallow","spTachy4tha",
"Purple Martin","spPrognsub",
"Sinaloa Martin","spPrognsin","rarity"
"Gray-breasted Martin","spProgncha",
"Brown-chested Martin","spProgntap","rarity"
"Northern Rough-winged Swallow","spStelgser",
"Black-capped Swallow","spAtticpil",
"Blue-and-white Swallow","spPygoccya","rarity"
"Barn Swallow","spHirun2rus",
"Cliff Swallow","spPetro2pyr",
"Cave Swallow","spPetro2ful","rarity"
"Bushtit","spPsaltmin",
"Ruby-crowned Kinglet","spCorthcal","rarity"
"Golden-crowned Kinglet","spRegulsat",
"Brown Creeper","spCerth4ame",
"Long-billed Gnatwren","spRamph5mel",
"White-browed Gnatcatcher","spPolio4bil",
"Blue-gray Gnatcatcher","spPolio4cae",
"White-lored Gnatcatcher","spPolio4alb1",
"Rock Wren","spSalpiobs",
"Nightingale Wren","spMicro18phi",
"Southern House Wren","spTroglmus1",
"Rufous-browed Wren","spTroglruf",
"Grass Wren","spCistopla",
"Carolina Wren","spThryo1lud",
"Band-backed Wren","spCampy2zon",
"Giant Wren","spCampy2chi",
"Rufous-backed Wren","spCampy2cap",
"Spot-breasted Wren","spPheugmac",
"Banded Wren","spThryo3ple",
"Rufous-and-white Wren","spThryo3ruf",
"Cabanis's Wren","spCantomod",
"White-bellied Wren","spUrops1leu",
"White-breasted Wood-Wren","spHenic2leu",
"Gray-breasted Wood-Wren","spHenic2leu2",
"American Dipper","spCincl3mex",
"Blue-and-white Mockingbird","spMelan11hyp",
"Black Catbird","spMelan12gla",
"Gray Catbird","spDumet1car",
"Tropical Mockingbird","spMimusgil",
"Eastern Bluebird","spSialisia",
"Brown-backed Solitaire","spMyadeocc",
"Slate-colored Solitaire","spMyadeuni",
"Orange-billed Nightingale-Thrush","spCatha1aur",
"Ruddy-capped Nightingale-Thrush","spCatha1fra",
"Black-headed Nightingale-Thrush","spCatha1mex",
"Yellow-throated Nightingale-Thrush","spCatha1dry",
"Veery","spCatha1fus1",
"Gray-cheeked Thrush","spCatha1min",
"Swainson's Thrush","spCatha1ust",
"Hermit Thrush","spCatha1gut",
"Wood Thrush","spHyloc1mus",
"Mountain Thrush","spTurduple",
"White-throated Thrush","spTurduass",
"Clay-colored Thrush","spTurdugra",
"Black Thrush","spTurduinf",
"American Robin","spTurdumig",
"Rufous-collared Robin","spTurduruf2",
"Cedar Waxwing","spBombyced",
"Gray Silky-flycatcher","spPtili1cin",
"Olive Warbler","spPeucetae",
"Tricolored Munia","spLonchmal","introduced"
"House Sparrow","spPassedom","introduced"
"Red-throated Pipit","spAnthucer","rarity"
"American Pipit","spAnthurub",
"Elegant Euphonia","spChlor8ele",
"Blue-crowned Chlorophonia","spChlor8occ",
"Scrub Euphonia","spEuphoaff",
"White-vented Euphonia","spEuphomin",
"Yellow-throated Euphonia","spEuphohir",
"Olive-backed Euphonia","spEuphogou",
"Hooded Grosbeak","spCocco1abe",
"House Finch","spHaemomex","rarity"
"Red Crossbill","spLoxiacur",
"Pine Siskin","spSpinupin",
"Black-capped Siskin","spSpinuatr",
"Black-headed Siskin","spSpinunot",
"Lesser Goldfinch","spSpinupsa",
"Common Chlorospingus","spChlor12fla1",
"Stripe-headed Sparrow","spPeucaruf",
"Botteri's Sparrow","spPeucabot",
"Grasshopper Sparrow","spAmmodsav",
"Olive Sparrow","spArremruf",
"Green-backed Sparrow","spArremchl",
"Chipping Sparrow","spSpizepas",
"Clay-colored Sparrow","spSpizepal",
"Lark Sparrow","spChond1gra",
"Orange-billed Sparrow","spArrem1aur",
"Chestnut-capped Brushfinch","spArrem1bru",
"Yellow-eyed Junco","spJuncopha",
"Rufous-collared Sparrow","spZonotcap",
"White-crowned Sparrow","spZonotleu","rarity"
"Vesper Sparrow","spPooecgra",
"Savannah Sparrow","spPasse2san",
"Lincoln's Sparrow","spMeloslin",
"White-eared Ground-Sparrow","spMelozleu",
"White-faced Ground-Sparrow","spMelozbia",
"Rusty Sparrow","spAimopruf",
"Spotted Towhee","spPipil1mac",
"White-naped Brushfinch","spAtlapalb",
"Yellow-breasted Chat","spIctervir",
"Yellow-headed Blackbird","spXanth2xan","rarity"
"Eastern Meadowlark","spSturn3mag",
"Yellow-billed Cacique","spAmbly2hol",
"Yellow-winged Cacique","spCassimel",
"Chestnut-headed Oropendola","spPsarowag",
"Montezuma Oropendola","spPsaromon",
"Black-vented Oriole","spIcter1wag",
"Bar-winged Oriole","spIcter1mac",
"Black-cowled Oriole","spIcter1pro",
"Orchard Oriole","spIcter1spu",
"Hooded Oriole","spIcter1cuc","rarity"
"Yellow-backed Oriole","spIcter1chr",
"Yellow-tailed Oriole","spIcter1mes",
"Streak-backed Oriole","spIcter1pus",
"Bullock's Oriole","spIcter1bul",
"Spot-breasted Oriole","spIcter1pec",
"Altamira Oriole","spIcter1gul",
"Baltimore Oriole","spIcter1gal",
"Scott's Oriole","spIcter1par","rarity"
"Red-winged Blackbird","spAgela1pho",
"Bronzed Cowbird","spMolotaen",
"Brown-headed Cowbird","spMolotate","rarity"
"Giant Cowbird","spMolotory",
"Melodious Blackbird","spDivesdiv",
"Brewer's Blackbird","spEuphacya",
"Great-tailed Grackle","spQuiscmex",
"Ovenbird","spSeiuraur",
"Worm-eating Warbler","spHelmiver",
"Louisiana Waterthrush","spParkemot",
"Northern Waterthrush","spParkenov",
"Golden-winged Warbler","spVermichr",
"Blue-winged Warbler","spVermicya",
"Black-and-white Warbler","spMniotvar",
"Prothonotary Warbler","spProtocit",
"Swainson's Warbler","spLimno3swa",
"Crescent-chested Warbler","spOreot2sup",
"Tennessee Warbler","spLeiot1per",
"Orange-crowned Warbler","spLeiot1cel","rarity"
"Nashville Warbler","spLeiot1ruf",
"Virginia's Warbler","spLeiot1vir","rarity"
"Gray-crowned Yellowthroat","spGeothpol",
"MacGillivray's Warbler","spGeothtol",
"Mourning Warbler","spGeothphi",
"Kentucky Warbler","spGeothfor",
"Common Yellowthroat","spGeothtri",
"Hooded Warbler","spSetop1cit",
"American Redstart","spSetop1rut",
"Cape May Warbler","spSetop1tig","rarity"
"Cerulean Warbler","spSetop1cer",
"Northern Parula","spSetop1ame",
"Tropical Parula","spSetop1pit",
"Magnolia Warbler","spSetop1mag",
"Bay-breasted Warbler","spSetop1cas",
"Blackburnian Warbler","spSetop1fus","rarity"
"Yellow Warbler","spSetop1pet",
"Chestnut-sided Warbler","spSetop1pen",
"Blackpoll Warbler","spSetop1str","rarity"
"Black-throated Blue Warbler","spSetop1cae",
"Palm Warbler","spSetop1pal","rarity"
"Pine Warbler","spSetop1pin","rarity"
"Yellow-rumped Warbler","spSetop1cor",
"Yellow-throated Warbler","spSetop1dom",
"Prairie Warbler","spSetop1dis","rarity"
"Grace's Warbler","spSetop1gra",
"Black-throated Gray Warbler","spSetop1nig",
"Townsend's Warbler","spSetop1tow",
"Hermit Warbler","spSetop1occ",
"Golden-cheeked Warbler","spSetop1chr",
"Black-throated Green Warbler","spSetop1vir",
"Fan-tailed Warbler","spBasil2lac",
"Rufous-capped Warbler","spBasil2ruf",
"Chestnut-capped Warbler","spBasil2del",
"Golden-browed Warbler","spBasil2bel",
"Golden-crowned Warbler","spBasil2cul",
"Canada Warbler","spCardecan",
"Wilson's Warbler","spCardepus",
"Red-faced Warbler","spCarderub",
"Pink-headed Warbler","spCardever",
"Painted Redstart","spMyiob1pic",
"Slate-throated Redstart","spMyiob1min",
"Rose-throated Tanager","spPiranros",
"Hepatic Tanager","spPiranfla",
"Summer Tanager","spPiranrub",
"Scarlet Tanager","spPiranoli",
"Western Tanager","spPiranlud",
"Flame-colored Tanager","spPiranbid",
"White-winged Tanager","spPiranleu",
"Red-crowned Ant-Tanager","spHabiarub",
"Red-throated Ant-Tanager","spDriopfus",
"Black-faced Grosbeak","spCaryopol",
"Northern Cardinal","spCardicar",
"Yellow Grosbeak","spPheucchr",
"Rose-breasted Grosbeak","spPheuclud",
"Red-breasted Chat","spGrana1ven","rarity"
"Gray-throated Chat","spGrana1sal",
"Blue Seedeater","spAmaur2con",
"Blue-black Grosbeak","spCyano13cya",
"Blue Bunting","spCyano14par",
"Blue Grosbeak","spPasse3cae",
"Indigo Bunting","spPasse3cya",
"Varied Bunting","spPasse3ver",
"Painted Bunting","spPasse3cir",
"Dickcissel","spSpiza1ame",
"Gray-headed Tanager","spEucompen",
"Black-throated Shrike-Tanager","spLanio2aur",
"Crimson-collared Tanager","spRamph7san",
"Scarlet-rumped Tanager","spRamph7pas",
"Blue-gray Tanager","spThrauepi",
"Yellow-winged Tanager","spThrauabb",
"Azure-rumped Tanager","spPoeci3cab",
"Golden-hooded Tanager","spStilplar",
"Shining Honeycreeper","spCyaneluc",
"Red-legged Honeycreeper","spCyanecya",
"Green Honeycreeper","spChlor16spi",
"Cinnamon-bellied Flowerpiercer","spDiglobar",
"Slaty Finch","spHaplo1rus",
"Grassland Yellow-Finch","spSicallut2",
"Blue-black Grassquit","spVolatjac",
"Ruddy-breasted Seedeater","spSporo1min",
"Thick-billed Seed-Finch","spSporo1fun",
"Nicaraguan Seed-Finch","spSporo1nut","rarity"
"Variable Seedeater","spSporo1cor",
"Morelet's Seedeater","spSporo1mor",
"Slate-colored Seedeater","spSporo1sch",
"Bananaquit","spCoerefla",
"Yellow-faced Grassquit","spTiarioli",
"Buff-throated Saltator","spSalta1max",
"Black-headed Saltator","spSalta1atr1",
"Cinnamon-bellied Saltator","spSalta1gra",
