"Name","ID","Status"
"Bar-headed Goose","spAnser1ind","rarity"
"Graylag Goose","spAnser1ans",
"Greater White-fronted Goose","spAnser1alb",
"Lesser White-fronted Goose","spAnser1ery","rarity"
"Taiga Bean-Goose","spAnser1fab",
"Tundra Bean-Goose","spAnser1ser",
"Pink-footed Goose","spAnser1bra",
"Brant","spBrantber","rarity"
"Barnacle Goose","spBrantleu","rarity"
"Canada Goose","spBrantcan","introduced"
"Red-breasted Goose","spBrantruf",
"Mute Swan","spCygnuolo",
"Tundra Swan","spCygnucol","rarity"
"Whooper Swan","spCygnucyg",
"Egyptian Goose","spAlopoaeg","rarity-from-introduced"
"Ruddy Shelduck","spTadorfer","rarity"
"Common Shelduck","spTadortad1",
"Mandarin Duck","spAixgal","introduced"
"Garganey","spSpatuque",
"Blue-winged Teal","spSpatudis","rarity"
"Northern Shoveler","spSpatucly",
"Gadwall","spMarecstr",
"Eurasian Wigeon","spMarecpen",
"American Wigeon","spMarecame","rarity"
"Mallard","spAnaspla",
"Northern Pintail","spAnasacu",
"Green-winged Teal","spAnascre",
"Marbled Duck","spMarmaang","rarity"
"Red-crested Pochard","spNetta1ruf",
"Common Pochard","spAythyfer",
"Ring-necked Duck","spAythycol","rarity"
"Ferruginous Duck","spAythynyr",
"Tufted Duck","spAythyful",
"Greater Scaup","spAythymar",
"Lesser Scaup","spAythyaff","rarity"
"Steller's Eider","spPolysste","rarity"
"King Eider","spSomatspe","rarity"
"Common Eider","spSomatmol","rarity"
"Velvet Scoter","spMelanfus",
"Common Scoter","spMelannig","rarity"
"Long-tailed Duck","spClanghye","rarity"
"Common Goldeneye","spBucepcla",
"Smew","spMergealb",
"Common Merganser","spMergumer",
"Red-breasted Merganser","spMerguser",
"Ruddy Duck","spOxyurjam","rarity-from-introduced"
"White-headed Duck","spOxyurleu","rarity"
"Hazel Grouse","spTetra1bon",
"Western Capercaillie","spTetra2uro","extinct"
"Black Grouse","spLyrurtet","extinct"
"Gray Partridge","spPerdiper",
"Ring-necked Pheasant","spPhasicol","introduced"
"Common Quail","spCoturcot",
"Rock Pigeon","spColumliv","introduced"
"Stock Dove","spColumoen",
"Common Wood-Pigeon","spColumpal",
"European Turtle-Dove","spStreptur",
"Oriental Turtle-Dove","spStrepori","rarity"
"Eurasian Collared-Dove","spStrepdec",
"Pallas's Sandgrouse","spSyrrhpar","rarity"
"Chestnut-bellied Sandgrouse","spPtero1exu","rarity"
"Great Bustard","spOtistar",
"Little Bustard","spTetra4tet","rarity"
"Great Spotted Cuckoo","spClamagla","rarity"
"Common Cuckoo","spCuculcan",
"Eurasian Nightjar","spCaprieur",
"Alpine Swift","spTachy1mel","rarity"
"Common Swift","spApusapu",
"Pallid Swift","spApuspal","rarity"
"Water Rail","spRalluaqu",
"Corn Crake","spCrexcre",
"Spotted Crake","spPorzapor",
"Eurasian Moorhen","spGalli3chl",
"Eurasian Coot","spFulicatr",
"Gray-headed Swamphen","spPorph1pol","rarity"
"Little Crake","spZaporpar",
"Baillon's Crake","spZaporpus","rarity"
"Demoiselle Crane","spAnthr1vir","rarity"
"Sandhill Crane","spAntigcan","rarity"
"Common Crane","spGrusgru",
"Eurasian Thick-knee","spBurhioed",
"Black-winged Stilt","spHiman1him",
"Pied Avocet","spRecuravo",
"Eurasian Oystercatcher","spHaema1ost",
"Black-bellied Plover","spPluvi2squ",
"European Golden-Plover","spPluvi2apr",
"American Golden-Plover","spPluvi2dom","rarity"
"Pacific Golden-Plover","spPluvi2ful","rarity"
"Eurasian Dotterel","spEudro1mor",
"Killdeer","spCharavoc","rarity"
"Common Ringed Plover","spCharahia",
"Little Ringed Plover","spThinodub",
"Northern Lapwing","spVanelvan",
"Spur-winged Lapwing","spVanelspi","rarity"
"Sociable Lapwing","spVanelgre","rarity"
"White-tailed Lapwing","spVanelleu","rarity"
"Caspian Plover","spAnarhasi","rarity"
"Greater Sand-Plover","spAnarhles","rarity"
"Kentish Plover","spAnarhale",
"Upland Sandpiper","spBartrlon","rarity"
"Whimbrel","spNumenpha",
"Slender-billed Curlew","spNumenten","extinct"
"Eurasian Curlew","spNumenarq",
"Bar-tailed Godwit","spLimoslap",
"Black-tailed Godwit","spLimoslim",
"Long-billed Dowitcher","spLimnosco","rarity"
"Jack Snipe","spLymnomin",
"Eurasian Woodcock","spScolorus",
"Great Snipe","spGalli5med",
"Common Snipe","spGalli5gal",
"Wilson's Phalarope","spPhala1tri","rarity"
"Red Phalarope","spPhala1ful","rarity"
"Red-necked Phalarope","spPhala1lob",
"Terek Sandpiper","spXenuscin","rarity"
"Common Sandpiper","spActithyp",
"Green Sandpiper","spTringoch",
"Marsh Sandpiper","spTringsta",
"Wood Sandpiper","spTringgla",
"Common Redshank","spTringtot",
"Lesser Yellowlegs","spTringfla","rarity"
"Spotted Redshank","spTringery",
"Common Greenshank","spTringneb",
"Ruddy Turnstone","spArenaint",
"Red Knot","spCalidcan",
"Ruff","spCalidpug",
"Broad-billed Sandpiper","spCalidfal",
"Sharp-tailed Sandpiper","spCalidacu","rarity"
"Curlew Sandpiper","spCalidfer",
"Stilt Sandpiper","spCalidhim","rarity"
"Temminck's Stint","spCalidtem",
"Buff-breasted Sandpiper","spCalidsub1","rarity"
"Sanderling","spCalidalb",
"Dunlin","spCalidalp",
"Purple Sandpiper","spCalidmar","rarity"
"Baird's Sandpiper","spCalidbai","rarity"
"Little Stint","spCalidmin",
"White-rumped Sandpiper","spCalidfus","rarity"
"Pectoral Sandpiper","spCalidmel","rarity"
"Semipalmated Sandpiper","spCalidpus","rarity"
"Collared Pratincole","spGlarepra",
"Black-winged Pratincole","spGlarenor","rarity"
"Oriental Pratincole","spGlaremal","rarity"
"Long-tailed Jaeger","spSterclon","rarity"
"Parasitic Jaeger","spStercpar","rarity"
"Pomarine Jaeger","spStercpom","rarity"
"Great Skua","spStercsku","rarity"
"Atlantic Puffin","spFratearc","rarity"
"Razorbill","spAlcator","rarity"
"Little Gull","spHydro3min",
"Black-legged Kittiwake","spRissatri","rarity"
"Sabine's Gull","spXemasab","rarity"
"Slender-billed Gull","spChroigen","rarity"
"Bonaparte's Gull","spChroiphi","rarity"
"Black-headed Gull","spChroirid",
"Franklin's Gull","spLeuco3pip","rarity"
"Pallas's Gull","spIchthich","rarity"
"Audouin's Gull","spIchthaud","rarity"
"Mediterranean Gull","spIchthmel",
"Common Gull","spLaruscan",
"Ring-billed Gull","spLarusdel","rarity"
"Caspian Gull","spLaruscac",
"European Herring Gull","spLarusarg",
"Yellow-legged Gull","spLarusmic",
"Armenian Gull","spLarusarm","rarity"
"Great Black-backed Gull","spLarusmar","rarity"
"Glaucous Gull","spLarushyp","rarity"
"Lesser Black-backed Gull","spLarusfus",
"Iceland Gull","spLarusgla1","rarity"
"Little Tern","spStern1alb",
"Gull-billed Tern","spGelocnil",
"Caspian Tern","spHydro4cas",
"Whiskered Tern","spChlidhyb",
"Black Tern","spChlidnig",
"White-winged Tern","spChlidleu",
"Arctic Tern","spStern2par","rarity"
"Common Tern","spStern2hir1",
"Sandwich Tern","spThala1san","rarity"
"Greater Flamingo","spPhoenros","rarity"
"Little Grebe","spTachy2ruf1",
"Horned Grebe","spPodic1aur",
"Red-necked Grebe","spPodic1gri",
"Great Crested Grebe","spPodic1cri",
"Eared Grebe","spPodic1nig",
"Red-throated Loon","spGaviaste",
"Arctic Loon","spGaviaarc",
"Common Loon","spGaviaimm","rarity"
"Yellow-billed Loon","spGaviaada","rarity"
"Black Stork","spCiconnig",
"White Stork","spCiconcic",
"Marabou Stork","spLepto2cru","rarity"
"Pygmy Cormorant","spMicro5pyg",
"Great Cormorant","spPhala2car",
"Glossy Ibis","spPlegafal",
"Eurasian Spoonbill","spPlataleu",
"Eurasian Bittern","spBotauste",
"Little Bittern","spBotaumin",
"Black-crowned Night Heron","spNycti6nyc",
"Little Egret","spEgretgar",
"Western Reef-Heron","spEgretgul","rarity"
"Squacco Heron","spArdeo1ral",
"Chinese Pond-Heron","spArdeo1bac","rarity"
"Western Cattle-Egret","spArdeaibi","rarity"
"Great Egret","spArdeaalb",
"Gray Heron","spArdeacin",
"Purple Heron","spArdeapur",
"Great White Pelican","spPelec1ono","rarity"
"Dalmatian Pelican","spPelec1cri","rarity"
"Osprey","spPandihal",
"Black-winged Kite","spElanucae","rarity"
"Egyptian Vulture","spNeophper","rarity"
"European Honey-buzzard","spPerniapi",
"Cinereous Vulture","spAegypmon","rarity"
"Eurasian Griffon","spGypsful","rarity"
"Short-toed Snake-Eagle","spCircagal",
"Lesser Spotted Eagle","spClang1pom",
"Greater Spotted Eagle","spClang1cla","rarity"
"Booted Eagle","spHierapen","rarity"
"Steppe Eagle","spAquilnip","rarity"
"Imperial Eagle","spAquilhel",
"Golden Eagle","spAquilchr",
"Bonelli's Eagle","spAquilfas","rarity"
"Levant Sparrowhawk","spTachy3bre","rarity"
"Eurasian Sparrowhawk","spAccipnis",
"Eurasian Goshawk","spAsturgen",
"Western Marsh Harrier","spCircuaer",
"Hen Harrier","spCircucya",
"Pallid Harrier","spCircumac1","rarity"
"Montagu's Harrier","spCircupyg",
"Red Kite","spMilvumil",
"Black Kite","spMilvumig",
"White-tailed Eagle","spHalia1alb",
"Rough-legged Hawk","spButeo1lag",
"Common Buzzard","spButeo1but",
"Long-legged Buzzard","spButeo1ruf1",
"Western Barn Owl","spTytoalb",
"Eurasian Scops-Owl","spOtussco",
"Snowy Owl","spBubosca","rarity"
"Eurasian Eagle-Owl","spBubobub",
"Northern Hawk Owl","spSurni1ulu","rarity"
"Eurasian Pygmy-Owl","spGlauc1pas","rarity"
"Little Owl","spAthennoc",
"Tawny Owl","spStrixalu",
"Ural Owl","spStrixura",
"Long-eared Owl","spAsiootu",
"Short-eared Owl","spAsiofla",
"Boreal Owl","spAegolfun","rarity"
"Eurasian Hoopoe","spUpupaepo",
"Blue-cheeked Bee-eater","spMerop1per","rarity"
"European Bee-eater","spMerop1api",
"Common Kingfisher","spAlcedatt",
"European Roller","spCoracgar",
"Eurasian Wryneck","spJynxtor",
"Eurasian Three-toed Woodpecker","spPicoitri",
"Middle Spotted Woodpecker","spDendr3med",
"White-backed Woodpecker","spDendr5leu",
"Great Spotted Woodpecker","spDendr5maj",
"Syrian Woodpecker","spDendr5syr",
"Lesser Spotted Woodpecker","spDryobmin",
"Gray-headed Woodpecker","spPicuscan",
"Eurasian Green Woodpecker","spPicusvir1",
"Black Woodpecker","spDryocmar",
"Lesser Kestrel","spFalconau","rarity"
"Eurasian Kestrel","spFalcotin",
"Red-footed Falcon","spFalcoves",
"Amur Falcon","spFalcoamu","rarity"
"Eleonora's Falcon","spFalcoele","rarity"
"Merlin","spFalcocol",
"Eurasian Hobby","spFalcosub",
"Saker Falcon","spFalcoche",
"Peregrine Falcon","spFalcoper",
"Eurasian Golden Oriole","spOriolori",
"Red-backed Shrike","spLaniucol",
"Great Gray Shrike","spLaniuexc",
"Lesser Gray Shrike","spLaniumin",
"Woodchat Shrike","spLaniusen","rarity"
"Eurasian Jay","spGarrugla",
"Eurasian Magpie","spPicapic",
"Northern Nutcracker","spNucifcar",
"Red-billed Chough","spPyrrh3pyr","rarity"
"Yellow-billed Chough","spPyrrh3gra","rarity"
"Eurasian Jackdaw","spColoemon",
"Rook","spCorvufru",
"Carrion Crow","spCorvucor",
"Hooded Crow","spCorvucor1",
"Common Raven","spCorvucor3",
"Coal Tit","spPeripate",
"Crested Tit","spLopho15cri",
"Marsh Tit","spPoeci2pal",
"Willow Tit","spPoeci2mon",
"Eurasian Blue Tit","spCyanicae",
"Azure Tit","spCyanicya","rarity"
"Great Tit","spParusmaj",
"Eurasian Penduline-Tit","spRemizpen",
"Wood Lark","spLulluarb",
"Eurasian Skylark","spAlaudarv",
"Crested Lark","spGalercri",
"Horned Lark","spEremo1alp","rarity"
"Greater Short-toed Lark","spCalanbra","rarity"
"Calandra Lark","spMelan9cal","rarity"
"Bearded Reedling","spPanurbia",
"Zitting Cisticola","spCistijun","rarity"
"Booted Warbler","spIdunacal","rarity"
"Eastern Olivaceous Warbler","spIdunapal",
"Melodious Warbler","spHippopol","rarity"
"Icterine Warbler","spHippoict",
"Aquatic Warbler","spAcroc1pal",
"Moustached Warbler","spAcroc1mel",
"Sedge Warbler","spAcroc1sch",
"Paddyfield Warbler","spAcroc1agr","rarity"
"Blyth's Reed Warbler","spAcroc1dum","rarity"
"Marsh Warbler","spAcroc1pal1",
"Common Reed Warbler","spAcroc1sci",
"Great Reed Warbler","spAcroc1aru",
"River Warbler","spLocusflu",
"Savi's Warbler","spLocuslus",
"Common Grasshopper Warbler","spLocusnae",
"Bank Swallow","spRiparrip",
"Eurasian Crag-Martin","spPtyonrup",
"Barn Swallow","spHirun2rus",
"Western House-Martin","spDelicurb",
"European Red-rumped Swallow","spCecroruf","rarity"
"Wood Warbler","spPhyll5sib",
"Western Bonelli's Warbler","spPhyll5bon","rarity"
"Yellow-browed Warbler","spPhyll5ino","rarity"
"Hume's Warbler","spPhyll5hum","rarity"
"Pallas's Leaf Warbler","spPhyll5pro","rarity"
"Radde's Warbler","spPhyll5sch","rarity"
"Dusky Warbler","spPhyll5fus","rarity"
"Willow Warbler","spPhyll5tro",
"Common Chiffchaff","spPhyll5col",
"Cetti's Warbler","spCetticet","rarity"
"Long-tailed Tit","spAegit1cau",
"Eurasian Blackcap","spSylvi3atr",
"Garden Warbler","spSylvi3bor",
"Barred Warbler","spCurrunis",
"Lesser Whitethroat","spCurrucur",
"Sardinian Warbler","spCurrumel1","rarity"
"Eastern Subalpine Warbler","spCurrucan","rarity"
"Greater Whitethroat","spCurrucom",
"Goldcrest","spRegulreg",
"Common Firecrest","spRegulign",
"Wallcreeper","spTichomur",
"Eurasian Nuthatch","spSitta1eur",
"Eurasian Treecreeper","spCerth4fam",
"Short-toed Treecreeper","spCerth4bra",
"Eurasian Wren","spTrogltro",
"White-throated Dipper","spCincl3cin",
"European Starling","spSturnvul",
"Rosy Starling","spPastoros",
"Mistle Thrush","spTurduvis",
"Song Thrush","spTurduphi",
"Redwing","spTurduili",
"Eurasian Blackbird","spTurdumer",
"Fieldfare","spTurdupil",
"Ring Ouzel","spTurdutor",
"Black-throated Thrush","spTurduatr","rarity"
"Naumann's Thrush","spTurdunau","rarity"
"Spotted Flycatcher","spMusci3str",
"European Robin","spErithrub",
"Thrush Nightingale","spLuscilus",
"Common Nightingale","spLuscimeg",
"Bluethroat","spLuscisve",
"Red-flanked Bluetail","spTarsicya","rarity"
"Red-breasted Flycatcher","spFicedpar",
"European Pied Flycatcher","spFicedhyp1",
"Collared Flycatcher","spFicedalb1",
"Common Redstart","spPhoen5pho",
"Black Redstart","spPhoen5och",
"Rufous-tailed Rock-Thrush","spMontisax","rarity"
"Blue Rock-Thrush","spMontisol","rarity"
"Whinchat","spSaxicrub",
"European Stonechat","spSaxicrub1",
"Northern Wheatear","spOenanoen",
"Isabelline Wheatear","spOenanisa","rarity"
"Desert Wheatear","spOenandes","rarity"
"Western Black-eared Wheatear","spOenanhis","rarity"
"Eastern Black-eared Wheatear","spOenanmel","rarity"
"Pied Wheatear","spOenanple","rarity"
"Bohemian Waxwing","spBombygar",
"Alpine Accentor","spPrunecol",
"Siberian Accentor","spPrunemon","rarity"
"Black-throated Accentor","spPruneatr","rarity"
"Dunnock","spPrunemod",
"House Sparrow","spPassedom",
"Spanish Sparrow","spPassehis","rarity"
"Eurasian Tree Sparrow","spPassemon",
"White-winged Snowfinch","spMonti1niv","rarity"
"Gray Wagtail","spMotaccin",
"Western Yellow Wagtail","spMotacfla1",
"Citrine Wagtail","spMotaccit","rarity"
"White Wagtail","spMotacalb",
"Richard's Pipit","spAnthuric","rarity"
"Tawny Pipit","spAnthucam",
"Meadow Pipit","spAnthupra",
"Tree Pipit","spAnthutri",
"Red-throated Pipit","spAnthucer",
"Water Pipit","spAnthuspi",
"Rock Pipit","spAnthupet","rarity"
"Common Chaffinch","spFringcoe",
"Brambling","spFringmon",
"Hawfinch","spCocco1coc",
"Common Rosefinch","spCarpo4ery","rarity"
"Pallas's Rosefinch","spCarpo4ros","rarity"
"Pine Grosbeak","spPinicenu","rarity"
"Eurasian Bullfinch","spPyrrh4pyr",
"Trumpeter Finch","spBucangit","rarity"
"European Greenfinch","spChlor11chl",
"Twite","spLinarfla",
"Eurasian Linnet","spLinarcan",
"Redpoll","spAcant5fla","rarity"
"Red Crossbill","spLoxiacur",
"White-winged Crossbill","spLoxialeu","rarity"
"European Goldfinch","spCarducar",
"European Serin","spSerinser",
"Eurasian Siskin","spSpinuspi",
"Lapland Longspur","spCalcalap",
"Snow Bunting","spPlect2niv",
"Black-headed Bunting","spEmbermel","rarity"
"Corn Bunting","spEmbercal",
"Rock Bunting","spEmbercia",
"Cirl Bunting","spEmbercir","rarity"
"Yellowhammer","spEmbercit",
"Pine Bunting","spEmberleu","rarity"
"Ortolan Bunting","spEmberhor","rarity"
"Reed Bunting","spEmbersch",
"Little Bunting","spEmberpus","rarity"
"Rustic Bunting","spEmberrus","rarity"
"Chestnut Bunting","spEmberrut","rarity"
