"Name","ID","Status"
"Snow Goose","spAnser1cae","rarity"
"Graylag Goose","spAnser1ans",
"Greater White-fronted Goose","spAnser1alb",
"Lesser White-fronted Goose","spAnser1ery","rarity"
"Taiga Bean-Goose","spAnser1fab","rarity"
"Tundra Bean-Goose","spAnser1ser","rarity"
"Pink-footed Goose","spAnser1bra",
"Brant","spBrantber",
"Barnacle Goose","spBrantleu",
"Cackling Goose","spBranthut","rarity"
"Canada Goose","spBrantcan","rarity"
"Red-breasted Goose","spBrantruf","rarity"
"Mute Swan","spCygnuolo",
"Black Swan","spCygnuatr","escaped"
"Tundra Swan","spCygnucol",
"Whooper Swan","spCygnucyg",
"Ruddy Shelduck","spTadorfer","rarity"
"Common Shelduck","spTadortad1",
"Mandarin Duck","spAixgal","introduced"
"Baikal Teal","spSibirfor","rarity"
"Garganey","spSpatuque",
"Blue-winged Teal","spSpatudis","rarity"
"Northern Shoveler","spSpatucly",
"Gadwall","spMarecstr",
"Falcated Duck","spMarecfal","rarity"
"Eurasian Wigeon","spMarecpen",
"American Wigeon","spMarecame","rarity"
"Mallard","spAnaspla",
"American Black Duck","spAnasrub","rarity"
"Northern Pintail","spAnasacu",
"Green-winged Teal","spAnascre",
"Red-crested Pochard","spNetta1ruf","rarity"
"Redhead","spAythyame","rarity"
"Common Pochard","spAythyfer",
"Ring-necked Duck","spAythycol",
"Ferruginous Duck","spAythynyr","rarity"
"Tufted Duck","spAythyful",
"Greater Scaup","spAythymar",
"Lesser Scaup","spAythyaff","rarity"
"King Eider","spSomatspe","rarity"
"Common Eider","spSomatmol",
"Surf Scoter","spMelanper",
"Velvet Scoter","spMelanfus",
"White-winged Scoter","spMelandeg","rarity"
"Stejneger's Scoter","spMelanste","rarity"
"Common Scoter","spMelannig",
"Black Scoter","spMelaname","rarity"
"Long-tailed Duck","spClanghye",
"Bufflehead","spBucepalb","rarity"
"Common Goldeneye","spBucepcla",
"Barrow's Goldeneye","spBucepisl","rarity"
"Smew","spMergealb",
"Hooded Merganser","spLopho1cuc","rarity"
"Common Merganser","spMergumer",
"Red-breasted Merganser","spMerguser",
"Ruddy Duck","spOxyurjam","introduced"
"Willow Ptarmigan","spLagoplag",
"Western Capercaillie","spTetra2uro","extinct"
"Gray Partridge","spPerdiper",
"Ring-necked Pheasant","spPhasicol","introduced"
"Common Quail","spCoturcot",
"Rock Pigeon","spColumliv",
"Stock Dove","spColumoen",
"Common Wood-Pigeon","spColumpal",
"European Turtle-Dove","spStreptur",
"Eurasian Collared-Dove","spStrepdec",
"Mourning Dove","spZenaimac","rarity"
"Pallas's Sandgrouse","spSyrrhpar","rarity"
"Great Bustard","spOtistar","rarity"
"Little Bustard","spTetra4tet","rarity"
"Great Spotted Cuckoo","spClamagla","rarity"
"Yellow-billed Cuckoo","spCoccy1ame","rarity"
"Black-billed Cuckoo","spCoccy1ery","rarity"
"Common Cuckoo","spCuculcan",
"Common Nighthawk","spChordmin","rarity"
"Eurasian Nightjar","spCaprieur",
"Chimney Swift","spChaetpel","rarity"
"White-throated Needletail","spHiruncau","rarity"
"Alpine Swift","spTachy1mel","rarity"
"Common Swift","spApusapu",
"Pallid Swift","spApuspal","rarity"
"Little Swift","spApusaff","rarity"
"White-rumped Swift","spApuscaf","rarity"
"Water Rail","spRalluaqu",
"Corn Crake","spCrexcre",
"Sora","spPorzacar","rarity"
"Spotted Crake","spPorzapor","rarity"
"Eurasian Moorhen","spGalli3chl",
"Eurasian Coot","spFulicatr",
"American Coot","spFulicame","rarity"
"Allen's Gallinule","spPorph1all","rarity"
"Purple Gallinule","spPorph1mar","rarity"
"Little Crake","spZaporpar","rarity"
"Baillon's Crake","spZaporpus","rarity"
"Sandhill Crane","spAntigcan","rarity"
"Common Crane","spGrusgru","rarity"
"Eurasian Thick-knee","spBurhioed","rarity"
"Black-winged Stilt","spHiman1him","rarity"
"Pied Avocet","spRecuravo","rarity"
"Eurasian Oystercatcher","spHaema1ost",
"Black-bellied Plover","spPluvi2squ",
"European Golden-Plover","spPluvi2apr",
"American Golden-Plover","spPluvi2dom","rarity"
"Pacific Golden-Plover","spPluvi2ful","rarity"
"Eurasian Dotterel","spEudro1mor",
"Killdeer","spCharavoc","rarity"
"Common Ringed Plover","spCharahia",
"Semipalmated Plover","spCharasem","rarity"
"Little Ringed Plover","spThinodub","rarity"
"Northern Lapwing","spVanelvan",
"Sociable Lapwing","spVanelgre","rarity"
"Siberian Sand-Plover","spAnarhmon","rarity"
"Greater Sand-Plover","spAnarhles","rarity"
"Kentish Plover","spAnarhale","rarity"
"Upland Sandpiper","spBartrlon","rarity"
"Whimbrel","spNumenpha",
"Eskimo Curlew","spNumenbor","extinct"
"Eurasian Curlew","spNumenarq",
"Bar-tailed Godwit","spLimoslap",
"Black-tailed Godwit","spLimoslim",
"Hudsonian Godwit","spLimoshae","rarity"
"Short-billed Dowitcher","spLimnogri","rarity"
"Long-billed Dowitcher","spLimnosco","rarity"
"Jack Snipe","spLymnomin",
"Eurasian Woodcock","spScolorus",
"Great Snipe","spGalli5med","rarity"
"Common Snipe","spGalli5gal",
"Wilson's Snipe","spGalli5del","rarity"
"Wilson's Phalarope","spPhala1tri","rarity"
"Red Phalarope","spPhala1ful",
"Red-necked Phalarope","spPhala1lob",
"Terek Sandpiper","spXenuscin","rarity"
"Common Sandpiper","spActithyp",
"Spotted Sandpiper","spActitmac","rarity"
"Green Sandpiper","spTringoch",
"Solitary Sandpiper","spTringsol","rarity"
"Marsh Sandpiper","spTringsta","rarity"
"Wood Sandpiper","spTringgla",
"Common Redshank","spTringtot",
"Lesser Yellowlegs","spTringfla","rarity"
"Spotted Redshank","spTringery",
"Common Greenshank","spTringneb",
"Greater Yellowlegs","spTringmel","rarity"
"Ruddy Turnstone","spArenaint",
"Great Knot","spCalidten","rarity"
"Red Knot","spCalidcan",
"Ruff","spCalidpug",
"Broad-billed Sandpiper","spCalidfal","rarity"
"Sharp-tailed Sandpiper","spCalidacu","rarity"
"Curlew Sandpiper","spCalidfer",
"Stilt Sandpiper","spCalidhim","rarity"
"Temminck's Stint","spCalidtem","rarity"
"Long-toed Stint","spCalidsub","rarity"
"Red-necked Stint","spCalidruf","rarity"
"Buff-breasted Sandpiper","spCalidsub1",
"Sanderling","spCalidalb",
"Dunlin","spCalidalp",
"Purple Sandpiper","spCalidmar",
"Baird's Sandpiper","spCalidbai","rarity"
"Little Stint","spCalidmin",
"White-rumped Sandpiper","spCalidfus","rarity"
"Least Sandpiper","spCalidmin1","rarity"
"Pectoral Sandpiper","spCalidmel",
"Western Sandpiper","spCalidmau","rarity"
"Semipalmated Sandpiper","spCalidpus","rarity"
"Cream-colored Courser","spCursocur","rarity"
"Collared Pratincole","spGlarepra","rarity"
"Black-winged Pratincole","spGlarenor","rarity"
"Long-tailed Jaeger","spSterclon",
"Parasitic Jaeger","spStercpar",
"Pomarine Jaeger","spStercpom",
"Great Skua","spStercsku",
"Atlantic Puffin","spFratearc",
"Black Guillemot","spCepphgry",
"Razorbill","spAlcator",
"Dovekie","spAlleall",
"Thick-billed Murre","spUrialom","rarity"
"Common Murre","spUriaaal",
"Little Gull","spHydro3min",
"Ross's Gull","spRhodo2ros","rarity"
"Black-legged Kittiwake","spRissatri",
"Ivory Gull","spPagopebu","rarity"
"Sabine's Gull","spXemasab",
"Bonaparte's Gull","spChroiphi","rarity"
"Black-headed Gull","spChroirid",
"Laughing Gull","spLeuco3atr","rarity"
"Franklin's Gull","spLeuco3pip","rarity"
"Mediterranean Gull","spIchthmel",
"Common Gull","spLaruscan",
"Ring-billed Gull","spLarusdel",
"Caspian Gull","spLaruscac","rarity"
"American Herring Gull","spLarussmi","rarity"
"Vega Gull","spLarusveg","rarity"
"European Herring Gull","spLarusarg",
"Yellow-legged Gull","spLarusmic",
"Great Black-backed Gull","spLarusmar",
"Glaucous Gull","spLarushyp",
"Lesser Black-backed Gull","spLarusfus",
"Glaucous-winged Gull","spLarusgla","rarity"
"Slaty-backed Gull","spLarussch","rarity"
"Iceland Gull","spLarusgla1",
"Sooty Tern","spOnychfus","rarity"
"Little Tern","spStern1alb",
"Least Tern","spStern1ant","rarity"
"Gull-billed Tern","spGelocnil","rarity"
"Caspian Tern","spHydro4cas","rarity"
"Whiskered Tern","spChlidhyb","rarity"
"Black Tern","spChlidnig",
"White-winged Tern","spChlidleu","rarity"
"Forster's Tern","spStern2for","rarity"
"Arctic Tern","spStern2par",
"Common Tern","spStern2hir1",
"Roseate Tern","spStern2dou",
"Sandwich Tern","spThala1san",
"Elegant Tern","spThala1ele","rarity"
"Lesser Crested Tern","spThala1ben","rarity"
"Royal Tern","spThala1max","rarity"
"Little Grebe","spTachy2ruf1",
"Pied-billed Grebe","spPodilpod","rarity"
"Horned Grebe","spPodic1aur",
"Red-necked Grebe","spPodic1gri",
"Great Crested Grebe","spPodic1cri",
"Eared Grebe","spPodic1nig",
"Red-billed Tropicbird","spPhaet2aet","rarity"
"Red-throated Loon","spGaviaste",
"Arctic Loon","spGaviaarc",
"Pacific Loon","spGaviapac","rarity"
"Common Loon","spGaviaimm",
"Yellow-billed Loon","spGaviaada","rarity"
"Black-browed Albatross","spThala2mel","rarity"
"Wilson's Storm-Petrel","spOceanoce","rarity"
"European Storm-Petrel","spHydro5pel",
"Leach's Storm-Petrel","spHydro5leu",
"Swinhoe's Storm-Petrel","spHydro5mon","rarity"
"Band-rumped Storm-Petrel","spHydro5cas","rarity"
"Northern Fulmar","spFulmagla",
"Fea's Petrel","spPtero3fea","rarity"
"Bermuda Petrel","spPtero3cah","rarity"
"Cory's Shearwater","spCalonbor",
"Scopoli's Shearwater","spCalondio","rarity"
"Great Shearwater","spArdengra",
"Sooty Shearwater","spArdengri",
"Short-tailed Shearwater","spArdenten","rarity"
"Manx Shearwater","spPuffipuf",
"Balearic Shearwater","spPuffimau",
"Barolo Shearwater","spPuffibar","rarity"
"Black Stork","spCiconnig","rarity"
"White Stork","spCiconcic","rarity"
"Northern Gannet","spMorusbas",
"Brown Booby","spSulaleu","rarity"
"Great Cormorant","spPhala2car",
"European Shag","spGulosari",
"Double-crested Cormorant","spNanno1aur","rarity"
"Glossy Ibis","spPlegafal","rarity"
"Eurasian Spoonbill","spPlataleu","rarity"
"Eurasian Bittern","spBotauste","rarity"
"American Bittern","spBotaulen","rarity"
"Least Bittern","spBotauexi","rarity"
"Little Bittern","spBotaumin","rarity"
"Black-crowned Night Heron","spNycti6nyc","rarity"
"Little Blue Heron","spEgretcae","rarity"
"Little Egret","spEgretgar",
"Green Heron","spButorvir","rarity"
"Squacco Heron","spArdeo1ral","rarity"
"Western Cattle-Egret","spArdeaibi","rarity"
"Great Egret","spArdeaalb","rarity"
"Gray Heron","spArdeacin",
"Purple Heron","spArdeapur","rarity"
"Great White Pelican","spPelec1ono","escaped"
"Osprey","spPandihal",
"Egyptian Vulture","spNeophper","rarity"
"European Honey-buzzard","spPerniapi","rarity"
"Eurasian Griffon","spGypsful","rarity"
"Greater Spotted Eagle","spClang1cla","rarity"
"Golden Eagle","spAquilchr","rarity"
"Eurasian Sparrowhawk","spAccipnis",
"Eurasian Goshawk","spAsturgen","rarity"
"Western Marsh Harrier","spCircuaer",
"Hen Harrier","spCircucya",
"Northern Harrier","spCircuhud","rarity"
"Pallid Harrier","spCircumac1","rarity"
"Montagu's Harrier","spCircupyg","rarity"
"Red Kite","spMilvumil",
"Black Kite","spMilvumig","rarity"
"White-tailed Eagle","spHalia1alb","rarity"
"Bald Eagle","spHalia1leu","rarity"
"Rough-legged Hawk","spButeo1lag","rarity"
"Common Buzzard","spButeo1but",
"Western Barn Owl","spTytoalb",
"Eurasian Scops-Owl","spOtussco","rarity"
"Snowy Owl","spBubosca","rarity"
"Little Owl","spAthennoc","rarity"
"Long-eared Owl","spAsiootu",
"Short-eared Owl","spAsiofla",
"Eurasian Hoopoe","spUpupaepo",
"European Bee-eater","spMerop1api","rarity"
"Common Kingfisher","spAlcedatt",
"Belted Kingfisher","spMegac1alc","rarity"
"European Roller","spCoracgar","rarity"
"Eurasian Wryneck","spJynxtor","rarity"
"Yellow-bellied Sapsucker","spSphyrvar","rarity"
"Great Spotted Woodpecker","spDendr5maj",
"Eurasian Green Woodpecker","spPicusvir1","rarity"
"Lesser Kestrel","spFalconau","rarity"
"Eurasian Kestrel","spFalcotin",
"Red-footed Falcon","spFalcoves","rarity"
"Merlin","spFalcocol",
"Eurasian Hobby","spFalcosub","rarity"
"Gyrfalcon","spFalcorus","rarity"
"Peregrine Falcon","spFalcoper",
"Eastern Kingbird","spTyran4tyr","rarity"
"Philadelphia Vireo","spVireo1phi","rarity"
"Red-eyed Vireo","spVireo1oli","rarity"
"Eurasian Golden Oriole","spOriolori","rarity"
"Red-backed Shrike","spLaniucol","rarity"
"Isabelline Shrike","spLaniuisa","rarity"
"Brown Shrike","spLaniucri","rarity"
"Great Gray Shrike","spLaniuexc","rarity"
"Lesser Gray Shrike","spLaniumin","rarity"
"Woodchat Shrike","spLaniusen","rarity"
"Eurasian Jay","spGarrugla",
"Eurasian Magpie","spPicapic",
"Red-billed Chough","spPyrrh3pyr",
"Eurasian Jackdaw","spColoemon",
"Rook","spCorvufru",
"Carrion Crow","spCorvucor",
"Hooded Crow","spCorvucor1",
"Common Raven","spCorvucor3",
"Coal Tit","spPeripate",
"Marsh Tit","spPoeci2pal","rarity"
"Eurasian Blue Tit","spCyanicae",
"Great Tit","spParusmaj",
"Eurasian Penduline-Tit","spRemizpen","rarity"
"Wood Lark","spLulluarb","rarity"
"Eurasian Skylark","spAlaudarv",
"Horned Lark","spEremo1alp","rarity"
"Greater Short-toed Lark","spCalanbra","rarity"
"Bearded Reedling","spPanurbia","rarity"
"Zitting Cisticola","spCistijun","rarity"
"Booted Warbler","spIdunacal","rarity"
"Sykes's Warbler","spIdunaram","rarity"
"Eastern Olivaceous Warbler","spIdunapal","rarity"
"Melodious Warbler","spHippopol","rarity"
"Icterine Warbler","spHippoict","rarity"
"Aquatic Warbler","spAcroc1pal","rarity"
"Sedge Warbler","spAcroc1sch",
"Paddyfield Warbler","spAcroc1agr","rarity"
"Blyth's Reed Warbler","spAcroc1dum","rarity"
"Marsh Warbler","spAcroc1pal1","rarity"
"Common Reed Warbler","spAcroc1sci",
"Great Reed Warbler","spAcroc1aru","rarity"
"Pallas's Grasshopper Warbler","spHelopcer","rarity"
"Savi's Warbler","spLocuslus","rarity"
"Common Grasshopper Warbler","spLocusnae",
"Bank Swallow","spRiparrip",
"Tree Swallow","spTachy4bic","rarity"
"Barn Swallow","spHirun2rus",
"Western House-Martin","spDelicurb",
"European Red-rumped Swallow","spCecroruf","rarity"
"Cliff Swallow","spPetro2pyr","rarity"
"Wood Warbler","spPhyll5sib",
"Western Bonelli's Warbler","spPhyll5bon","rarity"
"Yellow-browed Warbler","spPhyll5ino",
"Hume's Warbler","spPhyll5hum","rarity"
"Pallas's Leaf Warbler","spPhyll5pro","rarity"
"Radde's Warbler","spPhyll5sch","rarity"
"Dusky Warbler","spPhyll5fus","rarity"
"Willow Warbler","spPhyll5tro",
"Common Chiffchaff","spPhyll5col",
"Iberian Chiffchaff","spPhyll5ibe","rarity"
"Greenish Warbler","spPhyll5tro1","rarity"
"Two-barred Warbler","spPhyll5plu","rarity"
"Arctic Warbler","spPhyll5bor1","rarity"
"Cetti's Warbler","spCetticet","rarity"
"Long-tailed Tit","spAegit1cau",
"Eurasian Blackcap","spSylvi3atr",
"Garden Warbler","spSylvi3bor",
"Barred Warbler","spCurrunis","rarity"
"Lesser Whitethroat","spCurrucur",
"Sardinian Warbler","spCurrumel1","rarity"
"Western Subalpine Warbler","spCurruibe","rarity"
"Eastern Subalpine Warbler","spCurrucan","rarity"
"Greater Whitethroat","spCurrucom",
"Dartford Warbler","spCurruund","rarity"
"Ruby-crowned Kinglet","spCorthcal","rarity"
"Goldcrest","spRegulreg",
"Common Firecrest","spRegulign",
"Eurasian Treecreeper","spCerth4fam",
"Eurasian Wren","spTrogltro",
"White-throated Dipper","spCincl3cin",
"European Starling","spSturnvul",
"Rosy Starling","spPastoros","rarity"
"Gray Catbird","spDumet1car","rarity"
"White's Thrush","spZoothaur","rarity"
"Veery","spCatha1fus1","rarity"
"Gray-cheeked Thrush","spCatha1min","rarity"
"Swainson's Thrush","spCatha1ust","rarity"
"Hermit Thrush","spCatha1gut","rarity"
"Siberian Thrush","spGeokisib","rarity"
"Mistle Thrush","spTurduvis",
"Song Thrush","spTurduphi",
"Redwing","spTurduili",
"Eurasian Blackbird","spTurdumer",
"American Robin","spTurdumig","rarity"
"Fieldfare","spTurdupil",
"Ring Ouzel","spTurdutor",
"Spotted Flycatcher","spMusci3str",
"Rufous-tailed Scrub-Robin","spCerco3gal","rarity"
"European Robin","spErithrub",
"Thrush Nightingale","spLuscilus","rarity"
"Common Nightingale","spLuscimeg","rarity"
"Bluethroat","spLuscisve","rarity"
"Red-flanked Bluetail","spTarsicya","rarity"
"Taiga Flycatcher","spFicedalb","rarity"
"Red-breasted Flycatcher","spFicedpar",
"European Pied Flycatcher","spFicedhyp1",
"Collared Flycatcher","spFicedalb1","rarity"
"Common Redstart","spPhoen5pho",
"Black Redstart","spPhoen5och",
"Rufous-tailed Rock-Thrush","spMontisax","rarity"
"Whinchat","spSaxicrub",
"European Stonechat","spSaxicrub1",
"Siberian Stonechat","spSaxicmau","rarity"
"Northern Wheatear","spOenanoen",
"Isabelline Wheatear","spOenanisa","rarity"
"Desert Wheatear","spOenandes","rarity"
"Western Black-eared Wheatear","spOenanhis","rarity"
"Eastern Black-eared Wheatear","spOenanmel","rarity"
"Pied Wheatear","spOenanple","rarity"
"Bohemian Waxwing","spBombygar",
"Cedar Waxwing","spBombyced","rarity"
"Dunnock","spPrunemod",
"House Sparrow","spPassedom",
"Eurasian Tree Sparrow","spPassemon",
"Gray Wagtail","spMotaccin",
"Western Yellow Wagtail","spMotacfla1",
"Eastern Yellow Wagtail","spMotactsc","rarity"
"Citrine Wagtail","spMotaccit","rarity"
"White Wagtail","spMotacalb",
"Richard's Pipit","spAnthuric","rarity"
"Tawny Pipit","spAnthucam","rarity"
"Meadow Pipit","spAnthupra",
"Tree Pipit","spAnthutri",
"Olive-backed Pipit","spAnthuhod","rarity"
"Pechora Pipit","spAnthugus","rarity"
"Red-throated Pipit","spAnthucer","rarity"
"Water Pipit","spAnthuspi","rarity"
"Rock Pipit","spAnthupet",
"American Pipit","spAnthurub","rarity"
"Common Chaffinch","spFringcoe",
"Brambling","spFringmon",
"Hawfinch","spCocco1coc","rarity"
"Common Rosefinch","spCarpo4ery","rarity"
"Eurasian Bullfinch","spPyrrh4pyr",
"European Greenfinch","spChlor11chl",
"Twite","spLinarfla",
"Eurasian Linnet","spLinarcan",
"Redpoll","spAcant5fla",
"Red Crossbill","spLoxiacur",
"White-winged Crossbill","spLoxialeu","rarity"
"European Goldfinch","spCarducar",
"European Serin","spSerinser","rarity"
"Eurasian Siskin","spSpinuspi",
"Lapland Longspur","spCalcalap",
"Snow Bunting","spPlect2niv",
"Black-headed Bunting","spEmbermel","rarity"
"Corn Bunting","spEmbercal",
"Cirl Bunting","spEmbercir","rarity"
"Yellowhammer","spEmbercit",
"Pine Bunting","spEmberleu","rarity"
"Ortolan Bunting","spEmberhor","rarity"
"Reed Bunting","spEmbersch",
"Yellow-breasted Bunting","spEmberaur","rarity"
"Little Bunting","spEmberpus","rarity"
"Rustic Bunting","spEmberrus","rarity"
"Fox Sparrow","spPasse1ili","rarity"
"Dark-eyed Junco","spJuncohye","rarity"
"White-crowned Sparrow","spZonotleu","rarity"
"White-throated Sparrow","spZonotalb","rarity"
"Bobolink","spDolicory","rarity"
"Baltimore Oriole","spIcter1gal","rarity"
"Ovenbird","spSeiuraur","rarity"
"Northern Waterthrush","spParkenov","rarity"
"Blue-winged Warbler","spVermicya","rarity"
"Black-and-white Warbler","spMniotvar","rarity"
"Tennessee Warbler","spLeiot1per","rarity"
"Common Yellowthroat","spGeothtri","rarity"
"American Redstart","spSetop1rut","rarity"
"Cape May Warbler","spSetop1tig","rarity"
"Northern Parula","spSetop1ame","rarity"
"Blackburnian Warbler","spSetop1fus","rarity"
"Yellow Warbler","spSetop1pet","rarity"
"Blackpoll Warbler","spSetop1str","rarity"
"Yellow-rumped Warbler","spSetop1cor","rarity"
"Canada Warbler","spCardecan","rarity"
"Wilson's Warbler","spCardepus","rarity"
"Scarlet Tanager","spPiranoli","rarity"
"Rose-breasted Grosbeak","spPheuclud","rarity"
"Indigo Bunting","spPasse3cya","rarity"
