"Name","ID","Status"
"Common Ostrich","spStrutcam",
"Somali Ostrich","spStrutmol",
"White-faced Whistling-Duck","spDendrvid",
"Fulvous Whistling-Duck","spDendrbic",
"White-backed Duck","spThalaleu",
"Knob-billed Duck","spSarkimel",
"Egyptian Goose","spAlopoaeg",
"Ruddy Shelduck","spTadorfer","rarity"
"Spur-winged Goose","spPlectgam",
"African Pygmy-Goose","spNettaaur",
"Garganey","spSpatuque",
"Blue-billed Teal","spSpatuhot",
"Northern Shoveler","spSpatucly",
"Gadwall","spMarecstr",
"Eurasian Wigeon","spMarecpen",
"African Black Duck","spAnasspa",
"Yellow-billed Duck","spAnasund",
"Mallard","spAnaspla","rarity"
"Cape Teal","spAnascap",
"Red-billed Duck","spAnasery",
"Northern Pintail","spAnasacu",
"Green-winged Teal","spAnascre",
"Southern Pochard","spNetta1ery",
"Common Pochard","spAythyfer","rarity"
"Ferruginous Duck","spAythynyr",
"Tufted Duck","spAythyful",
"Maccoa Duck","spOxyurmac",
"Helmeted Guineafowl","spNumidmel",
"Vulturine Guineafowl","spAcrylvul",
"Eastern Crested Guineafowl","spGuttepuc",
"Western Crested Guineafowl","spGuttever",
"Stone Partridge","spPtilopet",
"Crested Francolin","spOrtygsep",
"Coqui Francolin","spCampocoq",
"Ring-necked Francolin","spSclerstr",
"Red-winged Francolin","spSclerlev",
"Elgon Francolin","spSclerelg",
"Orange River Francolin","spSclergut",
"Shelley's Francolin","spSclershe",
"Blue Quail","spSynoiada",
"Common Quail","spCoturcot",
"Harlequin Quail","spCoturdel",
"Chestnut-naped Spurfowl","spPterncas","rarity"
"Jackson's Spurfowl","spPternjac",
"Hildebrandt's Spurfowl","spPternhil",
"Scaly Spurfowl","spPternsqu",
"Yellow-necked Spurfowl","spPternleu",
"Red-necked Spurfowl","spPternafe",
"Rock Pigeon","spColumliv","introduced"
"Speckled Pigeon","spColumgui",
"Rameron Pigeon","spColumarq",
"Eastern Bronze-naped Pigeon","spColumdel",
"Lemon Dove","spAploplar",
"European Turtle-Dove","spStreptur","rarity"
"Dusky Turtle-Dove","spStreplug",
"White-winged Collared-Dove","spStreprei",
"Mourning Collared-Dove","spStrepdec1",
"Red-eyed Dove","spStrepsem",
"Ring-necked Dove","spStrepcap",
"Vinaceous Dove","spStrepvin","rarity"
"Laughing Dove","spSpilosen",
"Emerald-spotted Wood-Dove","spTurtucha",
"Blue-spotted Wood-Dove","spTurtuafe",
"Tambourine Dove","spTurtutym",
"Namaqua Dove","spOenacap",
"Bruce's Green-Pigeon","spTrerowaa",
"African Green-Pigeon","spTrerocal",
"Chestnut-bellied Sandgrouse","spPtero1exu",
"Yellow-throated Sandgrouse","spPtero1gut",
"Black-faced Sandgrouse","spPtero1dec",
"Lichtenstein's Sandgrouse","spPtero1lic",
"Four-banded Sandgrouse","spPtero1qua",
"Arabian Bustard","spArdeoara","rarity"
"Kori Bustard","spArdeokor",
"Denham's Bustard","spNeotiden",
"Heuglin's Bustard","spNeotiheu",
"White-bellied Bustard","spEupodsen",
"Buff-crested Bustard","spLopho4gin",
"Black-bellied Bustard","spLissomel",
"Hartlaub's Bustard","spLissohar",
"Great Blue Turaco","spCorytcri",
"Bare-faced Go-away-bird","spCriniper",
"White-bellied Go-away-bird","spCrinileu",
"Eastern Plantain-eater","spCrinizon",
"Purple-crested Turaco","spGalli1por",
"Ross's Turaco","spTauraros",
"White-crested Turaco","spTauraleu",
"Black-billed Turaco","spTaurasch",
"Schalow's Turaco","spTaurasch1",
"Hartlaub's Turaco","spTaurahar",
"Fischer's Turaco","spTaurafis",
"Senegal Coucal","spCentr1sen",
"Blue-headed Coucal","spCentr1mon",
"White-browed Coucal","spCentr1sup",
"Black Coucal","spCentr1gri",
"Blue Malkoha","spCeuthaer",
"Green Malkoha","spCeuthaus",
"Great Spotted Cuckoo","spClamagla",
"Levaillant's Cuckoo","spClamalev",
"Pied Cuckoo","spClamajac",
"Thick-billed Cuckoo","spPachyaud",
"Dideric Cuckoo","spChrys1cap",
"Klaas's Cuckoo","spChrys1kla",
"African Emerald Cuckoo","spChrys1cup",
"Barred Long-tailed Cuckoo","spCercomon",
"Black Cuckoo","spCuculcla",
"Red-chested Cuckoo","spCuculsol",
"Lesser Cuckoo","spCuculpol",
"African Cuckoo","spCuculgul",
"Madagascar Cuckoo","spCuculroc",
"Common Cuckoo","spCuculcan",
"Pennant-winged Nightjar","spCaprivex",
"Standard-winged Nightjar","spCaprilon",
"Eurasian Nightjar","spCaprieur",
"Sombre Nightjar","spCaprifra",
"Nubian Nightjar","spCaprinub",
"Donaldson Smith's Nightjar","spCapridon",
"Fiery-necked Nightjar","spCapripec",
"Montane Nightjar","spCapripol",
"Swamp Nightjar","spCaprinat",
"Plain Nightjar","spCapriino",
"Star-spotted Nightjar","spCapriste",
"Freckled Nightjar","spCapritri",
"Long-tailed Nightjar","spCapricli","rarity"
"Slender-tailed Nightjar","spCapricla",
"Square-tailed Nightjar","spCaprifos",
"Mottled Spinetail","spTelacuss",
"Sabine's Spinetail","spRhaphsab",
"Bat-like Spinetail","spNeafrboe",
"Scarce Swift","spSchoumyo",
"Alpine Swift","spTachy1mel",
"Mottled Swift","spTachy1aeq",
"Common Swift","spApusapu",
"Nyanza Swift","spApusnia",
"African Swift","spApusbar",
"Forbes-Watson's Swift","spApusber",
"Little Swift","spApusaff",
"Horus Swift","spApushor",
"White-rumped Swift","spApuscaf",
"African Palm Swift","spCypsipar",
"White-spotted Flufftail","spSarotpul",
"Buff-spotted Flufftail","spSarotele",
"Red-chested Flufftail","spSarotruf",
"Streaky-breasted Flufftail","spSarotboe",
"Striped Flufftail","spSarotaff","rarity"
"African Rail","spRallucae",
"Corn Crake","spCrexcre",
"African Crake","spCrecoegr",
"Spotted Crake","spPorzapor",
"Lesser Moorhen","spParagang",
"Eurasian Moorhen","spGalli3chl",
"Red-knobbed Coot","spFuliccri",
"Allen's Gallinule","spPorph1all",
"African Swamphen","spPorph1mad",
"Striped Crake","spAenigmar",
"Black Crake","spZaporfla",
"Baillon's Crake","spZaporpus",
"African Finfoot","spPodicsen",
"Gray Crowned-Crane","spBaleareg",
"Black Crowned-Crane","spBaleapav",
"Demoiselle Crane","spAnthr1vir","rarity"
"Common Crane","spGrusgru","rarity"
"Spotted Thick-knee","spBurhicap",
"Water Thick-knee","spBurhiver",
"Eurasian Thick-knee","spBurhioed",
"Senegal Thick-knee","spBurhisen",
"Egyptian Plover","spPluvi1aeg","rarity"
"Black-winged Stilt","spHiman1him",
"Pied Avocet","spRecuravo",
"Eurasian Oystercatcher","spHaema1ost",
"Black-bellied Plover","spPluvi2squ",
"Pacific Golden-Plover","spPluvi2ful",
"Common Ringed Plover","spCharahia",
"Three-banded Plover","spThinotri",
"Little Ringed Plover","spThinodub",
"Northern Lapwing","spVanelvan","rarity"
"Long-toed Lapwing","spVanelcra",
"Blacksmith Lapwing","spVanelarm",
"Spur-winged Lapwing","spVanelspi",
"Black-headed Lapwing","spVaneltec",
"Senegal Lapwing","spVanellug",
"Black-winged Lapwing","spVanelmel",
"Crowned Lapwing","spVanelcor",
"Wattled Lapwing","spVanelsen",
"Brown-chested Lapwing","spVanelsup",
"Caspian Plover","spAnarhasi",
"Tibetan Sand-Plover","spAnarhatr",
"Greater Sand-Plover","spAnarhles",
"Kittlitz's Plover","spAnarhpec",
"Chestnut-banded Plover","spAnarhpal",
"White-fronted Plover","spAnarhmar",
"Kentish Plover","spAnarhale",
"Greater Painted-Snipe","spRostrben",
"Lesser Jacana","spMicro4cap",
"African Jacana","spActopafr",
"Whimbrel","spNumenpha",
"Eurasian Curlew","spNumenarq",
"Bar-tailed Godwit","spLimoslap",
"Black-tailed Godwit","spLimoslim",
"Jack Snipe","spLymnomin",
"Great Snipe","spGalli5med",
"Pin-tailed Snipe","spGalli5ste","rarity"
"African Snipe","spGalli5nig",
"Common Snipe","spGalli5gal",
"Red Phalarope","spPhala1ful","rarity"
"Red-necked Phalarope","spPhala1lob",
"Terek Sandpiper","spXenuscin",
"Common Sandpiper","spActithyp",
"Spotted Sandpiper","spActitmac","rarity"
"Green Sandpiper","spTringoch",
"Marsh Sandpiper","spTringsta",
"Wood Sandpiper","spTringgla",
"Common Redshank","spTringtot",
"Spotted Redshank","spTringery",
"Common Greenshank","spTringneb",
"Ruddy Turnstone","spArenaint",
"Red Knot","spCalidcan","rarity"
"Ruff","spCalidpug",
"Broad-billed Sandpiper","spCalidfal",
"Curlew Sandpiper","spCalidfer",
"Temminck's Stint","spCalidtem",
"Long-toed Stint","spCalidsub","rarity"
"Red-necked Stint","spCalidruf","rarity"
"Buff-breasted Sandpiper","spCalidsub1","rarity"
"Sanderling","spCalidalb",
"Dunlin","spCalidalp","rarity"
"Little Stint","spCalidmin",
"Pectoral Sandpiper","spCalidmel","rarity"
"Small Buttonquail","spTurnisyl",
"Black-rumped Buttonquail","spTurninan",
"Quail-plover","spOrtyxmei",
"Crab-Plover","spDroma1ard",
"Double-banded Courser","spSmutsafr",
"Bronze-winged Courser","spRhino1cha",
"Three-banded Courser","spRhino1cin",
"Temminck's Courser","spCursotem",
"Cream-colored Courser","spCursocur","rarity"
"Somali Courser","spCursosom",
"Rock Pratincole","spGlarenuc",
"Madagascar Pratincole","spGlareocu",
"Collared Pratincole","spGlarepra",
"Black-winged Pratincole","spGlarenor","rarity"
"Long-tailed Jaeger","spSterclon","rarity"
"Parasitic Jaeger","spStercpar","rarity"
"Pomarine Jaeger","spStercpom",
"Brown Skua","spStercant","rarity"
"Sabine's Gull","spXemasab","rarity"
"Slender-billed Gull","spChroigen",
"Black-headed Gull","spChroirid",
"Gray-hooded Gull","spChroicir",
"Pallas's Gull","spIchthich",
"Sooty Gull","spIchthhem",
"White-eyed Gull","spIchthleu","rarity"
"Common Gull","spLaruscan","rarity"
"Kelp Gull","spLarusdom","rarity"
"Lesser Black-backed Gull","spLarusfus",
"African Skimmer","spRynchfla",
"Brown Noddy","spAnoussto",
"Lesser Noddy","spAnousten","rarity"
"Sooty Tern","spOnychfus",
"Bridled Tern","spOnychana",
"Little Tern","spStern1alb","rarity"
"Saunders's Tern","spStern1sau",
"Gull-billed Tern","spGelocnil",
"Caspian Tern","spHydro4cas",
"Whiskered Tern","spChlidhyb",
"Black Tern","spChlidnig","rarity"
"White-winged Tern","spChlidleu",
"Arctic Tern","spStern2par","rarity"
"Common Tern","spStern2hir1",
"White-cheeked Tern","spStern2rep",
"Roseate Tern","spStern2dou",
"Sandwich Tern","spThala1san",
"Lesser Crested Tern","spThala1ben",
"Great Crested Tern","spThala1ber",
"Greater Flamingo","spPhoenros",
"Lesser Flamingo","spPhoen1min",
"Little Grebe","spTachy2ruf1",
"Great Crested Grebe","spPodic1cri",
"Eared Grebe","spPodic1nig",
"White-tailed Tropicbird","spPhaet2lep",
"Red-tailed Tropicbird","spPhaet2rub","rarity"
"White-capped Albatross","spThala2cau","rarity"
"Black-browed Albatross","spThala2mel","rarity"
"Wilson's Storm-Petrel","spOceanoce",
"Black-bellied Storm-Petrel","spFregetro","rarity"
"Leach's Storm-Petrel","spHydro5leu","rarity"
"Matsudaira's Storm-Petrel","spHydro5mat","rarity"
"Southern Giant-Petrel","spMacro3gig","rarity"
"Pintado Petrel","spDapticap","rarity"
"Antarctic Prion","spPachy1des","rarity"
"Slender-billed Prion","spPachy1bel","rarity"
"Jouanin's Petrel","spBulwefal","rarity"
"White-chinned Petrel","spProceaeq","rarity"
"Wedge-tailed Shearwater","spArdenpac","rarity"
"Sooty Shearwater","spArdengri","rarity"
"Tropical Shearwater","spPuffibai",
"Persian Shearwater","spPuffiper","rarity"
"African Openbill","spAnastlam",
"Black Stork","spCiconnig",
"Abdim's Stork","spCiconabd",
"African Woolly-necked Stork","spCiconmic",
"White Stork","spCiconcic",
"Saddle-billed Stork","spEphipsen",
"Marabou Stork","spLepto2cru",
"Yellow-billed Stork","spMycteibi",
"Lesser Frigatebird","spFregaari","rarity"
"Great Frigatebird","spFregamin","rarity"
"Christmas Island Frigatebird","spFregaand","rarity"
"Red-footed Booby","spSulasul","rarity"
"Brown Booby","spSulaleu",
"Masked Booby","spSuladac",
"African Darter","spAnhinruf",
"Reed Cormorant","spMicro5afr",
"Great Cormorant","spPhala2car",
"Glossy Ibis","spPlegafal",
"African Sacred Ibis","spThresaet",
"Olive Ibis","spBostroli",
"Hadada Ibis","spBostrhag",
"Eurasian Spoonbill","spPlataleu",
"African Spoonbill","spPlataalb",
"Eurasian Bittern","spBotauste","rarity"
"Dwarf Bittern","spBotaustu",
"Little Bittern","spBotaumin",
"Black-crowned Night Heron","spNycti6nyc",
"Black Heron","spEgretard",
"Little Egret","spEgretgar",
"Western Reef-Heron","spEgretgul",
"White-backed Night Heron","spCalheleu",
"Striated Heron","spButorstr",
"Rufous-bellied Heron","spArdeo1ruf",
"Squacco Heron","spArdeo1ral",
"Malagasy Pond-Heron","spArdeo1ida",
"Western Cattle-Egret","spArdeaibi",
"Great Egret","spArdeaalb",
"Yellow-billed Egret","spArdeabra",
"Gray Heron","spArdeacin",
"Purple Heron","spArdeapur",
"Black-headed Heron","spArdeamel",
"Goliath Heron","spArdeagol",
"Hamerkop","spScopuumb",
"Shoebill","spBalaerex","rarity"
"Great White Pelican","spPelec1ono",
"Pink-backed Pelican","spPelec1ruf",
"Secretarybird","spSagitser",
"Osprey","spPandihal",
"Scissor-tailed Kite","spChelirio",
"Black-winged Kite","spElanucae",
"African Harrier-Hawk","spPolybtyp",
"Palm-nut Vulture","spGypohang",
"Bearded Vulture","spGypaebar",
"Egyptian Vulture","spNeophper",
"African Cuckoo-Hawk","spAvicecuc",
"European Honey-buzzard","spPerniapi",
"Oriental Honey-buzzard","spPernipti","rarity"
"White-headed Vulture","spTrigoocc",
"Lappet-faced Vulture","spTorgotra",
"Hooded Vulture","spNecromon",
"White-backed Vulture","spGypsafr",
"Rüppell's Griffon","spGypsrue",
"Eurasian Griffon","spGypsful","rarity"
"Bateleur","spTerateca",
"Western Banded Snake-Eagle","spCircacin",
"Southern Banded Snake-Eagle","spCircafas",
"Beaudouin's Snake-Eagle","spCircabea",
"Black-chested Snake-Eagle","spCircapec",
"Short-toed Snake-Eagle","spCircagal","rarity"
"Brown Snake-Eagle","spCircacin1",
"Crowned Eagle","spSteph1cor",
"Martial Eagle","spPolembel",
"Long-crested Eagle","spLophaocc",
"Lesser Spotted Eagle","spClang1pom",
"Greater Spotted Eagle","spClang1cla",
"Wahlberg's Eagle","spHierawah",
"Ayres's Hawk-Eagle","spHieraayr",
"Booted Eagle","spHierapen",
"Steppe Eagle","spAquilnip",
"Imperial Eagle","spAquilhel",
"Tawny Eagle","spAquilrap",
"Cassin's Hawk-Eagle","spAquilafr","rarity"
"Verreaux's Eagle","spAquilver",
"African Hawk-Eagle","spAquilspi",
"Bat Hawk","spMachealc",
"Gabar Goshawk","spMicro6gab",
"Dark Chanting-Goshawk","spMeliemet",
"Eastern Chanting-Goshawk","spMeliepol",
"Lizard Buzzard","spKaupimon",
"African Goshawk","spAerostac",
"Little Sparrowhawk","spTachy3min",
"Shikra","spTachy3bad",
"Levant Sparrowhawk","spTachy3bre","rarity"
"Ovambo Sparrowhawk","spAccipova",
"Eurasian Sparrowhawk","spAccipnis","rarity"
"Rufous-breasted Sparrowhawk","spAccipruf",
"Black Goshawk","spAsturmel",
"Western Marsh Harrier","spCircuaer",
"African Marsh Harrier","spCircuran",
"Pallid Harrier","spCircumac1",
"Montagu's Harrier","spCircupyg",
"Black Kite","spMilvumig",
"African Fish-Eagle","spIcthyvoc",
"Grasshopper Buzzard","spButasruf",
"Augur Buzzard","spButeo1aug1",
"Mountain Buzzard","spButeo1ore",
"Common Buzzard","spButeo1but",
"Long-legged Buzzard","spButeo1ruf1",
"African Grass-Owl","spTytocap",
"Western Barn Owl","spTytoalb",
"Sokoke Scops-Owl","spOtusire",
"Eurasian Scops-Owl","spOtussco",
"African Scops-Owl","spOtussen",
"Northern White-faced Owl","spPtilo1leu",
"Southern White-faced Owl","spPtilo1gra",
"Grayish Eagle-Owl","spBubocin",
"Spotted Eagle-Owl","spBuboafr",
"Cape Eagle-Owl","spBubocap",
"Verreaux's Eagle-Owl","spKetuplac",
"Pel's Fishing-Owl","spScotopel",
"Pearl-spotted Owlet","spGlauc1per",
"Red-chested Owlet","spGlauc1tep",
"African Barred Owlet","spGlauc1cap",
"African Wood-Owl","spStrixwoo",
"Abyssinian Owl","spAsioaby","rarity"
"Short-eared Owl","spAsiofla","rarity"
"Marsh Owl","spAsiocap",
"Speckled Mousebird","spColiustr",
"White-headed Mousebird","spColiuleu",
"Blue-naped Mousebird","spUrocomac",
"Narina Trogon","spApalonar",
"Bar-tailed Trogon","spApalovit",
"Eurasian Hoopoe","spUpupaepo",
"Green Woodhoopoe","spPhoen3pur",
"Violet Woodhoopoe","spPhoen3dam",
"Black-billed Woodhoopoe","spPhoen3som",
"White-headed Woodhoopoe","spPhoen3bol",
"Forest Scimitarbill","spRhino2cas","rarity"
"Common Scimitarbill","spRhino2cya",
"Abyssinian Scimitarbill","spRhino2min",
"Abyssinian Ground-Hornbill","spBucoraby",
"Southern Ground-Hornbill","spBucorlea",
"Crowned Hornbill","spLopho11alb",
"Hemprich's Hornbill","spLopho11hem",
"African Gray Hornbill","spLopho11nas",
"Eastern Yellow-billed Hornbill","spTockufla",
"Jackson's Hornbill","spTockujac",
"Von der Decken's Hornbill","spTockudec",
"Northern Red-billed Hornbill","spTockuery",
"Silvery-cheeked Hornbill","spBycanbre",
"Black-and-white-casqued Hornbill","spBycansub",
"Trumpeter Hornbill","spBycanbuc",
"Blue-headed Bee-eater","spMerop1mue",
"White-fronted Bee-eater","spMerop1bul1",
"Little Bee-eater","spMerop1pus",
"Blue-breasted Bee-eater","spMerop1var",
"Ethiopian Bee-eater","spMerop1laf","rarity"
"Cinnamon-chested Bee-eater","spMerop1ore",
"Swallow-tailed Bee-eater","spMerop1hir","rarity"
"Somali Bee-eater","spMerop1rev",
"White-throated Bee-eater","spMerop1alb",
"Blue-cheeked Bee-eater","spMerop1per",
"Olive Bee-eater","spMerop1sup",
"European Bee-eater","spMerop1api",
"Northern Carmine Bee-eater","spMerop1nub",
"Southern Carmine Bee-eater","spMerop1nub1","rarity"
"Half-collared Kingfisher","spAlcedsem",
"Shining-blue Kingfisher","spAlcedqua",
"Malachite Kingfisher","spCoryt1cri",
"African Pygmy Kingfisher","spIspidpic",
"Gray-headed Kingfisher","spHalcyleu",
"Woodland Kingfisher","spHalcysen",
"Mangrove Kingfisher","spHalcysen1",
"Blue-breasted Kingfisher","spHalcymal","rarity"
"Brown-hooded Kingfisher","spHalcyalb",
"Striped Kingfisher","spHalcyche",
"Giant Kingfisher","spMegac1max",
"Pied Kingfisher","spCerylrud",
"European Roller","spCoracgar",
"Abyssinian Roller","spCoracaby",
"Lilac-breasted Roller","spCoraccau",
"Racket-tailed Roller","spCoracspa","rarity"
"Purple Roller","spCoracnae",
"Broad-billed Roller","spEurysgla",
"Eastern Yellow-billed Barbet","spTrachpur",
"Red-and-yellow Barbet","spTrach1ery",
"D'Arnaud's Barbet","spTrach1dar",
"Green Barbet","spCrypt3oli",
"Gray-throated Barbet","spGymno3bon",
"White-eared Barbet","spStactleu",
"Speckled Tinkerbird","spPogonsco","rarity"
"Green Tinkerbird","spPogonsim",
"Moustached Tinkerbird","spPogonleu",
"Yellow-rumped Tinkerbird","spPogonbil",
"Northern Red-fronted Tinkerbird","spPogonuro",
"Yellow-fronted Tinkerbird","spPogonchr",
"Yellow-spotted Barbet","spBuccaduc",
"Hairy-breasted Barbet","spTrichhir",
"Red-fronted Barbet","spTrichdia",
"Spot-flanked Barbet","spTrichlac",
"Black-throated Barbet","spTrichmel",
"White-headed Barbet","spLybiuleu",
"Black-billed Barbet","spLybiugui",
"Black-collared Barbet","spLybiutor",
"Brown-breasted Barbet","spPogon1mel",
"Double-toothed Barbet","spPogon1bid",
"Cassin's Honeybird","spProdoins",
"Green-backed Honeybird","spProdozam",
"Brown-backed Honeybird","spProdoreg",
"Pallid Honeyguide","spIndicmel",
"Least Honeyguide","spIndicexi",
"Lesser Honeyguide","spIndicmin",
"Scaly-throated Honeyguide","spIndicvar",
"Greater Honeyguide","spIndicind",
"Eurasian Wryneck","spJynxtor",
"Red-throated Wryneck","spJynxruf",
"Golden-crowned Woodpecker","spChlor3xan",
"Bearded Woodpecker","spChlor3nam",
"Speckle-breasted Woodpecker","spDendr4poe",
"Cardinal Woodpecker","spDendr4fus",
"Brown-backed Woodpecker","spDendr4obs",
"African Gray Woodpecker","spDendr4goe",
"Mountain Gray Woodpecker","spDendr4spo",
"Brown-eared Woodpecker","spPardi1car",
"Buff-spotted Woodpecker","spPardi1niv",
"Fine-banded Woodpecker","spCampe1tae",
"Green-backed Woodpecker","spCampe1mac",
"Nubian Woodpecker","spCampe1nub",
"Golden-tailed Woodpecker","spCampe1abi",
"Mombasa Woodpecker","spCampe1mom",
"Pygmy Falcon","spPolihsem",
"Lesser Kestrel","spFalconau",
"Eurasian Kestrel","spFalcotin",
"Greater Kestrel","spFalcorup1",
"Fox Kestrel","spFalcoalo",
"Gray Kestrel","spFalcoard",
"Dickinson's Kestrel","spFalcodic",
"Red-necked Falcon","spFalcochi",
"Red-footed Falcon","spFalcoves",
"Amur Falcon","spFalcoamu",
"Eleonora's Falcon","spFalcoele",
"Sooty Falcon","spFalcocon",
"Eurasian Hobby","spFalcosub",
"African Hobby","spFalcocuv",
"Lanner Falcon","spFalcobia",
"Saker Falcon","spFalcoche",
"Peregrine Falcon","spFalcoper",
"Taita Falcon","spFalcofas",
"Red-headed Lovebird","spAgapopul",
"Fischer's Lovebird","spAgapofis","introduced"
"Yellow-collared Lovebird","spAgapoper","introduced"
"Gray Parrot","spPsitt5eri",
"Red-fronted Parrot","spPoicegul",
"Meyer's Parrot","spPoicemey",
"Brown-headed Parrot","spPoicecry",
"Red-bellied Parrot","spPoiceruf",
"African Broadbill","spSmithcap",
"African Pitta","spPittaang",
"Gray Cuckooshrike","spCeblecae",
"White-breasted Cuckooshrike","spCeblepec",
"Black Cuckooshrike","spCampe2fla",
"Petit's Cuckooshrike","spCampe2pet",
"Red-shouldered Cuckooshrike","spCampe2pho",
"Purple-throated Cuckooshrike","spCampe2qui",
"Eurasian Golden Oriole","spOriolori",
"African Golden Oriole","spOriolaur",
"Green-headed Oriole","spOriolchl",
"Western Black-headed Oriole","spOriolbra",
"African Black-headed Oriole","spOriollar",
"Black-tailed Oriole","spOriolper",
"Chestnut Wattle-eye","spDyaphcas",
"Brown-throated Wattle-eye","spPlaty2cya",
"Black-throated Wattle-eye","spPlaty2pel",
"Jameson's Wattle-eye","spPlaty2jam",
"Yellow-bellied Wattle-eye","spPlaty2con",
"Short-tailed Batis","spBatismix",
"Chinspot Batis","spBatismol",
"Pale Batis","spBatissor",
"Gray-headed Batis","spBatisori",
"Western Black-headed Batis","spBatiserl",
"Eastern Black-headed Batis","spBatismin",
"Pygmy Batis","spBatisper",
"White-crested Helmetshrike","spPrion2plu",
"Gray-crested Helmetshrike","spPrion2pol",
"Retz's Helmetshrike","spPrion2ret",
"Chestnut-fronted Helmetshrike","spPrion2sco",
"African Shrike-flycatcher","spMegabfla",
"Black-and-white Shrike-flycatcher","spBiasmus",
"Brubru","spNilauafe",
"Northern Puffback","spDryosgam",
"Pringle's Puffback","spDryospri",
"Black-backed Puffback","spDryoscub",
"Pink-footed Puffback","spDryosang",
"Marsh Tchagra","spBocagmin",
"Black-crowned Tchagra","spTchagsen",
"Brown-crowned Tchagra","spTchagaus",
"Three-streaked Tchagra","spTchagjam",
"Red-naped Bushshrike","spLaniaruf",
"Coastal Boubou","spLanianig",
"Lühder's Bushshrike","spLanialue",
"Ethiopian Boubou","spLaniaaet",
"Tropical Boubou","spLaniamaj",
"Zanzibar Boubou","spLaniasub",
"Black-headed Gonolek","spLaniaery",
"Papyrus Gonolek","spLaniamuf",
"Slate-colored Boubou","spLaniafun",
"Lowland Sooty Boubou","spLanialeu","rarity"
"Rosy-patched Bushshrike","spRhodo3cru",
"Four-colored Bushshrike","spTelopvir",
"Doherty's Bushshrike","spTelopdoh",
"Gray-green Bushshrike","spChlor5boc",
"Sulphur-breasted Bushshrike","spChlor5sul",
"Black-fronted Bushshrike","spChlor5nig",
"Gray-headed Bushshrike","spMalac2bla",
"Sharpe's Drongo","spDicrusha",
"Square-tailed Drongo","spDicrulud",
"Fork-tailed Drongo","spDicruads",
"Velvet-mantled Drongo","spDicrumod",
"African Crested Flycatcher","spTroch1cya",
"Black-headed Paradise-Flycatcher","spTerpsruf",
"African Paradise-Flycatcher","spTerpsvir",
"Yellow-billed Shrike","spCorvicor",
"Magpie Shrike","spUrolemel",
"Red-backed Shrike","spLaniucol",
"Red-tailed Shrike","spLaniupho",
"Isabelline Shrike","spLaniuisa",
"Great Gray Shrike","spLaniuexc","rarity"
"Lesser Gray Shrike","spLaniumin",
"Gray-backed Fiscal","spLaniuexc1",
"Long-tailed Fiscal","spLaniucab",
"Taita Fiscal","spLaniudor",
"Somali Fiscal","spLaniusom",
"Mackinnon's Shrike","spLaniumac",
"Northern Fiscal","spLaniuhum",
"Masked Shrike","spLaniunub","rarity"
"Woodchat Shrike","spLaniusen",
"White-rumped Shrike","spEurocrup",
"Piapiac","spPtilo7afe",
"House Crow","spCorvuspl","introduced"
"Cape Crow","spCorvucap",
"Pied Crow","spCorvualb",
"Brown-necked Raven","spCorvuruf",
"Somali Crow","spCorvuedi",
"Fan-tailed Raven","spCorvurhi",
"White-necked Raven","spCorvualb1",
"Yellow-bellied Hyliota","spHyliofla",
"Southern Hyliota","spHylioaus",
"African Blue Flycatcher","spElminlon",
"Dusky Crested Flycatcher","spElminnig",
"White-tailed Crested Flycatcher","spElminalb2",
"White-shouldered Black-Tit","spMelan8gui",
"White-bellied Tit","spMelan8alb",
"Dusky Tit","spMelan8fun",
"Somali Tit","spMelan8thr",
"Red-throated Tit","spMelan8fri",
"Mouse-colored Penduline-Tit","spAntho3mus",
"African Penduline-Tit","spAntho3car",
"Chestnut-backed Sparrow-Lark","spEremoleu",
"Chestnut-headed Sparrow-Lark","spEremosig",
"Fischer's Sparrow-Lark","spEremoleu1",
"Gillett's Lark","spCalengil","rarity"
"Pink-breasted Lark","spCalenpoe",
"Fawn-colored Lark","spCalenafr",
"Williams's Lark","spMirafwil","endemic"
"Friedmann's Lark","spMirafpul",
"White-tailed Lark","spMirafalb",
"Melodious Lark","spMirafche",
"Singing Bushlark","spMirafjav",
"Collared Lark","spAmiracol",
"Flappet Lark","spAmiraruf",
"Rufous-naped Lark","spCoryp1afr",
"Sentinel Lark","spCoryp1ath",
"Red-winged Lark","spCoryp1hyp",
"Kidepo Lark","spCoryp1kid",
"Masked Lark","spSpizoper",
"Short-tailed Lark","spSpizofre",
"Thekla's Lark","spGalerthe",
"Crested Lark","spGalercri",
"Greater Short-toed Lark","spCalanbra","rarity"
"Red-capped Lark","spCalancin",
"Somali Short-toed Lark","spAlaud1som",
"Eastern Nicator","spNicatgul",
"Green Crombec","spSylvi2vir",
"White-browed Crombec","spSylvi2leu",
"Northern Crombec","spSylvi2bra",
"Red-faced Crombec","spSylvi2why",
"Somali Crombec","spSylvi2isa",
"Moustached Grass-Warbler","spMelocmen",
"Yellow-vented Eremomela","spEremo2fla",
"Yellow-bellied Eremomela","spEremo2ict",
"Green-backed Eremomela","spEremo2can",
"Green-capped Eremomela","spEremo2sco",
"Turner's Eremomela","spEremo2tur",
"White-chinned Prinia","spSchis1leu",
"Black-collared Apalis","spOreolpul",
"Miombo Wren-Warbler","spCalam1und",
"Gray Wren-Warbler","spCalam1sim",
"Green-backed Camaroptera","spCamarbra",
"Olive-green Camaroptera","spCamarchl",
"Cricket Longtail","spSpilo2cla",
"Buff-bellied Warbler","spPhyll3pul",
"Bar-throated Apalis","spApalitho",
"Taita Apalis","spApalifus","endemic"
"Black-throated Apalis","spApalijac",
"White-winged Apalis","spApalicha","rarity"
"Yellow-breasted Apalis","spApalifla1",
"Buff-throated Apalis","spApaliruf",
"Chestnut-throated Apalis","spApalipor",
"Black-headed Apalis","spApalimel",
"Gray Apalis","spApalicin",
"Brown-headed Apalis","spApalialt",
"Maasai Apalis","spApalistr",
"Tawny-flanked Prinia","spPrinisub",
"Pale Prinia","spPrinisom",
"River Prinia","spPriniflu","rarity"
"Banded Prinia","spPrinibai",
"Red-winged Prinia","spPriniery",
"Red-fronted Prinia","spPriniruf1",
"Black-faced Rufous-Warbler","spBathmruf",
"Gray-capped Warbler","spEminilep",
"Red-faced Cisticola","spCistiery",
"Singing Cisticola","spCistican",
"Whistling Cisticola","spCistilat",
"Trilling Cisticola","spCistiwoo",
"Chubb's Cisticola","spCistichu",
"Hunter's Cisticola","spCistihun",
"Rock-loving Cisticola","spCistiabe",
"Boran Cisticola","spCistibod",
"Rattling Cisticola","spCistichi",
"Ashy Cisticola","spCisticin",
"Red-pate Cisticola","spCistiruf",
"Lynes's Cisticola","spCistidis",
"Tana River Cisticola","spCistires","endemic"
"Coastal Cisticola","spCistihae",
"Winding Cisticola","spCistimar",
"Carruthers's Cisticola","spCisticar",
"Levaillant's Cisticola","spCistitin",
"Stout Cisticola","spCistirob",
"Croaking Cisticola","spCistinat",
"Aberdare Cisticola","spCistiabe1","endemic"
"Tabora Cisticola","spCistiang",
"Siffling Cisticola","spCistibra",
"Foxy Cisticola","spCistitro",
"Tiny Cisticola","spCistinan",
"Zitting Cisticola","spCistijun",
"Desert Cisticola","spCistiari",
"Black-backed Cisticola","spCistiexi",
"Pectoral-patch Cisticola","spCistibru",
"Wing-snapping Cisticola","spCistiayr",
"Papyrus Yellow-Warbler","spCalam2gra",
"Eastern Olivaceous Warbler","spIdunapal",
"African Yellow-Warbler","spIdunanat",
"Mountain Yellow-Warbler","spIdunasim",
"Upcher's Warbler","spHippolan",
"Olive-tree Warbler","spHippooli",
"Melodious Warbler","spHippopol","rarity"
"Icterine Warbler","spHippoict",
"Sedge Warbler","spAcroc1sch",
"Marsh Warbler","spAcroc1pal1",
"Common Reed Warbler","spAcroc1sci",
"Basra Reed Warbler","spAcroc1gri",
"Lesser Swamp Warbler","spAcroc1gra",
"Greater Swamp Warbler","spAcroc1ruf",
"Great Reed Warbler","spAcroc1aru",
"River Warbler","spLocusflu",
"Savi's Warbler","spLocuslus","rarity"
"Common Grasshopper Warbler","spLocusnae","rarity"
"Fan-tailed Grassbird","spCatribre",
"Evergreen-forest Warbler","spBradylop",
"Cinnamon Bracken-Warbler","spBradycin",
"Little Rush Warbler","spBradybab",
"White-winged Swamp Warbler","spBradycar",
"Highland Rush Warbler","spBradycen",
"White-headed Sawwing","spPsalialb",
"Black Sawwing","spPsalipri",
"Gray-rumped Swallow","spPseud15gri",
"Mascarene Martin","spPhedibor","rarity"
"Banded Martin","spNeoph3cin",
"Plain Martin","spRiparpal",
"Bank Swallow","spRiparrip",
"Ethiopian Martin (undescribed form)","spRipar[un",
"Red-throated Crag-Martin","spPtyonruf",
"Montane Blue Swallow","spHirun2atr",
"Barn Swallow","spHirun2rus",
"Ethiopian Swallow","spHirun2aet",
"Angola Swallow","spHirun2ang",
"Wire-tailed Swallow","spHirun2smi",
"Western House-Martin","spDelicurb",
"European Red-rumped Swallow","spCecroruf",
"African Red-rumped Swallow","spCecromel",
"Lesser Striped Swallow","spCecroaby",
"Rufous-chested Swallow","spCecrosem",
"Mosque Swallow","spCecrosen",
"South African Swallow","spPetro2spi","rarity"
"Sombre Greenbul","spAndro2imp",
"Slender-billed Greenbul","spStelg1gra",
"Red-tailed Bristlebill","spBledasyn",
"Pale-throated Greenbul","spAtimafla1",
"Joyful Greenbul","spChlor6lae",
"Yellow-bellied Greenbul","spChlor6fla",
"Honeyguide Greenbul","spBaeopind",
"Shelley's Greenbul","spArizemas",
"Kikuyu Mountain Greenbul","spArizekik",
"Black-headed Mountain Greenbul","spArizenig",
"Olive-headed Greenbul","spArizestr",
"Little Greenbul","spEurilvir",
"Yellow-whiskered Greenbul","spEurillat",
"Plain Greenbul","spEurilcur",
"Gray Greenbul","spEurilgra",
"Ansorge's Greenbul","spEurilans",
"Tiny Greenbul","spPhyll4deb",
"Yellow-streaked Greenbul","spPhyll4fla","rarity"
"Terrestrial Brownbul","spPhyll4ter",
"Northern Brownbul","spPhyll4str",
"Gray-olive Greenbul","spPhyll4cer",
"Fischer's Greenbul","spPhyll4fis",
"Cabanis's Greenbul","spPhyll4cab",
"Toro Olive-Greenbul","spPhyll4hyp",
"Common Bulbul","spPycno2bar",
"Wood Warbler","spPhyll5sib",
"Willow Warbler","spPhyll5tro",
"Common Chiffchaff","spPhyll5col",
"Brown Woodland-Warbler","spPhyll5umb",
"Yellow-throated Woodland-Warbler","spPhyll5ruf",
"Uganda Woodland-Warbler","spPhyll5bud",
"Green Hylia","spHyliapra",
"Yellow Flycatcher","spEryth4hol",
"Eurasian Blackcap","spSylvi3atr",
"Garden Warbler","spSylvi3bor",
"African Hill Babbler","spSylvi3aby",
"Barred Warbler","spCurrunis",
"Banded Parisoma","spCurruboe",
"Lesser Whitethroat","spCurrucur","rarity"
"Brown Parisoma","spCurrulug",
"Greater Whitethroat","spCurrucom",
"Pale White-eye","spZoste1fla",
"Mbulu White-eye","spZoste1mbu",
"Kilimanjaro White-eye","spZoste1eur",
"Kafa White-eye","spZoste1kaf",
"Kikuyu White-eye","spZoste1kik","endemic"
"Taita White-eye","spZoste1sil","endemic"
"Northern Yellow White-eye","spZoste1sen",
"Brown Illadopsis","spIlladful",
"Pale-breasted Illadopsis","spIlladruf",
"Tanzanian Illadopsis","spIlladdis",
"Mountain Illadopsis","spIlladpyr",
"Scaly-breasted Illadopsis","spIlladalb",
"Rufous Chatterer","spArgyarub",
"Scaly Chatterer","spArgyaayl",
"Brown Babbler","spTurdople",
"Hinde's Pied-Babbler","spTurdohin","endemic"
"Scaly Babbler","spTurdosqu",
"Arrow-marked Babbler","spTurdojar",
"Black-lored Babbler","spTurdosha",
"Northern Pied-Babbler","spTurdohyp",
"African Spotted Creeper","spSalposal",
"Red-billed Oxpecker","spBuphaery",
"Yellow-billed Oxpecker","spBuphaafr",
"Wattled Starling","spCreatcin",
"Rosy Starling","spPastoros","rarity"
"Violet-backed Starling","spCinny1leu",
"Slender-billed Starling","spOnych2ten",
"Red-winged Starling","spOnych2mor",
"Waller's Starling","spOnych2wal",
"Bristle-crowned Starling","spOnych2sal",
"Magpie Starling","spSpecu1bic",
"Sharpe's Starling","spPholi1sha",
"Abbott's Starling","spArize1fem",
"Stuhlmann's Starling","spPoeopstu",
"Kenrick's Starling","spPoeopken",
"Black-bellied Starling","spNotopcor",
"Hildebrandt's Starling","spLampr2hil",
"Shelley's Starling","spLampr2she",
"Rüppell's Starling","spLampr2pur",
"Splendid Starling","spLampr2spl",
"Golden-breasted Starling","spLampr2reg",
"Superb Starling","spLampr2sup",
"White-crowned Starling","spLampr2alb",
"Fischer's Starling","spLampr2fis",
"Lesser Blue-eared Starling","spLampr2chl",
"Greater Blue-eared Starling","spLampr2cha",
"Purple Starling","spLampr2pur1",
"Bronze-tailed Starling","spLampr2cha1",
"Red-tailed Ant-Thrush","spNeocoruf",
"White-tailed Ant-Thrush","spNeocopoe",
"Spotted Ground-Thrush","spGeokigut",
"Abyssinian Ground-Thrush","spGeokipia",
"Orange Ground-Thrush","spGeokigur",
"African Bare-eyed Thrush","spTurdutep",
"Abyssinian Thrush","spTurduaby",
"Taita Thrush","spTurduhel","endemic"
"African Thrush","spTurdupel",
"African Dusky Flycatcher","spMusci3adu",
"Spotted Flycatcher","spMusci3str",
"Gambaga Flycatcher","spMusci3gam",
"Swamp Flycatcher","spMusci3aqu",
"African Gray Flycatcher","spBradomic",
"Pale Flycatcher","spAgricpal",
"Gray Tit-Flycatcher","spFraseplu",
"Chapin's Flycatcher","spFraselen",
"Ashy Flycatcher","spFrasecae",
"Silverbird","spEmpid2sem",
"Northern Black-Flycatcher","spMelaeedo",
"Southern Black-Flycatcher","spMelaepam",
"White-eyed Slaty-Flycatcher","spMelaefis",
"Bearded Scrub-Robin","spTychaqua",
"Rufous-tailed Scrub-Robin","spCerco3gal",
"Brown-backed Scrub-Robin","spCerco3har",
"White-browed Scrub-Robin","spCerco3leu",
"Cape Robin-Chat","spDessocaf",
"Blue-shouldered Robin-Chat","spCossy1cya",
"Rüppell's Robin-Chat","spCossy1sem",
"White-browed Robin-Chat","spCossy1heu",
"Red-capped Robin-Chat","spCossy1nat",
"Snowy-crowned Robin-Chat","spCossy1niv",
"Collared Palm-Thrush","spCichl2arq",
"Spotted Morning-Thrush","spCichl2gut",
"White-starred Robin","spPogon3ste",
"Brown-chested Alethe","spChama3pol",
"Yellow-breasted Forest Robin","spStiphmab",
"Gray-winged Robin-Chat","spShepppol",
"Equatorial Akalat","spSheppaeq",
"East Coast Akalat","spSheppgun",
"White-throated Robin","spIranigut",
"Thrush Nightingale","spLuscilus",
"Common Nightingale","spLuscimeg",
"Semicollared Flycatcher","spFicedsem",
"European Pied Flycatcher","spFicedhyp1","rarity"
"Collared Flycatcher","spFicedalb1","rarity"
"Common Redstart","spPhoen5pho",
"Little Rock-Thrush","spMontiruf",
"Rufous-tailed Rock-Thrush","spMontisax",
"Whinchat","spSaxicrub",
"African Stonechat","spSaxictor",
"Moorland Chat","spPinar2sor",
"Mocking Cliff-Chat","spThamn4cin",
"Sooty Chat","spMyrme2nig",
"Northern Anteater-Chat","spMyrme2aet",
"Arnot's Chat","spMyrme2arn","rarity"
"Northern Wheatear","spOenanoen",
"Capped Wheatear","spOenanpil",
"Isabelline Wheatear","spOenanisa",
"Heuglin's Wheatear","spOenanheu",
"Desert Wheatear","spOenandes","rarity"
"Eastern Black-eared Wheatear","spOenanmel","rarity"
"Pied Wheatear","spOenanple",
"Familiar Chat","spOenanfam",
"Brown-tailed Chat","spOenansco",
"Abyssinian Wheatear","spOenanlug1",
"Gray-chested Babbler","spKakampol",
"Plain-backed Sunbird","spAnthr3rei",
"Western Violet-backed Sunbird","spAnthr3lon",
"Eastern Violet-backed Sunbird","spAnthr3ori",
"Uluguru Violet-backed Sunbird","spAnthr3neg",
"Gray-chinned Sunbird","spAnthr3tep",
"Collared Sunbird","spHedydcol",
"Pygmy Sunbird","spHedydpla",
"Amani Sunbird","spHedydpal",
"Green-headed Sunbird","spCyano12ver",
"Olive Sunbird","spCyano12oli",
"Mouse-colored Sunbird","spCyano12ver1",
"Green-throated Sunbird","spChalc5rub",
"Amethyst Sunbird","spChalc5ame",
"Scarlet-chested Sunbird","spChalc5sen",
"Hunter's Sunbird","spChalc5hun",
"Tacazze Sunbird","spNectatac",
"Bronze Sunbird","spNectakil",
"Malachite Sunbird","spNectafam",
"Red-tufted Sunbird","spNectajoh",
"Golden-winged Sunbird","spDrepa2rei",
"Olive-bellied Sunbird","spCinny2chl",
"Northern Double-collared Sunbird","spCinny2rei",
"Eastern Double-collared Sunbird","spCinny2med",
"Usambara Double-collared Sunbird","spCinny2usa",
"Beautiful Sunbird","spCinny2pul",
"Gorgeous Sunbird","spCinny2mel",
"Marico Sunbird","spCinny2mar",
"Red-chested Sunbird","spCinny2ery",
"Black-bellied Sunbird","spCinny2nec",
"Purple-banded Sunbird","spCinny2bif",
"Tsavo Sunbird","spCinny2tsa",
"Violet-breasted Sunbird","spCinny2cha1",
"Orange-tufted Sunbird","spCinny2bou",
"Abyssinian Sunbird","spCinny2hab",
"Superb Sunbird","spCinny2sup",
"Variable Sunbird","spCinny2ven",
"Copper Sunbird","spCinny2cup",
"White-billed Buffalo-Weaver","spBubalalb",
"Red-billed Buffalo-Weaver","spBubalnig",
"White-headed Buffalo-Weaver","spDinemdin",
"Speckle-fronted Weaver","spSporofro",
"White-browed Sparrow-Weaver","spPloce1mah",
"Chestnut-crowned Sparrow-Weaver","spPloce1sup",
"Donaldson Smith's Sparrow-Weaver","spPloce1don",
"Rufous-tailed Weaver","spHisturuf","rarity"
"Gray-capped Social-Weaver","spPseud16arn",
"Black-capped Social-Weaver","spPseud16cab",
"Red-headed Malimbe","spMalimrub",
"Red-headed Weaver","spAnaplrub",
"Red Weaver","spAnapljub",
"Baglafecht Weaver","spPloce2bag",
"Little Weaver","spPloce2lut",
"Slender-billed Weaver","spPloce2pel",
"Black-necked Weaver","spPloce2nig1",
"Spectacled Weaver","spPloce2ocu",
"Black-billed Weaver","spPloce2mel",
"African Golden-Weaver","spPloce2sub1",
"Holub's Golden-Weaver","spPloce2xan",
"Orange Weaver","spPloce2aur","rarity"
"Golden Palm Weaver","spPloce2boj",
"Taveta Golden-Weaver","spPloce2cas",
"Northern Brown-throated Weaver","spPloce2cas1",
"Northern Masked-Weaver","spPloce2tae",
"Lesser Masked-Weaver","spPloce2int",
"Vitelline Masked-Weaver","spPloce2vit",
"Heuglin's Masked-Weaver","spPloce2heu",
"Rüppell's Weaver","spPloce2gal","rarity"
"Speke's Weaver","spPloce2spe",
"Vieillot's Black Weaver","spPloce2nig2",
"Village Weaver","spPloce2cuc",
"Weyns's Weaver","spPloce2wey","rarity"
"Kilifi Weaver","spPloce2gol","endemic"
"Juba Weaver","spPloce2dic",
"Black-headed Weaver","spPloce2mel1",
"Golden-backed Weaver","spPloce2jac",
"Chestnut Weaver","spPloce2rub",
"Yellow-mantled Weaver","spPloce2tri","rarity"
"Dark-backed Weaver","spPloce2bic",
"Brown-capped Weaver","spPloce2ins",
"Compact Weaver","spPachy8sup",
"Cardinal Quelea","spQuelecar",
"Red-headed Quelea","spQueleery",
"Red-billed Quelea","spQueleque",
"Northern Red Bishop","spEuplefra",
"Southern Red Bishop","spEupleori",
"Zanzibar Red Bishop","spEuplenig",
"Black-winged Bishop","spEuplehor",
"Black Bishop","spEuplegie",
"Yellow-crowned Bishop","spEupleafe",
"Fire-fronted Bishop","spEupledia",
"Yellow Bishop","spEuplecap",
"White-winged Widowbird","spEuplealb",
"Yellow-mantled Widowbird","spEuplemac",
"Red-cowled Widowbird","spEuplelat",
"Fan-tailed Widowbird","spEupleaxi",
"Marsh Widowbird","spEuplehar",
"Long-tailed Widowbird","spEuplepro",
"Jackson's Widowbird","spEuplejac",
"Grosbeak Weaver","spAmbly1alb",
"Gray-headed Silverbill","spSpermgri",
"Bronze Mannikin","spSpermcuc",
"Magpie Mannikin","spSpermfri","rarity"
"Black-and-white Mannikin","spSpermbic",
"African Silverbill","spEuodican",
"Yellow-bellied Waxbill","spCoccoqua",
"Green-backed Twinspot","spMandinit",
"Abyssinian Crimsonwing","spCrypt9sal",
"White-breasted Nigrita","spNigrifus",
"Gray-headed Nigrita","spNigrican",
"Black-faced Waxbill","spBrunhery",
"Black-cheeked Waxbill","spBrunhcha",
"Black-crowned Waxbill","spEstrinon",
"Kandt's Waxbill","spEstrikan",
"Fawn-breasted Waxbill","spEstripal",
"Common Waxbill","spEstriast",
"Black-rumped Waxbill","spEstritro",
"Crimson-rumped Waxbill","spEstrirho",
"Quailfinch","spOrtyg1atr",
"Locustfinch","spPaludloc",
"Cut-throat","spAmadifas",
"Zebra Waxbill","spAmandsub",
"Purple Grenadier","spGranaian",
"Red-cheeked Cordonbleu","spUraegben",
"Blue-capped Cordonbleu","spUraegcya",
"Red-headed Bluebill","spSperm1ruf",
"Black-bellied Seedcracker","spPyrenost",
"Green-winged Pytilia","spPytilmel",
"Orange-winged Pytilia","spPytilafr",
"Red-throated Twinspot","spHyparniv",
"Brown Twinspot","spClyto3mon",
"Red-billed Firefinch","spLagonsen",
"African Firefinch","spLagonrub",
"Jameson's Firefinch","spLagonrho",
"Black-bellied Firefinch","spLagonrar",
"Bar-breasted Firefinch","spLagonruf",
"Pin-tailed Whydah","spViduamac",
"Broad-tailed Paradise-Whydah","spViduaobt","rarity"
"Eastern Paradise-Whydah","spViduapar",
"Steel-blue Whydah","spViduahyp",
"Straw-tailed Whydah","spViduafis",
"Village Indigobird","spViduacha",
"Dusky Indigobird","spViduafun","rarity"
"Purple Indigobird","spViduapur",
"Parasitic Weaver","spAnomaimb",
"House Sparrow","spPassedom","introduced"
"Somali Sparrow","spPassecas",
"Kenya Rufous Sparrow","spPasseruf",
"Shelley's Rufous Sparrow","spPasseshe",
"Northern Gray-headed Sparrow","spPassegri",
"Swainson's Sparrow","spPasseswa",
"Parrot-billed Sparrow","spPassegon",
"Swahili Sparrow","spPassesua",
"Chestnut Sparrow","spPasseemi",
"Yellow-spotted Bush Sparrow","spGymno10pyr",
"Cape Wagtail","spMotaccap",
"Mountain Wagtail","spMotaccla",
"Gray Wagtail","spMotaccin",
"Western Yellow Wagtail","spMotacfla1",
"African Pied Wagtail","spMotacagu",
"White Wagtail","spMotacalb",
"African Pipit","spAnthucin",
"Long-billed Pipit","spAnthusim",
"Tawny Pipit","spAnthucam",
"Plain-backed Pipit","spAnthuleu",
"Malindi Pipit","spAnthumel",
"Striped Pipit","spAnthulin",
"Tree Pipit","spAnthutri",
"Red-throated Pipit","spAnthucer",
"Bush Pipit","spAnthucaf",
"Sokoke Pipit","spAnthusok",
"Golden Pipit","spTmetoten",
"Sharpe's Longclaw","spMacro6sha","endemic"
"Yellow-throated Longclaw","spMacro6cro",
"Pangani Longclaw","spMacro6aur",
"Rosy-throated Longclaw","spMacro6ame",
"Oriole Finch","spLinuroli",
"Yellow-fronted Canary","spCrithmoz",
"African Citril","spCrithcit",
"Western Citril","spCrithfro",
"Southern Citril","spCrithhyp",
"Papyrus Canary","spCrithkol",
"Black-throated Canary","spCrithatr",
"Reichenow's Seedeater","spCrithrei",
"White-bellied Canary","spCrithdor",
"Northern Grosbeak-Canary","spCrithdon",
"Southern Grosbeak-Canary","spCrithbuc",
"Brimstone Canary","spCrithsul",
"Streaky Seedeater","spCrithstr",
"Thick-billed Seedeater","spCrithbur",
"West African Seedeater","spCrithcan","rarity"
"Stripe-breasted Seedeater","spCrithstr1",
"Yellow-crowned Canary","spSerinfla",
"Brown-rumped Bunting","spEmberaff","rarity"
"Ortolan Bunting","spEmberhor","rarity"
"Golden-breasted Bunting","spEmberfla",
"Somali Bunting","spEmberpol",
"Cinnamon-breasted Bunting","spEmbertah",
"Striolated Bunting","spEmberstr",
