"Name","ID","Status"
"Black-bellied Whistling-Duck","spDendraut","rarity"
"West Indian Whistling-Duck","spDendrarb","rarity"
"Fulvous Whistling-Duck","spDendrbic","rarity"
"Tundra Swan","spCygnucol","rarity"
"Wood Duck","spAixspo","rarity"
"Blue-winged Teal","spSpatudis",
"Cinnamon Teal","spSpatucya","rarity"
"Northern Shoveler","spSpatucly","rarity"
"American Wigeon","spMarecame","rarity"
"White-cheeked Pintail","spAnasbah","rarity"
"Northern Pintail","spAnasacu","rarity"
"Green-winged Teal","spAnascre","rarity"
"Ring-necked Duck","spAythycol","rarity"
"Greater Scaup","spAythymar","rarity"
"Lesser Scaup","spAythyaff","rarity"
"Hooded Merganser","spLopho1cuc","rarity"
"Masked Duck","spNomondom","rarity"
"Ruddy Duck","spOxyurjam","rarity"
"Helmeted Guineafowl","spNumidmel","introduced"
"Northern Bobwhite","spColinvir","introduced"
"Indian Peafowl","spPavocri","introduced"
"Red Junglefowl","spGallugal","introduced"
"Rock Pigeon","spColumliv","introduced"
"Scaly-naped Pigeon","spPatagsqu",
"White-crowned Pigeon","spPatagleu","rarity"
"Eurasian Collared-Dove","spStrepdec","introduced"
"Common Ground Dove","spColum1pas",
"Ruddy Quail-Dove","spGeotrmon","rarity"
"Bridled Quail-Dove","spGeotrmys",
"White-winged Dove","spZenaiasi","rarity"
"Zenaida Dove","spZenaiaur",
"Smooth-billed Ani","spCrotoani","rarity"
"Yellow-billed Cuckoo","spCoccy1ame",
"Mangrove Cuckoo","spCoccy1min",
"Common Nighthawk","spChordmin","rarity"
"Antillean Nighthawk","spChordgun","rarity"
"Chuck-will's-widow","spAntrocar","rarity"
"Black Swift","spCypsenig","rarity"
"White-collared Swift","spStrep1zon","rarity"
"Lesser Antillean Swift","spChaetmar",
"Purple-throated Carib","spEulamjug",
"Green-throated Carib","spEulamhol",
"Antillean Crested Hummingbird","spOrthocri",
"Clapper Rail","spRallucre",
"Sora","spPorzacar",
"Common Gallinule","spGalli3gal",
"American Coot","spFulicame","rarity"
"Purple Gallinule","spPorph1mar","rarity"
"Black-necked Stilt","spHiman1mex",
"American Avocet","spRecurame","rarity"
"American Oystercatcher","spHaema1pal","rarity"
"Black-bellied Plover","spPluvi2squ",
"American Golden-Plover","spPluvi2dom",
"Pacific Golden-Plover","spPluvi2ful","rarity"
"Killdeer","spCharavoc","rarity"
"Semipalmated Plover","spCharasem",
"Piping Plover","spCharamel","rarity"
"Wilson's Plover","spAnarhwil",
"Collared Plover","spAnarhcol","rarity"
"Snowy Plover","spAnarhniv",
"Whimbrel","spNumenpha",
"Black-tailed Godwit","spLimoslim","rarity"
"Hudsonian Godwit","spLimoshae","rarity"
"Marbled Godwit","spLimosfed","rarity"
"Short-billed Dowitcher","spLimnogri",
"Long-billed Dowitcher","spLimnosco","rarity"
"Wilson's Snipe","spGalli5del","rarity"
"Wilson's Phalarope","spPhala1tri","rarity"
"Spotted Sandpiper","spActitmac",
"Solitary Sandpiper","spTringsol",
"Lesser Yellowlegs","spTringfla",
"Willet","spTringsem",
"Greater Yellowlegs","spTringmel",
"Ruddy Turnstone","spArenaint",
"Red Knot","spCalidcan",
"Ruff","spCalidpug","rarity"
"Curlew Sandpiper","spCalidfer","rarity"
"Stilt Sandpiper","spCalidhim",
"Buff-breasted Sandpiper","spCalidsub1","rarity"
"Sanderling","spCalidalb",
"Dunlin","spCalidalp","rarity"
"Baird's Sandpiper","spCalidbai","rarity"
"White-rumped Sandpiper","spCalidfus",
"Least Sandpiper","spCalidmin1",
"Pectoral Sandpiper","spCalidmel",
"Western Sandpiper","spCalidmau","rarity"
"Semipalmated Sandpiper","spCalidpus",
"Long-tailed Jaeger","spSterclon","rarity"
"Pomarine Jaeger","spStercpom","rarity"
"Bonaparte's Gull","spChroiphi","rarity"
"Black-headed Gull","spChroirid","rarity"
"Laughing Gull","spLeuco3atr",
"Ring-billed Gull","spLarusdel","rarity"
"American Herring Gull","spLarussmi","rarity"
"Great Black-backed Gull","spLarusmar","rarity"
"Lesser Black-backed Gull","spLarusfus","rarity"
"Black Skimmer","spRynchnig","rarity"
"Brown Noddy","spAnoussto",
"Sooty Tern","spOnychfus",
"Bridled Tern","spOnychana",
"Least Tern","spStern1ant",
"Gull-billed Tern","spGelocnil","rarity"
"Caspian Tern","spHydro4cas","rarity"
"Black Tern","spChlidnig","rarity"
"Forster's Tern","spStern2for","rarity"
"Arctic Tern","spStern2par","rarity"
"Common Tern","spStern2hir1",
"Roseate Tern","spStern2dou",
"Sandwich Tern","spThala1san","rarity"
"Royal Tern","spThala1max",
"American Flamingo","spPhoenrub","rarity"
"Greater Flamingo","spPhoenros","rarity"
"Pied-billed Grebe","spPodilpod","rarity"
"White-tailed Tropicbird","spPhaet2lep",
"Red-billed Tropicbird","spPhaet2aet",
"Wilson's Storm-Petrel","spOceanoce","rarity"
"Leach's Storm-Petrel","spHydro5leu","rarity"
"Cory's Shearwater","spCalonbor","rarity"
"Sargasso Shearwater","spPuffilhe","rarity"
"Magnificent Frigatebird","spFregamag",
"Red-footed Booby","spSulasul","rarity"
"Brown Booby","spSulaleu",
"Masked Booby","spSuladac","rarity"
"Anhinga","spAnhinanh","rarity"
"Double-crested Cormorant","spNanno1aur","rarity"
"Neotropic Cormorant","spNanno1bra","rarity"
"Glossy Ibis","spPlegafal","rarity"
"Least Bittern","spBotauexi","rarity"
"Yellow-crowned Night Heron","spNyctavio",
"Black-crowned Night Heron","spNycti6nyc","rarity"
"Little Blue Heron","spEgretcae",
"Tricolored Heron","spEgrettri","rarity"
"Snowy Egret","spEgretthu",
"Little Egret","spEgretgar","rarity"
"Green Heron","spButorvir",
"Western Cattle-Egret","spArdeaibi",
"Great Egret","spArdeaalb",
"Gray Heron","spArdeacin","rarity"
"Great Blue Heron","spArdeaher",
"Brown Pelican","spPelec1occ",
"Turkey Vulture","spCathaaur","rarity"
"Osprey","spPandihal",
"Sharp-shinned Hawk","spAccipstr","rarity"
"Northern Harrier","spCircuhud",
"Common Black Hawk","spButeoant","rarity"
"Broad-winged Hawk","spButeo1pla1",
"Red-tailed Hawk","spButeo1jam",
"Burrowing Owl","spAthencun","extinct"
"Belted Kingfisher","spMegac1alc",
"Green Kingfisher","spChlor2ame","rarity"
"Yellow-bellied Sapsucker","spSphyrvar","rarity"
"American Kestrel","spFalcospa",
"Merlin","spFalcocol","rarity"
"Peregrine Falcon","spFalcoper","rarity"
"Prairie Falcon","spFalcomex","rarity"
"Caribbean Elaenia","spElaenmar",
"Lesser Antillean Pewee","spContolat","rarity"
"Eastern Phoebe","spSayorpho","rarity"
"Stolid Flycatcher","spMyiarsto","rarity"
"Lesser Antillean Flycatcher","spMyiarobe",
"Eastern Kingbird","spTyran4tyr","rarity"
"Gray Kingbird","spTyran4dom",
"Fork-tailed Flycatcher","spTyran4sav","rarity"
"Yellow-throated Vireo","spVireo1fla","rarity"
"Black-whiskered Vireo","spVireo1alt",
"Bank Swallow","spRiparrip",
"Tree Swallow","spTachy4bic","rarity"
"Purple Martin","spPrognsub","rarity"
"Caribbean Martin","spProgndom",
"Barn Swallow","spHirun2rus",
"Cliff Swallow","spPetro2pyr","rarity"
"Scaly-breasted Thrasher","spAllenfus",
"Pearly-eyed Thrasher","spMarga3fus",
"Brown Trembler","spCincl4ruf",
"Brown Thrasher","spToxosruf","rarity"
"Tropical Mockingbird","spMimusgil","rarity"
"Veery","spCatha1fus1","rarity"
"Swainson's Thrush","spCatha1ust","rarity"
"Spectacled Thrush","spTurdunud","rarity"
"Scaly-breasted Munia","spLonchpun","introduced"
"House Sparrow","spPassedom","introduced"
"Lesser Antillean Euphonia","spChlor8fla","rarity"
"Bobolink","spDolicory","rarity"
"Baltimore Oriole","spIcter1gal","rarity"
"Shiny Cowbird","spMolotbon","rarity"
"Carib Grackle","spQuisclug",
"Ovenbird","spSeiuraur","rarity"
"Louisiana Waterthrush","spParkemot",
"Northern Waterthrush","spParkenov",
"Golden-winged Warbler","spVermichr","rarity"
"Black-and-white Warbler","spMniotvar",
"Prothonotary Warbler","spProtocit","rarity"
"Kentucky Warbler","spGeothfor","rarity"
"Hooded Warbler","spSetop1cit","rarity"
"American Redstart","spSetop1rut",
"Cape May Warbler","spSetop1tig",
"Northern Parula","spSetop1ame",
"Magnolia Warbler","spSetop1mag","rarity"
"Yellow Warbler","spSetop1pet",
"Chestnut-sided Warbler","spSetop1pen","rarity"
"Blackpoll Warbler","spSetop1str",
"Black-throated Blue Warbler","spSetop1cae","rarity"
"Pine Warbler","spSetop1pin","rarity"
"Yellow-rumped Warbler","spSetop1cor","rarity"
"Prairie Warbler","spSetop1dis",
"Black-throated Green Warbler","spSetop1vir","rarity"
"Summer Tanager","spPiranrub","rarity"
"Scarlet Tanager","spPiranoli","rarity"
"Rose-breasted Grosbeak","spPheuclud","rarity"
"Blue Grosbeak","spPasse3cae","rarity"
"Indigo Bunting","spPasse3cya","rarity"
"Yellow-bellied Seedeater","spSporo1nig1","rarity"
"Bananaquit","spCoerefla",
"St. Kitts Bullfinch","spMelop1gra","extinct"
"Lesser Antillean Bullfinch","spLoxignoc",
"Black-faced Grassquit","spMelan14bic",
"Lesser Antillean Saltator","spSalta1alb","rarity"
