"Name","ID","Status"
"Bar-headed Goose","spAnser1ind","rarity"
"Graylag Goose","spAnser1ans",
"Swan Goose","spAnser1cyg","rarity"
"Greater White-fronted Goose","spAnser1alb",
"Lesser White-fronted Goose","spAnser1ery",
"Taiga Bean-Goose","spAnser1fab","rarity"
"Tundra Bean-Goose","spAnser1ser","rarity"
"Brant","spBrantber","rarity"
"Barnacle Goose","spBrantleu","rarity"
"Red-breasted Goose","spBrantruf",
"Mute Swan","spCygnuolo",
"Tundra Swan","spCygnucol","rarity"
"Whooper Swan","spCygnucyg",
"Ruddy Shelduck","spTadorfer",
"Common Shelduck","spTadortad1",
"Baikal Teal","spSibirfor","rarity"
"Garganey","spSpatuque",
"Northern Shoveler","spSpatucly",
"Gadwall","spMarecstr",
"Falcated Duck","spMarecfal","rarity"
"Eurasian Wigeon","spMarecpen",
"Mallard","spAnaspla",
"Northern Pintail","spAnasacu",
"Green-winged Teal","spAnascre",
"Marbled Duck","spMarmaang","rarity"
"Red-crested Pochard","spNetta1ruf",
"Common Pochard","spAythyfer",
"Ferruginous Duck","spAythynyr",
"Tufted Duck","spAythyful",
"Greater Scaup","spAythymar",
"Harlequin Duck","spHistrhis","rarity"
"Velvet Scoter","spMelanfus",
"Stejneger's Scoter","spMelanste","rarity"
"Long-tailed Duck","spClanghye",
"Common Goldeneye","spBucepcla",
"Smew","spMergealb",
"Common Merganser","spMergumer",
"Red-breasted Merganser","spMerguser",
"White-headed Duck","spOxyurleu",
"Hazel Grouse","spTetra1bon",
"Willow Ptarmigan","spLagoplag",
"Rock Ptarmigan","spLagopmut",
"Western Capercaillie","spTetra2uro",
"Black Grouse","spLyrurtet",
"Gray Partridge","spPerdiper",
"Daurian Partridge","spPerdidau",
"Ring-necked Pheasant","spPhasicol",
"Altai Snowcock","spTetra3alt",
"Himalayan Snowcock","spTetra3him",
"See-see Partridge","spAmmopgri",
"Common Quail","spCoturcot",
"Chukar","spAlect1chu",
"Rock Pigeon","spColumliv",
"Hill Pigeon","spColumrup",
"Snow Pigeon","spColumleu","rarity"
"Stock Dove","spColumoen",
"Yellow-eyed Pigeon","spColumeve",
"Common Wood-Pigeon","spColumpal",
"European Turtle-Dove","spStreptur",
"Oriental Turtle-Dove","spStrepori",
"Eurasian Collared-Dove","spStrepdec",
"Laughing Dove","spSpilosen",
"Pallas's Sandgrouse","spSyrrhpar",
"Pin-tailed Sandgrouse","spPtero1alc",
"Black-bellied Sandgrouse","spPtero1ori",
"Great Bustard","spOtistar",
"Asian Houbara","spChlammac",
"Little Bustard","spTetra4tet",
"Common Cuckoo","spCuculcan",
"Oriental Cuckoo","spCuculopt",
"Eurasian Nightjar","spCaprieur",
"Egyptian Nightjar","spCapriaeg","rarity"
"White-throated Needletail","spHiruncau","rarity"
"Alpine Swift","spTachy1mel",
"Common Swift","spApusapu",
"Pacific Swift","spApuspac",
"Water Rail","spRalluaqu",
"Corn Crake","spCrexcre",
"Spotted Crake","spPorzapor",
"Eurasian Moorhen","spGalli3chl",
"Eurasian Coot","spFulicatr",
"Gray-headed Swamphen","spPorph1pol",
"Little Crake","spZaporpar",
"Baillon's Crake","spZaporpus",
"Demoiselle Crane","spAnthr1vir",
"Siberian Crane","spLeuco2leu","rarity"
"Common Crane","spGrusgru",
"Eurasian Thick-knee","spBurhioed",
"Black-winged Stilt","spHiman1him",
"Pied Avocet","spRecuravo",
"Ibisbill","spIbidostr",
"Eurasian Oystercatcher","spHaema1ost",
"Black-bellied Plover","spPluvi2squ",
"European Golden-Plover","spPluvi2apr","rarity"
"Pacific Golden-Plover","spPluvi2ful",
"Eurasian Dotterel","spEudro1mor",
"Common Ringed Plover","spCharahia",
"Little Ringed Plover","spThinodub",
"Northern Lapwing","spVanelvan",
"Gray-headed Lapwing","spVanelcin","rarity"
"Red-wattled Lapwing","spVanelind","rarity"
"Sociable Lapwing","spVanelgre",
"White-tailed Lapwing","spVanelleu",
"Caspian Plover","spAnarhasi",
"Oriental Plover","spAnarhver","rarity"
"Tibetan Sand-Plover","spAnarhatr",
"Greater Sand-Plover","spAnarhles",
"Kentish Plover","spAnarhale",
"Whimbrel","spNumenpha",
"Little Curlew","spNumenmin","rarity"
"Far Eastern Curlew","spNumenmad","rarity"
"Slender-billed Curlew","spNumenten","extinct"
"Eurasian Curlew","spNumenarq",
"Bar-tailed Godwit","spLimoslap",
"Black-tailed Godwit","spLimoslim",
"Asian Dowitcher","spLimnosem",
"Long-billed Dowitcher","spLimnosco","rarity"
"Jack Snipe","spLymnomin",
"Eurasian Woodcock","spScolorus",
"Solitary Snipe","spGalli5sol",
"Great Snipe","spGalli5med","rarity"
"Swinhoe's Snipe","spGalli5meg",
"Pin-tailed Snipe","spGalli5ste",
"Common Snipe","spGalli5gal",
"Red Phalarope","spPhala1ful","rarity"
"Red-necked Phalarope","spPhala1lob",
"Terek Sandpiper","spXenuscin",
"Common Sandpiper","spActithyp",
"Green Sandpiper","spTringoch",
"Marsh Sandpiper","spTringsta",
"Wood Sandpiper","spTringgla",
"Common Redshank","spTringtot",
"Spotted Redshank","spTringery",
"Common Greenshank","spTringneb",
"Ruddy Turnstone","spArenaint",
"Red Knot","spCalidcan","rarity"
"Ruff","spCalidpug",
"Broad-billed Sandpiper","spCalidfal",
"Sharp-tailed Sandpiper","spCalidacu","rarity"
"Curlew Sandpiper","spCalidfer",
"Temminck's Stint","spCalidtem",
"Long-toed Stint","spCalidsub","rarity"
"Red-necked Stint","spCalidruf","rarity"
"Sanderling","spCalidalb",
"Dunlin","spCalidalp",
"Little Stint","spCalidmin",
"Pectoral Sandpiper","spCalidmel","rarity"
"Cream-colored Courser","spCursocur","rarity"
"Collared Pratincole","spGlarepra",
"Black-winged Pratincole","spGlarenor",
"Parasitic Jaeger","spStercpar",
"Pomarine Jaeger","spStercpom","rarity"
"Little Gull","spHydro3min",
"Black-legged Kittiwake","spRissatri","rarity"
"Slender-billed Gull","spChroigen",
"Black-headed Gull","spChroirid",
"Franklin's Gull","spLeuco3pip","rarity"
"Pallas's Gull","spIchthich",
"Relict Gull","spIchthrel",
"Mediterranean Gull","spIchthmel","rarity"
"Common Gull","spLaruscan",
"Ring-billed Gull","spLarusdel","rarity"
"Caspian Gull","spLaruscac",
"European Herring Gull","spLarusarg","rarity"
"Great Black-backed Gull","spLarusmar","rarity"
"Glaucous Gull","spLarushyp","rarity"
"Lesser Black-backed Gull","spLarusfus",
"Little Tern","spStern1alb",
"Gull-billed Tern","spGelocnil",
"Caspian Tern","spHydro4cas",
"Whiskered Tern","spChlidhyb",
"Black Tern","spChlidnig",
"White-winged Tern","spChlidleu",
"Common Tern","spStern2hir1",
"Sandwich Tern","spThala1san",
"Greater Flamingo","spPhoenros",
"Lesser Flamingo","spPhoen1min","rarity"
"Little Grebe","spTachy2ruf1",
"Horned Grebe","spPodic1aur",
"Red-necked Grebe","spPodic1gri",
"Great Crested Grebe","spPodic1cri",
"Eared Grebe","spPodic1nig",
"Red-throated Loon","spGaviaste","rarity"
"Arctic Loon","spGaviaarc",
"Black Stork","spCiconnig",
"White Stork","spCiconcic",
"Pygmy Cormorant","spMicro5pyg",
"Great Cormorant","spPhala2car",
"Glossy Ibis","spPlegafal",
"Eurasian Spoonbill","spPlataleu",
"Eurasian Bittern","spBotauste",
"Little Bittern","spBotaumin",
"Black-crowned Night Heron","spNycti6nyc",
"Little Egret","spEgretgar",
"Squacco Heron","spArdeo1ral",
"Indian Pond-Heron","spArdeo1gra","rarity"
"Western Cattle-Egret","spArdeaibi","rarity"
"Great Egret","spArdeaalb",
"Gray Heron","spArdeacin",
"Purple Heron","spArdeapur",
"Great White Pelican","spPelec1ono",
"Dalmatian Pelican","spPelec1cri",
"Osprey","spPandihal",
"Bearded Vulture","spGypaebar",
"Egyptian Vulture","spNeophper",
"European Honey-buzzard","spPerniapi",
"Oriental Honey-buzzard","spPernipti",
"Cinereous Vulture","spAegypmon",
"Himalayan Griffon","spGypshim",
"Eurasian Griffon","spGypsful",
"Short-toed Snake-Eagle","spCircagal",
"Greater Spotted Eagle","spClang1cla",
"Booted Eagle","spHierapen",
"Steppe Eagle","spAquilnip",
"Imperial Eagle","spAquilhel",
"Golden Eagle","spAquilchr",
"Bonelli's Eagle","spAquilfas","rarity"
"Shikra","spTachy3bad",
"Levant Sparrowhawk","spTachy3bre",
"Eurasian Sparrowhawk","spAccipnis",
"Eurasian Goshawk","spAsturgen",
"Western Marsh Harrier","spCircuaer",
"Eastern Marsh Harrier","spCircuspi","rarity"
"Hen Harrier","spCircucya",
"Pallid Harrier","spCircumac1",
"Montagu's Harrier","spCircupyg",
"Black Kite","spMilvumig",
"White-tailed Eagle","spHalia1alb",
"Pallas's Fish-Eagle","spHalia1leu1",
"Rough-legged Hawk","spButeo1lag",
"Common Buzzard","spButeo1but",
"Long-legged Buzzard","spButeo1ruf1",
"Upland Buzzard","spButeo1hem",
"Eastern Buzzard","spButeo1jap",
"Eurasian Scops-Owl","spOtussco",
"Pallid Scops-Owl","spOtusbru",
"Snowy Owl","spBubosca",
"Eurasian Eagle-Owl","spBubobub",
"Northern Hawk Owl","spSurni1ulu",
"Eurasian Pygmy-Owl","spGlauc1pas",
"Little Owl","spAthennoc",
"Tawny Owl","spStrixalu",
"Ural Owl","spStrixura",
"Great Gray Owl","spStrixneb",
"Long-eared Owl","spAsiootu",
"Short-eared Owl","spAsiofla",
"Boreal Owl","spAegolfun",
"Eurasian Hoopoe","spUpupaepo",
"Blue-cheeked Bee-eater","spMerop1per",
"European Bee-eater","spMerop1api",
"Common Kingfisher","spAlcedatt",
"European Roller","spCoracgar",
"Eurasian Wryneck","spJynxtor",
"Eurasian Three-toed Woodpecker","spPicoitri",
"White-backed Woodpecker","spDendr5leu",
"Great Spotted Woodpecker","spDendr5maj",
"White-winged Woodpecker","spDendr5leu1",
"Syrian Woodpecker","spDendr5syr","rarity"
"Lesser Spotted Woodpecker","spDryobmin",
"Gray-headed Woodpecker","spPicuscan",
"Black Woodpecker","spDryocmar",
"Lesser Kestrel","spFalconau",
"Eurasian Kestrel","spFalcotin",
"Red-footed Falcon","spFalcoves",
"Amur Falcon","spFalcoamu","rarity"
"Merlin","spFalcocol",
"Eurasian Hobby","spFalcosub",
"Saker Falcon","spFalcoche",
"Gyrfalcon","spFalcorus","rarity"
"Peregrine Falcon","spFalcoper",
"Eurasian Golden Oriole","spOriolori",
"Indian Golden Oriole","spOriolkun",
"Ashy Drongo","spDicruleu","rarity"
"Indian Paradise-Flycatcher","spTerpspar",
"Red-backed Shrike","spLaniucol",
"Red-tailed Shrike","spLaniupho",
"Isabelline Shrike","spLaniuisa",
"Brown Shrike","spLaniucri",
"Long-tailed Shrike","spLaniusch",
"Northern Shrike","spLaniubor",
"Great Gray Shrike","spLaniuexc",
"Lesser Gray Shrike","spLaniumin",
"Masked Shrike","spLaniunub","rarity"
"Woodchat Shrike","spLaniusen","rarity"
"Siberian Jay","spPeris1inf",
"Eurasian Jay","spGarrugla",
"Eurasian Magpie","spPicapic",
"Mongolian Ground-Jay","spPodochen","rarity"
"Turkestan Ground-Jay","spPodocpan",
"Northern Nutcracker","spNucifcar",
"Red-billed Chough","spPyrrh3pyr",
"Yellow-billed Chough","spPyrrh3gra",
"Eurasian Jackdaw","spColoemon",
"Daurian Jackdaw","spColoedau",
"Rook","spCorvufru",
"Carrion Crow","spCorvucor",
"Hooded Crow","spCorvucor1",
"Brown-necked Raven","spCorvuruf",
"Common Raven","spCorvucor3",
"Coal Tit","spPeripate",
"Rufous-naped Tit","spPeripruf",
"Marsh Tit","spPoeci2pal",
"Willow Tit","spPoeci2mon",
"Gray-headed Chickadee","spPoeci2cin",
"Eurasian Blue Tit","spCyanicae",
"Azure Tit","spCyanicya",
"Great Tit","spParusmaj",
"Eurasian Penduline-Tit","spRemizpen",
"Black-headed Penduline-Tit","spRemizmac",
"White-crowned Penduline-Tit","spRemizcor",
"Wood Lark","spLulluarb","rarity"
"White-winged Lark","spAlaudleu",
"Eurasian Skylark","spAlaudarv",
"Oriental Skylark","spAlaudgul",
"Crested Lark","spGalercri",
"Horned Lark","spEremo1alp",
"Greater Short-toed Lark","spCalanbra",
"Hume's Lark","spCalanacu",
"Bimaculated Lark","spMelan9bim",
"Calandra Lark","spMelan9cal",
"Black Lark","spMelan9yel",
"Asian Short-toed Lark","spAlaud1che",
"Turkestan Short-toed Lark","spAlaud1hei",
"Bearded Reedling","spPanurbia",
"Booted Warbler","spIdunacal",
"Sykes's Warbler","spIdunaram",
"Eastern Olivaceous Warbler","spIdunapal",
"Upcher's Warbler","spHippolan",
"Icterine Warbler","spHippoict",
"Moustached Warbler","spAcroc1mel",
"Sedge Warbler","spAcroc1sch",
"Paddyfield Warbler","spAcroc1agr",
"Blyth's Reed Warbler","spAcroc1dum",
"Large-billed Reed Warbler","spAcroc1ori","rarity"
"Marsh Warbler","spAcroc1pal1",
"Common Reed Warbler","spAcroc1sci",
"Great Reed Warbler","spAcroc1aru",
"Clamorous Reed Warbler","spAcroc1ste",
"Pallas's Grasshopper Warbler","spHelopcer",
"Lanceolated Warbler","spLocuslan",
"River Warbler","spLocusflu",
"Savi's Warbler","spLocuslus",
"Common Grasshopper Warbler","spLocusnae",
"Bank Swallow","spRiparrip",
"Pale Martin","spRipardil",
"Eurasian Crag-Martin","spPtyonrup",
"Barn Swallow","spHirun2rus",
"Western House-Martin","spDelicurb",
"Siberian House-Martin","spDeliclag",
"European Red-rumped Swallow","spCecroruf",
"Wood Warbler","spPhyll5sib",
"Yellow-browed Warbler","spPhyll5ino",
"Hume's Warbler","spPhyll5hum",
"Pallas's Leaf Warbler","spPhyll5pro","rarity"
"Radde's Warbler","spPhyll5sch","rarity"
"Sulphur-bellied Warbler","spPhyll5gri",
"Dusky Warbler","spPhyll5fus",
"Plain Leaf Warbler","spPhyll5neg",
"Willow Warbler","spPhyll5tro",
"Common Chiffchaff","spPhyll5col",
"Greenish Warbler","spPhyll5tro1",
"Arctic Warbler","spPhyll5bor1","rarity"
"Scrub Warbler","spScoto1inq",
"Cetti's Warbler","spCetticet",
"White-browed Tit-Warbler","spLepto8sop",
"Long-tailed Tit","spAegit1cau",
"Eurasian Blackcap","spSylvi3atr",
"Garden Warbler","spSylvi3bor",
"Barred Warbler","spCurrunis",
"Lesser Whitethroat","spCurrucur",
"Eastern Orphean Warbler","spCurrucra",
"Asian Desert Warbler","spCurrunan",
"Menetries's Warbler","spCurrumys",
"Greater Whitethroat","spCurrucom",
"Goldcrest","spRegulreg",
"Wallcreeper","spTichomur",
"Eastern Rock Nuthatch","spSitta1tep",
"Eurasian Nuthatch","spSitta1eur",
"Eurasian Treecreeper","spCerth4fam",
"Bar-tailed Treecreeper","spCerth4him","rarity"
"Eurasian Wren","spTrogltro",
"White-throated Dipper","spCincl3cin",
"Brown Dipper","spCincl3pal",
"European Starling","spSturnvul",
"Rosy Starling","spPastoros",
"Common Myna","spAcridtri",
"White's Thrush","spZoothaur",
"Mistle Thrush","spTurduvis",
"Song Thrush","spTurduphi",
"Redwing","spTurduili",
"Eurasian Blackbird","spTurdumer",
"Eyebrowed Thrush","spTurduobs1","rarity"
"Fieldfare","spTurdupil",
"Ring Ouzel","spTurdutor","rarity"
"Black-throated Thrush","spTurduatr",
"Red-throated Thrush","spTurduruf4","rarity"
"Dusky Thrush","spTurdueun","rarity"
"Naumann's Thrush","spTurdunau","rarity"
"Dark-sided Flycatcher","spMusci3sib",
"Spotted Flycatcher","spMusci3str",
"Rufous-tailed Scrub-Robin","spCerco3gal",
"European Robin","spErithrub",
"Siberian Blue Robin","spLarvicya",
"White-throated Robin","spIranigut",
"Thrush Nightingale","spLuscilus",
"Common Nightingale","spLuscimeg",
"Bluethroat","spLuscisve",
"Blue Whistling-Thrush","spMyophcae",
"Little Forktail","spEnicusco","rarity"
"Siberian Rubythroat","spCalli2cal",
"Himalayan Rubythroat","spCalli2pec1",
"Red-flanked Bluetail","spTarsicya",
"Rusty-tailed Flycatcher","spFicedruf","rarity"
"Taiga Flycatcher","spFicedalb",
"Red-breasted Flycatcher","spFicedpar",
"Semicollared Flycatcher","spFicedsem","rarity"
"European Pied Flycatcher","spFicedhyp1",
"Collared Flycatcher","spFicedalb1",
"Plumbeous Redstart","spPhoen5ful","rarity"
"Rufous-backed Redstart","spPhoen5ery",
"White-capped Redstart","spPhoen5leu","rarity"
"Blue-capped Redstart","spPhoen5coe",
"Common Redstart","spPhoen5pho",
"White-winged Redstart","spPhoen5ery1",
"Black Redstart","spPhoen5och",
"Rufous-tailed Rock-Thrush","spMontisax",
"Blue Rock-Thrush","spMontisol",
"Whinchat","spSaxicrub",
"European Stonechat","spSaxicrub1","rarity"
"Siberian Stonechat","spSaxicmau",
"Pied Bushchat","spSaxiccap",
"Northern Wheatear","spOenanoen",
"Isabelline Wheatear","spOenanisa",
"Desert Wheatear","spOenandes",
"Eastern Black-eared Wheatear","spOenanmel",
"Pied Wheatear","spOenanple",
"Variable Wheatear","spOenanpic","rarity"
"Finsch's Wheatear","spOenanfin",
"Bohemian Waxwing","spBombygar",
"Japanese Waxwing","spBombyjap","rarity"
"Alpine Accentor","spPrunecol",
"Altai Accentor","spPrunehim",
"Siberian Accentor","spPrunemon","rarity"
"Brown Accentor","spPruneful",
"Black-throated Accentor","spPruneatr",
"Dunnock","spPrunemod",
"Saxaul Sparrow","spPasseamm",
"House Sparrow","spPassedom",
"Spanish Sparrow","spPassehis",
"Eurasian Tree Sparrow","spPassemon",
"Rock Sparrow","spPetro3pet",
"Pale Rockfinch","spCarpo3bra","rarity"
"White-winged Snowfinch","spMonti1niv",
"Gray Wagtail","spMotaccin",
"Western Yellow Wagtail","spMotacfla1",
"Eastern Yellow Wagtail","spMotactsc",
"Citrine Wagtail","spMotaccit",
"White Wagtail","spMotacalb",
"Richard's Pipit","spAnthuric",
"Tawny Pipit","spAnthucam",
"Meadow Pipit","spAnthupra",
"Tree Pipit","spAnthutri",
"Olive-backed Pipit","spAnthuhod",
"Red-throated Pipit","spAnthucer",
"Water Pipit","spAnthuspi",
"Siberian Pipit","spAnthujap",
"Common Chaffinch","spFringcoe",
"Brambling","spFringmon",
"White-winged Grosbeak","spMycercar",
"Hawfinch","spCocco1coc",
"Common Rosefinch","spCarpo4ery",
"Red-mantled Rosefinch","spCarpo4rho",
"Blyth's Rosefinch","spCarpo4gra","rarity"
"Great Rosefinch","spCarpo4rub1",
"Long-tailed Rosefinch","spCarpo4sib",
"Red-fronted Rosefinch","spCarpo4pun",
"Pallas's Rosefinch","spCarpo4ros",
"Pine Grosbeak","spPinicenu",
"Eurasian Bullfinch","spPyrrh4pyr",
"Crimson-winged Finch","spRhodo4san",
"Trumpeter Finch","spBucangit","rarity"
"Mongolian Finch","spBucanmon",
"Plain Mountain Finch","spLeuco9nem",
"Black-headed Mountain Finch","spLeuco9bra",
"Asian Rosy-Finch","spLeuco9arc",
"Desert Finch","spRhodo5obs",
"European Greenfinch","spChlor11chl",
"Twite","spLinarfla",
"Eurasian Linnet","spLinarcan",
"Redpoll","spAcant5fla",
"Red Crossbill","spLoxiacur",
"White-winged Crossbill","spLoxialeu","rarity"
"European Goldfinch","spCarducar",
"Gray-crowned Goldfinch","spCarducan",
"Fire-fronted Serin","spSerinpus",
"Eurasian Siskin","spSpinuspi",
"Lapland Longspur","spCalcalap",
"Snow Bunting","spPlect2niv",
"Black-headed Bunting","spEmbermel",
"Red-headed Bunting","spEmberbru",
"Corn Bunting","spEmbercal",
"Rock Bunting","spEmbercia",
"Godlewski's Bunting","spEmbergod",
"Meadow Bunting","spEmbercio",
"White-capped Bunting","spEmberste",
"Yellowhammer","spEmbercit",
"Pine Bunting","spEmberleu",
"Gray-necked Bunting","spEmberbuc",
"Ortolan Bunting","spEmberhor",
"Pallas's Bunting","spEmberpal",
"Reed Bunting","spEmbersch",
"Yellow-breasted Bunting","spEmberaur","rarity"
"Little Bunting","spEmberpus","rarity"
"Rustic Bunting","spEmberrus",
"Black-faced Bunting","spEmberspo","rarity"
"Yellow-browed Bunting","spEmberchr","rarity"
