"Name","ID","Status"
"Graylag Goose","spAnser1ans",
"Greater White-fronted Goose","spAnser1alb",
"Lesser White-fronted Goose","spAnser1ery","rarity"
"Taiga Bean-Goose","spAnser1fab",
"Tundra Bean-Goose","spAnser1ser",
"Pink-footed Goose","spAnser1bra","rarity"
"Brant","spBrantber",
"Barnacle Goose","spBrantleu",
"Canada Goose","spBrantcan","introduced"
"Red-breasted Goose","spBrantruf","rarity"
"Mute Swan","spCygnuolo",
"Black Swan","spCygnuatr","escaped"
"Tundra Swan","spCygnucol",
"Whooper Swan","spCygnucyg",
"Ruddy Shelduck","spTadorfer","rarity"
"Common Shelduck","spTadortad1",
"Wood Duck","spAixspo","escaped"
"Mandarin Duck","spAixgal","escaped"
"Garganey","spSpatuque",
"Northern Shoveler","spSpatucly",
"Gadwall","spMarecstr",
"Eurasian Wigeon","spMarecpen",
"Mallard","spAnaspla",
"Northern Pintail","spAnasacu",
"Green-winged Teal","spAnascre",
"Red-crested Pochard","spNetta1ruf","rarity"
"Common Pochard","spAythyfer",
"Ring-necked Duck","spAythycol","rarity"
"Ferruginous Duck","spAythynyr","rarity"
"Tufted Duck","spAythyful",
"Greater Scaup","spAythymar",
"Steller's Eider","spPolysste",
"King Eider","spSomatspe","rarity"
"Common Eider","spSomatmol",
"Harlequin Duck","spHistrhis","rarity"
"Velvet Scoter","spMelanfus",
"Stejneger's Scoter","spMelanste","rarity"
"Common Scoter","spMelannig",
"Black Scoter","spMelaname","rarity"
"Long-tailed Duck","spClanghye",
"Common Goldeneye","spBucepcla",
"Smew","spMergealb",
"Common Merganser","spMergumer",
"Red-breasted Merganser","spMerguser",
"White-headed Duck","spOxyurleu","rarity"
"Hazel Grouse","spTetra1bon",
"Willow Ptarmigan","spLagoplag","rarity"
"Western Capercaillie","spTetra2uro",
"Black Grouse","spLyrurtet",
"Gray Partridge","spPerdiper",
"Ring-necked Pheasant","spPhasicol","escaped"
"Common Quail","spCoturcot",
"Rock Pigeon","spColumliv","introduced"
"Stock Dove","spColumoen",
"Common Wood-Pigeon","spColumpal",
"European Turtle-Dove","spStreptur",
"Oriental Turtle-Dove","spStrepori","rarity"
"Eurasian Collared-Dove","spStrepdec",
"Pallas's Sandgrouse","spSyrrhpar","rarity"
"Great Bustard","spOtistar","rarity"
"Asian Houbara","spChlammac","rarity"
"Little Bustard","spTetra4tet","rarity"
"Common Cuckoo","spCuculcan",
"Eurasian Nightjar","spCaprieur",
"Common Swift","spApusapu",
"Water Rail","spRalluaqu",
"Corn Crake","spCrexcre",
"Spotted Crake","spPorzapor",
"Eurasian Moorhen","spGalli3chl",
"Eurasian Coot","spFulicatr",
"Little Crake","spZaporpar",
"Baillon's Crake","spZaporpus","rarity"
"Common Crane","spGrusgru",
"Black-winged Stilt","spHiman1him","rarity"
"Pied Avocet","spRecuravo",
"Eurasian Oystercatcher","spHaema1ost",
"Black-bellied Plover","spPluvi2squ",
"European Golden-Plover","spPluvi2apr",
"Pacific Golden-Plover","spPluvi2ful","rarity"
"Eurasian Dotterel","spEudro1mor","rarity"
"Common Ringed Plover","spCharahia",
"Little Ringed Plover","spThinodub",
"Northern Lapwing","spVanelvan",
"Greater Sand-Plover","spAnarhles","rarity"
"Kentish Plover","spAnarhale","rarity"
"Whimbrel","spNumenpha",
"Slender-billed Curlew","spNumenten","extinct"
"Eurasian Curlew","spNumenarq",
"Bar-tailed Godwit","spLimoslap",
"Black-tailed Godwit","spLimoslim",
"Jack Snipe","spLymnomin",
"Eurasian Woodcock","spScolorus",
"Great Snipe","spGalli5med",
"Common Snipe","spGalli5gal",
"Red Phalarope","spPhala1ful","rarity"
"Red-necked Phalarope","spPhala1lob",
"Terek Sandpiper","spXenuscin",
"Common Sandpiper","spActithyp",
"Green Sandpiper","spTringoch",
"Marsh Sandpiper","spTringsta",
"Wood Sandpiper","spTringgla",
"Common Redshank","spTringtot",
"Spotted Redshank","spTringery",
"Common Greenshank","spTringneb",
"Ruddy Turnstone","spArenaint",
"Red Knot","spCalidcan",
"Ruff","spCalidpug",
"Broad-billed Sandpiper","spCalidfal",
"Curlew Sandpiper","spCalidfer",
"Temminck's Stint","spCalidtem",
"Sanderling","spCalidalb",
"Dunlin","spCalidalp",
"Purple Sandpiper","spCalidmar","rarity"
"Little Stint","spCalidmin",
"Pectoral Sandpiper","spCalidmel","rarity"
"Collared Pratincole","spGlarepra","rarity"
"Black-winged Pratincole","spGlarenor","rarity"
"Long-tailed Jaeger","spSterclon",
"Parasitic Jaeger","spStercpar",
"Pomarine Jaeger","spStercpom","rarity"
"Great Skua","spStercsku","rarity"
"Black Guillemot","spCepphgry",
"Razorbill","spAlcator",
"Dovekie","spAlleall","rarity"
"Common Murre","spUriaaal",
"Little Gull","spHydro3min",
"Ross's Gull","spRhodo2ros","rarity"
"Black-legged Kittiwake","spRissatri","rarity"
"Sabine's Gull","spXemasab","rarity"
"Black-headed Gull","spChroirid",
"Laughing Gull","spLeuco3atr","rarity"
"Pallas's Gull","spIchthich","rarity"
"Mediterranean Gull","spIchthmel","rarity"
"Common Gull","spLaruscan",
"Caspian Gull","spLaruscac",
"European Herring Gull","spLarusarg",
"Yellow-legged Gull","spLarusmic","rarity"
"Great Black-backed Gull","spLarusmar",
"Glaucous Gull","spLarushyp","rarity"
"Lesser Black-backed Gull","spLarusfus",
"Slaty-backed Gull","spLarussch","rarity"
"Iceland Gull","spLarusgla1","rarity"
"Little Tern","spStern1alb",
"Caspian Tern","spHydro4cas",
"Whiskered Tern","spChlidhyb",
"Black Tern","spChlidnig",
"White-winged Tern","spChlidleu",
"Arctic Tern","spStern2par",
"Common Tern","spStern2hir1",
"Sandwich Tern","spThala1san",
"Little Grebe","spTachy2ruf1",
"Horned Grebe","spPodic1aur",
"Red-necked Grebe","spPodic1gri",
"Great Crested Grebe","spPodic1cri",
"Eared Grebe","spPodic1nig",
"Red-throated Loon","spGaviaste",
"Arctic Loon","spGaviaarc",
"Common Loon","spGaviaimm","rarity"
"Yellow-billed Loon","spGaviaada","rarity"
"Leach's Storm-Petrel","spHydro5leu","rarity"
"Sooty Shearwater","spArdengri","rarity"
"Black Stork","spCiconnig",
"White Stork","spCiconcic",
"Northern Gannet","spMorusbas","rarity"
"Pygmy Cormorant","spMicro5pyg","rarity"
"Great Cormorant","spPhala2car",
"Glossy Ibis","spPlegafal","rarity"
"Eurasian Spoonbill","spPlataleu","rarity"
"Eurasian Bittern","spBotauste",
"Little Bittern","spBotaumin",
"Black-crowned Night Heron","spNycti6nyc","rarity"
"Little Egret","spEgretgar","rarity"
"Squacco Heron","spArdeo1ral","rarity"
"Western Cattle-Egret","spArdeaibi","rarity"
"Great Egret","spArdeaalb",
"Gray Heron","spArdeacin",
"Great White Pelican","spPelec1ono","rarity"
"Dalmatian Pelican","spPelec1cri","rarity"
"Osprey","spPandihal",
"Black-winged Kite","spElanucae","rarity"
"Egyptian Vulture","spNeophper","rarity"
"European Honey-buzzard","spPerniapi",
"Cinereous Vulture","spAegypmon","rarity"
"Eurasian Griffon","spGypsful","rarity"
"Short-toed Snake-Eagle","spCircagal",
"Lesser Spotted Eagle","spClang1pom",
"Greater Spotted Eagle","spClang1cla",
"Booted Eagle","spHierapen","rarity"
"Steppe Eagle","spAquilnip","rarity"
"Imperial Eagle","spAquilhel","rarity"
"Golden Eagle","spAquilchr",
"Eurasian Sparrowhawk","spAccipnis",
"Eurasian Goshawk","spAsturgen",
"Western Marsh Harrier","spCircuaer",
"Hen Harrier","spCircucya",
"Pallid Harrier","spCircumac1","rarity"
"Montagu's Harrier","spCircupyg",
"Red Kite","spMilvumil","rarity"
"Black Kite","spMilvumig",
"White-tailed Eagle","spHalia1alb",
"Rough-legged Hawk","spButeo1lag",
"Common Buzzard","spButeo1but",
"Western Barn Owl","spTytoalb","rarity"
"Eurasian Scops-Owl","spOtussco","rarity"
"Snowy Owl","spBubosca","rarity"
"Eurasian Eagle-Owl","spBubobub",
"Northern Hawk Owl","spSurni1ulu","rarity"
"Eurasian Pygmy-Owl","spGlauc1pas",
"Little Owl","spAthennoc","rarity"
"Tawny Owl","spStrixalu",
"Ural Owl","spStrixura",
"Great Gray Owl","spStrixneb","rarity"
"Long-eared Owl","spAsiootu",
"Short-eared Owl","spAsiofla",
"Boreal Owl","spAegolfun",
"Eurasian Hoopoe","spUpupaepo",
"European Bee-eater","spMerop1api","rarity"
"Common Kingfisher","spAlcedatt",
"European Roller","spCoracgar",
"Eurasian Wryneck","spJynxtor",
"Eurasian Three-toed Woodpecker","spPicoitri",
"Middle Spotted Woodpecker","spDendr3med",
"White-backed Woodpecker","spDendr5leu",
"Great Spotted Woodpecker","spDendr5maj",
"Lesser Spotted Woodpecker","spDryobmin",
"Gray-headed Woodpecker","spPicuscan",
"Eurasian Green Woodpecker","spPicusvir1",
"Black Woodpecker","spDryocmar",
"Eurasian Kestrel","spFalcotin",
"Red-footed Falcon","spFalcoves",
"Merlin","spFalcocol",
"Eurasian Hobby","spFalcosub",
"Saker Falcon","spFalcoche","rarity"
"Gyrfalcon","spFalcorus","rarity"
"Peregrine Falcon","spFalcoper",
"Eurasian Golden Oriole","spOriolori",
"Red-backed Shrike","spLaniucol",
"Red-tailed Shrike","spLaniupho","rarity"
"Isabelline Shrike","spLaniuisa","rarity"
"Great Gray Shrike","spLaniuexc",
"Lesser Gray Shrike","spLaniumin","rarity"
"Siberian Jay","spPeris1inf","rarity"
"Eurasian Jay","spGarrugla",
"Eurasian Magpie","spPicapic",
"Northern Nutcracker","spNucifcar",
"Eurasian Jackdaw","spColoemon",
"Rook","spCorvufru",
"Carrion Crow","spCorvucor","rarity"
"Hooded Crow","spCorvucor1",
"Common Raven","spCorvucor3",
"Coal Tit","spPeripate",
"Crested Tit","spLopho15cri",
"Marsh Tit","spPoeci2pal",
"Willow Tit","spPoeci2mon",
"Eurasian Blue Tit","spCyanicae",
"Azure Tit","spCyanicya","rarity"
"Great Tit","spParusmaj",
"Eurasian Penduline-Tit","spRemizpen",
"Wood Lark","spLulluarb",
"Eurasian Skylark","spAlaudarv",
"Crested Lark","spGalercri",
"Horned Lark","spEremo1alp",
"Greater Short-toed Lark","spCalanbra","rarity"
"Bearded Reedling","spPanurbia",
"Booted Warbler","spIdunacal","rarity"
"Icterine Warbler","spHippoict",
"Aquatic Warbler","spAcroc1pal","rarity"
"Sedge Warbler","spAcroc1sch",
"Paddyfield Warbler","spAcroc1agr","rarity"
"Blyth's Reed Warbler","spAcroc1dum",
"Marsh Warbler","spAcroc1pal1",
"Common Reed Warbler","spAcroc1sci",
"Great Reed Warbler","spAcroc1aru",
"Pallas's Grasshopper Warbler","spHelopcer","rarity"
"Lanceolated Warbler","spLocuslan","rarity"
"River Warbler","spLocusflu",
"Savi's Warbler","spLocuslus",
"Common Grasshopper Warbler","spLocusnae",
"Bank Swallow","spRiparrip",
"Barn Swallow","spHirun2rus",
"Western House-Martin","spDelicurb",
"European Red-rumped Swallow","spCecroruf","rarity"
"Wood Warbler","spPhyll5sib",
"Yellow-browed Warbler","spPhyll5ino","rarity"
"Hume's Warbler","spPhyll5hum","rarity"
"Pallas's Leaf Warbler","spPhyll5pro","rarity"
"Radde's Warbler","spPhyll5sch","rarity"
"Dusky Warbler","spPhyll5fus","rarity"
"Willow Warbler","spPhyll5tro",
"Common Chiffchaff","spPhyll5col",
"Greenish Warbler","spPhyll5tro1",
"Arctic Warbler","spPhyll5bor1","rarity"
"Cetti's Warbler","spCetticet","rarity"
"Long-tailed Tit","spAegit1cau",
"Eurasian Blackcap","spSylvi3atr",
"Garden Warbler","spSylvi3bor",
"Barred Warbler","spCurrunis",
"Lesser Whitethroat","spCurrucur",
"Asian Desert Warbler","spCurrunan","rarity"
"Greater Whitethroat","spCurrucom",
"Goldcrest","spRegulreg",
"Common Firecrest","spRegulign","rarity"
"Eurasian Nuthatch","spSitta1eur",
"Eurasian Treecreeper","spCerth4fam",
"Short-toed Treecreeper","spCerth4bra","rarity"
"Eurasian Wren","spTrogltro",
"White-throated Dipper","spCincl3cin",
"European Starling","spSturnvul",
"Rosy Starling","spPastoros","rarity"
"White's Thrush","spZoothaur","rarity"
"Mistle Thrush","spTurduvis",
"Song Thrush","spTurduphi",
"Redwing","spTurduili",
"Eurasian Blackbird","spTurdumer",
"Fieldfare","spTurdupil",
"Ring Ouzel","spTurdutor",
"Black-throated Thrush","spTurduatr","rarity"
"Spotted Flycatcher","spMusci3str",
"European Robin","spErithrub",
"Thrush Nightingale","spLuscilus",
"Common Nightingale","spLuscimeg","rarity"
"Bluethroat","spLuscisve",
"Siberian Rubythroat","spCalli2cal","rarity"
"Red-flanked Bluetail","spTarsicya","rarity"
"Red-breasted Flycatcher","spFicedpar",
"European Pied Flycatcher","spFicedhyp1",
"Collared Flycatcher","spFicedalb1","rarity"
"Common Redstart","spPhoen5pho",
"Black Redstart","spPhoen5och",
"Whinchat","spSaxicrub",
"European Stonechat","spSaxicrub1","rarity"
"Northern Wheatear","spOenanoen",
"Desert Wheatear","spOenandes","rarity"
"Pied Wheatear","spOenanple","rarity"
"Bohemian Waxwing","spBombygar",
"Siberian Accentor","spPrunemon","rarity"
"Dunnock","spPrunemod",
"House Sparrow","spPassedom",
"Eurasian Tree Sparrow","spPassemon",
"Gray Wagtail","spMotaccin",
"Western Yellow Wagtail","spMotacfla1",
"Citrine Wagtail","spMotaccit",
"White Wagtail","spMotacalb",
"Richard's Pipit","spAnthuric","rarity"
"Tawny Pipit","spAnthucam",
"Meadow Pipit","spAnthupra",
"Tree Pipit","spAnthutri",
"Red-throated Pipit","spAnthucer",
"Water Pipit","spAnthuspi","rarity"
"Rock Pipit","spAnthupet",
"Common Chaffinch","spFringcoe",
"Brambling","spFringmon",
"Hawfinch","spCocco1coc",
"Common Rosefinch","spCarpo4ery",
"Pine Grosbeak","spPinicenu","rarity"
"Eurasian Bullfinch","spPyrrh4pyr",
"European Greenfinch","spChlor11chl",
"Twite","spLinarfla",
"Eurasian Linnet","spLinarcan",
"Redpoll","spAcant5fla",
"Parrot Crossbill","spLoxiapyt",
"Red Crossbill","spLoxiacur",
"White-winged Crossbill","spLoxialeu",
"European Goldfinch","spCarducar",
"European Serin","spSerinser",
"Eurasian Siskin","spSpinuspi",
"Lapland Longspur","spCalcalap",
"Snow Bunting","spPlect2niv",
"Black-headed Bunting","spEmbermel","rarity"
"Corn Bunting","spEmbercal","rarity"
"Yellowhammer","spEmbercit",
"Pine Bunting","spEmberleu","rarity"
"Ortolan Bunting","spEmberhor",
"Reed Bunting","spEmbersch",
"Yellow-breasted Bunting","spEmberaur","rarity"
"Little Bunting","spEmberpus","rarity"
"Rustic Bunting","spEmberrus","rarity"
