"Name","ID","Status"
"Common Ostrich","spStrutcam",
"White-faced Whistling-Duck","spDendrvid",
"Fulvous Whistling-Duck","spDendrbic",
"White-backed Duck","spThalaleu",
"Knob-billed Duck","spSarkimel",
"Egyptian Goose","spAlopoaeg",
"Common Shelduck","spTadortad1","rarity"
"Spur-winged Goose","spPlectgam",
"African Pygmy-Goose","spNettaaur",
"Garganey","spSpatuque",
"Northern Shoveler","spSpatucly",
"Mallard","spAnaspla","rarity"
"Northern Pintail","spAnasacu",
"Green-winged Teal","spAnascre","rarity"
"Common Pochard","spAythyfer",
"Ferruginous Duck","spAythynyr",
"Helmeted Guineafowl","spNumidmel",
"Stone Partridge","spPtilopet",
"Coqui Francolin","spCampocoq",
"White-throated Francolin","spCampoalb",
"Blue Quail","spSynoiada","rarity"
"Common Quail","spCoturcot",
"Double-spurred Spurfowl","spPternbic",
"Clapperton's Spurfowl","spPterncla",
"Rock Pigeon","spColumliv",
"Speckled Pigeon","spColumgui",
"European Turtle-Dove","spStreptur",
"Adamawa Turtle-Dove","spStrephyp","rarity"
"African Collared-Dove","spStrepros",
"Mourning Collared-Dove","spStrepdec1",
"Red-eyed Dove","spStrepsem",
"Vinaceous Dove","spStrepvin",
"Laughing Dove","spSpilosen",
"Black-billed Wood-Dove","spTurtuaby",
"Blue-spotted Wood-Dove","spTurtuafe",
"Namaqua Dove","spOenacap",
"Bruce's Green-Pigeon","spTrerowaa",
"African Green-Pigeon","spTrerocal",
"Chestnut-bellied Sandgrouse","spPtero1exu",
"Spotted Sandgrouse","spPtero1sen",
"Crowned Sandgrouse","spPtero1cor","rarity"
"Lichtenstein's Sandgrouse","spPtero1lic",
"Four-banded Sandgrouse","spPtero1qua",
"Arabian Bustard","spArdeoara",
"Denham's Bustard","spNeotiden",
"Nubian Bustard","spNeotinub",
"White-bellied Bustard","spEupodsen",
"Savile's Bustard","spLopho4sav",
"Black-bellied Bustard","spLissomel",
"Western Plantain-eater","spCrinipis",
"Violet Turaco","spTauravio",
"Guinea Turaco","spTauraper",
"Senegal Coucal","spCentr1sen",
"Blue-headed Coucal","spCentr1mon",
"Black Coucal","spCentr1gri",
"Great Spotted Cuckoo","spClamagla",
"Levaillant's Cuckoo","spClamalev",
"Pied Cuckoo","spClamajac",
"Dideric Cuckoo","spChrys1cap",
"Klaas's Cuckoo","spChrys1kla",
"African Emerald Cuckoo","spChrys1cup",
"Black Cuckoo","spCuculcla",
"Red-chested Cuckoo","spCuculsol","rarity"
"African Cuckoo","spCuculgul",
"Common Cuckoo","spCuculcan",
"Standard-winged Nightjar","spCaprilon",
"Red-necked Nightjar","spCapriruf",
"Eurasian Nightjar","spCaprieur","rarity"
"Egyptian Nightjar","spCapriaeg",
"Golden Nightjar","spCapriexi",
"Swamp Nightjar","spCaprinat",
"Plain Nightjar","spCapriino",
"Freckled Nightjar","spCapritri",
"Long-tailed Nightjar","spCapricli",
"Mottled Spinetail","spTelacuss",
"Alpine Swift","spTachy1mel",
"Mottled Swift","spTachy1aeq",
"Common Swift","spApusapu",
"Plain Swift","spApusuni","rarity"
"Pallid Swift","spApuspal",
"Little Swift","spApusaff",
"White-rumped Swift","spApuscaf",
"African Palm Swift","spCypsipar",
"Corn Crake","spCrexcre","rarity"
"African Crake","spCrecoegr",
"Lesser Moorhen","spParagang",
"Eurasian Moorhen","spGalli3chl",
"Allen's Gallinule","spPorph1all",
"African Swamphen","spPorph1mad",
"Black Crake","spZaporfla",
"African Finfoot","spPodicsen",
"Black Crowned-Crane","spBaleapav",
"Spotted Thick-knee","spBurhicap",
"Senegal Thick-knee","spBurhisen",
"Egyptian Plover","spPluvi1aeg",
"Black-winged Stilt","spHiman1him",
"Pied Avocet","spRecuravo",
"Black-bellied Plover","spPluvi2squ","rarity"
"Common Ringed Plover","spCharahia",
"Forbes's Plover","spThinofor",
"Three-banded Plover","spThinotri",
"Little Ringed Plover","spThinodub",
"Spur-winged Lapwing","spVanelspi",
"Black-headed Lapwing","spVaneltec",
"White-crowned Lapwing","spVanelalb",
"Senegal Lapwing","spVanellug",
"Wattled Lapwing","spVanelsen",
"Kittlitz's Plover","spAnarhpec",
"White-fronted Plover","spAnarhmar",
"Kentish Plover","spAnarhale",
"Greater Painted-Snipe","spRostrben",
"Lesser Jacana","spMicro4cap",
"African Jacana","spActopafr",
"Whimbrel","spNumenpha",
"Eurasian Curlew","spNumenarq",
"Bar-tailed Godwit","spLimoslap","rarity"
"Black-tailed Godwit","spLimoslim",
"Jack Snipe","spLymnomin",
"Great Snipe","spGalli5med",
"Common Snipe","spGalli5gal",
"Red Phalarope","spPhala1ful","rarity"
"Common Sandpiper","spActithyp",
"Green Sandpiper","spTringoch",
"Marsh Sandpiper","spTringsta",
"Wood Sandpiper","spTringgla",
"Common Redshank","spTringtot",
"Spotted Redshank","spTringery",
"Common Greenshank","spTringneb",
"Ruddy Turnstone","spArenaint",
"Ruff","spCalidpug",
"Curlew Sandpiper","spCalidfer",
"Temminck's Stint","spCalidtem",
"Sanderling","spCalidalb",
"Dunlin","spCalidalp",
"Little Stint","spCalidmin",
"Small Buttonquail","spTurnisyl",
"Quail-plover","spOrtyxmei",
"Bronze-winged Courser","spRhino1cha",
"Temminck's Courser","spCursotem",
"Cream-colored Courser","spCursocur",
"Rock Pratincole","spGlarenuc",
"Gray Pratincole","spGlarecin",
"Collared Pratincole","spGlarepra",
"Long-tailed Jaeger","spSterclon","rarity"
"Little Gull","spHydro3min","rarity"
"Slender-billed Gull","spChroigen","rarity"
"Black-headed Gull","spChroirid",
"Gray-hooded Gull","spChroicir",
"Audouin's Gull","spIchthaud","rarity"
"Lesser Black-backed Gull","spLarusfus",
"African Skimmer","spRynchfla",
"Little Tern","spStern1alb",
"Gull-billed Tern","spGelocnil",
"Caspian Tern","spHydro4cas",
"Whiskered Tern","spChlidhyb",
"Black Tern","spChlidnig","rarity"
"White-winged Tern","spChlidleu",
"Common Tern","spStern2hir1",
"Little Grebe","spTachy2ruf1",
"African Openbill","spAnastlam",
"Black Stork","spCiconnig",
"Abdim's Stork","spCiconabd",
"African Woolly-necked Stork","spCiconmic",
"White Stork","spCiconcic",
"Saddle-billed Stork","spEphipsen",
"Marabou Stork","spLepto2cru",
"Yellow-billed Stork","spMycteibi",
"African Darter","spAnhinruf",
"Reed Cormorant","spMicro5afr",
"Glossy Ibis","spPlegafal",
"African Sacred Ibis","spThresaet",
"Hadada Ibis","spBostrhag",
"Eurasian Spoonbill","spPlataleu",
"African Spoonbill","spPlataalb",
"Eurasian Bittern","spBotauste",
"Dwarf Bittern","spBotaustu",
"Little Bittern","spBotaumin",
"Black-crowned Night Heron","spNycti6nyc",
"Black Heron","spEgretard",
"Little Egret","spEgretgar",
"Western Reef-Heron","spEgretgul",
"White-backed Night Heron","spCalheleu",
"Striated Heron","spButorstr",
"Squacco Heron","spArdeo1ral",
"Western Cattle-Egret","spArdeaibi",
"Great Egret","spArdeaalb",
"Yellow-billed Egret","spArdeabra",
"Gray Heron","spArdeacin",
"Purple Heron","spArdeapur",
"Black-headed Heron","spArdeamel",
"Goliath Heron","spArdeagol",
"Hamerkop","spScopuumb",
"Great White Pelican","spPelec1ono",
"Pink-backed Pelican","spPelec1ruf",
"Secretarybird","spSagitser",
"Osprey","spPandihal",
"Scissor-tailed Kite","spChelirio",
"Black-winged Kite","spElanucae",
"African Harrier-Hawk","spPolybtyp",
"Palm-nut Vulture","spGypohang",
"Egyptian Vulture","spNeophper",
"African Cuckoo-Hawk","spAvicecuc",
"European Honey-buzzard","spPerniapi",
"White-headed Vulture","spTrigoocc",
"Lappet-faced Vulture","spTorgotra",
"Hooded Vulture","spNecromon",
"White-backed Vulture","spGypsafr",
"Rüppell's Griffon","spGypsrue",
"Eurasian Griffon","spGypsful",
"Bateleur","spTerateca",
"Western Banded Snake-Eagle","spCircacin",
"Beaudouin's Snake-Eagle","spCircabea",
"Short-toed Snake-Eagle","spCircagal",
"Brown Snake-Eagle","spCircacin1",
"Martial Eagle","spPolembel",
"Long-crested Eagle","spLophaocc",
"Greater Spotted Eagle","spClang1cla","rarity"
"Wahlberg's Eagle","spHierawah",
"Ayres's Hawk-Eagle","spHieraayr",
"Booted Eagle","spHierapen",
"Tawny Eagle","spAquilrap",
"African Hawk-Eagle","spAquilspi",
"Bat Hawk","spMachealc",
"Gabar Goshawk","spMicro6gab",
"Dark Chanting-Goshawk","spMeliemet",
"Lizard Buzzard","spKaupimon",
"Shikra","spTachy3bad",
"Ovambo Sparrowhawk","spAccipova",
"Western Marsh Harrier","spCircuaer",
"Pallid Harrier","spCircumac1",
"Montagu's Harrier","spCircupyg",
"Black Kite","spMilvumig",
"African Fish-Eagle","spIcthyvoc",
"Grasshopper Buzzard","spButasruf",
"Red-necked Buzzard","spButeo1aug",
"Common Buzzard","spButeo1but",
"Long-legged Buzzard","spButeo1ruf1",
"Western Barn Owl","spTytoalb",
"Eurasian Scops-Owl","spOtussco",
"African Scops-Owl","spOtussen",
"Northern White-faced Owl","spPtilo1leu",
"Grayish Eagle-Owl","spBubocin",
"Pharaoh Eagle-Owl","spBuboasc",
"Verreaux's Eagle-Owl","spKetuplac",
"Pel's Fishing-Owl","spScotopel",
"Pearl-spotted Owlet","spGlauc1per",
"Little Owl","spAthennoc",
"Marsh Owl","spAsiocap",
"Blue-naped Mousebird","spUrocomac",
"Narina Trogon","spApalonar",
"Eurasian Hoopoe","spUpupaepo",
"Green Woodhoopoe","spPhoen3pur",
"Black Scimitarbill","spRhino2ate",
"Abyssinian Ground-Hornbill","spBucoraby",
"West African Pied Hornbill","spLopho11sem",
"African Gray Hornbill","spLopho11nas",
"Western Red-billed Hornbill","spTockukem",
"Northern Red-billed Hornbill","spTockuery",
"Black Bee-eater","spMerop1gul",
"Red-throated Bee-eater","spMerop1bul",
"Little Bee-eater","spMerop1pus",
"Swallow-tailed Bee-eater","spMerop1hir",
"White-throated Bee-eater","spMerop1alb",
"African Green Bee-eater","spMerop1vir",
"Blue-cheeked Bee-eater","spMerop1per",
"European Bee-eater","spMerop1api",
"Northern Carmine Bee-eater","spMerop1nub",
"Shining-blue Kingfisher","spAlcedqua",
"Malachite Kingfisher","spCoryt1cri",
"White-bellied Kingfisher","spCoryt1leu",
"African Pygmy Kingfisher","spIspidpic",
"Gray-headed Kingfisher","spHalcyleu",
"Woodland Kingfisher","spHalcysen",
"Blue-breasted Kingfisher","spHalcymal",
"Striped Kingfisher","spHalcyche",
"Giant Kingfisher","spMegac1max",
"Pied Kingfisher","spCerylrud",
"European Roller","spCoracgar",
"Abyssinian Roller","spCoracaby",
"Purple Roller","spCoracnae",
"Blue-bellied Roller","spCoraccya",
"Broad-billed Roller","spEurysgla",
"Yellow-breasted Barbet","spTrach1mar",
"Red-rumped Tinkerbird","spPogonatr",
"Yellow-throated Tinkerbird","spPogonsub",
"Yellow-rumped Tinkerbird","spPogonbil",
"Yellow-fronted Tinkerbird","spPogonchr",
"Hairy-breasted Barbet","spTrichhir",
"Vieillot's Barbet","spLybiuvie",
"Double-toothed Barbet","spPogon1bid",
"Bearded Barbet","spPogon1dub",
"Brown-backed Honeybird","spProdoreg","rarity"
"Lesser Honeyguide","spIndicmin",
"Greater Honeyguide","spIndicind",
"Eurasian Wryneck","spJynxtor",
"Little Gray Woodpecker","spDendr4ela",
"Cardinal Woodpecker","spDendr4fus",
"Brown-backed Woodpecker","spDendr4obs",
"African Gray Woodpecker","spDendr4goe",
"Buff-spotted Woodpecker","spPardi1niv",
"Green-backed Woodpecker","spCampe1mac",
"Fine-spotted Woodpecker","spCampe1pun",
"Golden-tailed Woodpecker","spCampe1abi",
"Lesser Kestrel","spFalconau",
"Eurasian Kestrel","spFalcotin",
"Fox Kestrel","spFalcoalo",
"Gray Kestrel","spFalcoard",
"Red-necked Falcon","spFalcochi",
"Red-footed Falcon","spFalcoves",
"Eurasian Hobby","spFalcosub",
"African Hobby","spFalcocuv",
"Lanner Falcon","spFalcobia",
"Saker Falcon","spFalcoche",
"Peregrine Falcon","spFalcoper",
"Rose-ringed Parakeet","spPsitt2kra",
"Red-headed Lovebird","spAgapopul",
"Brown-necked Parrot","spPoicefus",
"Senegal Parrot","spPoicesen",
"White-breasted Cuckooshrike","spCeblepec",
"Red-shouldered Cuckooshrike","spCampe2pho",
"Eurasian Golden Oriole","spOriolori","rarity"
"African Golden Oriole","spOriolaur",
"Brown-throated Wattle-eye","spPlaty2cya",
"Senegal Batis","spBatissen",
"White-crested Helmetshrike","spPrion2plu",
"Red-billed Helmetshrike","spPrion2can",
"Brubru","spNilauafe",
"Northern Puffback","spDryosgam",
"Black-crowned Tchagra","spTchagsen",
"Tropical Boubou","spLaniamaj",
"Yellow-crowned Gonolek","spLaniabar",
"Sulphur-breasted Bushshrike","spChlor5sul",
"Many-colored Bushshrike","spChlor5mul",
"Gray-headed Bushshrike","spMalac2bla",
"Sharpe's Drongo","spDicrusha",
"Fork-tailed Drongo","spDicruads",
"Black-headed Paradise-Flycatcher","spTerpsruf",
"African Paradise-Flycatcher","spTerpsvir",
"Yellow-billed Shrike","spCorvicor",
"Red-tailed Shrike","spLaniupho","rarity"
"Emin's Shrike","spLaniugub",
"Great Gray Shrike","spLaniuexc",
"Gray-backed Fiscal","spLaniuexc1",
"Northern Fiscal","spLaniuhum",
"Masked Shrike","spLaniunub",
"Woodchat Shrike","spLaniusen",
"Piapiac","spPtilo7afe",
"Pied Crow","spCorvualb",
"Brown-necked Raven","spCorvuruf",
"Fan-tailed Raven","spCorvurhi",
"Yellow-bellied Hyliota","spHyliofla",
"African Blue Flycatcher","spElminlon",
"White-shouldered Black-Tit","spMelan8gui",
"Sennar Penduline-Tit","spAntho3pun",
"Yellow Penduline-Tit","spAntho3par",
"Greater Hoopoe-Lark","spAlaemala",
"Rufous-rumped Lark","spPinarery",
"Bar-tailed Lark","spAmmom1cin",
"Desert Lark","spAmmom1des",
"Chestnut-backed Sparrow-Lark","spEremoleu",
"Black-crowned Sparrow-Lark","spEremonig",
"Rusty Lark","spCalenruf",
"Kordofan Lark","spMirafcor",
"Singing Bushlark","spMirafjav",
"Flappet Lark","spAmiraruf",
"Highland Lark","spCoryp1kur","rarity"
"Sun Lark","spGalermod",
"Crested Lark","spGalercri",
"Greater Short-toed Lark","spCalanbra",
"Dunn's Lark","spEremadun",
"Western Nicator","spNicatchl",
"Northern Crombec","spSylvi2bra",
"Moustached Grass-Warbler","spMelocmen",
"Yellow-bellied Eremomela","spEremo2ict",
"Senegal Eremomela","spEremo2pus",
"Green-backed Camaroptera","spCamarbra",
"Olive-green Camaroptera","spCamarchl",
"Cricket Longtail","spSpilo2cla",
"Yellow-breasted Apalis","spApalifla1",
"Tawny-flanked Prinia","spPrinisub",
"River Prinia","spPriniflu",
"Red-winged Prinia","spPriniery",
"Oriole Warbler","spHyperatr",
"Red-faced Cisticola","spCistiery",
"Singing Cisticola","spCistican",
"Whistling Cisticola","spCistilat",
"Rock-loving Cisticola","spCistiabe",
"Red-pate Cisticola","spCistiruf",
"Dorst's Cisticola","spCistigui",
"Winding Cisticola","spCistimar",
"Croaking Cisticola","spCistinat",
"Siffling Cisticola","spCistibra",
"Rufous Cisticola","spCistiruf2",
"Zitting Cisticola","spCistijun",
"Desert Cisticola","spCistiari",
"Black-backed Cisticola","spCistiexi",
"Eastern Olivaceous Warbler","spIdunapal",
"Western Olivaceous Warbler","spIdunaopa",
"Melodious Warbler","spHippopol",
"Icterine Warbler","spHippoict",
"Aquatic Warbler","spAcroc1pal",
"Sedge Warbler","spAcroc1sch",
"Common Reed Warbler","spAcroc1sci",
"Greater Swamp Warbler","spAcroc1ruf","rarity"
"Great Reed Warbler","spAcroc1aru",
"Savi's Warbler","spLocuslus",
"Common Grasshopper Warbler","spLocusnae",
"Fanti Sawwing","spPsaliobs",
"Gray-rumped Swallow","spPseud15gri",
"Plain Martin","spRiparpal",
"Bank Swallow","spRiparrip",
"Red-throated Crag-Martin","spPtyonruf",
"Pied-winged Swallow","spHirun2leu",
"Barn Swallow","spHirun2rus",
"Red-chested Swallow","spHirun2luc",
"Ethiopian Swallow","spHirun2aet",
"Wire-tailed Swallow","spHirun2smi",
"Western House-Martin","spDelicurb",
"European Red-rumped Swallow","spCecroruf",
"African Red-rumped Swallow","spCecromel",
"Lesser Striped Swallow","spCecroaby",
"Rufous-chested Swallow","spCecrosem",
"Mosque Swallow","spCecrosen",
"Preuss's Swallow","spPetro2pre",
"Gray-headed Bristlebill","spBledacan",
"Yellow-gorgeted Greenbul","spAtimafla",
"Simple Greenbul","spChlor6sim",
"Leaf-love","spPhyll4sca",
"Common Bulbul","spPycno2bar",
"Wood Warbler","spPhyll5sib",
"Western Bonelli's Warbler","spPhyll5bon",
"Willow Warbler","spPhyll5tro",
"Common Chiffchaff","spPhyll5col",
"Iberian Chiffchaff","spPhyll5ibe","rarity"
"Green Hylia","spHyliapra",
"Chestnut-capped Flycatcher","spEryth4mcc",
"Eurasian Blackcap","spSylvi3atr",
"Garden Warbler","spSylvi3bor",
"Lesser Whitethroat","spCurrucur",
"Western Orphean Warbler","spCurruhor","rarity"
"African Desert Warbler","spCurrudes",
"Rüppell's Warbler","spCurrurup","rarity"
"Sardinian Warbler","spCurrumel1","rarity"
"Moltoni's Warbler","spCurrusub1",
"Western Subalpine Warbler","spCurruibe",
"Greater Whitethroat","spCurrucom",
"Spectacled Warbler","spCurrucon","rarity"
"Northern Yellow White-eye","spZoste1sen",
"Puvel's Illadopsis","spIlladpuv",
"Fulvous Chatterer","spArgyaful",
"Brown Babbler","spTurdople",
"Blackcap Babbler","spTurdorei",
"Yellow-billed Oxpecker","spBuphaafr",
"Violet-backed Starling","spCinny1leu",
"Neumann's Starling","spOnych2neu",
"Long-tailed Glossy Starling","spLampr2cau",
"Chestnut-bellied Starling","spLampr2pul",
"Lesser Blue-eared Starling","spLampr2chl",
"Greater Blue-eared Starling","spLampr2cha",
"Purple Starling","spLampr2pur1",
"Bronze-tailed Starling","spLampr2cha1",
"African Thrush","spTurdupel",
"Spotted Flycatcher","spMusci3str",
"Gambaga Flycatcher","spMusci3gam",
"Swamp Flycatcher","spMusci3aqu",
"Pale Flycatcher","spAgricpal",
"Gray Tit-Flycatcher","spFraseplu",
"Northern Black-Flycatcher","spMelaeedo",
"Black Scrub-Robin","spCerco3pod",
"Rufous-tailed Scrub-Robin","spCerco3gal",
"Blue-shouldered Robin-Chat","spCossy1cya",
"Snowy-crowned Robin-Chat","spCossy1niv",
"White-crowned Robin-Chat","spCossy1alb",
"Common Nightingale","spLuscimeg",
"Bluethroat","spLuscisve",
"European Pied Flycatcher","spFicedhyp1",
"Common Redstart","spPhoen5pho",
"Rufous-tailed Rock-Thrush","spMontisax",
"Blue Rock-Thrush","spMontisol","rarity"
"Whinchat","spSaxicrub",
"African Stonechat","spSaxictor",
"Mocking Cliff-Chat","spThamn4cin",
"Northern Anteater-Chat","spMyrme2aet",
"Northern Wheatear","spOenanoen",
"Atlas Wheatear","spOenansee",
"Isabelline Wheatear","spOenanisa",
"Heuglin's Wheatear","spOenanheu",
"Desert Wheatear","spOenandes",
"Western Black-eared Wheatear","spOenanhis",
"White-fronted Black-Chat","spOenanalb",
"Blackstart","spOenanmel1",
"Familiar Chat","spOenanfam",
"White-crowned Wheatear","spOenanleu1",
"Fraser's Sunbird","spDeleofra",
"Mouse-brown Sunbird","spAnthr3gab",
"Western Violet-backed Sunbird","spAnthr3lon",
"Yellow-chinned Sunbird","spAnthr3rec",
"Collared Sunbird","spHedydcol",
"Pygmy Sunbird","spHedydpla",
"Green-headed Sunbird","spCyano12ver",
"Scarlet-chested Sunbird","spChalc5sen",
"Beautiful Sunbird","spCinny2pul",
"Splendid Sunbird","spCinny2coc",
"Johanna's Sunbird","spCinny2joh",
"Superb Sunbird","spCinny2sup",
"Variable Sunbird","spCinny2ven",
"Copper Sunbird","spCinny2cup",
"White-billed Buffalo-Weaver","spBubalalb",
"Speckle-fronted Weaver","spSporofro",
"Chestnut-crowned Sparrow-Weaver","spPloce1sup",
"Blue-billed Malimbe","spMalimnit",
"Red-headed Weaver","spAnaplrub",
"Little Weaver","spPloce2lut",
"Olive-naped Weaver","spPloce2bra",
"Vitelline Masked-Weaver","spPloce2vit",
"Heuglin's Masked-Weaver","spPloce2heu",
"Village Weaver","spPloce2cuc",
"Black-headed Weaver","spPloce2mel1",
"Red-headed Quelea","spQueleery",
"Red-billed Quelea","spQueleque",
"Northern Red Bishop","spEuplefra",
"Black-winged Bishop","spEuplehor",
"Yellow-crowned Bishop","spEupleafe",
"Yellow-mantled Widowbird","spEuplemac","rarity"
"Red-collared Widowbird","spEupleard",
"Fan-tailed Widowbird","spEupleaxi",
"Bronze Mannikin","spSpermcuc",
"Magpie Mannikin","spSpermfri",
"Black-and-white Mannikin","spSpermbic",
"African Silverbill","spEuodican",
"Gray-headed Oliveback","spDelaccap",
"Lavender Waxbill","spGlauc2cae",
"Orange-cheeked Waxbill","spEstrimel",
"Common Waxbill","spEstriast","rarity"
"Black-rumped Waxbill","spEstritro",
"Quailfinch","spOrtyg1atr",
"Cut-throat","spAmadifas",
"Zebra Waxbill","spAmandsub",
"Red-cheeked Cordonbleu","spUraegben",
"Green-winged Pytilia","spPytilmel",
"Red-winged Pytilia","spPytilpho",
"Dybowski's Twinspot","spEuschdyb",
"Red-billed Firefinch","spLagonsen",
"African Firefinch","spLagonrub","rarity"
"Mali Firefinch","spLagonvir",
"Black-bellied Firefinch","spLagonrar",
"Bar-breasted Firefinch","spLagonruf",
"Black-faced Firefinch","spLagonlar",
"Pin-tailed Whydah","spViduamac",
"Sahel Paradise-Whydah","spViduaori",
"Exclamatory Paradise-Whydah","spViduaint",
"Togo Paradise-Whydah","spViduatog",
"Village Indigobird","spViduacha",
"Quailfinch Indigobird","spViduanig",
"Barka Indigobird","spVidualar",
"Cameroon Indigobird","spViduacam",
"Parasitic Weaver","spAnomaimb","rarity"
"House Sparrow","spPassedom","rarity-from-introduced"
"Northern Gray-headed Sparrow","spPassegri",
"Desert Sparrow","spPassesim",
"Sudan Golden Sparrow","spPasselut",
"Yellow-spotted Bush Sparrow","spGymno10pyr",
"Sahel Bush Sparrow","spGymno10den",
"Gray Wagtail","spMotaccin",
"Western Yellow Wagtail","spMotacfla1",
"African Pied Wagtail","spMotacagu",
"White Wagtail","spMotacalb",
"Long-billed Pipit","spAnthusim",
"Tawny Pipit","spAnthucam",
"Plain-backed Pipit","spAnthuleu",
"Tree Pipit","spAnthutri",
"Red-throated Pipit","spAnthucer",
"Yellow-throated Longclaw","spMacro6cro",
"Trumpeter Finch","spBucangit",
"White-rumped Seedeater","spCrithleu",
"Yellow-fronted Canary","spCrithmoz",
"West African Seedeater","spCrithcan",
"Brown-rumped Bunting","spEmberaff",
"Ortolan Bunting","spEmberhor",
"Cabanis's Bunting","spEmbercab","rarity"
"Golden-breasted Bunting","spEmberfla",
"Gosling's Bunting","spEmbergos",
"House Bunting","spEmbersah",
