"Name","ID","Status"
"Lesser Whistling-Duck","spDendrjav","rarity"
"Bar-headed Goose","spAnser1ind",
"Graylag Goose","spAnser1ans",
"Swan Goose","spAnser1cyg",
"Greater White-fronted Goose","spAnser1alb",
"Lesser White-fronted Goose","spAnser1ery","rarity"
"Taiga Bean-Goose","spAnser1fab",
"Tundra Bean-Goose","spAnser1ser",
"Brant","spBrantber","rarity"
"Barnacle Goose","spBrantleu","rarity"
"Canada Goose","spBrantcan","rarity"
"Red-breasted Goose","spBrantruf","rarity"
"Mute Swan","spCygnuolo",
"Tundra Swan","spCygnucol",
"Whooper Swan","spCygnucyg",
"Ruddy Shelduck","spTadorfer",
"Common Shelduck","spTadortad1",
"Mandarin Duck","spAixgal",
"Baikal Teal","spSibirfor",
"Garganey","spSpatuque",
"Northern Shoveler","spSpatucly",
"Gadwall","spMarecstr",
"Falcated Duck","spMarecfal",
"Eurasian Wigeon","spMarecpen",
"Eastern Spot-billed Duck","spAnaszon",
"Mallard","spAnaspla",
"Northern Pintail","spAnasacu",
"Green-winged Teal","spAnascre",
"Red-crested Pochard","spNetta1ruf",
"Common Pochard","spAythyfer",
"Ferruginous Duck","spAythynyr",
"Baer's Pochard","spAythybae",
"Tufted Duck","spAythyful",
"Greater Scaup","spAythymar","rarity"
"Harlequin Duck","spHistrhis","rarity"
"Velvet Scoter","spMelanfus","rarity"
"Stejneger's Scoter","spMelanste",
"Long-tailed Duck","spClanghye","rarity"
"Common Goldeneye","spBucepcla",
"Smew","spMergealb",
"Common Merganser","spMergumer",
"Red-breasted Merganser","spMerguser",
"White-headed Duck","spOxyurleu",
"Hazel Grouse","spTetra1bon",
"Willow Ptarmigan","spLagoplag",
"Rock Ptarmigan","spLagopmut",
"Western Capercaillie","spTetra2uro",
"Black-billed Capercaillie","spTetra2uro1",
"Black Grouse","spLyrurtet",
"Daurian Partridge","spPerdidau",
"Ring-necked Pheasant","spPhasicol",
"Altai Snowcock","spTetra3alt",
"Common Quail","spCoturcot",
"Japanese Quail","spCoturjap",
"Chukar","spAlect1chu",
"Rock Pigeon","spColumliv",
"Hill Pigeon","spColumrup",
"Stock Dove","spColumoen",
"Yellow-eyed Pigeon","spColumeve","rarity"
"Common Wood-Pigeon","spColumpal",
"European Turtle-Dove","spStreptur",
"Oriental Turtle-Dove","spStrepori",
"Eurasian Collared-Dove","spStrepdec",
"Red Collared-Dove","spStreptra","rarity"
"Laughing Dove","spSpilosen","rarity"
"Pallas's Sandgrouse","spSyrrhpar",
"Great Bustard","spOtistar",
"Asian Houbara","spChlammac",
"Lesser Cuckoo","spCuculpol","rarity"
"Indian Cuckoo","spCuculmic","rarity"
"Common Cuckoo","spCuculcan",
"Oriental Cuckoo","spCuculopt",
"Gray Nightjar","spCaprijot",
"Eurasian Nightjar","spCaprieur",
"White-throated Needletail","spHiruncau",
"Common Swift","spApusapu",
"Pacific Swift","spApuspac",
"Brown-cheeked Rail","spRalluind",
"Corn Crake","spCrexcre",
"Spotted Crake","spPorzapor",
"Eurasian Moorhen","spGalli3chl",
"Eurasian Coot","spFulicatr",
"White-breasted Waterhen","spAmaur1pho","rarity"
"Ruddy-breasted Crake","spZaporfus","rarity"
"Band-bellied Crake","spZaporpay","rarity"
"Little Crake","spZaporpar","rarity"
"Baillon's Crake","spZaporpus",
"Swinhoe's Rail","spCotur1exq",
"Demoiselle Crane","spAnthr1vir",
"Siberian Crane","spLeuco2leu",
"Sandhill Crane","spAntigcan","rarity"
"White-naped Crane","spAntigvip",
"Common Crane","spGrusgru",
"Hooded Crane","spGrusmon",
"Black-necked Crane","spGrusnig","rarity"
"Red-crowned Crane","spGrusjap","rarity"
"Eurasian Thick-knee","spBurhioed","rarity"
"Black-winged Stilt","spHiman1him",
"Pied Avocet","spRecuravo",
"Eurasian Oystercatcher","spHaema1ost","rarity"
"Black-bellied Plover","spPluvi2squ",
"Pacific Golden-Plover","spPluvi2ful",
"Eurasian Dotterel","spEudro1mor",
"Common Ringed Plover","spCharahia",
"Little Ringed Plover","spThinodub",
"Long-billed Plover","spThinopla","rarity"
"Northern Lapwing","spVanelvan",
"Gray-headed Lapwing","spVanelcin",
"Sociable Lapwing","spVanelgre","rarity"
"Oriental Plover","spAnarhver",
"Siberian Sand-Plover","spAnarhmon",
"Tibetan Sand-Plover","spAnarhatr",
"Greater Sand-Plover","spAnarhles",
"Kentish Plover","spAnarhale",
"Greater Painted-Snipe","spRostrben","rarity"
"Whimbrel","spNumenpha",
"Little Curlew","spNumenmin",
"Far Eastern Curlew","spNumenmad",
"Eurasian Curlew","spNumenarq",
"Bar-tailed Godwit","spLimoslap","rarity"
"Black-tailed Godwit","spLimoslim",
"Asian Dowitcher","spLimnosem",
"Long-billed Dowitcher","spLimnosco","rarity"
"Jack Snipe","spLymnomin","rarity"
"Eurasian Woodcock","spScolorus",
"Solitary Snipe","spGalli5sol",
"Swinhoe's Snipe","spGalli5meg",
"Pin-tailed Snipe","spGalli5ste",
"Common Snipe","spGalli5gal",
"Red Phalarope","spPhala1ful","rarity"
"Red-necked Phalarope","spPhala1lob",
"Terek Sandpiper","spXenuscin",
"Common Sandpiper","spActithyp",
"Green Sandpiper","spTringoch",
"Gray-tailed Tattler","spTringbre",
"Wandering Tattler","spTringinc","rarity"
"Marsh Sandpiper","spTringsta",
"Wood Sandpiper","spTringgla",
"Common Redshank","spTringtot",
"Spotted Redshank","spTringery",
"Common Greenshank","spTringneb",
"Ruddy Turnstone","spArenaint",
"Great Knot","spCalidten","rarity"
"Red Knot","spCalidcan",
"Ruff","spCalidpug",
"Broad-billed Sandpiper","spCalidfal",
"Sharp-tailed Sandpiper","spCalidacu",
"Curlew Sandpiper","spCalidfer",
"Temminck's Stint","spCalidtem",
"Long-toed Stint","spCalidsub",
"Red-necked Stint","spCalidruf",
"Buff-breasted Sandpiper","spCalidsub1","rarity"
"Sanderling","spCalidalb",
"Dunlin","spCalidalp",
"Baird's Sandpiper","spCalidbai","rarity"
"Little Stint","spCalidmin",
"Pectoral Sandpiper","spCalidmel","rarity"
"Yellow-legged Buttonquail","spTurnitan","rarity"
"Collared Pratincole","spGlarepra","rarity"
"Oriental Pratincole","spGlaremal",
"Long-tailed Jaeger","spSterclon","rarity"
"Parasitic Jaeger","spStercpar","rarity"
"Pomarine Jaeger","spStercpom","rarity"
"Little Gull","spHydro3min",
"Ross's Gull","spRhodo2ros","rarity"
"Black-legged Kittiwake","spRissatri","rarity"
"Slender-billed Gull","spChroigen","rarity"
"Black-headed Gull","spChroirid",
"Brown-headed Gull","spChroibru","rarity"
"Pallas's Gull","spIchthich",
"Relict Gull","spIchthrel",
"Black-tailed Gull","spLaruscra","rarity"
"Common Gull","spLaruscan",
"Vega Gull","spLarusveg",
"Mongolian Gull","spLarusmon",
"Glaucous Gull","spLarushyp","rarity"
"Lesser Black-backed Gull","spLarusfus","rarity"
"Little Tern","spStern1alb",
"Gull-billed Tern","spGelocnil",
"Caspian Tern","spHydro4cas",
"Whiskered Tern","spChlidhyb",
"Black Tern","spChlidnig",
"White-winged Tern","spChlidleu",
"Arctic Tern","spStern2par","rarity"
"Common Tern","spStern2hir1",
"Greater Flamingo","spPhoenros",
"Little Grebe","spTachy2ruf1",
"Horned Grebe","spPodic1aur",
"Red-necked Grebe","spPodic1gri",
"Great Crested Grebe","spPodic1cri",
"Eared Grebe","spPodic1nig",
"Red-throated Loon","spGaviaste",
"Arctic Loon","spGaviaarc",
"Black Stork","spCiconnig",
"Oriental Stork","spCiconboy","rarity"
"Great Cormorant","spPhala2car",
"Glossy Ibis","spPlegafal","rarity"
"Black-headed Ibis","spThresmel","rarity"
"Eurasian Spoonbill","spPlataleu",
"Eurasian Bittern","spBotauste",
"Schrenck's Bittern","spBotaueur","rarity"
"Little Bittern","spBotaumin",
"Black-crowned Night Heron","spNycti6nyc",
"Little Egret","spEgretgar","rarity"
"Striated Heron","spButorstr","rarity"
"Chinese Pond-Heron","spArdeo1bac",
"Eastern Cattle-Egret","spArdeacor","rarity"
"Great Egret","spArdeaalb",
"Medium Egret","spArdeaint","rarity"
"Gray Heron","spArdeacin",
"Purple Heron","spArdeapur",
"Dalmatian Pelican","spPelec1cri",
"Osprey","spPandihal",
"Bearded Vulture","spGypaebar",
"Egyptian Vulture","spNeophper","rarity"
"European Honey-buzzard","spPerniapi","rarity"
"Oriental Honey-buzzard","spPernipti",
"Cinereous Vulture","spAegypmon",
"Himalayan Griffon","spGypshim",
"Eurasian Griffon","spGypsful",
"Short-toed Snake-Eagle","spCircagal",
"Mountain Hawk-Eagle","spNisaenip","rarity"
"Greater Spotted Eagle","spClang1cla",
"Booted Eagle","spHierapen",
"Steppe Eagle","spAquilnip",
"Imperial Eagle","spAquilhel",
"Golden Eagle","spAquilchr",
"Bonelli's Eagle","spAquilfas","rarity"
"Japanese Sparrowhawk","spTachy3gul",
"Shikra","spTachy3bad","rarity"
"Eurasian Sparrowhawk","spAccipnis",
"Eurasian Goshawk","spAsturgen",
"Western Marsh Harrier","spCircuaer",
"Eastern Marsh Harrier","spCircuspi",
"Hen Harrier","spCircucya",
"Pallid Harrier","spCircumac1",
"Pied Harrier","spCircumel",
"Montagu's Harrier","spCircupyg","rarity"
"Black Kite","spMilvumig",
"White-tailed Eagle","spHalia1alb",
"Pallas's Fish-Eagle","spHalia1leu1",
"Gray-faced Buzzard","spButasind","rarity"
"Rough-legged Hawk","spButeo1lag",
"Common Buzzard","spButeo1but",
"Long-legged Buzzard","spButeo1ruf1",
"Upland Buzzard","spButeo1hem",
"Eastern Buzzard","spButeo1jap",
"Eurasian Scops-Owl","spOtussco",
"Oriental Scops-Owl","spOtussun",
"Snowy Owl","spBubosca",
"Eurasian Eagle-Owl","spBubobub",
"Northern Hawk Owl","spSurni1ulu",
"Eurasian Pygmy-Owl","spGlauc1pas",
"Little Owl","spAthennoc",
"Ural Owl","spStrixura",
"Great Gray Owl","spStrixneb",
"Long-eared Owl","spAsiootu",
"Short-eared Owl","spAsiofla",
"Boreal Owl","spAegolfun",
"Eurasian Hoopoe","spUpupaepo",
"Blue-cheeked Bee-eater","spMerop1per","rarity"
"European Bee-eater","spMerop1api",
"Common Kingfisher","spAlcedatt",
"Black-capped Kingfisher","spHalcypil","rarity"
"European Roller","spCoracgar","rarity"
"Dollarbird","spEurysori","rarity"
"Eurasian Wryneck","spJynxtor",
"Eurasian Three-toed Woodpecker","spPicoitri",
"Rufous-bellied Woodpecker","spDendr5hyp","rarity"
"White-backed Woodpecker","spDendr5leu",
"Great Spotted Woodpecker","spDendr5maj",
"Lesser Spotted Woodpecker","spDryobmin",
"Gray-headed Woodpecker","spPicuscan",
"Black Woodpecker","spDryocmar",
"Lesser Kestrel","spFalconau",
"Eurasian Kestrel","spFalcotin",
"Red-footed Falcon","spFalcoves","rarity"
"Amur Falcon","spFalcoamu",
"Merlin","spFalcocol",
"Eurasian Hobby","spFalcosub",
"Saker Falcon","spFalcoche",
"Gyrfalcon","spFalcorus","rarity"
"Peregrine Falcon","spFalcoper",
"Ashy Minivet","spPericdiv","rarity"
"Eurasian Golden Oriole","spOriolori",
"Black-naped Oriole","spOriolchi","rarity"
"Black Drongo","spDicrumac","rarity"
"Ashy Drongo","spDicruleu","rarity"
"Hair-crested Drongo","spDicruhot","rarity"
"Bull-headed Shrike","spLaniubuc","rarity"
"Red-backed Shrike","spLaniucol","rarity"
"Red-tailed Shrike","spLaniupho",
"Isabelline Shrike","spLaniuisa",
"Brown Shrike","spLaniucri",
"Long-tailed Shrike","spLaniusch","rarity"
"Northern Shrike","spLaniubor",
"Great Gray Shrike","spLaniuexc",
"Lesser Gray Shrike","spLaniumin",
"Chinese Gray Shrike","spLaniusph",
"Siberian Jay","spPeris1inf",
"Eurasian Jay","spGarrugla",
"Azure-winged Magpie","spCyano9cya",
"Oriental Magpie","spPicaser",
"Eurasian Magpie","spPicapic",
"Mongolian Ground-Jay","spPodochen",
"Northern Nutcracker","spNucifcar",
"Red-billed Chough","spPyrrh3pyr",
"Yellow-billed Chough","spPyrrh3gra","rarity"
"Eurasian Jackdaw","spColoemon",
"Daurian Jackdaw","spColoedau",
"Rook","spCorvufru",
"Carrion Crow","spCorvucor",
"Hooded Crow","spCorvucor1","rarity"
"Large-billed Crow","spCorvumac",
"Common Raven","spCorvucor3",
"Coal Tit","spPeripate",
"Marsh Tit","spPoeci2pal",
"Willow Tit","spPoeci2mon",
"Gray-headed Chickadee","spPoeci2cin",
"Azure Tit","spCyanicya",
"Great Tit","spParusmaj",
"Asian Tit","spParuscin","rarity"
"White-crowned Penduline-Tit","spRemizcor",
"Chinese Penduline-Tit","spRemizcon","rarity"
"White-winged Lark","spAlaudleu","rarity"
"Eurasian Skylark","spAlaudarv",
"Crested Lark","spGalercri",
"Horned Lark","spEremo1alp",
"Greater Short-toed Lark","spCalanbra",
"Mongolian Short-toed Lark","spCalanduk",
"Mongolian Lark","spMelan9mon",
"Black Lark","spMelan9yel","rarity"
"Asian Short-toed Lark","spAlaud1che",
"Turkestan Short-toed Lark","spAlaud1hei",
"Bearded Reedling","spPanurbia",
"Thick-billed Warbler","spArund1aed",
"Booted Warbler","spIdunacal",
"Black-browed Reed Warbler","spAcroc1bis",
"Paddyfield Warbler","spAcroc1agr",
"Blyth's Reed Warbler","spAcroc1dum",
"Great Reed Warbler","spAcroc1aru",
"Oriental Reed Warbler","spAcroc1ori1",
"Clamorous Reed Warbler","spAcroc1ste","rarity"
"Gray's Grasshopper Warbler","spHelopfas",
"Marsh Grassbird","spHeloppry",
"Pallas's Grasshopper Warbler","spHelopcer",
"Lanceolated Warbler","spLocuslan",
"Savi's Warbler","spLocuslus",
"Common Grasshopper Warbler","spLocusnae",
"Chinese Bush Warbler","spLocustac",
"Baikal Bush Warbler","spLocusdav",
"Spotted Bush Warbler","spLocustho","rarity"
"Bank Swallow","spRiparrip",
"Pale Martin","spRipardil",
"Eurasian Crag-Martin","spPtyonrup",
"Barn Swallow","spHirun2rus",
"Western House-Martin","spDelicurb",
"Siberian House-Martin","spDeliclag",
"Asian House-Martin","spDelicdas",
"Eastern Red-rumped Swallow","spCecrodau",
"Wood Warbler","spPhyll5sib",
"Yellow-browed Warbler","spPhyll5ino",
"Hume's Warbler","spPhyll5hum",
"Pallas's Leaf Warbler","spPhyll5pro",
"Radde's Warbler","spPhyll5sch",
"Yellow-streaked Warbler","spPhyll5arm","rarity"
"Sulphur-bellied Warbler","spPhyll5gri",
"Tickell's Leaf Warbler","spPhyll5aff","rarity"
"Dusky Warbler","spPhyll5fus",
"Willow Warbler","spPhyll5tro",
"Common Chiffchaff","spPhyll5col",
"Eastern Crowned Warbler","spPhyll5cor","rarity"
"Greenish Warbler","spPhyll5tro1",
"Two-barred Warbler","spPhyll5plu",
"Pale-legged Leaf Warbler","spPhyll5ten",
"Arctic Warbler","spPhyll5bor1",
"Rufous-faced Warbler","spAbrosalb","rarity"
"Manchurian Bush Warbler","spHororcan","rarity"
"Long-tailed Tit","spAegit1cau",
"Eurasian Blackcap","spSylvi3atr","rarity"
"Garden Warbler","spSylvi3bor","rarity"
"Barred Warbler","spCurrunis",
"Lesser Whitethroat","spCurrucur",
"Asian Desert Warbler","spCurrunan",
"Greater Whitethroat","spCurrucom",
"Beijing Babbler","spRhopo1pek","rarity"
"Reed Parrotbill","spParad3heu",
"Vinous-throated Parrotbill","spSuthoweb","rarity"
"Chestnut-flanked White-eye","spZoste1ery","rarity"
"Goldcrest","spRegulreg",
"Wallcreeper","spTichomur",
"Eurasian Nuthatch","spSitta1eur",
"Eurasian Treecreeper","spCerth4fam",
"Eurasian Wren","spTrogltro",
"White-throated Dipper","spCincl3cin",
"European Starling","spSturnvul",
"Rosy Starling","spPastoros",
"Daurian Starling","spAgropstu",
"Red-billed Starling","spSpodiser","rarity"
"White-cheeked Starling","spSpodicin",
"Common Myna","spAcridtri","rarity"
"Crested Myna","spAcridcri","rarity"
"White's Thrush","spZoothaur",
"Siberian Thrush","spGeokisib",
"Mistle Thrush","spTurduvis",
"Song Thrush","spTurduphi",
"Redwing","spTurduili",
"Eurasian Blackbird","spTurdumer","rarity"
"Eyebrowed Thrush","spTurduobs1",
"Fieldfare","spTurdupil",
"Chestnut Thrush","spTurdurub","rarity"
"Black-throated Thrush","spTurduatr",
"Red-throated Thrush","spTurduruf4",
"Dusky Thrush","spTurdueun",
"Naumann's Thrush","spTurdunau",
"Gray-streaked Flycatcher","spMusci3gri","rarity"
"Dark-sided Flycatcher","spMusci3sib",
"Asian Brown Flycatcher","spMusci3dau",
"Spotted Flycatcher","spMusci3str",
"European Robin","spErithrub","rarity"
"Rufous-tailed Robin","spLarvisib",
"Siberian Blue Robin","spLarvicya",
"Common Nightingale","spLuscimeg",
"Bluethroat","spLuscisve",
"Siberian Rubythroat","spCalli2cal",
"Red-flanked Bluetail","spTarsicya",
"Yellow-rumped Flycatcher","spFicedzan",
"Narcissus Flycatcher","spFicednar","rarity"
"Mugimaki Flycatcher","spFicedmug",
"Slaty-backed Flycatcher","spFicederi","rarity"
"Taiga Flycatcher","spFicedalb",
"European Pied Flycatcher","spFicedhyp1","rarity"
"Rufous-backed Redstart","spPhoen5ery",
"White-capped Redstart","spPhoen5leu",
"Common Redstart","spPhoen5pho",
"White-winged Redstart","spPhoen5ery1",
"Black Redstart","spPhoen5och",
"Daurian Redstart","spPhoen5aur",
"White-throated Rock-Thrush","spMontigul",
"Rufous-tailed Rock-Thrush","spMontisax",
"Blue Rock-Thrush","spMontisol",
"White-throated Bushchat","spSaxicins",
"Siberian Stonechat","spSaxicmau",
"Amur Stonechat","spSaxicste",
"Northern Wheatear","spOenanoen",
"Isabelline Wheatear","spOenanisa",
"Desert Wheatear","spOenandes",
"Pied Wheatear","spOenanple",
"Bohemian Waxwing","spBombygar",
"Japanese Waxwing","spBombyjap","rarity"
"Alpine Accentor","spPrunecol",
"Altai Accentor","spPrunehim",
"Siberian Accentor","spPrunemon",
"Brown Accentor","spPruneful",
"Black-throated Accentor","spPruneatr",
"Mongolian Accentor","spPrunekos",
"Saxaul Sparrow","spPasseamm",
"House Sparrow","spPassedom",
"Eurasian Tree Sparrow","spPassemon",
"Rock Sparrow","spPetro3pet",
"White-winged Snowfinch","spMonti1niv",
"Pere David's Snowfinch","spPyrgidav",
"Forest Wagtail","spDendr12ind","rarity"
"Gray Wagtail","spMotaccin",
"Western Yellow Wagtail","spMotacfla1",
"Eastern Yellow Wagtail","spMotactsc",
"Citrine Wagtail","spMotaccit",
"White Wagtail","spMotacalb",
"Richard's Pipit","spAnthuric",
"Blyth's Pipit","spAnthugod",
"Tawny Pipit","spAnthucam",
"Rosy Pipit","spAnthuros","rarity"
"Tree Pipit","spAnthutri",
"Olive-backed Pipit","spAnthuhod",
"Pechora Pipit","spAnthugus",
"Red-throated Pipit","spAnthucer",
"Water Pipit","spAnthuspi",
"Siberian Pipit","spAnthujap",
"Common Chaffinch","spFringcoe",
"Brambling","spFringmon",
"Hawfinch","spCocco1coc",
"Yellow-billed Grosbeak","spEophomig","rarity"
"Japanese Grosbeak","spEophoper","rarity"
"Common Rosefinch","spCarpo4ery",
"Red-mantled Rosefinch","spCarpo4rho",
"Himalayan Beautiful Rosefinch","spCarpo4pul",
"Chinese Beautiful Rosefinch","spCarpo4dav",
"Great Rosefinch","spCarpo4rub1",
"Long-tailed Rosefinch","spCarpo4sib",
"Pallas's Rosefinch","spCarpo4ros",
"Pine Grosbeak","spPinicenu",
"Eurasian Bullfinch","spPyrrh4pyr",
"Mongolian Finch","spBucanmon",
"Plain Mountain Finch","spLeuco9nem",
"Black-headed Mountain Finch","spLeuco9bra",
"Asian Rosy-Finch","spLeuco9arc",
"Desert Finch","spRhodo5obs","rarity"
"European Greenfinch","spChlor11chl",
"Oriental Greenfinch","spChlor11sin",
"Twite","spLinarfla",
"Eurasian Linnet","spLinarcan",
"Redpoll","spAcant5fla",
"Red Crossbill","spLoxiacur",
"White-winged Crossbill","spLoxialeu",
"European Goldfinch","spCarducar",
"Gray-crowned Goldfinch","spCarducan",
"Fire-fronted Serin","spSerinpus","rarity"
"Eurasian Siskin","spSpinuspi",
"Lapland Longspur","spCalcalap",
"Snow Bunting","spPlect2niv",
"Black-headed Bunting","spEmbermel","rarity"
"Red-headed Bunting","spEmberbru",
"Chestnut-eared Bunting","spEmberfuc",
"Rufous-backed Bunting","spEmberjan","rarity"
"Rock Bunting","spEmbercia",
"Godlewski's Bunting","spEmbergod",
"Meadow Bunting","spEmbercio",
"Yellowhammer","spEmbercit",
"Pine Bunting","spEmberleu",
"Gray-necked Bunting","spEmberbuc",
"Ortolan Bunting","spEmberhor",
"Yellow-throated Bunting","spEmberele","rarity"
"Ochre-rumped Bunting","spEmberyes",
"Pallas's Bunting","spEmberpal",
"Reed Bunting","spEmbersch",
"Yellow-breasted Bunting","spEmberaur",
"Little Bunting","spEmberpus",
"Rustic Bunting","spEmberrus",
"Black-faced Bunting","spEmberspo",
"Chestnut Bunting","spEmberrut",
"Yellow-browed Bunting","spEmberchr",
"Tristram's Bunting","spEmbertri",
