"Name","ID","Status"
"Great Tinamou","spTinammaj",
"Little Tinamou","spCryptsou",
"Slaty-breasted Tinamou","spCryptbou",
"Thicket Tinamou","spCryptcin1",
"Black-bellied Whistling-Duck","spDendraut",
"Fulvous Whistling-Duck","spDendrbic",
"Muscovy Duck","spCairimos",
"Blue-winged Teal","spSpatudis",
"Cinnamon Teal","spSpatucya",
"Northern Shoveler","spSpatucly",
"American Wigeon","spMarecame",
"Mallard","spAnaspla","rarity"
"Northern Pintail","spAnasacu",
"Green-winged Teal","spAnascre",
"Canvasback","spAythyval","rarity"
"Redhead","spAythyame","rarity"
"Ring-necked Duck","spAythycol",
"Greater Scaup","spAythymar","rarity"
"Lesser Scaup","spAythyaff",
"Red-breasted Merganser","spMerguser","rarity"
"Masked Duck","spNomondom",
"Ruddy Duck","spOxyurjam",
"Plain Chachalaca","spOrtalvet",
"Gray-headed Chachalaca","spOrtalcin",
"White-bellied Chachalaca","spOrtalleu",
"Crested Guan","spPenelpur",
"Highland Guan","spPenel1nig",
"Great Curassow","spCraxrub",
"Tawny-faced Quail","spRhync1cin",
"Buffy-crowned Wood-Partridge","spDendr1leu",
"Black-throated Bobwhite","spColinnig",
"Spot-bellied Bobwhite","spColinleu",
"Ocellated Quail","spCyrtooce",
"Black-eared Wood-Quail","spOdontmel",
"Spotted Wood-Quail","spOdontgut",
"Rock Pigeon","spColumliv","introduced"
"Pale-vented Pigeon","spPatagcay",
"Scaled Pigeon","spPatagspe",
"White-crowned Pigeon","spPatagleu",
"Red-billed Pigeon","spPatagfla",
"Band-tailed Pigeon","spPatagfas",
"Short-billed Pigeon","spPatagnig",
"Eurasian Collared-Dove","spStrepdec","rarity-from-introduced"
"Inca Dove","spColum1inc",
"Common Ground Dove","spColum1pas",
"Plain-breasted Ground Dove","spColum1min",
"Ruddy Ground Dove","spColum1tal",
"Blue Ground Dove","spClarapre",
"Maroon-chested Ground Dove","spParacmon","rarity"
"Ruddy Quail-Dove","spGeotrmon",
"Violaceous Quail-Dove","spGeotrvio",
"Olive-backed Quail-Dove","spLeptover","rarity"
"White-tipped Dove","spLepto1ver",
"Gray-chested Dove","spLepto1cas",
"Gray-headed Dove","spLepto1plu",
"White-faced Quail-Dove","spZentralb",
"White-winged Dove","spZenaiasi",
"Mourning Dove","spZenaimac",
"Smooth-billed Ani","spCrotoani",
"Groove-billed Ani","spCrotosul",
"Striped Cuckoo","spTapernae",
"Pheasant Cuckoo","spDromopha",
"Lesser Ground-Cuckoo","spMorocery",
"Lesser Roadrunner","spGeocovel",
"Rufous-vented Ground-Cuckoo","spNeomogeo","rarity"
"Squirrel Cuckoo","spPiayacay",
"Dark-billed Cuckoo","spCoccy1mel","rarity"
"Yellow-billed Cuckoo","spCoccy1ame",
"Mangrove Cuckoo","spCoccy1min",
"Black-billed Cuckoo","spCoccy1ery","rarity"
"Lesser Nighthawk","spChordacu",
"Common Nighthawk","spChordmin",
"Short-tailed Nighthawk","spLurocsem",
"Common Pauraque","spNycti2alb",
"Spot-tailed Nightjar","spAntiumac",
"Ocellated Poorwill","spNycti3oce","rarity"
"Chuck-will's-widow","spAntrocar",
"Rufous Nightjar","spAntroruf","rarity"
"Tawny-collared Nightjar","spAntrosal","rarity"
"Buff-collared Nightjar","spAntrorid",
"Eastern Whip-poor-will","spAntrovoc",
"Mexican Whip-poor-will","spAntroari","rarity"
"Great Potoo","spNycti4gra",
"Common Potoo","spNycti4gri",
"Northern Potoo","spNycti4jam",
"Black Swift","spCypsenig",
"White-chinned Swift","spCypsecry",
"Chestnut-collared Swift","spStrep1rut",
"White-collared Swift","spStrep1zon",
"Gray-rumped Swift","spChaetcin",
"Chimney Swift","spChaetpel",
"Vaux's Swift","spChaetvau",
"Lesser Swallow-tailed Swift","spPanypcay",
"Great Swallow-tailed Swift","spPanypsan",
"White-necked Jacobin","spFlorimel",
"Bronzy Hermit","spGlaucaen",
"Band-tailed Barbthroat","spThrenruc",
"Long-billed Hermit","spPhaetlon",
"Stripe-throated Hermit","spPhaetstr",
"Brown Violetear","spColibdel",
"Mexican Violetear","spColibtha",
"Purple-crowned Fairy","spHeliobar",
"Black-throated Mango","spAnthrnig","rarity"
"Green-breasted Mango","spAnthrpre",
"Black-crested Coquette","spLopho5hel",
"Rivoli's Hummingbird","spEugenful",
"Long-billed Starthroat","spHelio2lon",
"Plain-capped Starthroat","spHelio2con",
"Green-breasted Mountain-gem","spLamposyb",
"Purple-throated Mountain-gem","spLampocal",
"Sparkling-tailed Hummingbird","spTilmadup",
"Ruby-throated Hummingbird","spArchicol",
"Canivet's Emerald","spCynancan",
"White-eared Hummingbird","spBasilleu",
"Violet-headed Hummingbird","spKlaisgui",
"Emerald-chinned Hummingbird","spAbeilabe",
"Violet Sabrewing","spCampyhem",
"Bronze-tailed Plumeleteer","spChalyuro",
"Crowned Woodnymph","spThalucol",
"Snowcap","spMicro3alb",
"Stripe-tailed Hummingbird","spEupheexi",
"Scaly-breasted Hummingbird","spPhaeo1cuv",
"Azure-crowned Hummingbird","spSaucecya",
"Blue-vented Hummingbird","spSaucehof",
"Blue-tailed Hummingbird","spSaucecya1",
"Cinnamon Hummingbird","spAmazirut",
"Rufous-tailed Hummingbird","spAmazitza",
"Blue-chested Hummingbird","spPolyeama",
"White-bellied Emerald","spChlor1can",
"Blue-throated Goldentail","spChlor1eli",
"Mangrove Rail","spRallulon",
"Spotted Rail","spPardimac",
"Uniform Crake","spAmaurcon",
"Rufous-necked Wood-Rail","spArami1axi",
"Russet-naped Wood-Rail","spArami1alb",
"Sora","spPorzacar",
"Common Gallinule","spGalli3gal",
"American Coot","spFulicame",
"Purple Gallinule","spPorph1mar",
"Yellow-breasted Crake","spLaterfla",
"Ruddy Crake","spLaterrub",
"White-throated Crake","spLateralb",
"Gray-breasted Crake","spLaterexi",
"Black Rail","spLaterjam","rarity"
"Sungrebe","spHelio4ful",
"Limpkin","spAramugua",
"Double-striped Thick-knee","spHespebis",
"Black-necked Stilt","spHiman1mex",
"American Avocet","spRecurame",
"American Oystercatcher","spHaema1pal",
"Black-bellied Plover","spPluvi2squ",
"American Golden-Plover","spPluvi2dom",
"Pacific Golden-Plover","spPluvi2ful","rarity"
"Killdeer","spCharavoc",
"Semipalmated Plover","spCharasem",
"Piping Plover","spCharamel","rarity"
"Southern Lapwing","spVanelchi",
"Wilson's Plover","spAnarhwil",
"Collared Plover","spAnarhcol",
"Snowy Plover","spAnarhniv",
"Northern Jacana","spJacanspi",
"Wattled Jacana","spJacanjac","rarity"
"Upland Sandpiper","spBartrlon",
"Whimbrel","spNumenpha",
"Long-billed Curlew","spNumename",
"Hudsonian Godwit","spLimoshae","rarity"
"Marbled Godwit","spLimosfed",
"Short-billed Dowitcher","spLimnogri",
"Long-billed Dowitcher","spLimnosco",
"Wilson's Snipe","spGalli5del",
"Wilson's Phalarope","spPhala1tri",
"Red Phalarope","spPhala1ful","rarity"
"Red-necked Phalarope","spPhala1lob",
"Spotted Sandpiper","spActitmac",
"Solitary Sandpiper","spTringsol",
"Wandering Tattler","spTringinc",
"Lesser Yellowlegs","spTringfla",
"Willet","spTringsem",
"Greater Yellowlegs","spTringmel",
"Ruddy Turnstone","spArenaint",
"Black Turnstone","spArenamel","rarity"
"Red Knot","spCalidcan","rarity"
"Surfbird","spCalidvir",
"Ruff","spCalidpug","rarity"
"Stilt Sandpiper","spCalidhim",
"Buff-breasted Sandpiper","spCalidsub1",
"Sanderling","spCalidalb",
"Dunlin","spCalidalp","rarity"
"Baird's Sandpiper","spCalidbai","rarity"
"White-rumped Sandpiper","spCalidfus",
"Least Sandpiper","spCalidmin1",
"Pectoral Sandpiper","spCalidmel",
"Western Sandpiper","spCalidmau",
"Semipalmated Sandpiper","spCalidpus",
"Long-tailed Jaeger","spSterclon","rarity"
"Parasitic Jaeger","spStercpar","rarity"
"Pomarine Jaeger","spStercpom",
"Sabine's Gull","spXemasab",
"Bonaparte's Gull","spChroiphi","rarity"
"Laughing Gull","spLeuco3atr",
"Franklin's Gull","spLeuco3pip",
"Ring-billed Gull","spLarusdel","rarity"
"Kelp Gull","spLarusdom","rarity"
"American Herring Gull","spLarussmi",
"Lesser Black-backed Gull","spLarusfus","rarity"
"California Gull","spLaruscal","rarity"
"Black Skimmer","spRynchnig",
"Brown Noddy","spAnoussto",
"Sooty Tern","spOnychfus","rarity"
"Bridled Tern","spOnychana",
"Least Tern","spStern1ant",
"Large-billed Tern","spPhaet1sim","rarity"
"Gull-billed Tern","spGelocnil",
"Caspian Tern","spHydro4cas",
"Black Tern","spChlidnig","rarity"
"Forster's Tern","spStern2for",
"Arctic Tern","spStern2par","rarity"
"Common Tern","spStern2hir1",
"Roseate Tern","spStern2dou","rarity"
"Sandwich Tern","spThala1san",
"Elegant Tern","spThala1ele",
"Royal Tern","spThala1max",
"Least Grebe","spTachy2dom",
"Pied-billed Grebe","spPodilpod",
"Eared Grebe","spPodic1nig","rarity"
"Sunbittern","spEuryphel",
"Red-billed Tropicbird","spPhaet2aet","rarity"
"Leach's Storm-Petrel","spHydro5leu",
"Wedge-rumped Storm-Petrel","spHydro5tet",
"Black Storm-Petrel","spHydro5mel",
"Least Storm-Petrel","spHydro5mic",
"Black-capped Petrel","spPtero3has",
"Tahiti Petrel","spPseudros","rarity"
"Wedge-tailed Shearwater","spArdenpac",
"Sooty Shearwater","spArdengri","rarity"
"Galapagos Shearwater","spPuffisub",
"Black-vented Shearwater","spPuffiopi","rarity"
"Sargasso Shearwater","spPuffilhe","rarity"
"Jabiru","spJabirmyc",
"Wood Stork","spMycteame",
"Magnificent Frigatebird","spFregamag",
"Red-footed Booby","spSulasul","rarity"
"Brown Booby","spSulaleu",
"Cocos Booby","spSulabre",
"Masked Booby","spSuladac",
"Nazca Booby","spSulagra",
"Blue-footed Booby","spSulaneb",
"Anhinga","spAnhinanh",
"Double-crested Cormorant","spNanno1aur","rarity"
"Neotropic Cormorant","spNanno1bra",
"White Ibis","spEudocalb",
"Glossy Ibis","spPlegafal",
"White-faced Ibis","spPlegachi","rarity"
"Green Ibis","spMesemcay",
"Roseate Spoonbill","spPlataaja",
"Rufescent Tiger-Heron","spTigri1lin",
"Bare-throated Tiger-Heron","spTigri1mex",
"Fasciated Tiger-Heron","spTigri1fas","rarity"
"Boat-billed Heron","spCochlcoc",
"Agami Heron","spAgamiaga",
"American Bittern","spBotaulen","rarity"
"Pinnated Bittern","spBotaupin",
"Least Bittern","spBotauexi",
"Yellow-crowned Night Heron","spNyctavio",
"Black-crowned Night Heron","spNycti6nyc",
"Little Blue Heron","spEgretcae",
"Tricolored Heron","spEgrettri",
"Reddish Egret","spEgretruf",
"Snowy Egret","spEgretthu",
"Green Heron","spButorvir",
"Western Cattle-Egret","spArdeaibi",
"Great Egret","spArdeaalb",
"Great Blue Heron","spArdeaher",
"American White Pelican","spPelec1ery",
"Brown Pelican","spPelec1occ",
"King Vulture","spSarcopap",
"Black Vulture","spCoragatr",
"Turkey Vulture","spCathaaur",
"Lesser Yellow-headed Vulture","spCathabur",
"Osprey","spPandihal",
"Pearl Kite","spGampsswa",
"White-tailed Kite","spElanuleu",
"Hook-billed Kite","spChondunc",
"Gray-headed Kite","spLepto3cay",
"Swallow-tailed Kite","spElanofor",
"Black Hawk-Eagle","spSpizatyr",
"Black-and-white Hawk-Eagle","spSpizamel",
"Ornate Hawk-Eagle","spSpizaorn",
"Crested Eagle","spMorphgui","rarity"
"Harpy Eagle","spHarpihar","rarity"
"Sharp-shinned Hawk","spAccipstr",
"Bicolored Hawk","spAsturbic",
"Cooper's Hawk","spAsturcoo",
"Northern Harrier","spCircuhud",
"Tiny Hawk","spMicro7sup",
"Double-toothed Kite","spHarpabid",
"Mississippi Kite","spIctin1mis",
"Plumbeous Kite","spIctin1plu",
"Crane Hawk","spGerancae",
"Black-collared Hawk","spBusarnig",
"Snail Kite","spRostr1soc",
"Barred Hawk","spMorph1pri",
"Common Black Hawk","spButeoant",
"Savanna Hawk","spButeomer","rarity"
"Great Black Hawk","spButeouru",
"Solitary Eagle","spButeosol",
"Roadside Hawk","spRupormag",
"Harris's Hawk","spParabuni",
"White-tailed Hawk","spGeran1alb",
"White Hawk","spPseud2alb",
"Semiplumbeous Hawk","spLeuco5sem",
"Gray Hawk","spButeo1pla",
"Broad-winged Hawk","spButeo1pla1",
"Zone-tailed Hawk","spButeo1alb",
"Short-tailed Hawk","spButeo1bra",
"Swainson's Hawk","spButeo1swa",
"Red-tailed Hawk","spButeo1jam",
"American Barn Owl","spTytofur",
"Whiskered Screech-Owl","spMegastri",
"Middle American Screech-Owl","spMegasgua",
"Pacific Screech-Owl","spMegascoo",
"Crested Owl","spLopho10cri",
"Spectacled Owl","spPulsaper",
"Great Horned Owl","spBubovir",
"Northern Pygmy-Owl","spGlauc1gno",
"Central American Pygmy-Owl","spGlauc1gri",
"Ferruginous Pygmy-Owl","spGlauc1bra",
"Burrowing Owl","spAthencun","rarity"
"Mottled Owl","spStrixvir",
"Black-and-white Owl","spStrixnig",
"Striped Owl","spAsiocla",
"Stygian Owl","spAsiosty",
"Short-eared Owl","spAsiofla","rarity"
"Resplendent Quetzal","spPharomoc",
"Lattice-tailed Trogon","spTrogocla","rarity"
"Slaty-tailed Trogon","spTrogomas",
"Black-headed Trogon","spTrogomel1",
"Gartered Trogon","spTrogocal",
"Northern Black-throated Trogon","spTrogoten",
"Elegant Trogon","spTrogoele",
"Collared Trogon","spTrogocol",
"Tody Motmot","spHylommom",
"Lesson's Motmot","spMomotles",
"Rufous Motmot","spBarypmar",
"Keel-billed Motmot","spElectcar",
"Broad-billed Motmot","spElectpla",
"Turquoise-browed Motmot","spEumomsup",
"Ringed Kingfisher","spMegac1tor",
"Belted Kingfisher","spMegac1alc",
"Amazon Kingfisher","spChlor2ama",
"American Pygmy Kingfisher","spChlor2aen",
"Green Kingfisher","spChlor2ame",
"Green-and-rufous Kingfisher","spChlor2ind",
"White-necked Puffbird","spNothahyp",
"Pied Puffbird","spNothatec",
"White-whiskered Puffbird","spMalac1pan",
"White-fronted Nunbird","spMonasmor",
"Rufous-tailed Jacamar","spGalburuf",
"Great Jacamar","spJacam1aur",
"Northern Emerald-Toucanet","spAulacpra",
"Collared Aracari","spPtero4tor",
"Yellow-eared Toucanet","spSelenspe",
"Yellow-throated Toucan","spRamph2amb",
"Keel-billed Toucan","spRamph2sul",
"Olivaceous Piculet","spPicumoli",
"Yellow-bellied Sapsucker","spSphyrvar",
"Acorn Woodpecker","spMelan2for",
"Black-cheeked Woodpecker","spMelan2puc",
"Hoffmann's Woodpecker","spMelan2hof",
"Golden-fronted Woodpecker","spMelan2aur",
"Ladder-backed Woodpecker","spDryobsca",
"Hairy Woodpecker","spDryobvil",
"Smoky-brown Woodpecker","spDryobfum",
"Pale-billed Woodpecker","spCampegua",
"Lineated Woodpecker","spDryoclin",
"Cinnamon Woodpecker","spCeleulor",
"Chestnut-colored Woodpecker","spCeleucas",
"Rufous-winged Woodpecker","spPiculsim",
"Golden-olive Woodpecker","spColaprub",
"Guatemalan Flicker","spColapmex",
"Laughing Falcon","spHerpecac",
"Collared Forest-Falcon","spMicra1sem",
"Slaty-backed Forest-Falcon","spMicra1mir","rarity"
"Barred Forest-Falcon","spMicra1ruf",
"Crested Caracara","spCaracpla",
"Red-throated Caracara","spIbyctame",
"Yellow-headed Caracara","spDaptrchi",
"American Kestrel","spFalcospa",
"Merlin","spFalcocol",
"Aplomado Falcon","spFalcofem",
"Bat Falcon","spFalcoruf",
"Orange-breasted Falcon","spFalcodei","rarity"
"Peregrine Falcon","spFalcoper",
"Barred Parakeet","spBolbo1lin",
"Orange-chinned Parakeet","spBrotojug",
"Brown-hooded Parrot","spPyrilhae",
"White-crowned Parrot","spPionusen",
"Red-lored Amazon","spAmazo1aut",
"Yellow-naped Amazon","spAmazo1aur",
"White-fronted Amazon","spAmazo1alb",
"Mealy Amazon","spAmazo1far",
"Olive-throated Parakeet","spEupsinan",
"Orange-fronted Parakeet","spEupsican",
"Great Green Macaw","spAraamb",
"Scarlet Macaw","spAramac",
"Green Parakeet","spPsitt6hol",
"Pacific Parakeet","spPsitt6str",
"Crimson-fronted Parakeet","spPsitt6fin",
"Fasciated Antshrike","spCymbi1lin",
"Great Antshrike","spTarabmaj",
"Barred Antshrike","spThamndol",
"Black-crowned Antshrike","spThamnatr",
"Russet Antshrike","spThamn1ana",
"Plain Antvireo","spDysitmen",
"Streak-crowned Antvireo","spDysitstr",
"Checker-throated Stipplethroat","spEpineful",
"White-flanked Antwren","spMyrmoaxi",
"Slaty Antwren","spMyrmosch",
"Dot-winged Antwren","spMicro12qui",
"Dusky Antbird","spCerco1tyr",
"Bare-crowned Antbird","spGymno4nud",
"Chestnut-backed Antbird","spPolio2exs",
"Zeledon's Antbird","spHaffezel","rarity"
"Wing-banded Antbird","spMyrmo6tor",
"Bicolored Antbird","spGymno5bic",
"Spotted Antbird","spHylopnae",
"Ocellated Antbird","spPhaen1mcl",
"Scaled Antpitta","spGrallgua",
"Streak-chested Antpitta","spHylop1per",
"Thicket Antpitta","spMyrmo7div",
"Black-faced Antthrush","spFormi1ana",
"Middle American Leaftosser","spScler1mex",
"Scaly-throated Leaftosser","spScler1gua",
"Olivaceous Woodcreeper","spSittagri",
"Piping Woodcreeper","spDecontyp",
"Ruddy Woodcreeper","spDendr6hom",
"Tawny-winged Woodcreeper","spDendr6ana",
"Plain-brown Woodcreeper","spDendr6ful",
"Wedge-billed Woodcreeper","spGlyphspi",
"Northern Barred-Woodcreeper","spDendr8san",
"Black-banded Woodcreeper","spDendr8pic","rarity"
"Strong-billed Woodcreeper","spXiphopro",
"Cocoa Woodcreeper","spXipho1sus",
"Ivory-billed Woodcreeper","spXipho1fla",
"Black-striped Woodcreeper","spXipho1lac",
"Spotted Woodcreeper","spXipho1ery",
"Brown-billed Scythebill","spCampy1pus","rarity"
"Streak-headed Woodcreeper","spLepidsou",
"Spot-crowned Woodcreeper","spLepidaff",
"Northern Plain-Xenops","spXenop1mex",
"Streaked Xenops","spXenop1rut","rarity"
"Scaly-throated Foliage-gleaner","spAnaba1var",
"Ruddy Foliage-gleaner","spClibarub",
"Fawn-throated Foliage-gleaner","spAutomcer",
"Western Woodhaunter","spAutomvir",
"Slaty Spinetail","spSynalbra",
"Long-tailed Manakin","spChirolin",
"White-ruffed Manakin","spCorapalt",
"Velvety Manakin","spLepid1vel","rarity"
"White-collared Manakin","spManaccan",
"Red-capped Manakin","spCerat1men",
"Purple-throated Fruitcrow","spQuerupur",
"Bare-necked Umbrellabird","spCephagla",
"Lovely Cotinga","spCotinama",
"Rufous Piha","spLipauuni",
"Three-wattled Bellbird","spProcntri",
"Snowy Cotinga","spCarpo2nit",
"Black-crowned Tityra","spTityrinq",
"Masked Tityra","spTityrsem",
"Northern Schiffornis","spSchifver",
"Speckled Mourner","spLanioruf",
"Cinnamon Becard","spPachy2cin",
"White-winged Becard","spPachy2pol",
"Gray-collared Becard","spPachy2maj",
"Rose-throated Becard","spPachy2agl",
"Tropical Royal Flycatcher","spOnych1cor",
"Ruddy-tailed Flycatcher","spTeren1ery",
"Sulphur-rumped Flycatcher","spMyiobsul",
"Gray-headed Piprites","spPiprigri",
"Stub-tailed Spadebill","spPlaty1can",
"White-throated Spadebill","spPlaty1mys",
"Golden-crowned Spadebill","spPlaty1cor",
"Ochre-bellied Flycatcher","spMioneole",
"Sepia-capped Flycatcher","spLepto6ama",
"Black-capped Pygmy-Tyrant","spMyioratr",
"Scale-crested Pygmy-Tyrant","spLopho13pil",
"Northern Bentbill","spOncoscin",
"Slate-headed Tody-Flycatcher","spPoecisyl",
"Common Tody-Flycatcher","spTodir1cin",
"Black-headed Tody-Flycatcher","spTodir1nig",
"Eye-ringed Flatbill","spRhync3bre",
"Yellow-olive Flatbill","spTolmosul",
"Yellow-winged Flatbill","spTolmofla",
"Yellow-bellied Tyrannulet","spOrnitsem",
"Northern Beardless-Tyrannulet","spCampt1imb",
"Yellow Tyrannulet","spCapsifla",
"Greenish Elaenia","spMyiop1vir",
"Yellow-bellied Elaenia","spElaenfla",
"Mountain Elaenia","spElaenfra",
"Mistletoe Tyrannulet","spZimmepar",
"Tawny-chested Flycatcher","spAphan2cap",
"Tufted Flycatcher","spMitrepha",
"Olive-sided Flycatcher","spContocoo",
"Greater Pewee","spContoper",
"Western Wood-Pewee","spContosor",
"Northern Tropical Pewee","spContobog",
"Eastern Wood-Pewee","spContovir",
"Yellow-bellied Flycatcher","spEmpidfla",
"Acadian Flycatcher","spEmpidvir",
"Alder Flycatcher","spEmpidaln",
"Willow Flycatcher","spEmpidtra",
"White-throated Flycatcher","spEmpidalb",
"Least Flycatcher","spEmpidmin",
"Hammond's Flycatcher","spEmpidham",
"Yellowish Flycatcher","spEmpidfla1",
"Buff-breasted Flycatcher","spEmpidful",
"Black Phoebe","spSayornig",
"Vermilion Flycatcher","spPyrocrub",
"Long-tailed Tyrant","spColoncol",
"Bright-rumped Attila","spAttilspa",
"Rufous Mourner","spRhyti1hol",
"Dusky-capped Flycatcher","spMyiartub",
"Ash-throated Flycatcher","spMyiarcin",
"Nutting's Flycatcher","spMyiarnut",
"Great Crested Flycatcher","spMyiarcri",
"Brown-crested Flycatcher","spMyiartyr",
"Great Kiskadee","spPitansul",
"Boat-billed Flycatcher","spMegarpit",
"Social Flycatcher","spMyiozsim",
"Gray-capped Flycatcher","spMyiozgra",
"White-ringed Flycatcher","spConop1alb",
"Streaked Flycatcher","spMyiodmac",
"Sulphur-bellied Flycatcher","spMyiodlut",
"Piratic Flycatcher","spLegatleu",
"Tropical Kingbird","spTyran4mel",
"Cassin's Kingbird","spTyran4voc","rarity"
"Western Kingbird","spTyran4ver",
"Eastern Kingbird","spTyran4tyr",
"Gray Kingbird","spTyran4dom","rarity"
"Scissor-tailed Flycatcher","spTyran4for",
"Fork-tailed Flycatcher","spTyran4sav",
"Rufous-browed Peppershrike","spCyclaguj",
"Scrub Greenlet","spHylop2fla","rarity"
"Green Shrike-Vireo","spVireopul",
"Tawny-crowned Greenlet","spTunchoch",
"Lesser Greenlet","spPachy4dec",
"White-eyed Vireo","spVireo1gri",
"Mangrove Vireo","spVireo1pal",
"Bell's Vireo","spVireo1bel","rarity"
"Yellow-throated Vireo","spVireo1fla",
"Blue-headed Vireo","spVireo1sol",
"Plumbeous Vireo","spVireo1plu",
"Philadelphia Vireo","spVireo1phi",
"Warbling Vireo","spVireo1gil",
"Brown-capped Vireo","spVireo1leu",
"Red-eyed Vireo","spVireo1oli",
"Yellow-green Vireo","spVireo1fla1",
"White-throated Magpie-Jay","spCyano7for",
"Brown Jay","spCyano7mor",
"Bushy-crested Jay","spCyano7mel",
"Steller's Jay","spCyano8ste",
"Unicolored Jay","spAphel1uni","rarity"
"Common Raven","spCorvucor3",
"Bank Swallow","spRiparrip",
"Tree Swallow","spTachy4bic",
"Mangrove Swallow","spTachy4alb1",
"Violet-green Swallow","spTachy4tha",
"Purple Martin","spPrognsub",
"Gray-breasted Martin","spProgncha",
"Northern Rough-winged Swallow","spStelgser",
"Southern Rough-winged Swallow","spStelgruf",
"Blue-and-white Swallow","spPygoccya",
"Barn Swallow","spHirun2rus",
"Cliff Swallow","spPetro2pyr",
"Cave Swallow","spPetro2ful","rarity"
"Brown Creeper","spCerth4ame",
"Tawny-faced Gnatwren","spMicro17cin",
"Long-billed Gnatwren","spRamph5mel",
"White-browed Gnatcatcher","spPolio4bil",
"Blue-gray Gnatcatcher","spPolio4cae","rarity"
"White-lored Gnatcatcher","spPolio4alb1",
"Rock Wren","spSalpiobs",
"Nightingale Wren","spMicro18phi",
"Southern House Wren","spTroglmus1",
"Rufous-browed Wren","spTroglruf",
"Grass Wren","spCistopla",
"Carolina Wren","spThryo1lud","rarity"
"Band-backed Wren","spCampy2zon",
"Rufous-backed Wren","spCampy2cap",
"Spot-breasted Wren","spPheugmac",
"Black-throated Wren","spPheugatr",
"Banded Wren","spThryo3ple",
"Rufous-and-white Wren","spThryo3ruf",
"Stripe-breasted Wren","spCantotho",
"Cabanis's Wren","spCantomod",
"Canebrake Wren","spCantozel",
"Bay Wren","spCantonig",
"White-breasted Wood-Wren","spHenic2leu",
"Gray-breasted Wood-Wren","spHenic2leu2",
"Song Wren","spCyphopha",
"American Dipper","spCincl3mex",
"Blue-and-white Mockingbird","spMelan11hyp",
"Gray Catbird","spDumet1car",
"Tropical Mockingbird","spMimusgil",
"Northern Mockingbird","spMimuspol","rarity"
"Eastern Bluebird","spSialisia",
"Slate-colored Solitaire","spMyadeuni",
"Orange-billed Nightingale-Thrush","spCatha1aur",
"Ruddy-capped Nightingale-Thrush","spCatha1fra",
"Black-headed Nightingale-Thrush","spCatha1mex",
"Yellow-throated Nightingale-Thrush","spCatha1dry","rarity"
"Veery","spCatha1fus1",
"Gray-cheeked Thrush","spCatha1min","rarity"
"Swainson's Thrush","spCatha1ust",
"Wood Thrush","spHyloc1mus",
"Mountain Thrush","spTurduple",
"White-throated Thrush","spTurduass",
"Clay-colored Thrush","spTurdugra",
"Black Thrush","spTurduinf","rarity"
"Cedar Waxwing","spBombyced",
"Olive Warbler","spPeucetae",
"Tricolored Munia","spLonchmal","introduced"
"House Sparrow","spPassedom","introduced"
"Elegant Euphonia","spChlor8ele",
"Blue-crowned Chlorophonia","spChlor8occ",
"Golden-browed Chlorophonia","spChlor8cal","rarity"
"Scrub Euphonia","spEuphoaff",
"Yellow-crowned Euphonia","spEupholut",
"White-vented Euphonia","spEuphomin",
"Yellow-throated Euphonia","spEuphohir",
"Olive-backed Euphonia","spEuphogou",
"Red Crossbill","spLoxiacur",
"Black-headed Siskin","spSpinunot",
"Lesser Goldfinch","spSpinupsa",
"Common Chlorospingus","spChlor12fla1",
"Stripe-headed Sparrow","spPeucaruf",
"Botteri's Sparrow","spPeucabot","rarity"
"Grasshopper Sparrow","spAmmodsav",
"Olive Sparrow","spArremruf",
"Black-striped Sparrow","spArremcon",
"Chipping Sparrow","spSpizepas",
"Lark Sparrow","spChond1gra","rarity"
"Orange-billed Sparrow","spArrem1aur",
"Chestnut-capped Brushfinch","spArrem1bru",
"Rufous-collared Sparrow","spZonotcap",
"Savannah Sparrow","spPasse2san","rarity"
"Lincoln's Sparrow","spMeloslin","rarity"
"White-eared Ground-Sparrow","spMelozleu",
"Rusty Sparrow","spAimopruf",
"White-naped Brushfinch","spAtlapalb",
"Yellow-breasted Chat","spIctervir",
"Yellow-headed Blackbird","spXanth2xan","rarity"
"Bobolink","spDolicory",
"Eastern Meadowlark","spSturn3mag",
"Red-breasted Meadowlark","spLeistmil","rarity"
"Yellow-billed Cacique","spAmbly2hol",
"Chestnut-headed Oropendola","spPsarowag",
"Montezuma Oropendola","spPsaromon",
"Scarlet-rumped Cacique","spCacicuro",
"Black-vented Oriole","spIcter1wag",
"Black-cowled Oriole","spIcter1pro",
"Orchard Oriole","spIcter1spu",
"Yellow-backed Oriole","spIcter1chr",
"Yellow-tailed Oriole","spIcter1mes",
"Streak-backed Oriole","spIcter1pus",
"Spot-breasted Oriole","spIcter1pec",
"Altamira Oriole","spIcter1gul",
"Baltimore Oriole","spIcter1gal",
"Red-winged Blackbird","spAgela1pho",
"Shiny Cowbird","spMolotbon","rarity"
"Bronzed Cowbird","spMolotaen",
"Giant Cowbird","spMolotory",
"Melodious Blackbird","spDivesdiv",
"Great-tailed Grackle","spQuiscmex",
"Nicaraguan Grackle","spQuiscnic",
"Ovenbird","spSeiuraur",
"Worm-eating Warbler","spHelmiver",
"Louisiana Waterthrush","spParkemot",
"Northern Waterthrush","spParkenov",
"Golden-winged Warbler","spVermichr",
"Blue-winged Warbler","spVermicya",
"Black-and-white Warbler","spMniotvar",
"Prothonotary Warbler","spProtocit",
"Swainson's Warbler","spLimno3swa","rarity"
"Crescent-chested Warbler","spOreot2sup",
"Tennessee Warbler","spLeiot1per",
"Orange-crowned Warbler","spLeiot1cel","rarity"
"Nashville Warbler","spLeiot1ruf","rarity"
"Connecticut Warbler","spOporoagi","rarity"
"Gray-crowned Yellowthroat","spGeothpol",
"MacGillivray's Warbler","spGeothtol",
"Mourning Warbler","spGeothphi",
"Kentucky Warbler","spGeothfor",
"Olive-crowned Yellowthroat","spGeothsem",
"Common Yellowthroat","spGeothtri",
"Hooded Warbler","spSetop1cit",
"American Redstart","spSetop1rut",
"Cape May Warbler","spSetop1tig",
"Cerulean Warbler","spSetop1cer",
"Northern Parula","spSetop1ame",
"Tropical Parula","spSetop1pit",
"Magnolia Warbler","spSetop1mag",
"Bay-breasted Warbler","spSetop1cas",
"Blackburnian Warbler","spSetop1fus",
"Yellow Warbler","spSetop1pet",
"Chestnut-sided Warbler","spSetop1pen",
"Blackpoll Warbler","spSetop1str","rarity"
"Black-throated Blue Warbler","spSetop1cae","rarity"
"Palm Warbler","spSetop1pal",
"Yellow-rumped Warbler","spSetop1cor",
"Yellow-throated Warbler","spSetop1dom",
"Prairie Warbler","spSetop1dis","rarity"
"Grace's Warbler","spSetop1gra",
"Townsend's Warbler","spSetop1tow",
"Hermit Warbler","spSetop1occ",
"Golden-cheeked Warbler","spSetop1chr",
"Black-throated Green Warbler","spSetop1vir",
"Fan-tailed Warbler","spBasil2lac",
"Chestnut-capped Warbler","spBasil2del",
"Golden-crowned Warbler","spBasil2cul",
"Buff-rumped Warbler","spMyiot2ful",
"Canada Warbler","spCardecan",
"Wilson's Warbler","spCardepus",
"Painted Redstart","spMyiob1pic",
"Slate-throated Redstart","spMyiob1min",
"Dusky-faced Tanager","spMitrocas","rarity"
"Hepatic Tanager","spPiranfla",
"Summer Tanager","spPiranrub",
"Scarlet Tanager","spPiranoli",
"Western Tanager","spPiranlud",
"Flame-colored Tanager","spPiranbid",
"White-winged Tanager","spPiranleu",
"Red-crowned Ant-Tanager","spHabiarub",
"Red-throated Ant-Tanager","spDriopfus",
"Carmiol's Tanager","spChlor13car",
"Black-faced Grosbeak","spCaryopol",
"Rose-breasted Grosbeak","spPheuclud",
"Blue Seedeater","spAmaur2con",
"Blue-black Grosbeak","spCyano13cya",
"Blue Bunting","spCyano14par",
"Blue Grosbeak","spPasse3cae",
"Indigo Bunting","spPasse3cya",
"Painted Bunting","spPasse3cir",
"Dickcissel","spSpiza1ame",
"Gray-headed Tanager","spEucompen",
"White-shouldered Tanager","spLorioluc",
"Tawny-crested Tanager","spTachy5del",
"White-lined Tanager","spTachy5ruf",
"White-throated Shrike-Tanager","spLanio2leu",
"Crimson-collared Tanager","spRamph7san",
"Scarlet-rumped Tanager","spRamph7pas",
"Blue-gray Tanager","spThrauepi",
"Yellow-winged Tanager","spThrauabb",
"Palm Tanager","spThraupal",
"Golden-hooded Tanager","spStilplar",
"Plain-colored Tanager","spTangaino","rarity"
"Rufous-winged Tanager","spTangalav",
"Bay-headed Tanager","spTangagyr",
"Scarlet-thighed Dacnis","spDacniven","rarity"
"Blue Dacnis","spDacnicay",
"Shining Honeycreeper","spCyaneluc",
"Red-legged Honeycreeper","spCyanecya",
"Green Honeycreeper","spChlor16spi",
"Cinnamon-bellied Flowerpiercer","spDiglobar",
"Slaty Finch","spHaplo1rus","rarity"
"Grassland Yellow-Finch","spSicallut2",
"Blue-black Grassquit","spVolatjac",
"Ruddy-breasted Seedeater","spSporo1min",
"Thick-billed Seed-Finch","spSporo1fun",
"Nicaraguan Seed-Finch","spSporo1nut",
"Variable Seedeater","spSporo1cor",
"Morelet's Seedeater","spSporo1mor",
"Yellow-bellied Seedeater","spSporo1nig1","rarity"
"Slate-colored Seedeater","spSporo1sch",
"Bananaquit","spCoerefla",
"Yellow-faced Grassquit","spTiarioli",
"Buff-throated Saltator","spSalta1max",
"Black-headed Saltator","spSalta1atr1",
"Cinnamon-bellied Saltator","spSalta1gra",
"Slate-colored Grosbeak","spSalta1gro",
