"Name","ID","Status"
"Fulvous Whistling-Duck","spDendrbic","rarity"
"Lesser Whistling-Duck","spDendrjav",
"Bar-headed Goose","spAnser1ind",
"Graylag Goose","spAnser1ans",
"Greater White-fronted Goose","spAnser1alb","rarity"
"Taiga Bean-Goose","spAnser1fab","rarity"
"Tundra Bean-Goose","spAnser1ser","rarity"
"Tundra Swan","spCygnucol","rarity"
"Whooper Swan","spCygnucyg","rarity"
"Knob-billed Duck","spSarkimel",
"Ruddy Shelduck","spTadorfer",
"Common Shelduck","spTadortad1",
"Cotton Pygmy-Goose","spNettacor",
"Mandarin Duck","spAixgal","rarity"
"Baikal Teal","spSibirfor","rarity"
"Garganey","spSpatuque",
"Northern Shoveler","spSpatucly",
"Gadwall","spMarecstr",
"Falcated Duck","spMarecfal",
"Eurasian Wigeon","spMarecpen",
"Indian Spot-billed Duck","spAnaspoe",
"Eastern Spot-billed Duck","spAnaszon","rarity"
"Mallard","spAnaspla",
"Northern Pintail","spAnasacu",
"Green-winged Teal","spAnascre",
"Red-crested Pochard","spNetta1ruf",
"Common Pochard","spAythyfer",
"Ferruginous Duck","spAythynyr",
"Baer's Pochard","spAythybae",
"Tufted Duck","spAythyful",
"Greater Scaup","spAythymar","rarity"
"Long-tailed Duck","spClanghye","rarity"
"Common Goldeneye","spBucepcla",
"Smew","spMergealb","rarity"
"Common Merganser","spMergumer",
"Red-breasted Merganser","spMerguser","rarity"
"Hill Partridge","spArbortor",
"Rufous-throated Partridge","spArborruf1",
"Snow Partridge","spLerwaler",
"Blood Pheasant","spIthagcru",
"Satyr Tragopan","spTragosat",
"Himalayan Monal","spLopho2imp",
"Koklass Pheasant","spPucramac",
"Tibetan Partridge","spPerdihod",
"Cheer Pheasant","spCatrewal",
"Kalij Pheasant","spLophuleu",
"Indian Peafowl","spPavocri",
"Red Junglefowl","spGallugal",
"Gray Francolin","spOrtygpon",
"Swamp Francolin","spOrtyggul",
"Black Francolin","spFrancfra",
"Tibetan Snowcock","spTetra3tib",
"Himalayan Snowcock","spTetra3him",
"Blue-breasted Quail","spSynoichi",
"Common Quail","spCoturcot",
"Rain Quail","spCoturcor","rarity"
"Chukar","spAlect1chu",
"Jungle Bush-Quail","spPerdi1asi",
"Rock Pigeon","spColumliv",
"Hill Pigeon","spColumrup",
"Snow Pigeon","spColumleu",
"Common Wood-Pigeon","spColumpal",
"Speckled Wood-Pigeon","spColumhod",
"Ashy Wood-Pigeon","spColumpul",
"Oriental Turtle-Dove","spStrepori",
"Eurasian Collared-Dove","spStrepdec",
"Red Collared-Dove","spStreptra",
"Spotted Dove","spSpilochi",
"Laughing Dove","spSpilosen",
"Barred Cuckoo-Dove","spMacro1unc",
"Asian Emerald Dove","spChalcind",
"Orange-breasted Green-Pigeon","spTrerobic",
"Ashy-headed Green-Pigeon","spTreropha",
"Thick-billed Green-Pigeon","spTrerocur",
"Yellow-footed Green-Pigeon","spTreropho",
"Pin-tailed Green-Pigeon","spTreroapi",
"Wedge-tailed Green-Pigeon","spTrerosph",
"Green Imperial-Pigeon","spDuculaen",
"Mountain Imperial-Pigeon","spDuculbad",
"Bengal Florican","spHoubaben",
"Lesser Florican","spSypheind","rarity"
"Greater Coucal","spCentr1sin",
"Lesser Coucal","spCentr1ben",
"Sirkeer Malkoha","spTaccoles",
"Green-billed Malkoha","spPhaentri",
"Chestnut-winged Cuckoo","spClamacor",
"Pied Cuckoo","spClamajac",
"Asian Koel","spEudynsco",
"Asian Emerald Cuckoo","spChrys1mac",
"Banded Bay Cuckoo","spCacomson",
"Plaintive Cuckoo","spCacommer","rarity"
"Gray-bellied Cuckoo","spCacompas",
"Fork-tailed Drongo-Cuckoo","spSurnidic",
"Large Hawk-Cuckoo","spHierospa",
"Common Hawk-Cuckoo","spHierovar",
"Hodgson's Hawk-Cuckoo","spHieronis","rarity"
"Lesser Cuckoo","spCuculpol",
"Indian Cuckoo","spCuculmic",
"Himalayan Cuckoo","spCuculsat",
"Common Cuckoo","spCuculcan",
"Gray Nightjar","spCaprijot",
"Large-tailed Nightjar","spCaprimac",
"Indian Nightjar","spCapriasi",
"Savanna Nightjar","spCapriaff",
"White-rumped Spinetail","spZoonasyl",
"White-throated Needletail","spHiruncau",
"Silver-backed Needletail","spHiruncoc",
"Himalayan Swiftlet","spAerodbre",
"Alpine Swift","spTachy1mel",
"Common Swift","spApusapu",
"Pacific Swift","spApuspac",
"Blyth's Swift","spApusleu",
"Little Swift","spApusaff",
"House Swift","spApusnip",
"Asian Palm Swift","spCypsibal",
"Crested Treeswift","spHemip1cor",
"Water Rail","spRalluaqu",
"Brown-cheeked Rail","spRalluind",
"Slaty-breasted Rail","spLewinstr","rarity"
"Spotted Crake","spPorzapor","rarity"
"Eurasian Moorhen","spGalli3chl",
"Eurasian Coot","spFulicatr",
"Gray-headed Swamphen","spPorph1pol",
"Watercock","spGalli4cin",
"White-breasted Waterhen","spAmaur1pho",
"Slaty-legged Crake","spRalli1eur","rarity"
"Ruddy-breasted Crake","spZaporfus",
"Brown Crake","spZaporako",
"Baillon's Crake","spZaporpus",
"Black-tailed Crake","spZaporbic","rarity"
"Demoiselle Crane","spAnthr1vir",
"Sarus Crane","spAntigant",
"Common Crane","spGrusgru",
"Black-necked Crane","spGrusnig","rarity"
"Great Thick-knee","spEsacurec",
"Indian Thick-knee","spBurhiind",
"Black-winged Stilt","spHiman1him",
"Pied Avocet","spRecuravo",
"Ibisbill","spIbidostr",
"Eurasian Oystercatcher","spHaema1ost","rarity"
"Black-bellied Plover","spPluvi2squ","rarity"
"Pacific Golden-Plover","spPluvi2ful",
"Little Ringed Plover","spThinodub",
"Long-billed Plover","spThinopla",
"Northern Lapwing","spVanelvan",
"River Lapwing","spVanelduv",
"Yellow-wattled Lapwing","spVanelmal",
"Gray-headed Lapwing","spVanelcin",
"Red-wattled Lapwing","spVanelind",
"White-tailed Lapwing","spVanelleu","rarity"
"Tibetan Sand-Plover","spAnarhatr",
"Greater Sand-Plover","spAnarhles","rarity"
"Kentish Plover","spAnarhale",
"Greater Painted-Snipe","spRostrben",
"Pheasant-tailed Jacana","spHydro2chi",
"Bronze-winged Jacana","spMetopind",
"Whimbrel","spNumenpha",
"Eurasian Curlew","spNumenarq",
"Black-tailed Godwit","spLimoslim",
"Jack Snipe","spLymnomin",
"Eurasian Woodcock","spScolorus",
"Solitary Snipe","spGalli5sol",
"Wood Snipe","spGalli5nem",
"Swinhoe's Snipe","spGalli5meg","rarity"
"Pin-tailed Snipe","spGalli5ste",
"Common Snipe","spGalli5gal",
"Red-necked Phalarope","spPhala1lob","rarity"
"Terek Sandpiper","spXenuscin","rarity"
"Common Sandpiper","spActithyp",
"Green Sandpiper","spTringoch",
"Marsh Sandpiper","spTringsta",
"Wood Sandpiper","spTringgla",
"Common Redshank","spTringtot",
"Spotted Redshank","spTringery",
"Common Greenshank","spTringneb",
"Ruddy Turnstone","spArenaint","rarity"
"Ruff","spCalidpug",
"Curlew Sandpiper","spCalidfer",
"Temminck's Stint","spCalidtem",
"Long-toed Stint","spCalidsub","rarity"
"Sanderling","spCalidalb","rarity"
"Dunlin","spCalidalp",
"Little Stint","spCalidmin",
"Yellow-legged Buttonquail","spTurnitan",
"Barred Buttonquail","spTurnisus",
"Small Buttonquail","spTurnisyl",
"Indian Courser","spCursocor",
"Small Pratincole","spGlarelac",
"Oriental Pratincole","spGlaremal",
"Slender-billed Gull","spChroigen","rarity"
"Black-headed Gull","spChroirid",
"Brown-headed Gull","spChroibru",
"Pallas's Gull","spIchthich",
"Common Gull","spLaruscan","rarity"
"Lesser Black-backed Gull","spLarusfus","rarity"
"Indian Skimmer","spRynchalb",
"Sooty Tern","spOnychfus","rarity"
"Little Tern","spStern1alb",
"Gull-billed Tern","spGelocnil",
"Caspian Tern","spHydro4cas",
"Whiskered Tern","spChlidhyb",
"White-winged Tern","spChlidleu",
"River Tern","spStern2aur",
"Common Tern","spStern2hir1",
"Black-bellied Tern","spStern2acu",
"Greater Flamingo","spPhoenros","rarity"
"Little Grebe","spTachy2ruf1",
"Great Crested Grebe","spPodic1cri",
"Eared Grebe","spPodic1nig",
"Red-throated Loon","spGaviaste","rarity"
"Asian Openbill","spAnastosc",
"Black Stork","spCiconnig",
"Asian Woolly-necked Stork","spCiconepi",
"White Stork","spCiconcic",
"Black-necked Stork","spEphipasi",
"Lesser Adjutant","spLepto2jav",
"Greater Adjutant","spLepto2dub",
"Painted Stork","spMycteleu",
"Oriental Darter","spAnhinmel",
"Little Cormorant","spMicro5nig",
"Great Cormorant","spPhala2car",
"Glossy Ibis","spPlegafal","rarity"
"Black-headed Ibis","spThresmel",
"Red-naped Ibis","spPseud1pap",
"Eurasian Spoonbill","spPlataleu",
"Eurasian Bittern","spBotauste",
"Black Bittern","spBotaufla",
"Cinnamon Bittern","spBotaucin",
"Little Bittern","spBotaumin",
"Yellow Bittern","spBotausin",
"Black-crowned Night Heron","spNycti6nyc",
"Malayan Night Heron","spGorsamel","rarity"
"Little Egret","spEgretgar",
"Striated Heron","spButorstr",
"Indian Pond-Heron","spArdeo1gra",
"Chinese Pond-Heron","spArdeo1bac","rarity"
"Eastern Cattle-Egret","spArdeacor",
"Great Egret","spArdeaalb",
"Medium Egret","spArdeaint",
"Gray Heron","spArdeacin",
"Purple Heron","spArdeapur",
"White-bellied Heron","spArdeains","extinct"
"Great White Pelican","spPelec1ono","rarity"
"Spot-billed Pelican","spPelec1phi",
"Osprey","spPandihal",
"Black-winged Kite","spElanucae",
"Bearded Vulture","spGypaebar",
"Egyptian Vulture","spNeophper",
"Jerdon's Baza","spAvicejer","rarity"
"Black Baza","spAviceleu",
"Oriental Honey-buzzard","spPernipti",
"Red-headed Vulture","spSarco1cal",
"Cinereous Vulture","spAegypmon",
"Himalayan Griffon","spGypshim",
"White-rumped Vulture","spGypsben",
"Indian Vulture","spGypsind","rarity"
"Slender-billed Vulture","spGypsten",
"Eurasian Griffon","spGypsful",
"Crested Serpent-Eagle","spSpilo1che",
"Short-toed Snake-Eagle","spCircagal",
"Mountain Hawk-Eagle","spNisaenip",
"Changeable Hawk-Eagle","spNisaecir",
"Rufous-bellied Eagle","spLopho8kie",
"Black Eagle","spIctinmal",
"Indian Spotted Eagle","spClang1has",
"Lesser Spotted Eagle","spClang1pom",
"Greater Spotted Eagle","spClang1cla",
"Booted Eagle","spHierapen",
"Steppe Eagle","spAquilnip",
"Imperial Eagle","spAquilhel",
"Tawny Eagle","spAquilrap",
"Golden Eagle","spAquilchr",
"Bonelli's Eagle","spAquilfas",
"Crested Goshawk","spLopho9tri",
"Besra","spTachy3vir",
"Shikra","spTachy3bad",
"Eurasian Sparrowhawk","spAccipnis",
"Eurasian Goshawk","spAsturgen",
"Western Marsh Harrier","spCircuaer",
"Hen Harrier","spCircucya",
"Pallid Harrier","spCircumac1",
"Pied Harrier","spCircumel",
"Montagu's Harrier","spCircupyg",
"Red Kite","spMilvumil","rarity"
"Black Kite","spMilvumig",
"Brahminy Kite","spHaliaind",
"White-tailed Eagle","spHalia1alb",
"Pallas's Fish-Eagle","spHalia1leu1",
"Lesser Fish-Eagle","spIcthyhum",
"Gray-headed Fish-Eagle","spIcthyich",
"White-eyed Buzzard","spButastee",
"Common Buzzard","spButeo1but",
"Long-legged Buzzard","spButeo1ruf1",
"Upland Buzzard","spButeo1hem",
"Himalayan Buzzard","spButeo1ref",
"Australasian Grass-Owl","spTytolon",
"Eastern Barn Owl","spTytojav",
"Mountain Scops-Owl","spOtusspi",
"Indian Scops-Owl","spOtusbak",
"Collared Scops-Owl","spOtuslet",
"Oriental Scops-Owl","spOtussun",
"Rock Eagle-Owl","spBuboben",
"Eurasian Eagle-Owl","spBubobub",
"Brown Fish-Owl","spKetupzey",
"Tawny Fish-Owl","spKetupfla",
"Dusky Eagle-Owl","spKetupcor",
"Spot-bellied Eagle-Owl","spKetupnip",
"Asian Barred Owlet","spGlauc1cuc",
"Jungle Owlet","spGlauc1rad",
"Collared Owlet","spTaenibro",
"Spotted Owlet","spAthenbra",
"Little Owl","spAthennoc",
"Mottled Wood-Owl","spStrixoce",
"Brown Wood-Owl","spStrixlep",
"Himalayan Owl","spStrixniv",
"Long-eared Owl","spAsiootu","rarity"
"Short-eared Owl","spAsiofla",
"Brown Boobook","spNinoxscu",
"Red-headed Trogon","spHarpa1ery",
"Eurasian Hoopoe","spUpupaepo",
"Great Hornbill","spBucerbic",
"Indian Gray Hornbill","spOcycebir",
"Oriental Pied-Hornbill","spAnthr2alb",
"Rufous-necked Hornbill","spAceronip","extinct"
"Blue-bearded Bee-eater","spNyctyath",
"Asian Green Bee-eater","spMerop1ori",
"Blue-tailed Bee-eater","spMerop1phi",
"Chestnut-headed Bee-eater","spMerop1les",
"Blyth's Kingfisher","spAlcedher",
"Common Kingfisher","spAlcedatt",
"Blue-eared Kingfisher","spAlcedmen",
"Stork-billed Kingfisher","spPelarcap",
"Ruddy Kingfisher","spHalcycor",
"White-throated Kingfisher","spHalcysmy",
"Black-capped Kingfisher","spHalcypil",
"Crested Kingfisher","spMegac1lug",
"Pied Kingfisher","spCerylrud",
"Indian Roller","spCoracben",
"Indochinese Roller","spCoracaff",
"Dollarbird","spEurysori",
"Coppersmith Barbet","spPsilo1hae",
"Blue-eared Barbet","spPsilo1cya",
"Great Barbet","spPsilo1vir",
"Lineated Barbet","spPsilo1lin",
"Brown-headed Barbet","spPsilo1zey",
"Golden-throated Barbet","spPsilo1fra",
"Blue-throated Barbet","spPsilo1asi",
"Yellow-rumped Honeyguide","spIndicxan",
"Eurasian Wryneck","spJynxtor",
"Speckled Piculet","spPicuminn",
"White-browed Piculet","spSasiaoch",
"Brown-capped Pygmy Woodpecker","spYunginan",
"Gray-capped Pygmy Woodpecker","spYungican",
"Yellow-crowned Woodpecker","spLeiopmah",
"Brown-fronted Woodpecker","spDendr3aur",
"Rufous-bellied Woodpecker","spDendr5hyp",
"Fulvous-breasted Woodpecker","spDendr5mac",
"Darjeeling Woodpecker","spDendr5dar",
"Himalayan Woodpecker","spDendr5him",
"Crimson-naped Woodpecker","spDryobcat",
"Bay Woodpecker","spBlythpyr",
"Greater Flameback","spChrys4gut",
"White-naped Woodpecker","spChrys4fes",
"Rufous Woodpecker","spMicro9bra",
"Pale-headed Woodpecker","spGecingra",
"Himalayan Flameback","spDinopsho",
"Black-rumped Flameback","spDinopben",
"Lesser Yellownape","spPicuschl",
"Streak-throated Woodpecker","spPicusxan",
"Scaly-bellied Woodpecker","spPicussqu",
"Gray-headed Woodpecker","spPicuscan",
"Greater Yellownape","spChrys5fla",
"Great Slaty Woodpecker","spMullepul",
"Collared Falconet","spMicro10cae",
"Lesser Kestrel","spFalconau",
"Eurasian Kestrel","spFalcotin",
"Red-necked Falcon","spFalcochi",
"Amur Falcon","spFalcoamu",
"Merlin","spFalcocol",
"Eurasian Hobby","spFalcosub",
"Oriental Hobby","spFalcosev",
"Laggar Falcon","spFalcojug",
"Saker Falcon","spFalcoche",
"Peregrine Falcon","spFalcoper",
"Alexandrine Parakeet","spPsitt2eup",
"Rose-ringed Parakeet","spPsitt2kra",
"Slaty-headed Parakeet","spPsitt2him",
"Plum-headed Parakeet","spPsitt2cya",
"Blossom-headed Parakeet","spPsitt2ros",
"Red-breasted Parakeet","spPsitt2ale",
"Vernal Hanging-Parrot","spLoricver","rarity"
"Long-tailed Broadbill","spPsaridal",
"Gray-lored Broadbill","spSerilrub",
"Blue-naped Pitta","spHydro6nip",
"Indian Pitta","spPittabra",
"Western Hooded Pitta","spPittasor",
"White-bellied Minivet","spPericery","rarity"
"Small Minivet","spPericcin",
"Gray-chinned Minivet","spPericsol",
"Short-billed Minivet","spPericbre",
"Long-tailed Minivet","spPericeth",
"Scarlet Minivet","spPericspe",
"Ashy Minivet","spPericdiv","rarity"
"Brown-rumped Minivet","spPericcan","rarity"
"Rosy Minivet","spPericros",
"Oriental Cuckooshrike","spCorac2jav",
"Black-winged Cuckooshrike","spLalagmel1",
"Black-headed Cuckooshrike","spLalagmel2",
"Black-headed Shrike-Babbler","spPteruruf",
"White-browed Shrike-Babbler","spPteruaer",
"Green Shrike-Babbler","spPteruxan",
"Black-eared Shrike-Babbler","spPterumel",
"White-bellied Erpornis","spErporzan",
"Indian Golden Oriole","spOriolkun",
"Black-naped Oriole","spOriolchi",
"Slender-billed Oriole","spOriolten",
"Black-hooded Oriole","spOriolxan1",
"Maroon Oriole","spOrioltra",
"Ashy Woodswallow","spArtamfus",
"Large Woodshrike","spTephrvir",
"Common Woodshrike","spTephrpon",
"Bar-winged Flycatcher-shrike","spHemip2pic",
"Common Iora","spAegittip",
"White-throated Fantail","spRhipialb1",
"White-browed Fantail","spRhipiaur",
"Black Drongo","spDicrumac",
"Ashy Drongo","spDicruleu",
"White-bellied Drongo","spDicrucae",
"Crow-billed Drongo","spDicruann",
"Bronzed Drongo","spDicruaen",
"Lesser Racket-tailed Drongo","spDicrurem",
"Hair-crested Drongo","spDicruhot",
"Greater Racket-tailed Drongo","spDicrupar",
"Black-naped Monarch","spHypotazu",
"Blyth's Paradise-Flycatcher","spTerpsaff",
"Indian Paradise-Flycatcher","spTerpspar",
"Red-tailed Shrike","spLaniupho","rarity"
"Isabelline Shrike","spLaniuisa","rarity"
"Brown Shrike","spLaniucri",
"Bay-backed Shrike","spLaniuvit",
"Long-tailed Shrike","spLaniusch",
"Gray-backed Shrike","spLaniutep",
"Great Gray Shrike","spLaniuexc",
"Lesser Gray Shrike","spLaniumin","rarity"
"Eurasian Jay","spGarrugla",
"Black-headed Jay","spGarrulan",
"Yellow-billed Blue-Magpie","spUrocifla",
"Red-billed Blue-Magpie","spUrociery",
"Common Green-Magpie","spCissachi",
"Rufous Treepie","spDendr11vag",
"Gray Treepie","spDendr11for",
"Southern Nutcracker","spNucifhem",
"Red-billed Chough","spPyrrh3pyr",
"Yellow-billed Chough","spPyrrh3gra",
"Eurasian Jackdaw","spColoemon","rarity"
"House Crow","spCorvuspl",
"Large-billed Crow","spCorvumac",
"Common Raven","spCorvucor3",
"Yellow-bellied Fairy-Fantail","spCheli2hyp",
"Gray-headed Canary-Flycatcher","spCulic1cey",
"Fire-capped Tit","spCepha1fla",
"Yellow-browed Tit","spSylvi1mod",
"Sultan Tit","spMelan7sul",
"Coal Tit","spPeripate",
"Rufous-naped Tit","spPeripruf",
"Rufous-vented Tit","spPeriprub",
"Gray-crested Tit","spLopho15dic",
"White-browed Tit","spPoeci2sup","rarity"
"Ground Tit","spPseud13hum",
"Green-backed Tit","spParusmon",
"Asian Tit","spParuscin",
"Himalayan Black-lored Tit","spMachlxan",
"Yellow-cheeked Tit","spMachlspi",
"Rufous-tailed Lark","spAmmom1pho","rarity"
"Ashy-crowned Sparrow-Lark","spEremogri",
"Bengal Bushlark","spPloceass",
"Singing Bushlark","spMirafjav","rarity"
"Eurasian Skylark","spAlaudarv","rarity"
"Oriental Skylark","spAlaudgul",
"Crested Lark","spGalercri",
"Horned Lark","spEremo1alp",
"Greater Short-toed Lark","spCalanbra",
"Hume's Lark","spCalanacu",
"Mongolian Short-toed Lark","spCalanduk",
"Sand Lark","spAlaud1ray",
"Common Tailorbird","spOrtho3sut",
"Himalayan Prinia","spPrinicri",
"Black-throated Prinia","spPriniatr",
"Gray-crowned Prinia","spPrinicin",
"Gray-breasted Prinia","spPrinihod",
"Delicate Prinia","spPrinilep",
"Jungle Prinia","spPrinisyl",
"Yellow-bellied Prinia","spPrinifla",
"Ashy Prinia","spPrinisoc",
"Plain Prinia","spPriniino",
"Zitting Cisticola","spCistijun",
"Golden-headed Cisticola","spCistiexi1",
"Thick-billed Warbler","spArund1aed",
"Booted Warbler","spIdunacal",
"Black-browed Reed Warbler","spAcroc1bis","rarity"
"Moustached Warbler","spAcroc1mel","rarity"
"Paddyfield Warbler","spAcroc1agr",
"Blunt-winged Warbler","spAcroc1con",
"Blyth's Reed Warbler","spAcroc1dum",
"Oriental Reed Warbler","spAcroc1ori1","rarity"
"Clamorous Reed Warbler","spAcroc1ste",
"Pallas's Grasshopper Warbler","spHelopcer","rarity"
"Lanceolated Warbler","spLocuslan","rarity"
"Brown Bush Warbler","spLocuslut","rarity"
"Common Grasshopper Warbler","spLocusnae","rarity"
"Chinese Bush Warbler","spLocustac",
"Baikal Bush Warbler","spLocusdav","rarity"
"West Himalayan Bush Warbler","spLocuskas",
"Spotted Bush Warbler","spLocustho",
"Bristled Grassbird","spSchoe1str",
"Striated Grassbird","spMegal1pal",
"Scaly-breasted Cupwing","spPnoepalb",
"Immaculate Cupwing","spPnoepimm",
"Pygmy Cupwing","spPnoeppus",
"Gray-throated Martin","spRiparchi",
"Bank Swallow","spRiparrip",
"Pale Martin","spRipardil",
"Eurasian Crag-Martin","spPtyonrup",
"Barn Swallow","spHirun2rus",
"Wire-tailed Swallow","spHirun2smi",
"Western House-Martin","spDelicurb",
"Asian House-Martin","spDelicdas",
"Nepal House-Martin","spDelicnip",
"Eastern Red-rumped Swallow","spCecrodau",
"Streak-throated Swallow","spPetro2flu","rarity"
"White-throated Bulbul","spAlophfla",
"Striated Bulbul","spAlcurstr",
"Ashy Bulbul","spHemixfla",
"Mountain Bulbul","spIxosmcc",
"Black Bulbul","spHypsileu",
"Black-crested Bulbul","spRubigfla",
"Red-whiskered Bulbul","spPycno2joc",
"Red-vented Bulbul","spPycno2caf",
"Himalayan Bulbul","spPycno2leu2",
"Ashy-throated Warbler","spPhyll5mac",
"Buff-barred Warbler","spPhyll5pul",
"Yellow-browed Warbler","spPhyll5ino",
"Hume's Warbler","spPhyll5hum",
"Lemon-rumped Warbler","spPhyll5chl",
"Tytler's Leaf Warbler","spPhyll5tyt",
"Radde's Warbler","spPhyll5sch","rarity"
"Sulphur-bellied Warbler","spPhyll5gri",
"Tickell's Leaf Warbler","spPhyll5aff",
"Dusky Warbler","spPhyll5fus",
"Smoky Warbler","spPhyll5ful",
"Mountain Chiffchaff","spPhyll5sin","rarity"
"Common Chiffchaff","spPhyll5col",
"Gray-cheeked Warbler","spPhyll5pol",
"Green-crowned Warbler","spPhyll5bur",
"Whistler's Warbler","spPhyll5whi",
"Green Warbler","spPhyll5nit",
"Greenish Warbler","spPhyll5tro1",
"Large-billed Leaf Warbler","spPhyll5mag",
"Chestnut-crowned Warbler","spPhyll5cas",
"Yellow-vented Warbler","spPhyll5can1",
"Western Crowned Warbler","spPhyll5occ",
"Blyth's Leaf Warbler","spPhyll5reg",
"Gray-hooded Warbler","spPhyll5xan1",
"Pale-footed Bush Warbler","spHemit1pal",
"Asian Stubtail","spUrospsqu","rarity"
"Gray-bellied Tesia","spTesiacya",
"Slaty-bellied Tesia","spTesiaoli",
"Chestnut-crowned Bush Warbler","spCettimaj",
"Gray-sided Bush Warbler","spCettibru",
"Chestnut-headed Tesia","spCetticas",
"Yellow-bellied Warbler","spAbrossup",
"Rufous-faced Warbler","spAbrosalb","rarity"
"Black-faced Warbler","spAbrossch",
"Mountain Tailorbird","spPhyll6cuc","rarity"
"Broad-billed Warbler","spTickehod",
"Brownish-flanked Bush Warbler","spHororfor",
"Hume's Bush Warbler","spHororbru",
"Aberrant Bush Warbler","spHororfla",
"White-browed Tit-Warbler","spLepto8sop",
"Black-throated Tit","spAegit1con",
"White-throated Tit","spAegit1niv",
"Black-browed Tit","spAegit1iou",
"Lesser Whitethroat","spCurrucur",
"Eastern Orphean Warbler","spCurrucra","rarity"
"Fire-tailed Myzornis","spMyzorpyr",
"Golden-breasted Fulvetta","spLiopachr",
"Yellow-eyed Babbler","spChrys6sin",
"Jerdon's Babbler","spChrys6alt",
"White-browed Fulvetta","spFulvevin",
"Great Parrotbill","spParad3aem",
"Brown Parrotbill","spParad3uni",
"Fulvous Parrotbill","spSuthoful",
"Black-throated Parrotbill","spSuthonip",
"Black-chinned Yuhina","spYuhinnig",
"Whiskered Yuhina","spYuhinfla",
"White-naped Yuhina","spYuhinbak",
"Stripe-throated Yuhina","spYuhingul",
"Rufous-vented Yuhina","spYuhinocc",
"Indian White-eye","spZoste1pal",
"Chestnut-capped Babbler","spTimalpil",
"Tawny-bellied Babbler","spDumethyp",
"Pin-striped Tit-Babbler","spMixorgul",
"Golden Babbler","spCyano10chr",
"Black-chinned Babbler","spCyano10pyr",
"Rufous-capped Babbler","spCyano10ruf1",
"Rufous-throated Wren-Babbler","spSpelacau",
"Black-crowned Scimitar-Babbler","spPomat1fer",
"Slender-billed Scimitar-Babbler","spPomat1sup",
"Streak-breasted Scimitar-Babbler","spPomat1ruf",
"White-browed Scimitar-Babbler","spPomat1sch",
"Rusty-cheeked Scimitar-Babbler","spEryth5ery",
"Gray-throated Babbler","spStachnig1",
"Sikkim Wedge-billed Babbler","spStachhum",
"Indian Grassbird","spGramiben",
"White-hooded Babbler","spGamps1ruf","rarity"
"Rufous-winged Fulvetta","spSchoe2cas",
"Puff-throated Babbler","spPelloruf",
"Rufous-vented Grass Babbler","spLaticbur",
"Abbott's Babbler","spMalac4abb",
"Nepal Fulvetta","spAlcipnip",
"Striated Laughingthrush","spGrammstr",
"Himalayan Cutia","spCutianip",
"Scaly Laughingthrush","spTroch2sub",
"Blue-winged Laughingthrush","spTroch2squ",
"Streaked Laughingthrush","spTroch2lin",
"Variegated Laughingthrush","spTroch2var",
"Black-faced Laughingthrush","spTroch2aff",
"Chestnut-crowned Laughingthrush","spTroch2ery",
"Long-tailed Sibia","spHeter8pic","rarity"
"Rufous Sibia","spHeter8cap",
"Hoary-throated Barwing","spActinnip",
"Blue-winged Minla","spActincya",
"Chestnut-tailed Minla","spActinstr",
"Rusty-fronted Barwing","spActinege",
"Red-billed Leiothrix","spLeiotlut",
"Silver-eared Mesia","spLeiotarg",
"Red-tailed Minla","spMinlaign",
"Rufous-backed Sibia","spLeiop1ann",
"Red-faced Liocichla","spLiocipho",
"Large Gray Babbler","spArgyamal",
"Slender-billed Babbler","spArgyalon",
"Jungle Babbler","spArgyastr",
"Common Babbler","spArgyacau",
"Striated Babbler","spArgyaear",
"Spiny Babbler","spTurdonip","endemic"
"Lesser Necklaced Laughingthrush","spGarru1mon",
"White-crested Laughingthrush","spGarru1leu",
"Rufous-chinned Laughingthrush","spIanthruf",
"Spotted Laughingthrush","spIanthoce",
"Rufous-necked Laughingthrush","spPtero6ruf",
"Greater Necklaced Laughingthrush","spPtero6pec",
"White-throated Laughingthrush","spPtero6alb",
"Gray-sided Laughingthrush","spPtero6cae",
"Goldcrest","spRegulreg",
"Wallcreeper","spTichomur",
"White-cheeked Nuthatch","spSitta1leu",
"Velvet-fronted Nuthatch","spSitta1fro",
"White-tailed Nuthatch","spSitta1him",
"Indian Nuthatch","spSitta1cas",
"Chestnut-bellied Nuthatch","spSitta1cin",
"Kashmir Nuthatch","spSitta1cas1",
"Hodgson's Treecreeper","spCerth4hod",
"Bar-tailed Treecreeper","spCerth4him",
"Rusty-flanked Treecreeper","spCerth4nip",
"Sikkim Treecreeper","spCerth4dis",
"Eurasian Wren","spTrogltro",
"Spotted Elachura","spElachfor",
"White-throated Dipper","spCincl3cin",
"Brown Dipper","spCincl3pal",
"Common Hill Myna","spGracurel",
"European Starling","spSturnvul",
"Rosy Starling","spPastoros","rarity"
"Daurian Starling","spAgropstu","rarity"
"Indian Pied Starling","spGracu1con",
"Brahminy Starling","spSturn2pag",
"Chestnut-tailed Starling","spSturn2mal",
"Common Myna","spAcridtri",
"Bank Myna","spAcridgin",
"Jungle Myna","spAcridfus",
"Great Myna","spAcridgra",
"Spot-winged Starling","spSarogspi",
"Grandala","spGrandcoe",
"Long-tailed Thrush","spZoothdix",
"Alpine Thrush","spZoothmol",
"Himalayan Thrush","spZoothsal",
"Dark-sided Thrush","spZoothmar",
"Long-billed Thrush","spZoothmon",
"Scaly Thrush","spZoothdau",
"Purple Cochoa","spCochopur",
"Green Cochoa","spCochovir","extinct"
"Pied Thrush","spGeokiwar",
"Orange-headed Thrush","spGeokicit",
"Mistle Thrush","spTurduvis",
"Gray-winged Blackbird","spTurdubou",
"Tickell's Thrush","spTurduuni","rarity"
"Black-breasted Thrush","spTurdudis","rarity"
"Gray-sided Thrush","spTurdufea","rarity"
"Eyebrowed Thrush","spTurduobs1",
"Tibetan Blackbird","spTurdumax",
"White-backed Thrush","spTurdukes",
"White-collared Blackbird","spTurdualb1",
"Chestnut Thrush","spTurdurub",
"Black-throated Thrush","spTurduatr",
"Red-throated Thrush","spTurduruf4",
"Dusky Thrush","spTurdueun",
"Naumann's Thrush","spTurdunau","rarity"
"Dark-sided Flycatcher","spMusci3sib",
"Ferruginous Flycatcher","spMusci3fer",
"Asian Brown Flycatcher","spMusci3dau",
"Brown-breasted Flycatcher","spMusci3mut","rarity"
"Spotted Flycatcher","spMusci3str","rarity"
"Indian Robin","spCopsyful",
"Oriental Magpie-Robin","spCopsysau",
"White-rumped Shama","spCopsymal",
"Large Niltava","spNiltagra",
"Small Niltava","spNiltamac",
"Rufous-bellied Niltava","spNiltasun",
"Verditer Flycatcher","spEumyitha",
"White-gorgeted Flycatcher","spAnthimon",
"Pale-chinned Flycatcher","spCyornpol",
"Pale Blue Flycatcher","spCyornuni",
"Blue-throated Flycatcher","spCyornrub",
"Large Blue Flycatcher","spCyornmag",
"Tickell's Blue Flycatcher","spCyorntic",
"Rusty-bellied Shortwing","spBrach3hyp",
"Lesser Shortwing","spBrach3leu",
"Himalayan Shortwing","spBrach3cru",
"Gould's Shortwing","spHeter9ste",
"Indian Blue Robin","spLarvibru",
"Siberian Blue Robin","spLarvicya","rarity"
"White-bellied Redstart","spLuscipha",
"Bluethroat","spLuscisve",
"Blue Whistling-Thrush","spMyophcae",
"Little Forktail","spEnicusco",
"Spotted Forktail","spEnicumac",
"Black-backed Forktail","spEnicuimm",
"Slaty-backed Forktail","spEnicusch",
"Firethroat","spCalli2pec","rarity"
"Siberian Rubythroat","spCalli2cal",
"Himalayan Rubythroat","spCalli2pec1",
"Chinese Rubythroat","spCalli2tsc","rarity"
"White-tailed Robin","spMyiomleu",
"Himalayan Bluetail","spTarsiruf",
"Rufous-breasted Bush-Robin","spTarsihyp",
"White-browed Bush-Robin","spTarsiind",
"Golden Bush-Robin","spTarsichr",
"Slaty-backed Flycatcher","spFicederi",
"Slaty-blue Flycatcher","spFicedtri",
"Snowy-browed Flycatcher","spFicedhyp",
"Pygmy Flycatcher","spFicedhod",
"Rufous-gorgeted Flycatcher","spFicedstr",
"Sapphire Flycatcher","spFicedsap",
"Little Pied Flycatcher","spFicedwes",
"Ultramarine Flycatcher","spFicedsup",
"Rusty-tailed Flycatcher","spFicedruf",
"Taiga Flycatcher","spFicedalb",
"Kashmir Flycatcher","spFicedsub",
"Red-breasted Flycatcher","spFicedpar",
"Blue-fronted Redstart","spPhoen5fro",
"Plumbeous Redstart","spPhoen5ful",
"Rufous-backed Redstart","spPhoen5ery","rarity"
"White-capped Redstart","spPhoen5leu",
"Blue-capped Redstart","spPhoen5coe",
"Hodgson's Redstart","spPhoen5hod",
"White-throated Redstart","spPhoen5sch",
"White-winged Redstart","spPhoen5ery1",
"Black Redstart","spPhoen5och",
"Daurian Redstart","spPhoen5aur","rarity"
"Chestnut-bellied Rock-Thrush","spMontiruf1",
"Blue-capped Rock-Thrush","spMonticin",
"Rufous-tailed Rock-Thrush","spMontisax","rarity"
"Blue Rock-Thrush","spMontisol",
"White-throated Bushchat","spSaxicins",
"Siberian Stonechat","spSaxicmau",
"White-tailed Stonechat","spSaxicleu",
"Pied Bushchat","spSaxiccap",
"Jerdon's Bushchat","spSaxicjer","rarity"
"Gray Bushchat","spSaxicfer",
"Northern Wheatear","spOenanoen","rarity"
"Isabelline Wheatear","spOenanisa",
"Desert Wheatear","spOenandes",
"Pied Wheatear","spOenanple","rarity"
"Brown Rock Chat","spOenanfus","rarity"
"Variable Wheatear","spOenanpic",
"Persian Wheatear","spOenanchr","rarity"
"Bohemian Waxwing","spBombygar","rarity"
"Thick-billed Flowerpecker","spPachy7agi",
"Yellow-vented Flowerpecker","spPachy7chr",
"Yellow-bellied Flowerpecker","spPachy7mel",
"Pale-billed Flowerpecker","spDicaeery",
"Plain Flowerpecker","spDicaemin",
"Fire-breasted Flowerpecker","spDicaeign1",
"Scarlet-backed Flowerpecker","spDicaecru",
"Ruby-cheeked Sunbird","spChalc4sin",
"Purple Sunbird","spCinny2asi",
"Fire-tailed Sunbird","spAetho1ign",
"Black-throated Sunbird","spAetho1sat",
"Mrs. Gould's Sunbird","spAetho1gou",
"Green-tailed Sunbird","spAetho1nip",
"Crimson Sunbird","spAetho1sip",
"Little Spiderhunter","spArachlon",
"Streaked Spiderhunter","spArachmag",
"Asian Fairy-bluebird","spIrenapue",
"Golden-fronted Leafbird","spChlor7aur",
"Orange-bellied Leafbird","spChlor7har",
"Streaked Weaver","spPloce2man",
"Baya Weaver","spPloce2phi",
"Finn's Weaver","spPloce2meg",
"Black-breasted Weaver","spPloce2ben",
"Indian Silverbill","spEuodimal",
"Scaly-breasted Munia","spLonchpun",
"White-rumped Munia","spLonchstr",
"Tricolored Munia","spLonchmal",
"Chestnut Munia","spLonchatr",
"Red Avadavat","spAmandama",
"Alpine Accentor","spPrunecol",
"Altai Accentor","spPrunehim",
"Robin Accentor","spPrunerub",
"Rufous-breasted Accentor","spPrunestr",
"Brown Accentor","spPruneful",
"Black-throated Accentor","spPruneatr",
"Maroon-backed Accentor","spPruneimm",
"House Sparrow","spPassedom",
"Spanish Sparrow","spPassehis","rarity"
"Russet Sparrow","spPassecin",
"Eurasian Tree Sparrow","spPassemon",
"Yellow-throated Sparrow","spGymno10xan",
"Black-winged Snowfinch","spMonti1ada",
"White-rumped Snowfinch","spOnych3tac",
"Rufous-necked Snowfinch","spPyrgiruf",
"Blanford's Snowfinch","spPyrgibla",
"Forest Wagtail","spDendr12ind","rarity"
"Gray Wagtail","spMotaccin",
"Western Yellow Wagtail","spMotacfla1",
"Citrine Wagtail","spMotaccit",
"White-browed Wagtail","spMotacmad",
"White Wagtail","spMotacalb",
"Richard's Pipit","spAnthuric",
"Paddyfield Pipit","spAnthuruf",
"Long-billed Pipit","spAnthusim",
"Blyth's Pipit","spAnthugod",
"Tawny Pipit","spAnthucam",
"Upland Pipit","spAnthusyl",
"Rosy Pipit","spAnthuros",
"Tree Pipit","spAnthutri",
"Olive-backed Pipit","spAnthuhod",
"Red-throated Pipit","spAnthucer",
"Water Pipit","spAnthuspi",
"Siberian Pipit","spAnthujap",
"Common Chaffinch","spFringcoe",
"Brambling","spFringmon",
"Black-and-yellow Grosbeak","spMycerict",
"Collared Grosbeak","spMyceraff",
"Spot-winged Grosbeak","spMycermel",
"White-winged Grosbeak","spMycercar",
"Common Rosefinch","spCarpo4ery",
"Scarlet Finch","spCarpo4sip",
"Himalayan Beautiful Rosefinch","spCarpo4pul",
"Dark-rumped Rosefinch","spCarpo4edw",
"Pink-browed Rosefinch","spCarpo4rod",
"Spot-winged Rosefinch","spCarpo4rod1",
"Vinaceous Rosefinch","spCarpo4vin",
"Streaked Rosefinch","spCarpo4rub",
"Great Rosefinch","spCarpo4rub1",
"Red-fronted Rosefinch","spCarpo4pun",
"Crimson-browed Finch","spCarpo4sub",
"Himalayan White-browed Rosefinch","spCarpo4thu",
"Brown Bullfinch","spPyrrh4nip",
"Red-headed Bullfinch","spPyrrh4ery",
"Gray-headed Bullfinch","spPyrrh4ery1","rarity"
"Mongolian Finch","spBucanmon","rarity"
"Blanford's Rosefinch","spAgraprub",
"Gold-naped Finch","spPyrrh5epa",
"Spectacled Finch","spCalla1bur",
"Dark-breasted Rosefinch","spProcanip",
"Plain Mountain Finch","spLeuco9nem",
"Black-headed Mountain Finch","spLeuco9bra",
"Yellow-breasted Greenfinch","spChlor11spi",
"Twite","spLinarfla",
"Eurasian Linnet","spLinarcan","rarity"
"Red Crossbill","spLoxiacur",
"Gray-crowned Goldfinch","spCarducan",
"Fire-fronted Serin","spSerinpus",
"Tibetan Serin","spSpinuthi",
"Eurasian Siskin","spSpinuspi","rarity"
"Crested Bunting","spEmberlat",
"Black-headed Bunting","spEmbermel",
"Red-headed Bunting","spEmberbru","rarity"
"Chestnut-eared Bunting","spEmberfuc",
"Rock Bunting","spEmbercia",
"White-capped Bunting","spEmberste","rarity"
"Yellowhammer","spEmbercit","rarity"
"Pine Bunting","spEmberleu",
"Gray-necked Bunting","spEmberbuc","rarity"
"Striolated Bunting","spEmberstr","rarity"
"Pallas's Bunting","spEmberpal","rarity"
"Reed Bunting","spEmbersch","rarity"
"Yellow-breasted Bunting","spEmberaur",
"Little Bunting","spEmberpus",
"Rustic Bunting","spEmberrus","rarity"
"Black-faced Bunting","spEmberspo",
"Chestnut Bunting","spEmberrut","rarity"
