"Name","ID","Status"
"Bar-headed Goose","spAnser1ind","escaped"
"Graylag Goose","spAnser1ans",
"Greater White-fronted Goose","spAnser1alb",
"Lesser White-fronted Goose","spAnser1ery","rarity"
"Taiga Bean-Goose","spAnser1fab",
"Tundra Bean-Goose","spAnser1ser","rarity"
"Pink-footed Goose","spAnser1bra",
"Brant","spBrantber",
"Barnacle Goose","spBrantleu",
"Canada Goose","spBrantcan","introduced"
"Red-breasted Goose","spBrantruf","rarity"
"Mute Swan","spCygnuolo",
"Tundra Swan","spCygnucol",
"Whooper Swan","spCygnucyg",
"Egyptian Goose","spAlopoaeg","rarity-from-introduced"
"Ruddy Shelduck","spTadorfer","rarity"
"Common Shelduck","spTadortad1",
"Wood Duck","spAixspo","escaped"
"Mandarin Duck","spAixgal","introduced"
"Garganey","spSpatuque",
"Blue-winged Teal","spSpatudis","rarity"
"Northern Shoveler","spSpatucly",
"Gadwall","spMarecstr",
"Eurasian Wigeon","spMarecpen",
"American Wigeon","spMarecame","rarity"
"Mallard","spAnaspla",
"Northern Pintail","spAnasacu",
"Green-winged Teal","spAnascre",
"Red-crested Pochard","spNetta1ruf",
"Common Pochard","spAythyfer",
"Ring-necked Duck","spAythycol","rarity"
"Ferruginous Duck","spAythynyr",
"Tufted Duck","spAythyful",
"Greater Scaup","spAythymar",
"Lesser Scaup","spAythyaff","rarity"
"Steller's Eider","spPolysste","rarity"
"King Eider","spSomatspe","rarity"
"Common Eider","spSomatmol",
"Harlequin Duck","spHistrhis","rarity"
"Velvet Scoter","spMelanfus",
"Stejneger's Scoter","spMelanste","rarity"
"Common Scoter","spMelannig",
"Black Scoter","spMelaname","rarity"
"Long-tailed Duck","spClanghye",
"Common Goldeneye","spBucepcla",
"Smew","spMergealb",
"Common Merganser","spMergumer",
"Red-breasted Merganser","spMerguser",
"Ruddy Duck","spOxyurjam","introduced"
"White-headed Duck","spOxyurleu","rarity"
"Hazel Grouse","spTetra1bon",
"Willow Ptarmigan","spLagoplag","rarity"
"Western Capercaillie","spTetra2uro",
"Black Grouse","spLyrurtet",
"Gray Partridge","spPerdiper",
"Ring-necked Pheasant","spPhasicol","introduced"
"Indian Peafowl","spPavocri","escaped"
"Common Quail","spCoturcot",
"Rock Pigeon","spColumliv","introduced"
"Stock Dove","spColumoen",
"Common Wood-Pigeon","spColumpal",
"European Turtle-Dove","spStreptur",
"Oriental Turtle-Dove","spStrepori","rarity"
"Eurasian Collared-Dove","spStrepdec",
"Pallas's Sandgrouse","spSyrrhpar","rarity"
"Great Bustard","spOtistar","rarity"
"Asian Houbara","spChlammac","rarity"
"Little Bustard","spTetra4tet","rarity"
"Great Spotted Cuckoo","spClamagla","rarity"
"Common Cuckoo","spCuculcan",
"Eurasian Nightjar","spCaprieur",
"Alpine Swift","spTachy1mel","rarity"
"Common Swift","spApusapu",
"Pallid Swift","spApuspal","rarity"
"Water Rail","spRalluaqu",
"Corn Crake","spCrexcre",
"Spotted Crake","spPorzapor",
"Eurasian Moorhen","spGalli3chl",
"Eurasian Coot","spFulicatr",
"Little Crake","spZaporpar",
"Baillon's Crake","spZaporpus","rarity"
"Demoiselle Crane","spAnthr1vir","rarity"
"Common Crane","spGrusgru",
"Eurasian Thick-knee","spBurhioed","rarity"
"Black-winged Stilt","spHiman1him","rarity"
"Pied Avocet","spRecuravo","rarity"
"Eurasian Oystercatcher","spHaema1ost",
"Black-bellied Plover","spPluvi2squ",
"European Golden-Plover","spPluvi2apr",
"American Golden-Plover","spPluvi2dom","rarity"
"Pacific Golden-Plover","spPluvi2ful","rarity"
"Eurasian Dotterel","spEudro1mor",
"Common Ringed Plover","spCharahia",
"Semipalmated Plover","spCharasem","rarity"
"Little Ringed Plover","spThinodub",
"Northern Lapwing","spVanelvan",
"Sociable Lapwing","spVanelgre","rarity"
"White-tailed Lapwing","spVanelleu","rarity"
"Caspian Plover","spAnarhasi","rarity"
"Oriental Plover","spAnarhver","rarity"
"Tibetan Sand-Plover","spAnarhatr","rarity"
"Greater Sand-Plover","spAnarhles","rarity"
"Kentish Plover","spAnarhale",
"Whimbrel","spNumenpha",
"Slender-billed Curlew","spNumenten","extinct"
"Eurasian Curlew","spNumenarq",
"Bar-tailed Godwit","spLimoslap",
"Black-tailed Godwit","spLimoslim",
"Long-billed Dowitcher","spLimnosco","rarity"
"Jack Snipe","spLymnomin",
"Eurasian Woodcock","spScolorus",
"Great Snipe","spGalli5med",
"Common Snipe","spGalli5gal",
"Red Phalarope","spPhala1ful","rarity"
"Red-necked Phalarope","spPhala1lob",
"Terek Sandpiper","spXenuscin","rarity"
"Common Sandpiper","spActithyp",
"Spotted Sandpiper","spActitmac","rarity"
"Green Sandpiper","spTringoch",
"Marsh Sandpiper","spTringsta",
"Wood Sandpiper","spTringgla",
"Common Redshank","spTringtot",
"Lesser Yellowlegs","spTringfla","rarity"
"Spotted Redshank","spTringery",
"Common Greenshank","spTringneb",
"Greater Yellowlegs","spTringmel","rarity"
"Ruddy Turnstone","spArenaint",
"Great Knot","spCalidten","rarity"
"Red Knot","spCalidcan",
"Ruff","spCalidpug",
"Broad-billed Sandpiper","spCalidfal",
"Sharp-tailed Sandpiper","spCalidacu","rarity"
"Curlew Sandpiper","spCalidfer",
"Stilt Sandpiper","spCalidhim","rarity"
"Temminck's Stint","spCalidtem",
"Buff-breasted Sandpiper","spCalidsub1","rarity"
"Sanderling","spCalidalb",
"Dunlin","spCalidalp",
"Purple Sandpiper","spCalidmar","rarity"
"Baird's Sandpiper","spCalidbai","rarity"
"Little Stint","spCalidmin",
"White-rumped Sandpiper","spCalidfus","rarity"
"Least Sandpiper","spCalidmin1","rarity"
"Pectoral Sandpiper","spCalidmel","rarity"
"Western Sandpiper","spCalidmau","rarity"
"Semipalmated Sandpiper","spCalidpus","rarity"
"Collared Pratincole","spGlarepra","rarity"
"Black-winged Pratincole","spGlarenor","rarity"
"Long-tailed Jaeger","spSterclon","rarity"
"Parasitic Jaeger","spStercpar",
"Pomarine Jaeger","spStercpom","rarity"
"Great Skua","spStercsku","rarity"
"Atlantic Puffin","spFratearc","rarity"
"Black Guillemot","spCepphgry",
"Razorbill","spAlcator",
"Dovekie","spAlleall","rarity"
"Thick-billed Murre","spUrialom","rarity"
"Common Murre","spUriaaal",
"Little Gull","spHydro3min",
"Ross's Gull","spRhodo2ros","rarity"
"Black-legged Kittiwake","spRissatri","rarity"
"Ivory Gull","spPagopebu","rarity"
"Sabine's Gull","spXemasab","rarity"
"Slender-billed Gull","spChroigen","rarity"
"Black-headed Gull","spChroirid",
"Laughing Gull","spLeuco3atr","rarity"
"Pallas's Gull","spIchthich","rarity"
"Audouin's Gull","spIchthaud","rarity"
"Mediterranean Gull","spIchthmel",
"Common Gull","spLaruscan",
"Ring-billed Gull","spLarusdel","rarity"
"Caspian Gull","spLaruscac",
"American Herring Gull","spLarussmi","rarity"
"European Herring Gull","spLarusarg",
"Yellow-legged Gull","spLarusmic",
"Great Black-backed Gull","spLarusmar",
"Glaucous Gull","spLarushyp","rarity"
"Lesser Black-backed Gull","spLarusfus",
"Slaty-backed Gull","spLarussch","rarity"
"Iceland Gull","spLarusgla1","rarity"
"Little Tern","spStern1alb",
"Gull-billed Tern","spGelocnil","rarity"
"Caspian Tern","spHydro4cas",
"Whiskered Tern","spChlidhyb",
"Black Tern","spChlidnig",
"White-winged Tern","spChlidleu",
"Arctic Tern","spStern2par",
"Common Tern","spStern2hir1",
"Roseate Tern","spStern2dou","rarity"
"Sandwich Tern","spThala1san",
"Greater Flamingo","spPhoenros","rarity"
"Little Grebe","spTachy2ruf1",
"Pied-billed Grebe","spPodilpod","rarity"
"Horned Grebe","spPodic1aur",
"Red-necked Grebe","spPodic1gri",
"Great Crested Grebe","spPodic1cri",
"Eared Grebe","spPodic1nig",
"Red-throated Loon","spGaviaste",
"Arctic Loon","spGaviaarc",
"Pacific Loon","spGaviapac","rarity"
"Common Loon","spGaviaimm","rarity"
"Yellow-billed Loon","spGaviaada","rarity"
"Wilson's Storm-Petrel","spOceanoce","rarity"
"European Storm-Petrel","spHydro5pel","rarity"
"Leach's Storm-Petrel","spHydro5leu","rarity"
"Northern Fulmar","spFulmagla","rarity"
"Cory's Shearwater","spCalonbor","rarity"
"Sooty Shearwater","spArdengri","rarity"
"Manx Shearwater","spPuffipuf","rarity"
"Balearic Shearwater","spPuffimau","rarity"
"Black Stork","spCiconnig",
"White Stork","spCiconcic",
"Northern Gannet","spMorusbas","rarity"
"Brown Booby","spSulaleu","rarity"
"Pygmy Cormorant","spMicro5pyg","rarity"
"Great Cormorant","spPhala2car",
"European Shag","spGulosari","rarity"
"Glossy Ibis","spPlegafal","rarity"
"Eurasian Spoonbill","spPlataleu","rarity"
"Eurasian Bittern","spBotauste",
"Little Bittern","spBotaumin",
"Black-crowned Night Heron","spNycti6nyc",
"Little Egret","spEgretgar","rarity"
"Squacco Heron","spArdeo1ral","rarity"
"Western Cattle-Egret","spArdeaibi","rarity"
"Great Egret","spArdeaalb",
"Gray Heron","spArdeacin",
"Purple Heron","spArdeapur","rarity"
"Great White Pelican","spPelec1ono","rarity"
"Dalmatian Pelican","spPelec1cri","rarity"
"Osprey","spPandihal",
"Black-winged Kite","spElanucae","rarity"
"Bearded Vulture","spGypaebar","rarity"
"Egyptian Vulture","spNeophper","rarity"
"European Honey-buzzard","spPerniapi",
"Cinereous Vulture","spAegypmon","rarity"
"Eurasian Griffon","spGypsful","rarity"
"Short-toed Snake-Eagle","spCircagal","rarity"
"Lesser Spotted Eagle","spClang1pom",
"Greater Spotted Eagle","spClang1cla","rarity"
"Booted Eagle","spHierapen","rarity"
"Steppe Eagle","spAquilnip","rarity"
"Imperial Eagle","spAquilhel","rarity"
"Golden Eagle","spAquilchr",
"Bonelli's Eagle","spAquilfas","rarity"
"Levant Sparrowhawk","spTachy3bre","rarity"
"Eurasian Sparrowhawk","spAccipnis",
"Eurasian Goshawk","spAsturgen",
"Western Marsh Harrier","spCircuaer",
"Hen Harrier","spCircucya",
"Pallid Harrier","spCircumac1",
"Montagu's Harrier","spCircupyg",
"Red Kite","spMilvumil",
"Black Kite","spMilvumig",
"White-tailed Eagle","spHalia1alb",
"Pallas's Fish-Eagle","spHalia1leu1","rarity"
"Rough-legged Hawk","spButeo1lag",
"Common Buzzard","spButeo1but",
"Long-legged Buzzard","spButeo1ruf1","rarity"
"Western Barn Owl","spTytoalb",
"Eurasian Scops-Owl","spOtussco","rarity"
"Snowy Owl","spBubosca","rarity"
"Eurasian Eagle-Owl","spBubobub",
"Northern Hawk Owl","spSurni1ulu","rarity"
"Eurasian Pygmy-Owl","spGlauc1pas",
"Little Owl","spAthennoc",
"Tawny Owl","spStrixalu",
"Ural Owl","spStrixura",
"Great Gray Owl","spStrixneb","rarity"
"Long-eared Owl","spAsiootu",
"Short-eared Owl","spAsiofla",
"Boreal Owl","spAegolfun",
"Eurasian Hoopoe","spUpupaepo",
"European Bee-eater","spMerop1api",
"Common Kingfisher","spAlcedatt",
"Pied Kingfisher","spCerylrud","rarity"
"European Roller","spCoracgar",
"Eurasian Wryneck","spJynxtor",
"Eurasian Three-toed Woodpecker","spPicoitri",
"Middle Spotted Woodpecker","spDendr3med",
"White-backed Woodpecker","spDendr5leu",
"Great Spotted Woodpecker","spDendr5maj",
"Syrian Woodpecker","spDendr5syr",
"Lesser Spotted Woodpecker","spDryobmin",
"Gray-headed Woodpecker","spPicuscan",
"Eurasian Green Woodpecker","spPicusvir1",
"Black Woodpecker","spDryocmar",
"Lesser Kestrel","spFalconau","rarity"
"Eurasian Kestrel","spFalcotin",
"Red-footed Falcon","spFalcoves",
"Eleonora's Falcon","spFalcoele","rarity"
"Merlin","spFalcocol",
"Eurasian Hobby","spFalcosub",
"Saker Falcon","spFalcoche","rarity"
"Gyrfalcon","spFalcorus","rarity"
"Peregrine Falcon","spFalcoper",
"Rose-ringed Parakeet","spPsitt2kra","introduced"
"Red-eyed Vireo","spVireo1oli","rarity"
"Eurasian Golden Oriole","spOriolori",
"Red-backed Shrike","spLaniucol",
"Red-tailed Shrike","spLaniupho","rarity"
"Isabelline Shrike","spLaniuisa","rarity"
"Northern Shrike","spLaniubor","rarity"
"Great Gray Shrike","spLaniuexc",
"Lesser Gray Shrike","spLaniumin","rarity"
"Woodchat Shrike","spLaniusen","rarity"
"Siberian Jay","spPeris1inf","rarity"
"Eurasian Jay","spGarrugla",
"Eurasian Magpie","spPicapic",
"Northern Nutcracker","spNucifcar",
"Yellow-billed Chough","spPyrrh3gra","rarity"
"Eurasian Jackdaw","spColoemon",
"Rook","spCorvufru",
"Carrion Crow","spCorvucor",
"Hooded Crow","spCorvucor1",
"Common Raven","spCorvucor3",
"Coal Tit","spPeripate",
"Crested Tit","spLopho15cri",
"Marsh Tit","spPoeci2pal",
"Willow Tit","spPoeci2mon",
"Eurasian Blue Tit","spCyanicae",
"Azure Tit","spCyanicya","rarity"
"Great Tit","spParusmaj",
"Eurasian Penduline-Tit","spRemizpen",
"Wood Lark","spLulluarb",
"White-winged Lark","spAlaudleu","rarity"
"Eurasian Skylark","spAlaudarv",
"Crested Lark","spGalercri",
"Horned Lark","spEremo1alp",
"Greater Short-toed Lark","spCalanbra","rarity"
"Bimaculated Lark","spMelan9bim","rarity"
"Calandra Lark","spMelan9cal","rarity"
"Black Lark","spMelan9yel","rarity"
"Mediterranean Short-toed Lark","spAlaud1ruf","rarity"
"Bearded Reedling","spPanurbia",
"Booted Warbler","spIdunacal","rarity"
"Sykes's Warbler","spIdunaram","rarity"
"Eastern Olivaceous Warbler","spIdunapal","rarity"
"Melodious Warbler","spHippopol","rarity"
"Icterine Warbler","spHippoict",
"Aquatic Warbler","spAcroc1pal",
"Moustached Warbler","spAcroc1mel","rarity"
"Sedge Warbler","spAcroc1sch",
"Paddyfield Warbler","spAcroc1agr","rarity"
"Blyth's Reed Warbler","spAcroc1dum","rarity"
"Marsh Warbler","spAcroc1pal1",
"Common Reed Warbler","spAcroc1sci",
"Great Reed Warbler","spAcroc1aru",
"Pallas's Grasshopper Warbler","spHelopcer","rarity"
"River Warbler","spLocusflu",
"Savi's Warbler","spLocuslus",
"Common Grasshopper Warbler","spLocusnae",
"Bank Swallow","spRiparrip",
"Barn Swallow","spHirun2rus",
"Western House-Martin","spDelicurb",
"European Red-rumped Swallow","spCecroruf","rarity"
"Wood Warbler","spPhyll5sib",
"Western Bonelli's Warbler","spPhyll5bon","rarity"
"Yellow-browed Warbler","spPhyll5ino","rarity"
"Hume's Warbler","spPhyll5hum","rarity"
"Pallas's Leaf Warbler","spPhyll5pro","rarity"
"Radde's Warbler","spPhyll5sch","rarity"
"Dusky Warbler","spPhyll5fus","rarity"
"Willow Warbler","spPhyll5tro",
"Common Chiffchaff","spPhyll5col",
"Iberian Chiffchaff","spPhyll5ibe","rarity"
"Greenish Warbler","spPhyll5tro1",
"Arctic Warbler","spPhyll5bor1","rarity"
"Long-tailed Tit","spAegit1cau",
"Eurasian Blackcap","spSylvi3atr",
"Garden Warbler","spSylvi3bor",
"Barred Warbler","spCurrunis",
"Lesser Whitethroat","spCurrucur",
"Sardinian Warbler","spCurrumel1","rarity"
"Western Subalpine Warbler","spCurruibe","rarity"
"Eastern Subalpine Warbler","spCurrucan","rarity"
"Greater Whitethroat","spCurrucom",
"Goldcrest","spRegulreg",
"Common Firecrest","spRegulign",
"Wallcreeper","spTichomur",
"Eurasian Nuthatch","spSitta1eur",
"Eurasian Treecreeper","spCerth4fam",
"Short-toed Treecreeper","spCerth4bra",
"Eurasian Wren","spTrogltro",
"White-throated Dipper","spCincl3cin",
"European Starling","spSturnvul",
"Spotless Starling","spSturnuni","rarity"
"Rosy Starling","spPastoros","rarity"
"White's Thrush","spZoothaur","rarity"
"Siberian Thrush","spGeokisib","rarity"
"Mistle Thrush","spTurduvis",
"Song Thrush","spTurduphi",
"Redwing","spTurduili",
"Eurasian Blackbird","spTurdumer",
"Eyebrowed Thrush","spTurduobs1","rarity"
"Fieldfare","spTurdupil",
"Ring Ouzel","spTurdutor",
"Black-throated Thrush","spTurduatr","rarity"
"Red-throated Thrush","spTurduruf4","rarity"
"Dusky Thrush","spTurdueun","rarity"
"Naumann's Thrush","spTurdunau","rarity"
"Spotted Flycatcher","spMusci3str",
"European Robin","spErithrub",
"Rufous-tailed Robin","spLarvisib","rarity"
"Thrush Nightingale","spLuscilus",
"Common Nightingale","spLuscimeg",
"Bluethroat","spLuscisve",
"Red-flanked Bluetail","spTarsicya","rarity"
"Red-breasted Flycatcher","spFicedpar",
"European Pied Flycatcher","spFicedhyp1",
"Collared Flycatcher","spFicedalb1",
"Common Redstart","spPhoen5pho",
"Black Redstart","spPhoen5och",
"Rufous-tailed Rock-Thrush","spMontisax","rarity"
"Whinchat","spSaxicrub",
"European Stonechat","spSaxicrub1",
"Siberian Stonechat","spSaxicmau","rarity"
"Northern Wheatear","spOenanoen",
"Isabelline Wheatear","spOenanisa","rarity"
"Desert Wheatear","spOenandes","rarity"
"Eastern Black-eared Wheatear","spOenanmel","rarity"
"Pied Wheatear","spOenanple","rarity"
"White-crowned Wheatear","spOenanleu1","rarity"
"Bohemian Waxwing","spBombygar",
"Alpine Accentor","spPrunecol",
"Siberian Accentor","spPrunemon","rarity"
"Black-throated Accentor","spPruneatr","rarity"
"Dunnock","spPrunemod",
"House Sparrow","spPassedom",
"Eurasian Tree Sparrow","spPassemon",
"Rock Sparrow","spPetro3pet","rarity"
"White-winged Snowfinch","spMonti1niv","rarity"
"Gray Wagtail","spMotaccin",
"Western Yellow Wagtail","spMotacfla1",
"Eastern Yellow Wagtail","spMotactsc","rarity"
"Citrine Wagtail","spMotaccit","rarity"
"White Wagtail","spMotacalb",
"Richard's Pipit","spAnthuric","rarity"
"Blyth's Pipit","spAnthugod","rarity"
"Tawny Pipit","spAnthucam",
"Meadow Pipit","spAnthupra",
"Tree Pipit","spAnthutri",
"Olive-backed Pipit","spAnthuhod","rarity"
"Red-throated Pipit","spAnthucer",
"Water Pipit","spAnthuspi",
"Rock Pipit","spAnthupet",
"Common Chaffinch","spFringcoe",
"Brambling","spFringmon",
"Hawfinch","spCocco1coc",
"Common Rosefinch","spCarpo4ery",
"Pine Grosbeak","spPinicenu","rarity"
"Eurasian Bullfinch","spPyrrh4pyr",
"Trumpeter Finch","spBucangit","rarity"
"European Greenfinch","spChlor11chl",
"Twite","spLinarfla",
"Eurasian Linnet","spLinarcan",
"Redpoll","spAcant5fla",
"Parrot Crossbill","spLoxiapyt","rarity"
"Red Crossbill","spLoxiacur",
"White-winged Crossbill","spLoxialeu","rarity"
"European Goldfinch","spCarducar",
"Citril Finch","spCarducit","rarity"
"European Serin","spSerinser",
"Eurasian Siskin","spSpinuspi",
"Lapland Longspur","spCalcalap",
"Snow Bunting","spPlect2niv",
"Black-headed Bunting","spEmbermel","rarity"
"Red-headed Bunting","spEmberbru","rarity"
"Corn Bunting","spEmbercal",
"Rock Bunting","spEmbercia","rarity"
"Cirl Bunting","spEmbercir","rarity"
"Yellowhammer","spEmbercit",
"Pine Bunting","spEmberleu","rarity"
"Ortolan Bunting","spEmberhor",
"Reed Bunting","spEmbersch",
"Yellow-breasted Bunting","spEmberaur","rarity"
"Little Bunting","spEmberpus","rarity"
"Rustic Bunting","spEmberrus","rarity"
"Black-faced Bunting","spEmberspo","rarity"
"Yellow-browed Bunting","spEmberchr","rarity"
"Dark-eyed Junco","spJuncohye","rarity"
"Savannah Sparrow","spPasse2san","rarity"
