"Name","ID","Status"
"Garganey","spSpatuque",
"Northern Shoveler","spSpatucly","rarity"
"Eurasian Wigeon","spMarecpen",
"Pacific Black Duck","spAnassup",
"Eastern Spot-billed Duck","spAnaszon","rarity"
"Northern Pintail","spAnasacu",
"Green-winged Teal","spAnascre",
"Common Pochard","spAythyfer","rarity"
"Tufted Duck","spAythyful",
"Micronesian Megapode","spMegaplap",
"Red Junglefowl","spGallugal","introduced"
"Rock Pigeon","spColumliv","introduced"
"Palau Ground Dove","spPampucan","endemic"
"Nicobar Pigeon","spCaloenic",
"Palau Fruit-Dove","spPtilipel","endemic"
"Micronesian Imperial-Pigeon","spDuculoce",
"Chestnut-winged Cuckoo","spClamacor","rarity"
"Long-tailed Koel","spUrodytai",
"Channel-billed Cuckoo","spScythnov","rarity"
"Sahul Brush Cuckoo","spCacomvar","rarity"
"Northern Hawk-Cuckoo","spHierohyp","rarity"
"Hodgson's Hawk-Cuckoo","spHieronis","rarity"
"Common Cuckoo","spCuculcan",
"Oriental Cuckoo","spCuculopt",
"Palau Nightjar","spCapripha","endemic"
"White-throated Needletail","spHiruncau","rarity"
"Palau Swiftlet","spAerodpel","endemic"
"Pacific Swift","spApuspac","rarity"
"Buff-banded Rail","spGalli2phi",
"Eurasian Moorhen","spGalli3chl",
"Eurasian Coot","spFulicatr","rarity"
"Australasian Swamphen","spPorph1mel",
"White-browed Crake","spPoliocin",
"Watercock","spGalli4cin","rarity"
"Plain Bush-hen","spAmaur1oli","rarity"
"White-breasted Waterhen","spAmaur1pho","rarity"
"Red-legged Crake","spRalli1fas","rarity"
"Slaty-legged Crake","spRalli1eur",
"Black-winged Stilt","spHiman1him",
"Black-bellied Plover","spPluvi2squ",
"Pacific Golden-Plover","spPluvi2ful",
"Common Ringed Plover","spCharahia","rarity"
"Little Ringed Plover","spThinodub","rarity"
"Red-kneed Dotterel","spEryth1cin","rarity"
"Oriental Plover","spAnarhver",
"Siberian Sand-Plover","spAnarhmon",
"Greater Sand-Plover","spAnarhles",
"Kentish Plover","spAnarhale","rarity"
"Whimbrel","spNumenpha",
"Little Curlew","spNumenmin","rarity"
"Far Eastern Curlew","spNumenmad",
"Eurasian Curlew","spNumenarq","rarity"
"Bar-tailed Godwit","spLimoslap",
"Black-tailed Godwit","spLimoslim",
"Asian Dowitcher","spLimnosem","rarity"
"Swinhoe's Snipe","spGalli5meg",
"Common Snipe","spGalli5gal","rarity"
"Red-necked Phalarope","spPhala1lob","rarity"
"Terek Sandpiper","spXenuscin",
"Common Sandpiper","spActithyp",
"Green Sandpiper","spTringoch","rarity"
"Gray-tailed Tattler","spTringbre",
"Wandering Tattler","spTringinc",
"Marsh Sandpiper","spTringsta",
"Wood Sandpiper","spTringgla",
"Common Redshank","spTringtot",
"Lesser Yellowlegs","spTringfla","rarity"
"Common Greenshank","spTringneb",
"Ruddy Turnstone","spArenaint",
"Great Knot","spCalidten","rarity"
"Red Knot","spCalidcan","rarity"
"Ruff","spCalidpug",
"Broad-billed Sandpiper","spCalidfal","rarity"
"Sharp-tailed Sandpiper","spCalidacu",
"Curlew Sandpiper","spCalidfer","rarity"
"Temminck's Stint","spCalidtem","rarity"
"Long-toed Stint","spCalidsub","rarity"
"Red-necked Stint","spCalidruf",
"Sanderling","spCalidalb",
"Dunlin","spCalidalp",
"Little Stint","spCalidmin","rarity"
"White-rumped Sandpiper","spCalidfus","rarity"
"Pectoral Sandpiper","spCalidmel",
"Oriental Pratincole","spGlaremal",
"Pomarine Jaeger","spStercpom",
"Black-headed Gull","spChroirid",
"White Tern","spGygisalb",
"Brown Noddy","spAnoussto",
"Black Noddy","spAnousmin",
"Gray Noddy","spAnousalb",
"Sooty Tern","spOnychfus",
"Bridled Tern","spOnychana",
"Gray-backed Tern","spOnychlun",
"Little Tern","spStern1alb",
"Gull-billed Tern","spGelocnil","rarity"
"Whiskered Tern","spChlidhyb",
"White-winged Tern","spChlidleu",
"Common Tern","spStern2hir1",
"Black-naped Tern","spStern2sum",
"Great Crested Tern","spThala1ber",
"White-tailed Tropicbird","spPhaet2lep",
"Red-tailed Tropicbird","spPhaet2rub",
"Matsudaira's Storm-Petrel","spHydro5mat",
"Bulwer's Petrel","spBulwebul",
"Tahiti Petrel","spPseudros",
"Streaked Shearwater","spCalonleu",
"Wedge-tailed Shearwater","spArdenpac",
"Tropical Shearwater","spPuffibai",
"Lesser Frigatebird","spFregaari",
"Great Frigatebird","spFregamin",
"Red-footed Booby","spSulasul",
"Brown Booby","spSulaleu",
"Masked Booby","spSuladac",
"Little Pied Cormorant","spMicro5mel",
"Great Cormorant","spPhala2car","rarity"
"Little Black Cormorant","spPhala2sul","rarity"
"Glossy Ibis","spPlegafal","rarity"
"Black-faced Spoonbill","spPlatamin","rarity"
"Schrenck's Bittern","spBotaueur","rarity"
"Yellow Bittern","spBotausin",
"Black-crowned Night Heron","spNycti6nyc",
"Nankeen Night Heron","spNycti6cal",
"Malayan Night Heron","spGorsamel","rarity"
"Japanese Night Heron","spGorsagoi","rarity"
"Pacific Reef-Heron","spEgretsac",
"Little Egret","spEgretgar",
"Striated Heron","spButorstr",
"Chinese Pond-Heron","spArdeo1bac","rarity"
"Eastern Cattle-Egret","spArdeacor","rarity"
"Great Egret","spArdeaalb","rarity"
"Medium Egret","spArdeaint","rarity"
"Gray Heron","spArdeacin","rarity"
"Australian Pelican","spPelec1con","rarity"
"Osprey","spPandihal",
"Chinese Sparrowhawk","spTachy3sol",
"Black Kite","spMilvumig",
"Brahminy Kite","spHaliaind","rarity"
"Gray-faced Buzzard","spButasind","rarity"
"Palau Scops-Owl","spOtuspod","endemic"
"Brown Boobook","spNinoxscu","rarity"
"Rainbow Bee-eater","spMerop1orn",
"Common Kingfisher","spAlcedatt","rarity"
"Ruddy Kingfisher","spHalcycor","rarity"
"Palau Kingfisher","spTodirpel","endemic"
"Collared Kingfisher","spTodirchl",
"Dollarbird","spEurysori",
"Peregrine Falcon","spFalcoper",
"Sulphur-crested Cockatoo","spCacatgal","introduced"
"Papuan Eclectus","spEclecpol","introduced"
"Micronesian Myzomela","spMyzomrub2",
"Palau Cicadabird","spEdolimon1","endemic"
"Morningbird","spPachy5ten","endemic"
"White-breasted Woodswallow","spArtamleu",
"Palau Fantail","spRhipilep","endemic"
"Palau Flycatcher","spMyiagery","endemic"
"Brown Shrike","spLaniucri","rarity"
"Oriental Reed Warbler","spAcroc1ori1","rarity"
"Lanceolated Warbler","spLocuslan","rarity"
"Bank Swallow","spRiparrip","rarity"
"Barn Swallow","spHirun2rus",
"Eastern Red-rumped Swallow","spCecrodau","rarity"
"Palau Bush Warbler","spHororann","endemic"
"Giant White-eye","spMegazpal","endemic"
"Dusky White-eye","spZoste1fin","endemic"
"Caroline Islands White-eye","spZoste1sem1",
"Micronesian Starling","spAplonopa",
"Chestnut-cheeked Starling","spAgropphi","rarity"
"White's Thrush","spZoothaur","rarity"
"Eyebrowed Thrush","spTurduobs1",
"Gray-streaked Flycatcher","spMusci3gri",
"Blue-and-white Flycatcher","spCyano11cya","rarity"
"Siberian Rubythroat","spCalli2cal",
"Narcissus Flycatcher","spFicednar","rarity"
"Blue Rock-Thrush","spMontisol",
"Isabelline Wheatear","spOenanisa","rarity"
"Chestnut Munia","spLonchatr","introduced"
"Blue-faced Parrotfinch","spEryth6tri1",
"Eurasian Tree Sparrow","spPassemon","introduced"
"Gray Wagtail","spMotaccin",
"Eastern Yellow Wagtail","spMotactsc",
"White Wagtail","spMotacalb","rarity"
"Blyth's Pipit","spAnthugod","rarity"
"Olive-backed Pipit","spAnthuhod","rarity"
"Red-throated Pipit","spAnthucer","rarity"
"Black-headed Bunting","spEmbermel","rarity"
"Little Bunting","spEmberpus","rarity"
