"Name","ID","Status"
"Great Tinamou","spTinammaj",
"Cinereous Tinamou","spCryptcin",
"Little Tinamou","spCryptsou",
"Red-legged Tinamou","spCryptery",
"Variegated Tinamou","spCryptvar",
"Rusty Tinamou","spCryptbre",
"Horned Screamer","spAnhimcor","extinct"
"White-faced Whistling-Duck","spDendrvid",
"Black-bellied Whistling-Duck","spDendraut",
"Fulvous Whistling-Duck","spDendrbic",
"Muscovy Duck","spCairimos",
"Blue-winged Teal","spSpatudis",
"American Wigeon","spMarecame","rarity"
"White-cheeked Pintail","spAnasbah",
"Northern Pintail","spAnasacu","rarity"
"Southern Pochard","spNetta1ery","rarity"
"Ring-necked Duck","spAythycol","rarity"
"Lesser Scaup","spAythyaff","rarity"
"Masked Duck","spNomondom",
"Variable Chachalaca","spOrtalmot",
"Marail Guan","spPenelmar",
"Spix's Guan","spPeneljac",
"Blue-throated Piping-Guan","spPipilcum",
"Black Curassow","spCraxale",
"Crested Bobwhite","spColincri",
"Marbled Wood-Quail","spOdontguj",
"Rock Pigeon","spColumliv","introduced"
"Pale-vented Pigeon","spPatagcay",
"Scaled Pigeon","spPatagspe",
"Plumbeous Pigeon","spPatagplu",
"Ruddy Pigeon","spPatagsub",
"Common Ground Dove","spColum1pas",
"Plain-breasted Ground Dove","spColum1min",
"Ruddy Ground Dove","spColum1tal",
"Blue Ground Dove","spClarapre",
"Ruddy Quail-Dove","spGeotrmon",
"Violaceous Quail-Dove","spGeotrvio",
"White-tipped Dove","spLepto1ver",
"Gray-fronted Dove","spLepto1ruf",
"Eared Dove","spZenaiaur1",
"Mourning Dove","spZenaimac","rarity"
"Greater Ani","spCrotomaj",
"Smooth-billed Ani","spCrotoani",
"Striped Cuckoo","spTapernae",
"Pavonine Cuckoo","spDromopav",
"Little Cuckoo","spCoccymin",
"Squirrel Cuckoo","spPiayacay",
"Black-bellied Cuckoo","spPiayamel",
"Dark-billed Cuckoo","spCoccy1mel",
"Yellow-billed Cuckoo","spCoccy1ame",
"Pearly-breasted Cuckoo","spCoccy1eul",
"Mangrove Cuckoo","spCoccy1min",
"Nacunda Nighthawk","spChordnac",
"Least Nighthawk","spChordpus","rarity"
"Lesser Nighthawk","spChordacu",
"Short-tailed Nighthawk","spLurocsem",
"Blackish Nightjar","spNycti1nig",
"Common Pauraque","spNycti2alb",
"Spot-tailed Nightjar","spAntiumac",
"White-tailed Nightjar","spHydrocay",
"Ladder-tailed Nightjar","spHydrocli",
"Scissor-tailed Nightjar","spHydrotor","rarity"
"Rufous Nightjar","spAntroruf",
"Rufous Potoo","spPhyllbra",
"Great Potoo","spNycti4gra",
"Long-tailed Potoo","spNycti4aet",
"Common Potoo","spNycti4gri",
"White-winged Potoo","spNycti4leu",
"Oilbird","spSteatcar","rarity"
"White-chinned Swift","spCypsecry",
"White-collared Swift","spStrep1zon",
"Band-rumped Swift","spChaetspi",
"Chapman's Swift","spChaetcha",
"Sick's Swift","spChaetmer",
"Short-tailed Swift","spChaetbra",
"Common Swift","spApusapu","rarity"
"White-tipped Swift","spAeronmon",
"Lesser Swallow-tailed Swift","spPanypcay",
"Fork-tailed Palm Swift","spTachosqu",
"Crimson Topaz","spTopazpel",
"White-necked Jacobin","spFlorimel",
"Rufous-breasted Hermit","spGlauchir",
"Pale-tailed Barbthroat","spThrenleu",
"Straight-billed Hermit","spPhaetbou",
"Long-tailed Hermit","spPhaetsup",
"Great-billed Hermit","spPhaetmal",
"Little Hermit","spPhaetlon1",
"Reddish Hermit","spPhaetrub",
"Sooty-capped Hermit","spPhaetaug","rarity"
"Brown Violetear","spColibdel",
"Horned Sungem","spHeliabil",
"Black-eared Fairy","spHelioaur",
"White-tailed Goldenthroat","spPolytgua",
"Green-tailed Goldenthroat","spPolytthe",
"Fiery-tailed Awlbill","spAvocerec",
"Ruby-topaz Hummingbird","spChrys2mos",
"Black-throated Mango","spAnthrnig",
"Green-throated Mango","spAnthrvir",
"Racket-tipped Thorntail","spDiscolon",
"Tufted Coquette","spLopho5orn",
"Velvet-browed Brilliant","spHelio1xan",
"Long-billed Starthroat","spHelio2lon",
"Amethyst Woodstar","spCalli1ame",
"Blue-tailed Emerald","spChlormel",
"Gray-breasted Sabrewing","spCampylar",
"Fork-tailed Woodnymph","spThalufur",
"Swallow-tailed Hummingbird","spEupetmac",
"Copper-tailed Hummingbird","spSaucecup",
"White-chested Emerald","spChrys3bre",
"Plain-bellied Emerald","spChrys3leu",
"Glittering-throated Emerald","spChionfim",
"Rufous-throated Sapphire","spHylocsap",
"White-chinned Sapphire","spChlor1cya",
"Blue-chinned Sapphire","spChlor1not",
"Mangrove Rail","spRallulon",
"Spotted Rail","spPardimac",
"Ash-throated Crake","spMustealb",
"Paint-billed Crake","spMusteery",
"Uniform Crake","spAmaurcon","rarity"
"Rufous-necked Wood-Rail","spArami1axi",
"Gray-cowled Wood-Rail","spArami1caj",
"Common Gallinule","spGalli3gal",
"Purple Gallinule","spPorph1mar",
"Azure Gallinule","spPorph1fla",
"Ocellated Crake","spRufirsch",
"Russet-crowned Crake","spRufirvir",
"Yellow-breasted Crake","spLaterfla",
"Rufous-sided Crake","spLatermel",
"Gray-breasted Crake","spLaterexi",
"Sungrebe","spHelio4ful",
"Limpkin","spAramugua",
"Gray-winged Trumpeter","spPsophcre",
"Black-necked Stilt","spHiman1mex",
"Black-bellied Plover","spPluvi2squ",
"American Golden-Plover","spPluvi2dom",
"Pied Plover","spHoplocay",
"Semipalmated Plover","spCharasem",
"Southern Lapwing","spVanelchi",
"Wilson's Plover","spAnarhwil",
"Collared Plover","spAnarhcol",
"Wattled Jacana","spJacanjac",
"Upland Sandpiper","spBartrlon",
"Whimbrel","spNumenpha",
"Hudsonian Godwit","spLimoshae",
"Marbled Godwit","spLimosfed","rarity"
"Short-billed Dowitcher","spLimnogri",
"Wilson's Snipe","spGalli5del","rarity"
"Giant Snipe","spGalli5und",
"Pantanal Snipe","spGalli5par",
"Wilson's Phalarope","spPhala1tri",
"Spotted Sandpiper","spActitmac",
"Solitary Sandpiper","spTringsol",
"Lesser Yellowlegs","spTringfla",
"Willet","spTringsem",
"Greater Yellowlegs","spTringmel",
"Ruddy Turnstone","spArenaint",
"Red Knot","spCalidcan",
"Ruff","spCalidpug","rarity"
"Stilt Sandpiper","spCalidhim",
"Buff-breasted Sandpiper","spCalidsub1",
"Sanderling","spCalidalb",
"Baird's Sandpiper","spCalidbai","rarity"
"White-rumped Sandpiper","spCalidfus",
"Least Sandpiper","spCalidmin1",
"Pectoral Sandpiper","spCalidmel",
"Western Sandpiper","spCalidmau",
"Semipalmated Sandpiper","spCalidpus",
"Long-tailed Jaeger","spSterclon","rarity"
"Parasitic Jaeger","spStercpar",
"Pomarine Jaeger","spStercpom","rarity"
"Brown Skua","spStercant","rarity"
"South Polar Skua","spStercmac","rarity"
"Black-legged Kittiwake","spRissatri","rarity"
"Black-headed Gull","spChroirid","rarity"
"Laughing Gull","spLeuco3atr",
"Audouin's Gull","spIchthaud","rarity"
"Lesser Black-backed Gull","spLarusfus","rarity"
"Black Skimmer","spRynchnig",
"Brown Noddy","spAnoussto",
"Black Noddy","spAnousmin","rarity"
"Sooty Tern","spOnychfus",
"Bridled Tern","spOnychana","rarity"
"Least Tern","spStern1ant",
"Yellow-billed Tern","spStern1sup",
"Large-billed Tern","spPhaet1sim",
"Gull-billed Tern","spGelocnil",
"Black Tern","spChlidnig",
"Common Tern","spStern2hir1",
"Roseate Tern","spStern2dou","rarity"
"Sandwich Tern","spThala1san",
"Royal Tern","spThala1max",
"American Flamingo","spPhoenrub",
"Least Grebe","spTachy2dom",
"Pied-billed Grebe","spPodilpod",
"Hoatzin","spOpist1hoa",
"Sunbittern","spEuryphel",
"Red-billed Tropicbird","spPhaet2aet","rarity"
"Atlantic Yellow-nosed Albatross","spThala2chl","rarity"
"Wilson's Storm-Petrel","spOceanoce",
"Leach's Storm-Petrel","spHydro5leu",
"Band-rumped Storm-Petrel","spHydro5cas","rarity"
"Fea's Petrel","spPtero3fea",
"Bulwer's Petrel","spBulwebul","rarity"
"Cory's Shearwater","spCalonbor",
"Scopoli's Shearwater","spCalondio",
"Great Shearwater","spArdengra",
"Manx Shearwater","spPuffipuf","rarity"
"Sargasso Shearwater","spPuffilhe",
"Maguari Stork","spCiconmag",
"Jabiru","spJabirmyc",
"Wood Stork","spMycteame",
"Magnificent Frigatebird","spFregamag",
"Red-footed Booby","spSulasul",
"Brown Booby","spSulaleu",
"Masked Booby","spSuladac",
"Anhinga","spAnhinanh",
"Neotropic Cormorant","spNanno1bra",
"White Ibis","spEudocalb","rarity"
"Scarlet Ibis","spEudocrub",
"Green Ibis","spMesemcay",
"Roseate Spoonbill","spPlataaja",
"Rufescent Tiger-Heron","spTigri1lin",
"Fasciated Tiger-Heron","spTigri1fas",
"Boat-billed Heron","spCochlcoc",
"Agami Heron","spAgamiaga",
"Zigzag Heron","spZebriund",
"Pinnated Bittern","spBotaupin",
"Stripe-backed Bittern","spBotauinv",
"Least Bittern","spBotauexi",
"Yellow-crowned Night Heron","spNyctavio",
"Black-crowned Night Heron","spNycti6nyc",
"Capped Heron","spPilhepil",
"Little Blue Heron","spEgretcae",
"Tricolored Heron","spEgrettri",
"Snowy Egret","spEgretthu",
"Little Egret","spEgretgar","rarity"
"Striated Heron","spButorstr",
"Green Heron","spButorvir","rarity"
"Western Cattle-Egret","spArdeaibi",
"Great Egret","spArdeaalb",
"Cocoi Heron","spArdeacoc",
"Brown Pelican","spPelec1occ",
"King Vulture","spSarcopap",
"Black Vulture","spCoragatr",
"Turkey Vulture","spCathaaur",
"Lesser Yellow-headed Vulture","spCathabur",
"Greater Yellow-headed Vulture","spCathamel",
"Osprey","spPandihal",
"Pearl Kite","spGampsswa",
"White-tailed Kite","spElanuleu",
"Hook-billed Kite","spChondunc",
"Gray-headed Kite","spLepto3cay",
"Swallow-tailed Kite","spElanofor",
"Black Hawk-Eagle","spSpizatyr",
"Black-and-white Hawk-Eagle","spSpizamel",
"Ornate Hawk-Eagle","spSpizaorn",
"Crested Eagle","spMorphgui",
"Harpy Eagle","spHarpihar",
"Gray-bellied Hawk","spAccippol",
"Bicolored Hawk","spAsturbic",
"Long-winged Harrier","spCircubuf",
"Tiny Hawk","spMicro7sup",
"Double-toothed Kite","spHarpabid",
"Rufous-thighed Kite","spHarpadio",
"Plumbeous Kite","spIctin1plu",
"Crane Hawk","spGerancae",
"Black-collared Hawk","spBusarnig",
"Snail Kite","spRostr1soc",
"Slender-billed Kite","spHelicham",
"Common Black Hawk","spButeoant",
"Rufous Crab Hawk","spButeoaeq",
"Savanna Hawk","spButeomer",
"Great Black Hawk","spButeouru",
"Roadside Hawk","spRupormag",
"White-tailed Hawk","spGeran1alb",
"White Hawk","spPseud2alb",
"Black-faced Hawk","spLeuco5mel",
"Gray-lined Hawk","spButeo1nit",
"Broad-winged Hawk","spButeo1pla1",
"Zone-tailed Hawk","spButeo1alb",
"Short-tailed Hawk","spButeo1bra",
"American Barn Owl","spTytofur",
"Tropical Screech-Owl","spMegascho",
"Foothill Screech-Owl","spMegasror",
"Tawny-bellied Screech-Owl","spMegaswat",
"Crested Owl","spLopho10cri",
"Spectacled Owl","spPulsaper",
"Great Horned Owl","spBubovir",
"Amazonian Pygmy-Owl","spGlauc1har",
"Ferruginous Pygmy-Owl","spGlauc1bra",
"Burrowing Owl","spAthencun",
"Mottled Owl","spStrixvir",
"Black-banded Owl","spStrixhuh",
"Striped Owl","spAsiocla",
"Stygian Owl","spAsiosty",
"Short-eared Owl","spAsiofla","rarity"
"Black-tailed Trogon","spTrogomel",
"Green-backed Trogon","spTrogovir",
"Guianan Trogon","spTrogovio",
"Amazonian Black-throated Trogon","spTrogoruf",
"Collared Trogon","spTrogocol",
"Amazonian Motmot","spMomotmom",
"Ringed Kingfisher","spMegac1tor",
"Belted Kingfisher","spMegac1alc","rarity"
"Amazon Kingfisher","spChlor2ama",
"American Pygmy Kingfisher","spChlor2aen",
"Green Kingfisher","spChlor2ame",
"Green-and-rufous Kingfisher","spChlor2ind",
"Guianan Puffbird","spNothamac",
"Pied Puffbird","spNothatec",
"Spotted Puffbird","spBuccotam",
"Collared Puffbird","spBuccocap",
"White-chested Puffbird","spMalac1fus",
"Rusty-breasted Nunlet","spNonnurub",
"Black Nunbird","spMonasatr",
"Swallow-winged Puffbird","spCheli1ten",
"Brown Jacamar","spBrach2lug",
"Yellow-billed Jacamar","spGalbualb",
"Green-tailed Jacamar","spGalbugal",
"Bronzy Jacamar","spGalbuleu",
"Paradise Jacamar","spGalbudea",
"Great Jacamar","spJacam1aur",
"Black-spotted Barbet","spCapitnig",
"Tepui Toucanet","spAulacwhi",
"Green Aracari","spPtero4vir",
"Black-necked Aracari","spPtero4ara",
"Guianan Toucanet","spSelenpip",
"Toco Toucan","spRamph2toc",
"White-throated Toucan","spRamph2tuc",
"Channel-billed Toucan","spRamph2vit",
"Golden-spangled Piculet","spPicumexi",
"Arrowhead Piculet","spPicummin","endemic"
"White Woodpecker","spMelan2can",
"Yellow-tufted Woodpecker","spMelan2cru",
"Red-crowned Woodpecker","spMelan2rub",
"Golden-collared Woodpecker","spDryobcas",
"Blood-colored Woodpecker","spDryobsan",
"Red-necked Woodpecker","spCamperub",
"Crimson-crested Woodpecker","spCampemel",
"Lineated Woodpecker","spDryoclin",
"Ringed Woodpecker","spCeleutor",
"Waved Woodpecker","spCeleuund",
"Cream-colored Woodpecker","spCeleufla",
"Chestnut Woodpecker","spCeleuele",
"Yellow-throated Woodpecker","spPiculfla",
"Golden-green Woodpecker","spPiculchr",
"Golden-olive Woodpecker","spColaprub",
"Spot-breasted Woodpecker","spColappun",
"Campo Flicker","spColapcam",
"Laughing Falcon","spHerpecac",
"Collared Forest-Falcon","spMicra1sem",
"Slaty-backed Forest-Falcon","spMicra1mir",
"Barred Forest-Falcon","spMicra1ruf",
"Lined Forest-Falcon","spMicra1gil",
"Crested Caracara","spCaracpla",
"Red-throated Caracara","spIbyctame",
"Yellow-headed Caracara","spDaptrchi",
"Black Caracara","spDaptrate",
"American Kestrel","spFalcospa",
"Merlin","spFalcocol","rarity"
"Aplomado Falcon","spFalcofem",
"Bat Falcon","spFalcoruf",
"Orange-breasted Falcon","spFalcodei",
"Peregrine Falcon","spFalcoper",
"Lilac-tailed Parrotlet","spTouitbat",
"Scarlet-shouldered Parrotlet","spTouithue","rarity"
"Sapphire-rumped Parrotlet","spTouitpur",
"Tepui Parrotlet","spNanno3pan",
"Golden-winged Parakeet","spBrotochr",
"Caica Parrot","spPyrilcai",
"Dusky Parrot","spPionufus",
"Blue-headed Parrot","spPionumen",
"Blue-cheeked Amazon","spAmazo1duf",
"Yellow-crowned Amazon","spAmazo1och",
"Mealy Amazon","spAmazo1far",
"Orange-winged Amazon","spAmazo1ama",
"Dusky-billed Parrotlet","spForpumod",
"Green-rumped Parrotlet","spForpupas",
"Black-headed Parrot","spPionimel",
"Red-fan Parrot","spDeropacc",
"Painted Parakeet","spPyrrhpic",
"Peach-fronted Parakeet","spEupsiaur",
"Brown-throated Parakeet","spEupsiper",
"Sulphur-breasted Parakeet","spAratimac",
"Red-bellied Macaw","spOrtho1man",
"Blue-and-yellow Macaw","spAraara",
"Chestnut-fronted Macaw","spArasev",
"Scarlet Macaw","spAramac",
"Red-and-green Macaw","spArachl",
"Red-shouldered Macaw","spDiopsnob",
"White-eyed Parakeet","spPsitt6leu",
"Rufous-rumped Antwren","spEuchrcal",
"Ash-winged Antwren","spEuchrspo",
"Fasciated Antshrike","spCymbi1lin",
"Black-throated Antshrike","spFredevir",
"Great Antshrike","spTarabmaj",
"Black-crested Antshrike","spSakescan",
"Barred Antshrike","spThamndol",
"Mouse-colored Antshrike","spThamnmur",
"Northern Slaty-Antshrike","spThamnpun",
"Band-tailed Antshrike","spThamnmel1",
"Amazonian Antshrike","spThamnama",
"White-streaked Antvireo","spDysitleu",
"Dusky-throated Antshrike","spThamn2ard",
"Cinereous Antshrike","spThamn2cae",
"Rufous-bellied Antwren","spIslergut",
"Spot-winged Antshrike","spPygipste",
"Brown-bellied Stipplethroat","spEpinegut",
"Pygmy Antwren","spMyrmobra",
"Guianan Streaked-Antwren","spMyrmosur",
"White-flanked Antwren","spMyrmoaxi",
"Long-winged Antwren","spMyrmolon1",
"Plain-winged Antwren","spMyrmobeh","rarity"
"Gray Antwren","spMyrmomen",
"Spot-tailed Antwren","spHerpssti",
"Todd's Antwren","spHerpssti1",
"Rusty-winged Antwren","spHerpsfra",
"Dot-winged Antwren","spMicro12qui",
"Southern White-fringed Antwren","spFormigri",
"Rusty-backed Antwren","spFormiruf",
"Guianan Warbling-Antbird","spHypoc1can",
"Dusky Antbird","spCerco1tyr",
"Blackish Antbird","spCerco1nig",
"Gray Antbird","spCerco2cin",
"White-browed Antbird","spMyrmo2leu",
"Black-chinned Antbird","spHypoc2mel",
"Silvered Antbird","spSclatnae",
"Black-headed Antbird","spPercnruf",
"Spot-winged Antbird","spMyrmeleu",
"White-bellied Antbird","spMyrme1lon","rarity"
"Ferruginous-backed Antbird","spMyrmo4fer",
"Black-throated Antbird","spMyrmo5atr",
"Wing-banded Antbird","spMyrmo6tor",
"White-plumed Antbird","spPithyalb",
"Rufous-throated Antbird","spGymno5ruf",
"Spot-backed Antbird","spHylopnae1",
"Common Scale-backed Antbird","spWillipoe",
"Chestnut-belted Gnateater","spConopaur",
"Variegated Antpitta","spGrallvar",
"Spotted Antpitta","spHylop1mac",
"Thrush-like Antpitta","spMyrmo7cam",
"Rufous-capped Antthrush","spFormi1col",
"Black-faced Antthrush","spFormi1ana",
"Short-tailed Antthrush","spChama1cam",
"South American Leaftosser","spScler1obs",
"Short-billed Leaftosser","spScler1ruf",
"Black-tailed Leaftosser","spScler1cau",
"Spot-throated Woodcreeper","spCerthsti",
"Whistling Woodcreeper","spDeconlon",
"White-chinned Woodcreeper","spDendr6mer",
"Plain-brown Woodcreeper","spDendr6ful",
"Wedge-billed Woodcreeper","spGlyphspi",
"Cinnamon-throated Woodcreeper","spDendr7ruf",
"Amazonian Barred-Woodcreeper","spDendr8cer",
"Black-banded Woodcreeper","spDendr8pic",
"Red-billed Woodcreeper","spHylexper",
"Strong-billed Woodcreeper","spXiphopro",
"Striped Woodcreeper","spXipho1obs",
"Chestnut-rumped Woodcreeper","spXipho1par",
"Buff-throated Woodcreeper","spXipho1gut",
"Straight-billed Woodcreeper","spDendr9pic",
"Curve-billed Scythebill","spCampy1pro",
"Narrow-billed Woodcreeper","spLepidang",
"Guianan Woodcreeper","spLepidalb",
"Slender-billed Xenops","spXenop1ten",
"Amazonian Plain-Xenops","spXenop1gen",
"Point-tailed Palmcreeper","spBerlerik",
"Rufous-tailed Xenops","spMicro13mil",
"Rufous-rumped Foliage-gleaner","spNeoph2ery",
"Cinnamon-rumped Foliage-gleaner","spPhilypyr",
"Rufous-tailed Foliage-gleaner","spAnaba1ruf",
"Ruddy Foliage-gleaner","spClibarub",
"Chestnut-crowned Foliage-gleaner","spAutomruf",
"Ochre-throated Foliage-gleaner","spAutomoch",
"Olive-backed Foliage-gleaner","spAutominf",
"Speckled Spinetail","spThrip1gut",
"Yellow-chinned Spinetail","spCerth1cin",
"Plain-crowned Spinetail","spSynalguj",
"McConnell's Spinetail","spSynalmac",
"Pale-breasted Spinetail","spSynalalb2",
"Ruddy Spinetail","spSynalrut",
"Tiny Tyrant-Manakin","spTyranvir",
"Pale-bellied Tyrant-Manakin","spNeopepal",
"Saffron-crested Tyrant-Manakin","spNeopechr",
"Blue-backed Manakin","spChiropar",
"White-throated Manakin","spCorapgut",
"Black Manakin","spXenop2atr",
"White-fronted Manakin","spLepid1ser",
"White-bearded Manakin","spManacman",
"Crimson-hooded Manakin","spPipraaur",
"White-crowned Manakin","spPseud7pip",
"Golden-headed Manakin","spCerat1ery",
"Guianan Red-Cotinga","spPhoen4car",
"Guianan Cock-of-the-rock","spRupicrup",
"Crimson Fruitcrow","spHaema2mil",
"Purple-throated Fruitcrow","spQuerupur",
"Capuchinbird","spPeristri",
"Purple-breasted Cotinga","spCotincot",
"Spangled Cotinga","spCotincay",
"Screaming Piha","spLipauvoc",
"White Bellbird","spProcnalb",
"Pompadour Cotinga","spXipho2pun",
"Bare-necked Fruitcrow","spGymno6foe",
"Black-tailed Tityra","spTityrcay",
"Black-crowned Tityra","spTityrinq",
"Olivaceous Schiffornis","spSchifoli",
"Cinereous Mourner","spLaniohyp",
"Dusky Purpletuft","spIodopfus",
"Green-backed Becard","spPachy2vir",
"Cinereous Becard","spPachy2ruf",
"White-winged Becard","spPachy2pol",
"Black-capped Becard","spPachy2mar",
"Glossy-backed Becard","spPachy2sur",
"Pink-throated Becard","spPachy2min",
"Sharpbill","spOxyrucri",
"Tropical Royal Flycatcher","spOnych1cor",
"Ruddy-tailed Flycatcher","spTeren1ery",
"Whiskered Flycatcher","spMyiobbar",
"Wing-barred Piprites","spPiprichl",
"Cinnamon Manakin-Tyrant","spNeopicin",
"Cinnamon-crested Spadebill","spPlaty1sat",
"Golden-crowned Spadebill","spPlaty1cor",
"White-crested Spadebill","spPlaty1pla",
"Ochre-bellied Flycatcher","spMioneole",
"McConnell's Flycatcher","spMionemac",
"Sepia-capped Flycatcher","spLepto6ama",
"Olive-green Tyrannulet","spPhyll1vir",
"Ringed Antpipit","spCoryt2tor",
"Short-tailed Pygmy-Tyrant","spMyioreca",
"Double-banded Pygmy-Tyrant","spLopho13vit",
"Helmeted Pygmy-Tyrant","spLopho13gal",
"Boat-billed Tody-Tyrant","spHemitjos",
"White-eyed Tody-Tyrant","spHemitzos",
"Pelzeln's Tody-Tyrant","spHemitino",
"Smoky-fronted Tody-Flycatcher","spPoecifum",
"Black-chested Tyrant","spTaeni1and",
"Spotted Tody-Flycatcher","spTodir1mac",
"Common Tody-Flycatcher","spTodir1cin",
"Painted Tody-Flycatcher","spTodir1pic",
"Eastern Olivaceous Flatbill","spRhync3oli",
"Yellow-olive Flatbill","spTolmosul",
"Yellow-margined Flatbill","spTolmoass",
"Gray-crowned Flatbill","spTolmopol",
"Ochre-lored Flatbill","spTolmofla1",
"Cliff Flycatcher","spHirun1fer",
"White-lored Tyrannulet","spOrnitine",
"Southern Beardless-Tyrannulet","spCampt1obs",
"Suiriri Flycatcher","spSuirisui",
"Mouse-colored Tyrannulet","spNesotmur",
"Yellow Tyrannulet","spCapsifla",
"Bearded Tachuri","spPolys1pec",
"Yellow-crowned Tyrannulet","spTyran1ela",
"Forest Elaenia","spMyiop1gai",
"Amazonian Elaenia","spMyiop1cin","rarity"
"Yellow-crowned Elaenia","spMyiop1fla",
"Greenish Elaenia","spMyiop1vir",
"Plain-crested Elaenia","spElaencri",
"Rufous-crowned Elaenia","spElaenruf",
"Yellow-bellied Elaenia","spElaenfla",
"Small-billed Elaenia","spElaenpar",
"Lesser Elaenia","spElaenchi",
"Sooty-headed Tyrannulet","spPhyll2gri",
"Guianan Tyrannulet","spZimmeace",
"Rufous-sided Scrub-Tyrant","spEuscaruf",
"Pale-tipped Tyrannulet","spInezicau",
"Bran-colored Flycatcher","spMyiop2fas",
"Euler's Flycatcher","spLathreul",
"Olive-sided Flycatcher","spContocoo",
"White-throated Pewee","spContoalb",
"Northern Tropical Pewee","spContobog",
"Fuscous Flycatcher","spCnemofus",
"Northern Scrub-Flycatcher","spSubleare",
"Amazonian Scrub-Flycatcher","spSubleobs",
"Southern Scrub-Flycatcher","spSublemod","rarity"
"Rufous-tailed Tyrant","spKnipopoe",
"Amazonian Black-Tyrant","spKnipopoe1","rarity"
"Drab Water Tyrant","spOchthlit",
"Gray Monjita","spNengecin",
"White-headed Marsh Tyrant","spArundleu",
"Pied Water-Tyrant","spFluvipic",
"Long-tailed Tyrant","spColoncol",
"Large-headed Flatbill","spRamph3meg",
"Rufous-tailed Flatbill","spRamph3ruf",
"Cinnamon Attila","spAttilcin",
"Bright-rumped Attila","spAttilspa",
"Todd's Sirystes","spSiryssub",
"Grayish Mourner","spRhyti1sim",
"Pale-bellied Mourner","spRhyti1imm",
"Dusky-capped Flycatcher","spMyiartub",
"Swainson's Flycatcher","spMyiarswa",
"Short-crested Flycatcher","spMyiarfer",
"Brown-crested Flycatcher","spMyiartyr",
"Lesser Kiskadee","spPhilo2lic",
"Great Kiskadee","spPitansul",
"Boat-billed Flycatcher","spMegarpit",
"Rusty-margined Flycatcher","spMyiozcay",
"Dusky-chested Flycatcher","spMyiozlut",
"Yellow-throated Flycatcher","spConop1par",
"Streaked Flycatcher","spMyiodmac",
"Piratic Flycatcher","spLegatleu",
"Variegated Flycatcher","spEmpid1var",
"Sulphury Flycatcher","spTyran3sul",
"White-throated Kingbird","spTyran4alb",
"Tropical Kingbird","spTyran4mel",
"Eastern Kingbird","spTyran4tyr","rarity"
"Gray Kingbird","spTyran4dom",
"Fork-tailed Flycatcher","spTyran4sav",
"Rufous-browed Peppershrike","spCyclaguj",
"Ashy-headed Greenlet","spHylop2pec",
"Lemon-chested Greenlet","spHylop2tho",
"Slaty-capped Shrike-Vireo","spVireoleu",
"Tawny-crowned Greenlet","spTunchoch",
"Buff-cheeked Greenlet","spPachy4mus",
"Tepui Vireo","spVireo1scl",
"Red-eyed Vireo","spVireo1oli","rarity"
"Chivi Vireo","spVireo1chi",
"Black-whiskered Vireo","spVireo1alt",
"Cayenne Jay","spCyano7cay",
"Black-capped Donacobius","spDonacatr",
"Bank Swallow","spRiparrip",
"White-winged Swallow","spTachy4alb",
"Purple Martin","spPrognsub",
"Caribbean Martin","spProgndom",
"Gray-breasted Martin","spProgncha",
"Southern Martin","spPrognele",
"Brown-chested Martin","spProgntap",
"Southern Rough-winged Swallow","spStelgruf",
"White-thighed Swallow","spAttictib",
"White-banded Swallow","spAtticfas",
"Blue-and-white Swallow","spPygoccya",
"Black-collared Swallow","spPygocmel",
"Barn Swallow","spHirun2rus",
"Cliff Swallow","spPetro2pyr","rarity"
"Collared Gnatwren","spMicro17col",
"Long-billed Gnatwren","spRamph5mel",
"Guianan Gnatcatcher","spPolio4gui",
"Tropical Gnatcatcher","spPolio4plu",
"Wing-banded Wren","spMicro18bam",
"Southern House Wren","spTroglmus1",
"Coraya Wren","spPheugcor",
"Buff-breasted Wren","spCantoleu1",
"White-breasted Wood-Wren","spHenic2leu",
"Musician Wren","spCyphoara",
"Chalk-browed Mockingbird","spMimussat",
"Tropical Mockingbird","spMimusgil",
"Gray-cheeked Thrush","spCatha1min",
"Rufous-brown Solitaire","spCichl1leu",
"Pale-breasted Thrush","spTurduleu",
"Cocoa Thrush","spTurdufum",
"White-necked Thrush","spTurdualb",
"Spectacled Thrush","spTurdunud",
"Campina Thrush","spTurduart",
"Black-hooded Thrush","spTurduoli2",
"House Sparrow","spPassedom","introduced"
"Yellowish Pipit","spAnthuchi",
"Golden-rumped Euphonia","spChlor8cya",
"Plumbeous Euphonia","spEuphoplu",
"Purple-throated Euphonia","spEuphochl",
"Finsch's Euphonia","spEuphofin",
"Golden-bellied Euphonia","spEuphochr",
"White-vented Euphonia","spEuphomin",
"Violaceous Euphonia","spEuphovio",
"Golden-sided Euphonia","spEuphocay",
"Grassland Sparrow","spAmmodhum",
"Pectoral Sparrow","spArrem1tac",
"Rufous-collared Sparrow","spZonotcap",
"Bobolink","spDolicory",
"Eastern Meadowlark","spSturn3mag",
"Red-breasted Meadowlark","spLeistmil",
"Green Oropendola","spPsarovir",
"Crested Oropendola","spPsarodec",
"Yellow-rumped Cacique","spCaciccel",
"Red-rumped Cacique","spCacichae",
"Epaulet Oriole","spIcter1cay",
"Yellow Oriole","spIcter1nig",
"Shiny Cowbird","spMolotbon",
"Giant Cowbird","spMolotory",
"Carib Grackle","spQuisclug",
"Yellow-hooded Blackbird","spChrys8ict",
"Northern Waterthrush","spParkenov",
"Black-and-white Warbler","spMniotvar","rarity"
"Prothonotary Warbler","spProtocit",
"Masked Yellowthroat","spGeothaeq",
"American Redstart","spSetop1rut",
"Tropical Parula","spSetop1pit",
"Blackburnian Warbler","spSetop1fus","rarity"
"Yellow Warbler","spSetop1pet",
"Blackpoll Warbler","spSetop1str",
"Riverbank Warbler","spMyiot2riv",
"Red-billed Pied Tanager","spLampr4mel",
"Hepatic Tanager","spPiranfla",
"Summer Tanager","spPiranrub",
"Scarlet Tanager","spPiranoli","rarity"
"Red-and-black Grosbeak","spPerip1ery",
"Yellow-green Grosbeak","spCaryocan",
"Rose-breasted Chat","spGrana1pel",
"Amazonian Grosbeak","spCyano13rot",
"Dickcissel","spSpiza1ame","rarity"
"Red-capped Cardinal","spParoagul",
"Black-faced Tanager","spSchis2mel",
"Magpie Tanager","spCisso1lev","rarity"
"White-banded Tanager","spNeothfas",
"Hooded Tanager","spNemospil",
"Gray-headed Tanager","spEucompen",
"Flame-crested Tanager","spLoriocri",
"White-shouldered Tanager","spLorioluc",
"Fulvous-crested Tanager","spTachy5sur",
"White-lined Tanager","spTachy5ruf",
"Red-shouldered Tanager","spTachy5pho",
"Fulvous Shrike-Tanager","spLanio2ful",
"Silver-beaked Tanager","spRamph7car",
"Blue-backed Tanager","spCyani1cya",
"Blue-gray Tanager","spThrauepi",
"Palm Tanager","spThraupal",
"Dotted Tanager","spIxothvar","rarity"
"Speckled Tanager","spIxothgut",
"Spotted Tanager","spIxothpun",
"Burnished-buff Tanager","spStilpcay",
"Turquoise Tanager","spTangamex",
"Paradise Tanager","spTangachi",
"Opal-rumped Tanager","spTangavel",
"Bay-headed Tanager","spTangagyr",
"Swallow Tanager","spTersivir",
"Black-faced Dacnis","spDacnilin",
"Blue Dacnis","spDacnicay",
"Short-billed Honeycreeper","spCyanenit",
"Purple Honeycreeper","spCyanecae",
"Red-legged Honeycreeper","spCyanecya",
"Green Honeycreeper","spChlor16spi",
"Guira Tanager","spHemit2gui",
"Yellow-backed Tanager","spHemit2fla",
"Bicolored Conebill","spConirbic",
"Chestnut-vented Conebill","spConirspe",
"White-rumped Tanager","spCypsnhir",
"Stripe-tailed Yellow-Finch","spSicalcit",
"Saffron Finch","spSicalfla","rarity"
"Grassland Yellow-Finch","spSicallut2",
"Wedge-tailed Grass-Finch","spEmber1her",
"Blue-black Grassquit","spVolatjac",
"Lesson's Seedeater","spSporo1bou",
"Lined Seedeater","spSporo1lin",
"White-bellied Seedeater","spSporo1leu",
"Chestnut-bellied Seedeater","spSporo1cas",
"Ruddy-breasted Seedeater","spSporo1min",
"Copper Seedeater","spSporo1bou1",
"Chestnut-bellied Seed-Finch","spSporo1ang",
"Large-billed Seed-Finch","spSporo1cra",
"Wing-barred Seedeater","spSporo1ame",
"Yellow-bellied Seedeater","spSporo1nig1","rarity"
"Slate-colored Seedeater","spSporo1sch",
"Plumbeous Seedeater","spSporo1plu",
"Red-crested Finch","spCoryp3cuc",
"Bananaquit","spCoerefla",
"Buff-throated Saltator","spSalta1max",
"Olive-gray Saltator","spSalta1oli",
"Slate-colored Grosbeak","spSalta1gro",
