"Name","ID","Status"
"Fulvous Whistling-Duck","spDendrbic","rarity"
"Lesser Whistling-Duck","spDendrjav",
"Bar-headed Goose","spAnser1ind",
"Graylag Goose","spAnser1ans",
"Swan Goose","spAnser1cyg","rarity"
"Greater White-fronted Goose","spAnser1alb","rarity"
"Lesser White-fronted Goose","spAnser1ery","rarity"
"Knob-billed Duck","spSarkimel",
"Ruddy Shelduck","spTadorfer",
"Common Shelduck","spTadortad1",
"Muscovy Duck","spCairimos","escaped"
"Cotton Pygmy-Goose","spNettacor",
"Mandarin Duck","spAixgal",
"Baikal Teal","spSibirfor",
"Garganey","spSpatuque",
"Northern Shoveler","spSpatucly",
"Gadwall","spMarecstr",
"Falcated Duck","spMarecfal",
"Eurasian Wigeon","spMarecpen",
"Indian Spot-billed Duck","spAnaspoe",
"Eastern Spot-billed Duck","spAnaszon",
"Mallard","spAnaspla","rarity"
"Northern Pintail","spAnasacu",
"Green-winged Teal","spAnascre",
"White-winged Duck","spAsarcscu",
"Red-crested Pochard","spNetta1ruf","rarity"
"Common Pochard","spAythyfer",
"Ferruginous Duck","spAythynyr",
"Baer's Pochard","spAythybae",
"Tufted Duck","spAythyful",
"Greater Scaup","spAythymar","rarity"
"Long-tailed Duck","spClanghye","rarity"
"Red-breasted Merganser","spMerguser","rarity"
"Scaly-sided Merganser","spMergusqu","rarity"
"Helmeted Guineafowl","spNumidmel","escaped"
"Ferruginous Partridge","spCalopocu",
"Crested Partridge","spRollurou",
"Rufous-throated Partridge","spArborruf1",
"Chestnut-headed Partridge","spArborcam",
"Bar-backed Partridge","spArborbru",
"Malayan Partridge","spArborcam1",
"Long-billed Partridge","spRhizolon",
"Mrs. Hume's Pheasant","spSyrmahum",
"Kalij Pheasant","spLophuleu",
"Silver Pheasant","spLophunyc",
"Siamese Fireback","spLophudia",
"Malayan Crested Fireback","spLophuruf",
"Great Argus","spArgusarg",
"Indian Peafowl","spPavocri","escaped"
"Green Peafowl","spPavomut",
"Scaly-breasted Partridge","spTropichl",
"Chestnut-necklaced Partridge","spTropicha",
"Malayan Peacock-Pheasant","spPolypmal",
"Gray Peacock-Pheasant","spPolypbic",
"Mountain Peacock-Pheasant","spPolypino",
"Mountain Bamboo-Partridge","spBambufyt",
"Red Junglefowl","spGallugal",
"Chinese Francolin","spFrancpin",
"Blue-breasted Quail","spSynoichi",
"Japanese Quail","spCoturjap",
"Rain Quail","spCoturcor",
"Rock Pigeon","spColumliv","introduced"
"Speckled Wood-Pigeon","spColumhod",
"Ashy Wood-Pigeon","spColumpul",
"Pale-capped Pigeon","spColumpun",
"Oriental Turtle-Dove","spStrepori",
"Red Collared-Dove","spStreptra",
"Spotted Dove","spSpilochi",
"Barred Cuckoo-Dove","spMacro1unc",
"Little Cuckoo-Dove","spMacro1ruf1",
"Asian Emerald Dove","spChalcind",
"Zebra Dove","spGeopestr",
"Nicobar Pigeon","spCaloenic",
"Little Green-Pigeon","spTreroola",
"Pink-necked Green-Pigeon","spTrerover",
"Cinnamon-headed Green-Pigeon","spTreroful",
"Orange-breasted Green-Pigeon","spTrerobic",
"Ashy-headed Green-Pigeon","spTreropha",
"Thick-billed Green-Pigeon","spTrerocur",
"Large Green-Pigeon","spTrerocap",
"Yellow-footed Green-Pigeon","spTreropho",
"Yellow-vented Green-Pigeon","spTrerosei",
"Pin-tailed Green-Pigeon","spTreroapi",
"Wedge-tailed Green-Pigeon","spTrerosph",
"White-bellied Green-Pigeon","spTrerosie",
"Jambu Fruit-Dove","spPtilijam",
"Green Imperial-Pigeon","spDuculaen",
"Mountain Imperial-Pigeon","spDuculbad",
"Pied Imperial-Pigeon","spDuculbic",
"Coral-billed Ground-Cuckoo","spCarporen",
"Short-toed Coucal","spCentr1rec",
"Greater Coucal","spCentr1sin",
"Lesser Coucal","spCentr1ben",
"Raffles's Malkoha","spRhinochl",
"Red-billed Malkoha","spZancljav",
"Chestnut-breasted Malkoha","spPhaencur",
"Chestnut-bellied Malkoha","spPhaensum",
"Black-bellied Malkoha","spPhaendia",
"Green-billed Malkoha","spPhaentri",
"Chestnut-winged Cuckoo","spClamacor",
"Pied Cuckoo","spClamajac",
"Asian Koel","spEudynsco",
"Asian Emerald Cuckoo","spChrys1mac",
"Violet Cuckoo","spChrys1xan",
"Horsfield's Bronze-Cuckoo","spChalc1bas","rarity"
"Little Bronze-Cuckoo","spChalc1min",
"Banded Bay Cuckoo","spCacomson",
"Plaintive Cuckoo","spCacommer",
"Sunda Brush Cuckoo","spCacomsep",
"Square-tailed Drongo-Cuckoo","spSurnilug",
"Moustached Hawk-Cuckoo","spHierovag",
"Large Hawk-Cuckoo","spHierospa",
"Dark Hawk-Cuckoo","spHieroboc",
"Common Hawk-Cuckoo","spHierovar","rarity"
"Northern Hawk-Cuckoo","spHierohyp","rarity"
"Hodgson's Hawk-Cuckoo","spHieronis",
"Malaysian Hawk-Cuckoo","spHierofug",
"Lesser Cuckoo","spCuculpol",
"Indian Cuckoo","spCuculmic",
"Himalayan Cuckoo","spCuculsat",
"Common Cuckoo","spCuculcan",
"Oriental Cuckoo","spCuculopt",
"Malaysian Eared-Nightjar","spLyncotem",
"Great Eared-Nightjar","spLyncomac",
"Gray Nightjar","spCaprijot",
"Large-tailed Nightjar","spCaprimac",
"Indian Nightjar","spCapriasi",
"Savanna Nightjar","spCapriaff",
"Large Frogmouth","spBatraaur",
"Gould's Frogmouth","spBatraste",
"Hodgson's Frogmouth","spBatrahod",
"Blyth's Frogmouth","spBatraaff",
"Silver-rumped Spinetail","spRhaphleu",
"White-throated Needletail","spHiruncau",
"Silver-backed Needletail","spHiruncoc",
"Brown-backed Needletail","spHirungig",
"Plume-toed Swiftlet","spColloaff",
"Himalayan Swiftlet","spAerodbre",
"Black-nest Swiftlet","spAerodmax",
"White-nest Swiftlet","spAerodfuc",
"Common Swift","spApusapu","rarity"
"Pacific Swift","spApuspac",
"Cook's Swift","spApuscoo",
"Dark-rumped Swift","spApusacu",
"House Swift","spApusnip",
"Asian Palm Swift","spCypsibal",
"Crested Treeswift","spHemip1cor",
"Gray-rumped Treeswift","spHemip1lon",
"Whiskered Treeswift","spHemip1com",
"Brown-cheeked Rail","spRalluind",
"Slaty-breasted Rail","spLewinstr",
"Spotted Crake","spPorzapor",
"Eurasian Moorhen","spGalli3chl",
"Eurasian Coot","spFulicatr",
"Gray-headed Swamphen","spPorph1pol",
"White-browed Crake","spPoliocin",
"Watercock","spGalli4cin",
"White-breasted Waterhen","spAmaur1pho",
"Red-legged Crake","spRalli1fas",
"Slaty-legged Crake","spRalli1eur",
"Ruddy-breasted Crake","spZaporfus",
"Band-bellied Crake","spZaporpay","rarity"
"Baillon's Crake","spZaporpus",
"Black-tailed Crake","spZaporbic",
"Masked Finfoot","spHelio3per",
"Demoiselle Crane","spAnthr1vir","rarity"
"Sarus Crane","spAntigant","extinct"
"Common Crane","spGrusgru","rarity"
"Great Thick-knee","spEsacurec",
"Beach Thick-knee","spEsacumag",
"Indian Thick-knee","spBurhiind",
"Black-winged Stilt","spHiman1him",
"Pied Avocet","spRecuravo",
"Eurasian Oystercatcher","spHaema1ost","rarity"
"Black-bellied Plover","spPluvi2squ",
"Pacific Golden-Plover","spPluvi2ful",
"Common Ringed Plover","spCharahia",
"Little Ringed Plover","spThinodub",
"Long-billed Plover","spThinopla",
"Northern Lapwing","spVanelvan",
"River Lapwing","spVanelduv",
"Gray-headed Lapwing","spVanelcin",
"Red-wattled Lapwing","spVanelind",
"Oriental Plover","spAnarhver",
"Tibetan Sand-Plover","spAnarhatr",
"Greater Sand-Plover","spAnarhles",
"Malaysian Plover","spAnarhper",
"Kentish Plover","spAnarhale",
"White-faced Plover","spAnarhdea",
"Greater Painted-Snipe","spRostrben",
"Pheasant-tailed Jacana","spHydro2chi",
"Bronze-winged Jacana","spMetopind",
"Whimbrel","spNumenpha",
"Little Curlew","spNumenmin",
"Far Eastern Curlew","spNumenmad",
"Eurasian Curlew","spNumenarq",
"Bar-tailed Godwit","spLimoslap",
"Black-tailed Godwit","spLimoslim",
"Asian Dowitcher","spLimnosem",
"Long-billed Dowitcher","spLimnosco",
"Jack Snipe","spLymnomin",
"Eurasian Woodcock","spScolorus",
"Wood Snipe","spGalli5nem",
"Swinhoe's Snipe","spGalli5meg","rarity"
"Pin-tailed Snipe","spGalli5ste",
"Common Snipe","spGalli5gal",
"Red Phalarope","spPhala1ful","rarity"
"Red-necked Phalarope","spPhala1lob",
"Terek Sandpiper","spXenuscin",
"Common Sandpiper","spActithyp",
"Green Sandpiper","spTringoch",
"Gray-tailed Tattler","spTringbre",
"Marsh Sandpiper","spTringsta",
"Wood Sandpiper","spTringgla",
"Common Redshank","spTringtot",
"Nordmann's Greenshank","spTringgut",
"Spotted Redshank","spTringery",
"Common Greenshank","spTringneb",
"Ruddy Turnstone","spArenaint",
"Great Knot","spCalidten",
"Red Knot","spCalidcan",
"Ruff","spCalidpug",
"Broad-billed Sandpiper","spCalidfal",
"Sharp-tailed Sandpiper","spCalidacu",
"Curlew Sandpiper","spCalidfer",
"Temminck's Stint","spCalidtem",
"Long-toed Stint","spCalidsub",
"Red-necked Stint","spCalidruf",
"Spoon-billed Sandpiper","spCalidpyg",
"Sanderling","spCalidalb",
"Dunlin","spCalidalp",
"Little Stint","spCalidmin",
"Pectoral Sandpiper","spCalidmel","rarity"
"Yellow-legged Buttonquail","spTurnitan",
"Barred Buttonquail","spTurnisus",
"Small Buttonquail","spTurnisyl",
"Crab-Plover","spDroma1ard",
"Small Pratincole","spGlarelac",
"Collared Pratincole","spGlarepra","rarity"
"Oriental Pratincole","spGlaremal",
"Long-tailed Jaeger","spSterclon",
"Parasitic Jaeger","spStercpar",
"Pomarine Jaeger","spStercpom",
"Ancient Murrelet","spSynthant","rarity"
"Little Gull","spHydro3min","rarity"
"Black-legged Kittiwake","spRissatri","rarity"
"Sabine's Gull","spXemasab","rarity"
"Slender-billed Gull","spChroigen",
"Black-headed Gull","spChroirid",
"Brown-headed Gull","spChroibru",
"Pallas's Gull","spIchthich",
"Sooty Gull","spIchthhem","rarity"
"Black-tailed Gull","spLaruscra",
"Common Gull","spLaruscan","rarity"
"Caspian Gull","spLaruscac","rarity"
"Mongolian Gull","spLarusmon",
"Lesser Black-backed Gull","spLarusfus",
"Slaty-backed Gull","spLarussch",
"Indian Skimmer","spRynchalb",
"Brown Noddy","spAnoussto",
"Aleutian Tern","spOnychale","rarity"
"Sooty Tern","spOnychfus",
"Bridled Tern","spOnychana",
"Little Tern","spStern1alb",
"Gull-billed Tern","spGelocnil",
"Caspian Tern","spHydro4cas",
"Whiskered Tern","spChlidhyb",
"White-winged Tern","spChlidleu",
"River Tern","spStern2aur",
"Arctic Tern","spStern2par","rarity"
"Common Tern","spStern2hir1",
"Black-naped Tern","spStern2sum",
"Roseate Tern","spStern2dou",
"Black-bellied Tern","spStern2acu",
"Lesser Crested Tern","spThala1ben",
"Great Crested Tern","spThala1ber",
"Chinese Crested Tern","spThala1ber1","rarity"
"Little Grebe","spTachy2ruf1",
"Horned Grebe","spPodic1aur","rarity"
"Great Crested Grebe","spPodic1cri",
"Eared Grebe","spPodic1nig",
"White-tailed Tropicbird","spPhaet2lep","rarity"
"Red-billed Tropicbird","spPhaet2aet","rarity"
"Red-tailed Tropicbird","spPhaet2rub","rarity"
"Laysan Albatross","spPhoebimm","rarity"
"Swinhoe's Storm-Petrel","spHydro5mon","rarity"
"Northern Fulmar","spFulmagla","rarity"
"White-necked Petrel","spPtero3cer","rarity"
"Bulwer's Petrel","spBulwebul","rarity"
"Streaked Shearwater","spCalonleu","rarity"
"Wedge-tailed Shearwater","spArdenpac","rarity"
"Short-tailed Shearwater","spArdenten",
"Asian Openbill","spAnastosc",
"Black Stork","spCiconnig",
"Asian Woolly-necked Stork","spCiconepi",
"Storm's Stork","spCiconsto",
"White Stork","spCiconcic","rarity"
"Black-necked Stork","spEphipasi","rarity"
"Lesser Adjutant","spLepto2jav",
"Greater Adjutant","spLepto2dub",
"Milky Stork","spMyctecin",
"Painted Stork","spMycteleu",
"Lesser Frigatebird","spFregaari",
"Great Frigatebird","spFregamin",
"Christmas Island Frigatebird","spFregaand",
"Red-footed Booby","spSulasul","rarity"
"Brown Booby","spSulaleu",
"Masked Booby","spSuladac",
"Oriental Darter","spAnhinmel",
"Little Cormorant","spMicro5nig",
"Great Cormorant","spPhala2car",
"Indian Cormorant","spPhala2fus",
"Glossy Ibis","spPlegafal",
"African Sacred Ibis","spThresaet","introduced"
"Black-headed Ibis","spThresmel",
"White-shouldered Ibis","spPseud1dav","extinct"
"Giant Ibis","spPseud1gig","extinct"
"Eurasian Spoonbill","spPlataleu","rarity"
"Black-faced Spoonbill","spPlatamin",
"Eurasian Bittern","spBotauste",
"Black Bittern","spBotaufla",
"Cinnamon Bittern","spBotaucin",
"Schrenck's Bittern","spBotaueur",
"Yellow Bittern","spBotausin",
"Black-crowned Night Heron","spNycti6nyc",
"Malayan Night Heron","spGorsamel",
"Pacific Reef-Heron","spEgretsac",
"Chinese Egret","spEgreteul",
"Little Egret","spEgretgar",
"Striated Heron","spButorstr",
"Indian Pond-Heron","spArdeo1gra",
"Chinese Pond-Heron","spArdeo1bac",
"Javan Pond-Heron","spArdeo1spe",
"Eastern Cattle-Egret","spArdeacor",
"Great Egret","spArdeaalb",
"Medium Egret","spArdeaint",
"Gray Heron","spArdeacin",
"Purple Heron","spArdeapur",
"Great-billed Heron","spArdeasum",
"Spot-billed Pelican","spPelec1phi",
"Osprey","spPandihal",
"Black-winged Kite","spElanucae",
"Jerdon's Baza","spAvicejer",
"Black Baza","spAviceleu",
"Oriental Honey-buzzard","spPernipti",
"Red-headed Vulture","spSarco1cal","rarity"
"Cinereous Vulture","spAegypmon",
"Himalayan Griffon","spGypshim",
"White-rumped Vulture","spGypsben","extinct"
"Slender-billed Vulture","spGypsten","extinct"
"Crested Serpent-Eagle","spSpilo1che",
"Short-toed Snake-Eagle","spCircagal",
"Wallace's Hawk-Eagle","spNisaenan",
"Mountain Hawk-Eagle","spNisaenip",
"Blyth's Hawk-Eagle","spNisaealb",
"Changeable Hawk-Eagle","spNisaecir",
"Rufous-bellied Eagle","spLopho8kie",
"Black Eagle","spIctinmal",
"Indian Spotted Eagle","spClang1has","rarity"
"Greater Spotted Eagle","spClang1cla",
"Booted Eagle","spHierapen",
"Steppe Eagle","spAquilnip",
"Imperial Eagle","spAquilhel",
"Bonelli's Eagle","spAquilfas",
"Bat Hawk","spMachealc",
"Crested Goshawk","spLopho9tri",
"Besra","spTachy3vir",
"Japanese Sparrowhawk","spTachy3gul",
"Shikra","spTachy3bad",
"Chinese Sparrowhawk","spTachy3sol",
"Eurasian Sparrowhawk","spAccipnis",
"Eurasian Goshawk","spAsturgen",
"Western Marsh Harrier","spCircuaer",
"Eastern Marsh Harrier","spCircuspi",
"Hen Harrier","spCircucya",
"Pallid Harrier","spCircumac1","rarity"
"Pied Harrier","spCircumel",
"Black Kite","spMilvumig",
"Brahminy Kite","spHaliaind",
"White-tailed Eagle","spHalia1alb","rarity"
"Pallas's Fish-Eagle","spHalia1leu1","rarity"
"White-bellied Sea-Eagle","spIcthyleu",
"Lesser Fish-Eagle","spIcthyhum",
"Gray-headed Fish-Eagle","spIcthyich",
"Rufous-winged Buzzard","spButasliv",
"White-eyed Buzzard","spButastee","rarity"
"Gray-faced Buzzard","spButasind",
"Common Buzzard","spButeo1but",
"Long-legged Buzzard","spButeo1ruf1","rarity"
"Himalayan Buzzard","spButeo1ref",
"Eastern Buzzard","spButeo1jap",
"Australasian Grass-Owl","spTytolon",
"Eastern Barn Owl","spTytojav",
"Oriental Bay-Owl","spPhodibad",
"White-fronted Scops-Owl","spOtussag",
"Reddish Scops-Owl","spOtusruf",
"Mountain Scops-Owl","spOtusspi",
"Collared Scops-Owl","spOtuslet",
"Oriental Scops-Owl","spOtussun",
"Buffy Fish-Owl","spKetupket",
"Brown Fish-Owl","spKetupzey",
"Dusky Eagle-Owl","spKetupcor","rarity"
"Spot-bellied Eagle-Owl","spKetupnip",
"Barred Eagle-Owl","spKetupsum",
"Asian Barred Owlet","spGlauc1cuc",
"Collared Owlet","spTaenibro",
"Spotted Owlet","spAthenbra",
"Spotted Wood-Owl","spStrixsel",
"Brown Wood-Owl","spStrixlep",
"Short-eared Owl","spAsiofla",
"Brown Boobook","spNinoxscu",
"Northern Boobook","spNinoxjap",
"Orange-breasted Trogon","spHarpa1ore",
"Red-naped Trogon","spHarpa1kas",
"Diard's Trogon","spHarpa1dia",
"Cinnamon-rumped Trogon","spHarpa1orr",
"Scarlet-rumped Trogon","spHarpa1duv",
"Red-headed Trogon","spHarpa1ery",
"Eurasian Hoopoe","spUpupaepo",
"White-crowned Hornbill","spBerencom",
"Helmeted Hornbill","spRhino3vig",
"Rhinoceros Hornbill","spBucerrhi",
"Great Hornbill","spBucerbic",
"Bushy-crested Hornbill","spAnorrgal",
"Brown Hornbill","spAnorraus",
"Rusty-cheeked Hornbill","spAnorrtic",
"Black Hornbill","spAnthr2mal",
"Oriental Pied-Hornbill","spAnthr2alb",
"Rufous-necked Hornbill","spAceronip",
"Wreathed Hornbill","spRhytiund",
"Plain-pouched Hornbill","spRhytisub",
"Wrinkled Hornbill","spRhabdcor",
"Red-bearded Bee-eater","spNyctyami",
"Blue-bearded Bee-eater","spNyctyath",
"Asian Green Bee-eater","spMerop1ori",
"Blue-throated Bee-eater","spMerop1vir1",
"Blue-tailed Bee-eater","spMerop1phi",
"Chestnut-headed Bee-eater","spMerop1les",
"Blyth's Kingfisher","spAlcedher",
"Common Kingfisher","spAlcedatt",
"Blue-eared Kingfisher","spAlcedmen",
"Malaysian Blue-banded Kingfisher","spAlcedpen",
"Black-backed Dwarf-Kingfisher","spCeyxeri",
"Rufous-backed Dwarf-Kingfisher","spCeyxruf",
"Banded Kingfisher","spLacedpul",
"Brown-winged Kingfisher","spPelarama",
"Stork-billed Kingfisher","spPelarcap",
"Ruddy Kingfisher","spHalcycor",
"White-throated Kingfisher","spHalcysmy",
"Black-capped Kingfisher","spHalcypil",
"Sacred Kingfisher","spTodirsan","rarity"
"Collared Kingfisher","spTodirchl",
"Rufous-collared Kingfisher","spActencon",
"Crested Kingfisher","spMegac1lug",
"Pied Kingfisher","spCerylrud",
"European Roller","spCoracgar","rarity"
"Indochinese Roller","spCoracaff",
"Dollarbird","spEurysori",
"Sooty Barbet","spCalorhay",
"Coppersmith Barbet","spPsilo1hae",
"Blue-eared Barbet","spPsilo1cya",
"Black-eared Barbet","spPsilo1duv",
"Fire-tufted Barbet","spPsilo1pyr",
"Great Barbet","spPsilo1vir",
"Red-crowned Barbet","spPsilo1raf",
"Red-throated Barbet","spPsilo1mys",
"Yellow-crowned Barbet","spPsilo1hen",
"Green-eared Barbet","spPsilo1fai",
"Lineated Barbet","spPsilo1lin",
"Golden-throated Barbet","spPsilo1fra",
"Gold-whiskered Barbet","spPsilo1chr",
"Moustached Barbet","spPsilo1inc",
"Blue-throated Barbet","spPsilo1asi",
"Black-browed Barbet","spPsilo1oor",
"Turquoise-throated Barbet","spPsilo1che","endemic"
"Malaysian Honeyguide","spIndicarc",
"Eurasian Wryneck","spJynxtor",
"Speckled Piculet","spPicuminn",
"Rufous Piculet","spSasiaabn",
"White-browed Piculet","spSasiaoch",
"Gray-and-buff Woodpecker","spHemiccon",
"Heart-spotted Woodpecker","spHemiccan",
"Sunda Pygmy Woodpecker","spYungimol",
"Gray-capped Pygmy Woodpecker","spYungican",
"Yellow-crowned Woodpecker","spLeiopmah",
"Rufous-bellied Woodpecker","spDendr5hyp",
"Freckle-breasted Woodpecker","spDendr5ana",
"Stripe-breasted Woodpecker","spDendr5atr",
"Necklaced Woodpecker","spDryobper",
"Maroon Woodpecker","spBlythrub",
"Bay Woodpecker","spBlythpyr",
"Orange-backed Woodpecker","spChrys4val",
"Greater Flameback","spChrys4gut",
"Rufous Woodpecker","spMicro9bra",
"Buff-necked Woodpecker","spMeigltuk",
"Buff-rumped Woodpecker","spMeiglgra",
"Black-and-buff Woodpecker","spMeigljug",
"Pale-headed Woodpecker","spGecingra",
"Bamboo Woodpecker","spGecinvir",
"Olive-backed Woodpecker","spGecinraf",
"Common Flameback","spDinopjav",
"Lesser Yellownape","spPicuschl",
"Crimson-winged Woodpecker","spPicuspun",
"Streak-throated Woodpecker","spPicusxan",
"Streak-breasted Woodpecker","spPicusvir",
"Laced Woodpecker","spPicusvit",
"Gray-headed Woodpecker","spPicuscan",
"Black-headed Woodpecker","spPicusery",
"Banded Woodpecker","spChrys5min",
"Greater Yellownape","spChrys5fla",
"Checker-throated Woodpecker","spChrys5men",
"Great Slaty Woodpecker","spMullepul",
"White-bellied Woodpecker","spDryocjav",
"Collared Falconet","spMicro10cae",
"Black-thighed Falconet","spMicro10fri",
"White-rumped Falcon","spNeohiins",
"Lesser Kestrel","spFalconau","rarity"
"Eurasian Kestrel","spFalcotin",
"Amur Falcon","spFalcoamu",
"Merlin","spFalcocol","rarity"
"Eurasian Hobby","spFalcosub",
"Oriental Hobby","spFalcosev",
"Peregrine Falcon","spFalcoper",
"Blue-rumped Parrot","spPsitt1cya",
"Alexandrine Parakeet","spPsitt2eup",
"Rose-ringed Parakeet","spPsitt2kra","introduced"
"Gray-headed Parakeet","spPsitt2fin",
"Blossom-headed Parakeet","spPsitt2ros",
"Red-breasted Parakeet","spPsitt2ale",
"Vernal Hanging-Parrot","spLoricver",
"Blue-crowned Hanging-Parrot","spLoricgal",
"Green Broadbill","spCalyp2vir",
"Long-tailed Broadbill","spPsaridal",
"Dusky Broadbill","spCorydsum",
"Silver-breasted Broadbill","spSerillun",
"Black-and-red Broadbill","spCymbimac",
"Banded Broadbill","spEuryljav",
"Black-and-yellow Broadbill","spEuryloch",
"Garnet Pitta","spEryth3gra",
"Eared Pitta","spHydro6pha",
"Rusty-naped Pitta","spHydro6oat",
"Blue-naped Pitta","spHydro6nip",
"Blue-rumped Pitta","spHydro6sor",
"Giant Pitta","spHydro6cae",
"Malayan Banded-Pitta","spHydro6ire",
"Blue Pitta","spHydro6cya",
"Bar-bellied Pitta","spHydro6ell",
"Gurney's Pitta","spHydro6gur",
"Blue-winged Pitta","spPittamol",
"Fairy Pitta","spPittanym","rarity"
"Western Hooded Pitta","spPittasor",
"Mangrove Pitta","spPittameg",
"Golden-bellied Gerygone","spGerygsul",
"Fiery Minivet","spPericign",
"Small Minivet","spPericcin",
"Gray-chinned Minivet","spPericsol",
"Short-billed Minivet","spPericbre",
"Long-tailed Minivet","spPericeth",
"Scarlet Minivet","spPericspe",
"Ashy Minivet","spPericdiv",
"Brown-rumped Minivet","spPericcan",
"Rosy Minivet","spPericros",
"Oriental Cuckooshrike","spCorac2jav",
"Malayan Cuckooshrike","spCorac2lar",
"Bar-bellied Cuckooshrike","spCorac2str",
"Pied Triller","spLalagnig",
"Black-winged Cuckooshrike","spLalagmel1",
"Lesser Cuckooshrike","spLalagfim",
"Indochinese Cuckooshrike","spLalagpol",
"White-browed Shrike-Babbler","spPteruaer",
"Black-eared Shrike-Babbler","spPterumel",
"Clicking Shrike-Babbler","spPteruint",
"White-bellied Erpornis","spErporzan",
"Mangrove Whistler","spPachy5cin",
"Dark-throated Oriole","spOriolxan",
"Indian Golden Oriole","spOriolkun","rarity"
"Black-naped Oriole","spOriolchi",
"Slender-billed Oriole","spOriolten",
"Black-hooded Oriole","spOriolxan1",
"Black-and-crimson Oriole","spOriolcon1",
"Maroon Oriole","spOrioltra",
"Silver Oriole","spOriolmel1",
"Ashy Woodswallow","spArtamfus",
"White-breasted Woodswallow","spArtamleu","rarity"
"Large Woodshrike","spTephrvir",
"Common Woodshrike","spTephrpon",
"Bar-winged Flycatcher-shrike","spHemip2pic",
"Black-winged Flycatcher-shrike","spHemip2hir",
"Rufous-winged Philentoma","spPhile2pyr",
"Maroon-breasted Philentoma","spPhile2vel",
"Common Iora","spAegittip",
"Green Iora","spAegitvir",
"Great Iora","spAegitlaf",
"Spotted Fantail","spRhipiper",
"Malaysian Pied-Fantail","spRhipijav",
"White-throated Fantail","spRhipialb1",
"White-browed Fantail","spRhipiaur",
"Black Drongo","spDicrumac",
"Ashy Drongo","spDicruleu",
"Crow-billed Drongo","spDicruann",
"Bronzed Drongo","spDicruaen",
"Lesser Racket-tailed Drongo","spDicrurem",
"Hair-crested Drongo","spDicruhot",
"Greater Racket-tailed Drongo","spDicrupar",
"Black-naped Monarch","spHypotazu",
"Black Paradise-Flycatcher","spTerpsatr",
"Amur Paradise-Flycatcher","spTerpsinc",
"Blyth's Paradise-Flycatcher","spTerpsaff",
"Indian Paradise-Flycatcher","spTerpspar","rarity"
"Crested Jayshrike","spPlaty3gal",
"Tiger Shrike","spLaniutig",
"Red-backed Shrike","spLaniucol","rarity"
"Brown Shrike","spLaniucri",
"Burmese Shrike","spLaniucol1",
"Bay-backed Shrike","spLaniuvit","rarity"
"Long-tailed Shrike","spLaniusch",
"Gray-backed Shrike","spLaniutep",
"Malayan Black Magpie","spPlaty4leu",
"Eurasian Jay","spGarrugla",
"Red-billed Blue-Magpie","spUrociery",
"Common Green-Magpie","spCissachi",
"Indochinese Green-Magpie","spCissahyp",
"Rufous Treepie","spDendr11vag",
"Gray Treepie","spDendr11for",
"Racket-tailed Treepie","spCrypstem",
"Ratchet-tailed Treepie","spTemnutem",
"Oriental Magpie","spPicaser",
"House Crow","spCorvuspl","introduced"
"Large-billed Crow","spCorvumac",
"Malaysian Rail-babbler","spEupet1mac",
"Yellow-bellied Fairy-Fantail","spCheli2hyp",
"Gray-headed Canary-Flycatcher","spCulic1cey",
"Fire-capped Tit","spCepha1fla",
"Yellow-browed Tit","spSylvi1mod",
"Sultan Tit","spMelan7sul",
"Asian Tit","spParuscin",
"Yellow-cheeked Tit","spMachlspi",
"Indochinese Bushlark","spPloceery",
"Singing Bushlark","spMirafjav",
"Oriental Skylark","spAlaudgul",
"Greater Short-toed Lark","spCalanbra","rarity"
"Mongolian Short-toed Lark","spCalanduk","rarity"
"Common Tailorbird","spOrtho3sut",
"Dark-necked Tailorbird","spOrtho3atr",
"Ashy Tailorbird","spOrtho3ruf",
"Rufous-tailed Tailorbird","spOrtho3ser",
"Brown Prinia","spPrinipol",
"Hill Prinia","spPrinisup",
"Rufescent Prinia","spPriniruf",
"Gray-breasted Prinia","spPrinihod",
"Yellow-bellied Prinia","spPrinifla",
"Plain Prinia","spPriniino",
"Zitting Cisticola","spCistijun",
"Golden-headed Cisticola","spCistiexi1",
"Thick-billed Warbler","spArund1aed",
"Booted Warbler","spIdunacal","rarity"
"Black-browed Reed Warbler","spAcroc1bis",
"Paddyfield Warbler","spAcroc1agr",
"Blunt-winged Warbler","spAcroc1con",
"Manchurian Reed Warbler","spAcroc1tan",
"Blyth's Reed Warbler","spAcroc1dum",
"Large-billed Reed Warbler","spAcroc1ori",
"Oriental Reed Warbler","spAcroc1ori1",
"Clamorous Reed Warbler","spAcroc1ste",
"Marsh Grassbird","spHeloppry","rarity"
"Pallas's Grasshopper Warbler","spHelopcer",
"Lanceolated Warbler","spLocuslan",
"Brown Bush Warbler","spLocuslut",
"Chinese Bush Warbler","spLocustac",
"Baikal Bush Warbler","spLocusdav",
"Spotted Bush Warbler","spLocustho","rarity"
"Russet Bush Warbler","spLocusman",
"Striated Grassbird","spMegal1pal",
"Pygmy Cupwing","spPnoeppus",
"White-eyed River Martin","spPseud14sir","endemic"
"Gray-throated Martin","spRiparchi",
"Bank Swallow","spRiparrip",
"Pale Martin","spRipardil","rarity"
"Dusky Crag-Martin","spPtyoncon",
"Pacific Swallow","spHirun2jav",
"Barn Swallow","spHirun2rus",
"Wire-tailed Swallow","spHirun2smi",
"Western House-Martin","spDelicurb","rarity"
"Siberian House-Martin","spDeliclag",
"Asian House-Martin","spDelicdas",
"Nepal House-Martin","spDelicnip",
"Eastern Red-rumped Swallow","spCecrodau",
"Rufous-bellied Swallow","spCecrobad",
"Hairy-backed Bulbul","spTrich3cri",
"Yellow-bellied Bulbul","spAlophpha",
"Gray-cheeked Bulbul","spAlophtep",
"White-throated Bulbul","spAlophfla",
"Ochraceous Bulbul","spAlophoch",
"Puff-throated Bulbul","spAlophpal",
"Striated Bulbul","spAlcurstr",
"Finsch's Bulbul","spIolefin",
"Olive Bulbul","spIolevir",
"Buff-vented Bulbul","spIolecry",
"Gray-eyed Bulbul","spIolepro",
"Ashy Bulbul","spHemixfla",
"Cinereous Bulbul","spHemixcin",
"Chestnut Bulbul","spHemixcas","rarity"
"Streaked Bulbul","spIxosmal",
"Mountain Bulbul","spIxosmcc",
"White-headed Bulbul","spHypsitho",
"Black Bulbul","spHypsileu",
"Puff-backed Bulbul","spMicro16eut",
"Black-and-white Bulbul","spMicro16mel",
"Black-headed Bulbul","spMicro16mel1",
"Spectacled Bulbul","spRubigery",
"Gray-bellied Bulbul","spRubigcya",
"Scaly-breasted Bulbul","spRubigsqu",
"Black-crested Bulbul","spRubigfla",
"Crested Finchbill","spSpizi1can",
"Cream-vented Bulbul","spPycno2sim",
"Olive-winged Bulbul","spPycno2plu",
"Red-eyed Bulbul","spPycno2bru",
"Straw-headed Bulbul","spPycno2zey",
"Ayeyarwady Bulbul","spPycno2bla",
"Streak-eared Bulbul","spPycno2con",
"Stripe-throated Bulbul","spPycno2fin",
"Flavescent Bulbul","spPycno2fla",
"Brown-breasted Bulbul","spPycno2xan1",
"Light-vented Bulbul","spPycno2sin","rarity"
"Red-whiskered Bulbul","spPycno2joc",
"Yellow-vented Bulbul","spPycno2goi",
"Red-vented Bulbul","spPycno2caf","rarity"
"Sooty-headed Bulbul","spPycno2aur",
"Ashy-throated Warbler","spPhyll5mac",
"Buff-barred Warbler","spPhyll5pul",
"Yellow-browed Warbler","spPhyll5ino",
"Hume's Warbler","spPhyll5hum",
"Chinese Leaf Warbler","spPhyll5yun",
"Pallas's Leaf Warbler","spPhyll5pro",
"Sichuan Leaf Warbler","spPhyll5for",
"Radde's Warbler","spPhyll5sch",
"Yellow-streaked Warbler","spPhyll5arm",
"Tickell's Leaf Warbler","spPhyll5aff","rarity"
"Dusky Warbler","spPhyll5fus",
"Buff-throated Warbler","spPhyll5sub1",
"Common Chiffchaff","spPhyll5col","rarity"
"Eastern Crowned Warbler","spPhyll5cor",
"White-spectacled Warbler","spPhyll5int","rarity"
"Gray-cheeked Warbler","spPhyll5pol",
"Gray-crowned Warbler","spPhyll5tep",
"Bianchi's Warbler","spPhyll5val",
"Martens's Warbler","spPhyll5ome",
"Alström's Warbler","spPhyll5sor",
"Green Warbler","spPhyll5nit","rarity"
"Greenish Warbler","spPhyll5tro1",
"Two-barred Warbler","spPhyll5plu",
"Pale-legged Leaf Warbler","spPhyll5ten",
"Sakhalin Leaf Warbler","spPhyll5bor",
"Japanese Leaf Warbler","spPhyll5xan",
"Arctic Warbler","spPhyll5bor1",
"Kamchatka Leaf Warbler","spPhyll5exa",
"Chestnut-crowned Warbler","spPhyll5cas",
"Yellow-vented Warbler","spPhyll5can1",
"Sulphur-breasted Warbler","spPhyll5ric",
"Blyth's Leaf Warbler","spPhyll5reg",
"Claudia's Leaf Warbler","spPhyll5cla",
"Hartert's Leaf Warbler","spPhyll5goo","rarity"
"Davison's Leaf Warbler","spPhyll5int1",
"Kloss's Leaf Warbler","spPhyll5ogi","rarity"
"Mountain Leaf Warbler","spPhyll5tri",
"Pale-footed Bush Warbler","spHemit1pal",
"Asian Stubtail","spUrospsqu",
"Gray-bellied Tesia","spTesiacya",
"Slaty-bellied Tesia","spTesiaoli",
"Chestnut-crowned Bush Warbler","spCettimaj",
"Chestnut-headed Tesia","spCetticas",
"Yellow-bellied Warbler","spAbrossup",
"Rufous-faced Warbler","spAbrosalb",
"Mountain Tailorbird","spPhyll6cuc",
"Japanese Bush Warbler","spHorordip",
"Manchurian Bush Warbler","spHororcan",
"Aberrant Bush Warbler","spHororfla",
"Black-throated Tit","spAegit1con",
"Lesser Whitethroat","spCurrucur",
"Yellow-eyed Babbler","spChrys6sin",
"Spot-breasted Parrotbill","spParad3gut",
"Gray-headed Parrotbill","spParad3gul",
"Rufous-headed Parrotbill","spParad3bak",
"Short-tailed Parrotbill","spSuthodav",
"Black-throated Parrotbill","spSuthonip",
"Pale-billed Parrotbill","spSuthoatr",
"Striated Yuhina","spStaphcas",
"Indochinese Yuhina","spStaphtor",
"Whiskered Yuhina","spYuhinfla",
"Burmese Yuhina","spYuhinhum",
"Chestnut-flanked White-eye","spZoste1ery",
"Swinhoe's White-eye","spZoste1sim",
"Indian White-eye","spZoste1pal",
"Hume's White-eye","spZoste1aur",
"Chestnut-capped Babbler","spTimalpil",
"Pin-striped Tit-Babbler","spMixorgul",
"Fluffy-backed Tit-Babbler","spMacro5pti",
"Golden Babbler","spCyano10chr",
"Chestnut-winged Babbler","spCyano10ery",
"Rufous-fronted Babbler","spCyano10ruf",
"Gray-bellied Wren-Babbler","spSpelarep",
"Black Laughingthrush","spMelan10lug",
"Brown-crowned Scimitar-Babbler","spPomat1pha",
"Red-billed Scimitar-Babbler","spPomat1och",
"White-browed Scimitar-Babbler","spPomat1sch",
"Sunda Scimitar-Babbler","spPomat1bor",
"Large Scimitar-Babbler","spEryth5hyp",
"Red-eyed Scimitar-Babbler","spEryth5imb",
"Black-throated Babbler","spStachnig",
"Chestnut-rumped Babbler","spStachmac",
"Gray-throated Babbler","spStachnig1",
"Gray-headed Babbler","spStachpol",
"White-necked Babbler","spStachleu",
"Spot-necked Babbler","spStachstr",
"Chinese Grassbird","spGramistr","extinct"
"Large Wren-Babbler","spTurdimac",
"Sooty-capped Babbler","spMalac3aff",
"Scaly-crowned Babbler","spMalac3cin",
"Rufous-crowned Babbler","spMalac3mag",
"Moustached Babbler","spMalac3mag1",
"Collared Babbler","spGamps1tor",
"Rufous-winged Fulvetta","spSchoe2cas",
"Rufous-throated Fulvetta","spSchoe2ruf",
"Rusty-capped Fulvetta","spSchoe2dub",
"Puff-throated Babbler","spPelloruf",
"Malayan Black-capped Babbler","spPellonig",
"Short-tailed Babbler","spPellomal",
"Spot-throated Babbler","spPelloalb",
"Buff-breasted Babbler","spPellotic",
"White-chested Babbler","spPelloros",
"Ferruginous Babbler","spPellobic",
"Striped Wren-Babbler","spKenopstr",
"Abbott's Babbler","spMalac4abb",
"Horsfield's Babbler","spMalac4sep",
"Streaked Wren-Babbler","spGypsobre",
"Annam Limestone Babbler","spGypsoann",
"Rufous Limestone Babbler","spGypsocal","endemic"
"Variable Limestone Babbler","spGypsocri",
"Eyebrowed Wren-Babbler","spNapotepi",
"Brown-cheeked Fulvetta","spAlcippoi",
"Black-browed Fulvetta","spAlcipgro",
"Brown Fulvetta","spAlcipbru",
"Yunnan Fulvetta","spAlcipfra",
"Mountain Fulvetta","spAlcipper",
"Himalayan Cutia","spCutianip",
"Red-tailed Laughingthrush","spTroch2mil",
"Silver-eared Laughingthrush","spTroch2mel",
"Malayan Laughingthrush","spTroch2pen",
"Long-tailed Sibia","spHeter8pic",
"Black-backed Sibia","spHeter8mel",
"Blue-winged Minla","spActincya",
"Chestnut-tailed Minla","spActinstr",
"Spectacled Barwing","spActinram",
"Silver-eared Mesia","spLeiotarg",
"Rufous-backed Sibia","spLeiop1ann",
"Scarlet-faced Liocichla","spLiocirip",
"Spot-breasted Laughingthrush","spGarru1mer",
"Lesser Necklaced Laughingthrush","spGarru1mon",
"White-crested Laughingthrush","spGarru1leu",
"White-necked Laughingthrush","spGarru1str",
"Chestnut-capped Laughingthrush","spPtero6mit",
"Black-throated Laughingthrush","spPtero6chi",
"White-browed Laughingthrush","spPtero6san",
"Greater Necklaced Laughingthrush","spPtero6pec",
"Wallcreeper","spTichomur",
"Giant Nuthatch","spSitta1mag",
"Beautiful Nuthatch","spSitta1for",
"Blue Nuthatch","spSitta1azu",
"Velvet-fronted Nuthatch","spSitta1fro",
"Chestnut-bellied Nuthatch","spSitta1cin",
"Burmese Nuthatch","spSitta1neg",
"Chestnut-vented Nuthatch","spSitta1nag",
"Hume's Treecreeper","spCerth4man",
"Spotted Elachura","spElachfor",
"Brown Dipper","spCincl3pal",
"Asian Glossy Starling","spAplonpan",
"Golden-crested Myna","spAmpel3cor",
"Common Hill Myna","spGracurel",
"European Starling","spSturnvul",
"Rosy Starling","spPastoros",
"Daurian Starling","spAgropstu",
"Chestnut-cheeked Starling","spAgropphi",
"Black-collared Starling","spGracu1nig",
"Siamese Pied Starling","spGracu1flo",
"White-shouldered Starling","spSturn2sin",
"Brahminy Starling","spSturn2pag","rarity"
"Chestnut-tailed Starling","spSturn2mal",
"Red-billed Starling","spSpodiser","rarity"
"White-cheeked Starling","spSpodicin","rarity"
"Common Myna","spAcridtri",
"Vinous-breasted Myna","spAcridleu",
"Jungle Myna","spAcridfus",
"Javan Myna","spAcridjav","introduced"
"Collared Myna","spAcridalb","rarity"
"Great Myna","spAcridgra",
"Spot-winged Starling","spSarogspi",
"Long-tailed Thrush","spZoothdix",
"Himalayan Thrush","spZoothsal","rarity"
"Dark-sided Thrush","spZoothmar",
"White's Thrush","spZoothaur",
"Scaly Thrush","spZoothdau",
"Purple Cochoa","spCochopur",
"Green Cochoa","spCochovir",
"Siberian Thrush","spGeokisib",
"Chestnut-capped Thrush","spGeokiint",
"Orange-headed Thrush","spGeokicit",
"Chinese Blackbird","spTurduman",
"Gray-winged Blackbird","spTurdubou",
"Black-breasted Thrush","spTurdudis",
"Japanese Thrush","spTurducar",
"Gray-sided Thrush","spTurdufea",
"Eyebrowed Thrush","spTurduobs1",
"Chestnut Thrush","spTurdurub",
"Black-throated Thrush","spTurduatr",
"Red-throated Thrush","spTurduruf4",
"Dusky Thrush","spTurdueun",
"Naumann's Thrush","spTurdunau","rarity"
"Gray-streaked Flycatcher","spMusci3gri","rarity"
"Dark-sided Flycatcher","spMusci3sib",
"Ferruginous Flycatcher","spMusci3fer",
"Asian Brown Flycatcher","spMusci3dau",
"Brown-breasted Flycatcher","spMusci3mut",
"Brown-streaked Flycatcher","spMusci3wil",
"Oriental Magpie-Robin","spCopsysau",
"Rufous-tailed Shama","spCopsypyr",
"White-rumped Shama","spCopsymal",
"White-tailed Flycatcher","spLeuco8con",
"Large Niltava","spNiltagra",
"Small Niltava","spNiltamac",
"Fujian Niltava","spNiltadav",
"Rufous-bellied Niltava","spNiltasun",
"Chinese Vivid Niltava","spNiltaoat",
"Blue-and-white Flycatcher","spCyano11cya",
"Zappey's Flycatcher","spCyano11cum",
"Verditer Flycatcher","spEumyitha",
"White-gorgeted Flycatcher","spAnthimon",
"Rufous-browed Flycatcher","spAnthisol",
"Hainan Blue Flycatcher","spCyornhai",
"Pale Blue Flycatcher","spCyornuni",
"Blue-throated Flycatcher","spCyornrub",
"Chinese Blue Flycatcher","spCyorngla",
"Large Blue Flycatcher","spCyornmag",
"Hill Blue Flycatcher","spCyornwhi",
"Malaysian Blue Flycatcher","spCyorntur",
"Indochinese Blue Flycatcher","spCyornsum",
"Mangrove Blue Flycatcher","spCyornruf",
"Brown-chested Jungle Flycatcher","spCyornbru",
"Gray-chested Jungle Flycatcher","spCyornumb",
"Fulvous-chested Jungle Flycatcher","spCyornoli",
"Lesser Shortwing","spBrach3leu",
"Himalayan Shortwing","spBrach3cru",
"Rufous-tailed Robin","spLarvisib",
"Japanese Robin","spLarviaka",
"Siberian Blue Robin","spLarvicya",
"White-bellied Redstart","spLuscipha",
"Bluethroat","spLuscisve",
"Blue Whistling-Thrush","spMyophcae",
"White-crowned Forktail","spEnicules",
"Chestnut-naped Forktail","spEnicuruf",
"Black-backed Forktail","spEnicuimm",
"Slaty-backed Forktail","spEnicusch",
"Firethroat","spCalli2pec","rarity"
"Blackthroat","spCalli2obs","rarity"
"Siberian Rubythroat","spCalli2cal",
"Chinese Rubythroat","spCalli2tsc",
"White-tailed Robin","spMyiomleu",
"Blue-fronted Robin","spCincl5fro",
"Red-flanked Bluetail","spTarsicya",
"Qilian Bluetail","spTarsialb",
"Himalayan Bluetail","spTarsiruf",
"Golden Bush-Robin","spTarsichr",
"Yellow-rumped Flycatcher","spFicedzan",
"Green-backed Flycatcher","spFicedeli",
"Narcissus Flycatcher","spFicednar",
"Mugimaki Flycatcher","spFicedmug",
"Slaty-backed Flycatcher","spFicederi",
"Slaty-blue Flycatcher","spFicedtri",
"Snowy-browed Flycatcher","spFicedhyp",
"Pygmy Flycatcher","spFicedhod",
"Rufous-gorgeted Flycatcher","spFicedstr",
"Sapphire Flycatcher","spFicedsap",
"Little Pied Flycatcher","spFicedwes",
"Ultramarine Flycatcher","spFicedsup",
"Rusty-tailed Flycatcher","spFicedruf","rarity"
"Taiga Flycatcher","spFicedalb",
"Red-breasted Flycatcher","spFicedpar","rarity"
"Rufous-chested Flycatcher","spFiceddum",
"Blue-fronted Redstart","spPhoen5fro",
"Plumbeous Redstart","spPhoen5ful",
"White-capped Redstart","spPhoen5leu",
"Black Redstart","spPhoen5och",
"Daurian Redstart","spPhoen5aur",
"Chestnut-bellied Rock-Thrush","spMontiruf1",
"White-throated Rock-Thrush","spMontigul",
"Blue Rock-Thrush","spMontisol",
"Siberian Stonechat","spSaxicmau",
"Amur Stonechat","spSaxicste",
"Pied Bushchat","spSaxiccap",
"Jerdon's Bushchat","spSaxicjer",
"Gray Bushchat","spSaxicfer",
"Northern Wheatear","spOenanoen","rarity"
"Isabelline Wheatear","spOenanisa","rarity"
"Desert Wheatear","spOenandes","rarity"
"Yellow-breasted Flowerpecker","spPrion3mac",
"Crimson-breasted Flowerpecker","spPrion3per",
"Scarlet-breasted Flowerpecker","spPrion3tho",
"Thick-billed Flowerpecker","spPachy7agi",
"Yellow-vented Flowerpecker","spPachy7chr",
"Yellow-bellied Flowerpecker","spPachy7mel",
"Orange-bellied Flowerpecker","spDicaetri",
"Plain Flowerpecker","spDicaemin",
"Fire-breasted Flowerpecker","spDicaeign1",
"Cambodian Flowerpecker","spDicaecam",
"Scarlet-backed Flowerpecker","spDicaecru",
"Ruby-cheeked Sunbird","spChalc4sin",
"Plain Sunbird","spAnthr3sim",
"Brown-throated Sunbird","spAnthr3mal",
"Red-throated Sunbird","spAnthr3rho",
"Van Hasselt's Sunbird","spLepto9bra",
"Copper-throated Sunbird","spLepto9cal",
"Purple Sunbird","spCinny2asi",
"Ornate Sunbird","spCinny2orn",
"Fire-tailed Sunbird","spAetho1ign",
"Black-throated Sunbird","spAetho1sat",
"Mrs. Gould's Sunbird","spAetho1gou",
"Green-tailed Sunbird","spAetho1nip",
"Temminck's Sunbird","spAetho1tem",
"Crimson Sunbird","spAetho1sip",
"Purple-naped Spiderhunter","spKurochyp",
"Thick-billed Spiderhunter","spArachcra",
"Long-billed Spiderhunter","spArachrob",
"Little Spiderhunter","spArachlon",
"Yellow-eared Spiderhunter","spArachchr",
"Spectacled Spiderhunter","spArachfla1",
"Streaked Spiderhunter","spArachmag",
"Gray-breasted Spiderhunter","spArachmod",
"Asian Fairy-bluebird","spIrenapue",
"Greater Green Leafbird","spChlor7son",
"Lesser Green Leafbird","spChlor7cya",
"Blue-winged Leafbird","spChlor7mol",
"Golden-fronted Leafbird","spChlor7aur",
"Orange-bellied Leafbird","spChlor7har",
"Streaked Weaver","spPloce2man",
"Baya Weaver","spPloce2phi",
"Asian Golden Weaver","spPloce2hyp",
"Java Sparrow","spPaddaory","introduced"
"Scaly-breasted Munia","spLonchpun",
"White-rumped Munia","spLonchstr",
"White-bellied Munia","spLonchleu",
"Chestnut Munia","spLonchatr",
"White-headed Munia","spLonchmaj",
"Pin-tailed Parrotfinch","spEryth6pra",
"Red Avadavat","spAmandama",
"House Sparrow","spPassedom",
"Russet Sparrow","spPassecin",
"Plain-backed Sparrow","spPassefla",
"Eurasian Tree Sparrow","spPassemon",
"Forest Wagtail","spDendr12ind",
"Gray Wagtail","spMotaccin",
"Eastern Yellow Wagtail","spMotactsc",
"Citrine Wagtail","spMotaccit",
"Mekong Wagtail","spMotacsam",
"White Wagtail","spMotacalb",
"Richard's Pipit","spAnthuric",
"Paddyfield Pipit","spAnthuruf",
"Blyth's Pipit","spAnthugod","rarity"
"Rosy Pipit","spAnthuros",
"Olive-backed Pipit","spAnthuhod",
"Red-throated Pipit","spAnthucer",
"Siberian Pipit","spAnthujap","rarity"
"Common Chaffinch","spFringcoe","rarity"
"Brambling","spFringmon","rarity"
"Collared Grosbeak","spMyceraff","rarity"
"Spot-winged Grosbeak","spMycermel",
"Yellow-billed Grosbeak","spEophomig","rarity"
"Japanese Grosbeak","spEophoper","rarity"
"Common Rosefinch","spCarpo4ery",
"Scarlet Finch","spCarpo4sip",
"Dark-breasted Rosefinch","spProcanip",
"Oriental Greenfinch","spChlor11sin","rarity"
"Black-headed Greenfinch","spChlor11amb",
"Lapland Longspur","spCalcalap","rarity"
"Crested Bunting","spEmberlat",
"Black-headed Bunting","spEmbermel",
"Red-headed Bunting","spEmberbru","rarity"
"Chestnut-eared Bunting","spEmberfuc",
"Pine Bunting","spEmberleu","rarity"
"Gray-necked Bunting","spEmberbuc","rarity"
"Yellow-breasted Bunting","spEmberaur",
"Little Bunting","spEmberpus",
"Black-faced Bunting","spEmberspo",
"Chestnut Bunting","spEmberrut",
"Tristram's Bunting","spEmbertri",
