"Name","ID","Status"
"Graylag Goose","spAnser1ans",
"Swan Goose","spAnser1cyg","rarity"
"Greater White-fronted Goose","spAnser1alb",
"Lesser White-fronted Goose","spAnser1ery",
"Taiga Bean-Goose","spAnser1fab",
"Mute Swan","spCygnuolo",
"Tundra Swan","spCygnucol","rarity"
"Whooper Swan","spCygnucyg",
"Ruddy Shelduck","spTadorfer",
"Common Shelduck","spTadortad1",
"Garganey","spSpatuque",
"Northern Shoveler","spSpatucly",
"Gadwall","spMarecstr",
"Falcated Duck","spMarecfal","rarity"
"Eurasian Wigeon","spMarecpen",
"Mallard","spAnaspla",
"Northern Pintail","spAnasacu",
"Green-winged Teal","spAnascre",
"Marbled Duck","spMarmaang",
"Red-crested Pochard","spNetta1ruf",
"Common Pochard","spAythyfer",
"Ferruginous Duck","spAythynyr",
"Tufted Duck","spAythyful",
"Greater Scaup","spAythymar",
"Velvet Scoter","spMelanfus",
"Common Scoter","spMelannig","rarity"
"Long-tailed Duck","spClanghye",
"Common Goldeneye","spBucepcla",
"Smew","spMergealb",
"Common Merganser","spMergumer",
"Red-breasted Merganser","spMerguser",
"White-headed Duck","spOxyurleu",
"Ring-necked Pheasant","spPhasicol",
"Black Francolin","spFrancfra",
"Caspian Snowcock","spTetra3cas",
"See-see Partridge","spAmmopgri",
"Common Quail","spCoturcot",
"Chukar","spAlect1chu",
"Rock Pigeon","spColumliv",
"Hill Pigeon","spColumrup",
"Snow Pigeon","spColumleu",
"Stock Dove","spColumoen",
"Yellow-eyed Pigeon","spColumeve",
"Common Wood-Pigeon","spColumpal",
"European Turtle-Dove","spStreptur",
"Oriental Turtle-Dove","spStrepori",
"Eurasian Collared-Dove","spStrepdec",
"Laughing Dove","spSpilosen",
"Pallas's Sandgrouse","spSyrrhpar",
"Pin-tailed Sandgrouse","spPtero1alc",
"Black-bellied Sandgrouse","spPtero1ori",
"Great Bustard","spOtistar","rarity"
"Asian Houbara","spChlammac",
"Little Bustard","spTetra4tet",
"Great Spotted Cuckoo","spClamagla","rarity"
"Asian Koel","spEudynsco","rarity"
"Lesser Cuckoo","spCuculpol","rarity"
"Himalayan Cuckoo","spCuculsat","rarity"
"Common Cuckoo","spCuculcan",
"Eurasian Nightjar","spCaprieur",
"Egyptian Nightjar","spCapriaeg",
"Alpine Swift","spTachy1mel",
"Common Swift","spApusapu",
"Little Swift","spApusaff",
"Water Rail","spRalluaqu",
"Corn Crake","spCrexcre",
"Spotted Crake","spPorzapor",
"Eurasian Moorhen","spGalli3chl",
"Eurasian Coot","spFulicatr",
"Gray-headed Swamphen","spPorph1pol",
"Little Crake","spZaporpar",
"Baillon's Crake","spZaporpus",
"Demoiselle Crane","spAnthr1vir",
"Siberian Crane","spLeuco2leu","rarity"
"Common Crane","spGrusgru",
"Eurasian Thick-knee","spBurhioed",
"Black-winged Stilt","spHiman1him",
"Pied Avocet","spRecuravo",
"Ibisbill","spIbidostr",
"Eurasian Oystercatcher","spHaema1ost",
"Black-bellied Plover","spPluvi2squ",
"European Golden-Plover","spPluvi2apr",
"Pacific Golden-Plover","spPluvi2ful","rarity"
"Eurasian Dotterel","spEudro1mor",
"Common Ringed Plover","spCharahia",
"Little Ringed Plover","spThinodub",
"Northern Lapwing","spVanelvan",
"Red-wattled Lapwing","spVanelind",
"Sociable Lapwing","spVanelgre",
"White-tailed Lapwing","spVanelleu",
"Caspian Plover","spAnarhasi",
"Tibetan Sand-Plover","spAnarhatr",
"Greater Sand-Plover","spAnarhles",
"Kentish Plover","spAnarhale",
"Whimbrel","spNumenpha",
"Slender-billed Curlew","spNumenten","extinct"
"Eurasian Curlew","spNumenarq",
"Bar-tailed Godwit","spLimoslap",
"Black-tailed Godwit","spLimoslim",
"Jack Snipe","spLymnomin",
"Eurasian Woodcock","spScolorus",
"Solitary Snipe","spGalli5sol","rarity"
"Great Snipe","spGalli5med",
"Common Snipe","spGalli5gal",
"Red Phalarope","spPhala1ful","rarity"
"Red-necked Phalarope","spPhala1lob",
"Terek Sandpiper","spXenuscin",
"Common Sandpiper","spActithyp",
"Green Sandpiper","spTringoch",
"Marsh Sandpiper","spTringsta",
"Wood Sandpiper","spTringgla",
"Common Redshank","spTringtot",
"Spotted Redshank","spTringery",
"Common Greenshank","spTringneb",
"Ruddy Turnstone","spArenaint",
"Ruff","spCalidpug",
"Broad-billed Sandpiper","spCalidfal",
"Curlew Sandpiper","spCalidfer",
"Temminck's Stint","spCalidtem",
"Sanderling","spCalidalb",
"Dunlin","spCalidalp",
"Little Stint","spCalidmin",
"Cream-colored Courser","spCursocur",
"Collared Pratincole","spGlarepra",
"Black-winged Pratincole","spGlarenor",
"Long-tailed Jaeger","spSterclon","rarity"
"Parasitic Jaeger","spStercpar","rarity"
"Pomarine Jaeger","spStercpom","rarity"
"Little Gull","spHydro3min",
"Slender-billed Gull","spChroigen",
"Black-headed Gull","spChroirid",
"Pallas's Gull","spIchthich",
"Common Gull","spLaruscan",
"Caspian Gull","spLaruscac",
"Lesser Black-backed Gull","spLarusfus",
"Little Tern","spStern1alb",
"Gull-billed Tern","spGelocnil",
"Caspian Tern","spHydro4cas",
"Whiskered Tern","spChlidhyb",
"Black Tern","spChlidnig","rarity"
"White-winged Tern","spChlidleu",
"Common Tern","spStern2hir1",
"Sandwich Tern","spThala1san",
"Greater Flamingo","spPhoenros","rarity"
"Little Grebe","spTachy2ruf1",
"Horned Grebe","spPodic1aur",
"Red-necked Grebe","spPodic1gri",
"Great Crested Grebe","spPodic1cri",
"Eared Grebe","spPodic1nig",
"Red-throated Loon","spGaviaste",
"Arctic Loon","spGaviaarc",
"Black Stork","spCiconnig",
"White Stork","spCiconcic",
"Pygmy Cormorant","spMicro5pyg",
"Great Cormorant","spPhala2car",
"Glossy Ibis","spPlegafal",
"Eurasian Spoonbill","spPlataleu",
"Eurasian Bittern","spBotauste",
"Little Bittern","spBotaumin",
"Black-crowned Night Heron","spNycti6nyc",
"Little Egret","spEgretgar",
"Squacco Heron","spArdeo1ral",
"Western Cattle-Egret","spArdeaibi",
"Great Egret","spArdeaalb",
"Gray Heron","spArdeacin",
"Purple Heron","spArdeapur",
"Great White Pelican","spPelec1ono",
"Dalmatian Pelican","spPelec1cri",
"Osprey","spPandihal",
"Bearded Vulture","spGypaebar",
"Egyptian Vulture","spNeophper",
"European Honey-buzzard","spPerniapi",
"Oriental Honey-buzzard","spPernipti","rarity"
"Cinereous Vulture","spAegypmon",
"Eurasian Griffon","spGypsful",
"Short-toed Snake-Eagle","spCircagal",
"Greater Spotted Eagle","spClang1cla",
"Booted Eagle","spHierapen",
"Steppe Eagle","spAquilnip",
"Imperial Eagle","spAquilhel",
"Golden Eagle","spAquilchr",
"Bonelli's Eagle","spAquilfas","rarity"
"Shikra","spTachy3bad",
"Levant Sparrowhawk","spTachy3bre",
"Eurasian Sparrowhawk","spAccipnis",
"Eurasian Goshawk","spAsturgen",
"Western Marsh Harrier","spCircuaer",
"Hen Harrier","spCircucya",
"Pallid Harrier","spCircumac1",
"Montagu's Harrier","spCircupyg",
"Black Kite","spMilvumig",
"White-tailed Eagle","spHalia1alb",
"Pallas's Fish-Eagle","spHalia1leu1",
"Rough-legged Hawk","spButeo1lag","rarity"
"Common Buzzard","spButeo1but",
"Long-legged Buzzard","spButeo1ruf1",
"Eurasian Scops-Owl","spOtussco",
"Pallid Scops-Owl","spOtusbru",
"Snowy Owl","spBubosca","rarity"
"Eurasian Eagle-Owl","spBubobub",
"Little Owl","spAthennoc",
"Tawny Owl","spStrixalu",
"Long-eared Owl","spAsiootu",
"Short-eared Owl","spAsiofla",
"Eurasian Hoopoe","spUpupaepo",
"Blue-cheeked Bee-eater","spMerop1per",
"European Bee-eater","spMerop1api",
"Common Kingfisher","spAlcedatt",
"European Roller","spCoracgar",
"Eurasian Wryneck","spJynxtor",
"Great Spotted Woodpecker","spDendr5maj",
"White-winged Woodpecker","spDendr5leu1",
"Scaly-bellied Woodpecker","spPicussqu",
"Eurasian Green Woodpecker","spPicusvir1","rarity"
"Black Woodpecker","spDryocmar",
"Lesser Kestrel","spFalconau",
"Eurasian Kestrel","spFalcotin",
"Red-footed Falcon","spFalcoves",
"Merlin","spFalcocol",
"Eurasian Hobby","spFalcosub",
"Laggar Falcon","spFalcojug","rarity"
"Saker Falcon","spFalcoche",
"Peregrine Falcon","spFalcoper",
"Eurasian Golden Oriole","spOriolori",
"Indian Golden Oriole","spOriolkun",
"Indian Paradise-Flycatcher","spTerpspar",
"Red-backed Shrike","spLaniucol",
"Red-tailed Shrike","spLaniupho",
"Isabelline Shrike","spLaniuisa",
"Brown Shrike","spLaniucri","rarity"
"Bay-backed Shrike","spLaniuvit",
"Long-tailed Shrike","spLaniusch",
"Great Gray Shrike","spLaniuexc",
"Lesser Gray Shrike","spLaniumin",
"Masked Shrike","spLaniunub",
"Eurasian Jay","spGarrugla","rarity"
"Eurasian Magpie","spPicapic",
"Turkestan Ground-Jay","spPodocpan",
"Red-billed Chough","spPyrrh3pyr",
"Yellow-billed Chough","spPyrrh3gra",
"Eurasian Jackdaw","spColoemon",
"Rook","spCorvufru",
"Carrion Crow","spCorvucor",
"Hooded Crow","spCorvucor1",
"Brown-necked Raven","spCorvuruf",
"Common Raven","spCorvucor3",
"Coal Tit","spPeripate",
"Rufous-naped Tit","spPeripruf",
"Eurasian Blue Tit","spCyanicae",
"Azure Tit","spCyanicya",
"Great Tit","spParusmaj",
"Eurasian Penduline-Tit","spRemizpen",
"Black-headed Penduline-Tit","spRemizmac",
"White-crowned Penduline-Tit","spRemizcor",
"Desert Lark","spAmmom1des",
"Wood Lark","spLulluarb",
"White-winged Lark","spAlaudleu",
"Eurasian Skylark","spAlaudarv",
"Oriental Skylark","spAlaudgul",
"Crested Lark","spGalercri",
"Horned Lark","spEremo1alp",
"Greater Short-toed Lark","spCalanbra",
"Hume's Lark","spCalanacu",
"Bimaculated Lark","spMelan9bim",
"Calandra Lark","spMelan9cal",
"Black Lark","spMelan9yel",
"Asian Short-toed Lark","spAlaud1che",
"Turkestan Short-toed Lark","spAlaud1hei",
"Bearded Reedling","spPanurbia",
"Booted Warbler","spIdunacal",
"Sykes's Warbler","spIdunaram",
"Eastern Olivaceous Warbler","spIdunapal",
"Upcher's Warbler","spHippolan",
"Icterine Warbler","spHippoict","rarity"
"Moustached Warbler","spAcroc1mel",
"Sedge Warbler","spAcroc1sch",
"Paddyfield Warbler","spAcroc1agr",
"Blyth's Reed Warbler","spAcroc1dum",
"Marsh Warbler","spAcroc1pal1","rarity"
"Common Reed Warbler","spAcroc1sci",
"Great Reed Warbler","spAcroc1aru",
"Clamorous Reed Warbler","spAcroc1ste",
"River Warbler","spLocusflu",
"Savi's Warbler","spLocuslus",
"Common Grasshopper Warbler","spLocusnae",
"Gray-throated Martin","spRiparchi",
"Bank Swallow","spRiparrip",
"Pale Martin","spRipardil",
"Eurasian Crag-Martin","spPtyonrup",
"Barn Swallow","spHirun2rus",
"Wire-tailed Swallow","spHirun2smi",
"Western House-Martin","spDelicurb",
"European Red-rumped Swallow","spCecroruf",
"Wood Warbler","spPhyll5sib",
"Yellow-browed Warbler","spPhyll5ino",
"Hume's Warbler","spPhyll5hum",
"Sulphur-bellied Warbler","spPhyll5gri",
"Plain Leaf Warbler","spPhyll5neg",
"Willow Warbler","spPhyll5tro",
"Common Chiffchaff","spPhyll5col",
"Greenish Warbler","spPhyll5tro1",
"Scrub Warbler","spScoto1inq",
"Cetti's Warbler","spCetticet",
"Long-tailed Tit","spAegit1cau",
"Eurasian Blackcap","spSylvi3atr",
"Garden Warbler","spSylvi3bor",
"Barred Warbler","spCurrunis",
"Lesser Whitethroat","spCurrucur",
"Eastern Orphean Warbler","spCurrucra",
"Asian Desert Warbler","spCurrunan",
"Menetries's Warbler","spCurrumys",
"Greater Whitethroat","spCurrucom",
"Streaked Laughingthrush","spTroch2lin",
"Goldcrest","spRegulreg",
"Wallcreeper","spTichomur",
"Eastern Rock Nuthatch","spSitta1tep",
"Eurasian Treecreeper","spCerth4fam",
"Bar-tailed Treecreeper","spCerth4him",
"Eurasian Wren","spTrogltro",
"White-throated Dipper","spCincl3cin",
"Brown Dipper","spCincl3pal",
"European Starling","spSturnvul",
"Rosy Starling","spPastoros",
"Brahminy Starling","spSturn2pag","rarity"
"Common Myna","spAcridtri",
"Mistle Thrush","spTurduvis",
"Song Thrush","spTurduphi",
"Redwing","spTurduili",
"Eurasian Blackbird","spTurdumer",
"Fieldfare","spTurdupil",
"Ring Ouzel","spTurdutor",
"Black-throated Thrush","spTurduatr",
"Spotted Flycatcher","spMusci3str",
"Rufous-tailed Scrub-Robin","spCerco3gal",
"European Robin","spErithrub",
"White-throated Robin","spIranigut",
"Thrush Nightingale","spLuscilus",
"Common Nightingale","spLuscimeg",
"Bluethroat","spLuscisve",
"Blue Whistling-Thrush","spMyophcae",
"Taiga Flycatcher","spFicedalb","rarity"
"Red-breasted Flycatcher","spFicedpar",
"Semicollared Flycatcher","spFicedsem","rarity"
"European Pied Flycatcher","spFicedhyp1","rarity"
"Collared Flycatcher","spFicedalb1","rarity"
"Rufous-backed Redstart","spPhoen5ery",
"Common Redstart","spPhoen5pho",
"Black Redstart","spPhoen5och",
"Rufous-tailed Rock-Thrush","spMontisax",
"Blue Rock-Thrush","spMontisol",
"Whinchat","spSaxicrub",
"Siberian Stonechat","spSaxicmau",
"Pied Bushchat","spSaxiccap",
"Northern Wheatear","spOenanoen",
"Isabelline Wheatear","spOenanisa",
"Desert Wheatear","spOenandes",
"Eastern Black-eared Wheatear","spOenanmel",
"Pied Wheatear","spOenanple",
"Variable Wheatear","spOenanpic",
"Finsch's Wheatear","spOenanfin",
"Kurdish Wheatear","spOenanxan","rarity"
"Persian Wheatear","spOenanchr",
"Bohemian Waxwing","spBombygar",
"Hypocolius","spHypoc3amp",
"Alpine Accentor","spPrunecol",
"Radde's Accentor","spPruneocu",
"Brown Accentor","spPruneful",
"Black-throated Accentor","spPruneatr",
"Dunnock","spPrunemod","rarity"
"Saxaul Sparrow","spPasseamm",
"House Sparrow","spPassedom",
"Spanish Sparrow","spPassehis",
"Zarudny's Sparrow","spPassezar",
"Eurasian Tree Sparrow","spPassemon",
"Rock Sparrow","spPetro3pet",
"Pale Rockfinch","spCarpo3bra",
"Afghan Snowfinch","spPyrgithe",
"Gray Wagtail","spMotaccin",
"Western Yellow Wagtail","spMotacfla1",
"Citrine Wagtail","spMotaccit",
"White Wagtail","spMotacalb",
"Richard's Pipit","spAnthuric","rarity"
"Tawny Pipit","spAnthucam",
"Meadow Pipit","spAnthupra",
"Tree Pipit","spAnthutri",
"Red-throated Pipit","spAnthucer",
"Water Pipit","spAnthuspi",
"Common Chaffinch","spFringcoe",
"Brambling","spFringmon",
"White-winged Grosbeak","spMycercar",
"Hawfinch","spCocco1coc",
"Common Rosefinch","spCarpo4ery",
"Red-mantled Rosefinch","spCarpo4rho",
"Long-tailed Rosefinch","spCarpo4sib","rarity"
"Eurasian Bullfinch","spPyrrh4pyr",
"Crimson-winged Finch","spRhodo4san","rarity"
"Trumpeter Finch","spBucangit",
"Mongolian Finch","spBucanmon",
"Black-headed Mountain Finch","spLeuco9bra",
"Desert Finch","spRhodo5obs",
"European Greenfinch","spChlor11chl",
"Twite","spLinarfla",
"Eurasian Linnet","spLinarcan",
"Redpoll","spAcant5fla","rarity"
"Red Crossbill","spLoxiacur",
"Gray-crowned Goldfinch","spCarducan",
"Fire-fronted Serin","spSerinpus",
"Eurasian Siskin","spSpinuspi",
"Lapland Longspur","spCalcalap","rarity"
"Snow Bunting","spPlect2niv","rarity"
"Black-headed Bunting","spEmbermel",
"Red-headed Bunting","spEmberbru",
"Corn Bunting","spEmbercal",
"Rock Bunting","spEmbercia",
"White-capped Bunting","spEmberste",
"Yellowhammer","spEmbercit",
"Pine Bunting","spEmberleu",
"Gray-necked Bunting","spEmberbuc",
"Cinereous Bunting","spEmbercin","rarity"
"Ortolan Bunting","spEmberhor",
"Reed Bunting","spEmbersch",
"Yellow-breasted Bunting","spEmberaur","rarity"
"Rustic Bunting","spEmberrus","rarity"
