"Name","ID","Status"
"Little Tinamou","spCryptsou",
"Horned Screamer","spAnhimcor","extinct"
"White-faced Whistling-Duck","spDendrvid",
"Black-bellied Whistling-Duck","spDendraut",
"Fulvous Whistling-Duck","spDendrbic",
"Snow Goose","spAnser1cae","rarity"
"Comb Duck","spSarkisyl",
"Muscovy Duck","spCairimos","rarity"
"Blue-winged Teal","spSpatudis",
"Northern Shoveler","spSpatucly",
"Eurasian Wigeon","spMarecpen","rarity"
"American Wigeon","spMarecame",
"White-cheeked Pintail","spAnasbah",
"Northern Pintail","spAnasacu",
"Green-winged Teal","spAnascre",
"Southern Pochard","spNetta1ery","rarity"
"Ring-necked Duck","spAythycol",
"Lesser Scaup","spAythyaff",
"Masked Duck","spNomondom",
"Rufous-vented Chachalaca","spOrtalruf",
"Trinidad Piping-Guan","spPipilpip","endemic"
"Rock Pigeon","spColumliv","introduced"
"Pale-vented Pigeon","spPatagcay",
"Scaled Pigeon","spPatagspe",
"Scaly-naped Pigeon","spPatagsqu","rarity"
"Band-tailed Pigeon","spPatagfas",
"Eurasian Collared-Dove","spStrepdec","rarity-from-introduced"
"Common Ground Dove","spColum1pas",
"Plain-breasted Ground Dove","spColum1min",
"Ruddy Ground Dove","spColum1tal",
"Scaled Dove","spColum1squ","rarity"
"Blue Ground Dove","spClarapre",
"Ruddy Quail-Dove","spGeotrmon",
"White-tipped Dove","spLepto1ver",
"Gray-fronted Dove","spLepto1ruf",
"Lined Quail-Dove","spZentrlin",
"Eared Dove","spZenaiaur1",
"Greater Ani","spCrotomaj",
"Smooth-billed Ani","spCrotoani",
"Striped Cuckoo","spTapernae",
"Little Cuckoo","spCoccymin",
"Squirrel Cuckoo","spPiayacay",
"Dark-billed Cuckoo","spCoccy1mel","rarity"
"Yellow-billed Cuckoo","spCoccy1ame",
"Mangrove Cuckoo","spCoccy1min",
"Black-billed Cuckoo","spCoccy1ery",
"Nacunda Nighthawk","spChordnac",
"Lesser Nighthawk","spChordacu",
"Short-tailed Nighthawk","spLurocsem",
"Common Pauraque","spNycti2alb",
"White-tailed Nightjar","spHydrocay",
"Rufous Nightjar","spAntroruf",
"Common Potoo","spNycti4gri",
"Oilbird","spSteatcar",
"Black Swift","spCypsenig",
"Chestnut-collared Swift","spStrep1rut",
"White-collared Swift","spStrep1zon",
"Gray-rumped Swift","spChaetcin",
"Band-rumped Swift","spChaetspi",
"Chapman's Swift","spChaetcha",
"Short-tailed Swift","spChaetbra",
"Lesser Swallow-tailed Swift","spPanypcay",
"Fork-tailed Palm Swift","spTachosqu",
"White-necked Jacobin","spFlorimel",
"Rufous-breasted Hermit","spGlauchir",
"Green Hermit","spPhaetguy",
"Little Hermit","spPhaetlon1",
"Brown Violetear","spColibdel",
"White-tailed Goldenthroat","spPolytgua",
"Ruby-topaz Hummingbird","spChrys2mos",
"Black-throated Mango","spAnthrnig",
"Green-throated Mango","spAnthrvir",
"Tufted Coquette","spLopho5orn",
"Long-billed Starthroat","spHelio2lon",
"Amethyst Woodstar","spCalli1ame","rarity"
"Rufous-shafted Woodstar","spChaet1jou",
"Blue-tailed Emerald","spChlormel",
"White-tailed Sabrewing","spCampyens",
"Copper-rumped Hummingbird","spSaucetob",
"White-chested Emerald","spChrys3bre",
"Blue-chinned Sapphire","spChlor1not",
"Mangrove Rail","spRallulon",
"Spotted Rail","spPardimac",
"Ash-throated Crake","spMustealb","extinct"
"Paint-billed Crake","spMusteery",
"Rufous-necked Wood-Rail","spArami1axi",
"Gray-cowled Wood-Rail","spArami1caj",
"Sora","spPorzacar",
"Common Gallinule","spGalli3gal",
"American Coot","spFulicame",
"Purple Gallinule","spPorph1mar",
"Azure Gallinule","spPorph1fla",
"Yellow-breasted Crake","spLaterfla",
"Gray-breasted Crake","spLaterexi",
"Sungrebe","spHelio4ful",
"Limpkin","spAramugua",
"Double-striped Thick-knee","spHespebis","rarity"
"Black-necked Stilt","spHiman1mex",
"American Avocet","spRecurame","rarity"
"American Oystercatcher","spHaema1pal",
"Black-bellied Plover","spPluvi2squ",
"American Golden-Plover","spPluvi2dom",
"Pied Plover","spHoplocay","rarity"
"Killdeer","spCharavoc",
"Common Ringed Plover","spCharahia","rarity"
"Semipalmated Plover","spCharasem",
"Southern Lapwing","spVanelchi",
"Wilson's Plover","spAnarhwil",
"Collared Plover","spAnarhcol",
"Snowy Plover","spAnarhniv","rarity"
"Wattled Jacana","spJacanjac",
"Upland Sandpiper","spBartrlon",
"Whimbrel","spNumenpha",
"Eskimo Curlew","spNumenbor","extinct"
"Long-billed Curlew","spNumename",
"Black-tailed Godwit","spLimoslim","rarity"
"Hudsonian Godwit","spLimoshae",
"Marbled Godwit","spLimosfed",
"Short-billed Dowitcher","spLimnogri",
"Wilson's Snipe","spGalli5del",
"Pantanal Snipe","spGalli5par",
"Wilson's Phalarope","spPhala1tri",
"Terek Sandpiper","spXenuscin","rarity"
"Spotted Sandpiper","spActitmac",
"Solitary Sandpiper","spTringsol",
"Wood Sandpiper","spTringgla","rarity"
"Lesser Yellowlegs","spTringfla",
"Willet","spTringsem",
"Spotted Redshank","spTringery","rarity"
"Common Greenshank","spTringneb","rarity"
"Greater Yellowlegs","spTringmel",
"Ruddy Turnstone","spArenaint",
"Red Knot","spCalidcan",
"Ruff","spCalidpug",
"Curlew Sandpiper","spCalidfer","rarity"
"Stilt Sandpiper","spCalidhim",
"Buff-breasted Sandpiper","spCalidsub1",
"Sanderling","spCalidalb",
"Baird's Sandpiper","spCalidbai",
"White-rumped Sandpiper","spCalidfus",
"Least Sandpiper","spCalidmin1",
"Pectoral Sandpiper","spCalidmel",
"Western Sandpiper","spCalidmau",
"Semipalmated Sandpiper","spCalidpus",
"Parasitic Jaeger","spStercpar",
"Pomarine Jaeger","spStercpom",
"South Polar Skua","spStercmac",
"Black-legged Kittiwake","spRissatri","rarity"
"Sabine's Gull","spXemasab","rarity"
"Black-headed Gull","spChroirid","rarity"
"Laughing Gull","spLeuco3atr",
"Franklin's Gull","spLeuco3pip",
"Audouin's Gull","spIchthaud","rarity"
"Ring-billed Gull","spLarusdel",
"Kelp Gull","spLarusdom","rarity"
"American Herring Gull","spLarussmi","rarity"
"Great Black-backed Gull","spLarusmar","rarity"
"Lesser Black-backed Gull","spLarusfus",
"Black Skimmer","spRynchnig",
"White Tern","spGygisalb","rarity"
"Brown Noddy","spAnoussto",
"Sooty Tern","spOnychfus",
"Bridled Tern","spOnychana",
"Least Tern","spStern1ant",
"Yellow-billed Tern","spStern1sup",
"Large-billed Tern","spPhaet1sim",
"Gull-billed Tern","spGelocnil",
"Caspian Tern","spHydro4cas",
"Black Tern","spChlidnig",
"Arctic Tern","spStern2par","rarity"
"Common Tern","spStern2hir1",
"Roseate Tern","spStern2dou",
"Sandwich Tern","spThala1san",
"Royal Tern","spThala1max",
"American Flamingo","spPhoenrub",
"Least Grebe","spTachy2dom",
"Pied-billed Grebe","spPodilpod",
"White-tailed Tropicbird","spPhaet2lep",
"Red-billed Tropicbird","spPhaet2aet",
"Wilson's Storm-Petrel","spOceanoce",
"Leach's Storm-Petrel","spHydro5leu",
"Bulwer's Petrel","spBulwebul","rarity"
"Cory's Shearwater","spCalonbor",
"Scopoli's Shearwater","spCalondio",
"Cape Verde Shearwater","spCalonedw","rarity"
"Great Shearwater","spArdengra",
"Sooty Shearwater","spArdengri","rarity"
"Manx Shearwater","spPuffipuf",
"Sargasso Shearwater","spPuffilhe",
"Maguari Stork","spCiconmag","rarity"
"Jabiru","spJabirmyc","rarity"
"Wood Stork","spMycteame","rarity"
"Magnificent Frigatebird","spFregamag",
"Northern Gannet","spMorusbas","rarity"
"Red-footed Booby","spSulasul",
"Brown Booby","spSulaleu",
"Masked Booby","spSuladac",
"Anhinga","spAnhinanh",
"Neotropic Cormorant","spNanno1bra",
"White Ibis","spEudocalb","rarity"
"Scarlet Ibis","spEudocrub",
"Glossy Ibis","spPlegafal",
"Buff-necked Ibis","spThericau","rarity"
"Eurasian Spoonbill","spPlataleu","rarity"
"Roseate Spoonbill","spPlataaja","rarity"
"Rufescent Tiger-Heron","spTigri1lin",
"Fasciated Tiger-Heron","spTigri1fas","rarity"
"Boat-billed Heron","spCochlcoc",
"Agami Heron","spAgamiaga",
"Pinnated Bittern","spBotaupin",
"Stripe-backed Bittern","spBotauinv",
"Least Bittern","spBotauexi",
"Yellow-crowned Night Heron","spNyctavio",
"Black-crowned Night Heron","spNycti6nyc",
"Capped Heron","spPilhepil","rarity"
"Whistling Heron","spSyrigsib","rarity"
"Little Blue Heron","spEgretcae",
"Tricolored Heron","spEgrettri",
"Reddish Egret","spEgretruf","rarity"
"Snowy Egret","spEgretthu",
"Little Egret","spEgretgar","rarity"
"Western Reef-Heron","spEgretgul","rarity"
"Striated Heron","spButorstr",
"Green Heron","spButorvir",
"Squacco Heron","spArdeo1ral","rarity"
"Western Cattle-Egret","spArdeaibi",
"Great Egret","spArdeaalb",
"Gray Heron","spArdeacin","rarity"
"Great Blue Heron","spArdeaher",
"Cocoi Heron","spArdeacoc",
"Purple Heron","spArdeapur","rarity"
"Brown Pelican","spPelec1occ",
"King Vulture","spSarcopap","rarity"
"Black Vulture","spCoragatr",
"Turkey Vulture","spCathaaur",
"Osprey","spPandihal",
"Pearl Kite","spGampsswa",
"White-tailed Kite","spElanuleu","rarity"
"Hook-billed Kite","spChondunc",
"Gray-headed Kite","spLepto3cay",
"Swallow-tailed Kite","spElanofor",
"Black Hawk-Eagle","spSpizatyr",
"Ornate Hawk-Eagle","spSpizaorn",
"Long-winged Harrier","spCircubuf",
"Double-toothed Kite","spHarpabid",
"Black Kite","spMilvumig","rarity"
"Plumbeous Kite","spIctin1plu",
"Crane Hawk","spGerancae",
"Black-collared Hawk","spBusarnig",
"Snail Kite","spRostr1soc","rarity"
"Slender-billed Kite","spHelicham","rarity"
"Common Black Hawk","spButeoant",
"Rufous Crab Hawk","spButeoaeq",
"Savanna Hawk","spButeomer",
"Great Black Hawk","spButeouru",
"Roadside Hawk","spRupormag","rarity"
"White-tailed Hawk","spGeran1alb",
"White Hawk","spPseud2alb",
"Gray-lined Hawk","spButeo1nit",
"Broad-winged Hawk","spButeo1pla1",
"Zone-tailed Hawk","spButeo1alb",
"Short-tailed Hawk","spButeo1bra",
"Swainson's Hawk","spButeo1swa",
"Red-tailed Hawk","spButeo1jam","rarity"
"American Barn Owl","spTytofur",
"Tropical Screech-Owl","spMegascho",
"Spectacled Owl","spPulsaper",
"Ferruginous Pygmy-Owl","spGlauc1bra",
"Burrowing Owl","spAthencun","rarity"
"Mottled Owl","spStrixvir",
"Striped Owl","spAsiocla",
"Short-eared Owl","spAsiofla","rarity"
"Green-backed Trogon","spTrogovir",
"Guianan Trogon","spTrogovio",
"Collared Trogon","spTrogocol",
"Trinidad Motmot","spMomotbah","endemic"
"Ringed Kingfisher","spMegac1tor",
"Belted Kingfisher","spMegac1alc",
"Amazon Kingfisher","spChlor2ama","rarity"
"American Pygmy Kingfisher","spChlor2aen",
"Green Kingfisher","spChlor2ame",
"Rufous-tailed Jacamar","spGalburuf",
"Channel-billed Toucan","spRamph2vit",
"Red-crowned Woodpecker","spMelan2rub",
"Red-rumped Woodpecker","spDryobkir",
"Crimson-crested Woodpecker","spCampemel",
"Lineated Woodpecker","spDryoclin",
"Chestnut Woodpecker","spCeleuele",
"Golden-olive Woodpecker","spColaprub",
"Crested Caracara","spCaracpla",
"Yellow-headed Caracara","spDaptrchi",
"Eurasian Kestrel","spFalcotin","rarity"
"American Kestrel","spFalcospa","rarity"
"Merlin","spFalcocol",
"Aplomado Falcon","spFalcofem",
"Bat Falcon","spFalcoruf",
"Orange-breasted Falcon","spFalcodei","rarity"
"Peregrine Falcon","spFalcoper",
"Lilac-tailed Parrotlet","spTouitbat",
"Scarlet-shouldered Parrotlet","spTouithue","rarity"
"Blue-headed Parrot","spPionumen",
"Yellow-crowned Amazon","spAmazo1och",
"Orange-winged Amazon","spAmazo1ama",
"Green-rumped Parrotlet","spForpupas",
"Brown-throated Parakeet","spEupsiper",
"Red-bellied Macaw","spOrtho1man",
"Blue-and-yellow Macaw","spAraara","introduced"
"Scarlet Macaw","spAramac","rarity"
"Red-and-green Macaw","spArachl","escaped"
"White-eyed Parakeet","spPsitt6leu","rarity"
"Great Antshrike","spTarabmaj",
"Black-crested Antshrike","spSakescan",
"Barred Antshrike","spThamndol",
"Plain Antvireo","spDysitmen",
"White-flanked Antwren","spMyrmoaxi",
"Northern White-fringed Antwren","spFormiint",
"Silvered Antbird","spSclatnae",
"White-bellied Antbird","spMyrme1lon",
"Scaled Antpitta","spGrallgua",
"Black-faced Antthrush","spFormi1ana",
"Gray-throated Leaftosser","spScler1alb",
"Olivaceous Woodcreeper","spSittagri",
"Plain-brown Woodcreeper","spDendr6ful",
"Cocoa Woodcreeper","spXipho1sus",
"Straight-billed Woodcreeper","spDendr9pic",
"Streak-headed Woodcreeper","spLepidsou",
"Streaked Xenops","spXenop1rut",
"Yellow-chinned Spinetail","spCerth1cin",
"Pale-breasted Spinetail","spSynalalb2",
"Stripe-breasted Spinetail","spSynalcin2",
"Blue-backed Manakin","spChiropar",
"White-bearded Manakin","spManacman",
"Golden-headed Manakin","spCerat1ery",
"White Bellbird","spProcnalb","rarity"
"Bearded Bellbird","spProcnave",
"Black-tailed Tityra","spTityrcay",
"White-winged Becard","spPachy2pol",
"White-throated Spadebill","spPlaty1mys",
"Olive-striped Flycatcher","spMionegal",
"Ochre-bellied Flycatcher","spMioneole",
"Slaty-capped Flycatcher","spLepto6sup",
"Short-tailed Pygmy-Tyrant","spMyioreca",
"Spotted Tody-Flycatcher","spTodir1mac",
"Yellow-olive Flatbill","spTolmosul",
"Ochre-lored Flatbill","spTolmofla1",
"Southern Beardless-Tyrannulet","spCampt1obs",
"Mouse-colored Tyrannulet","spNesotmur",
"Crested Doradito","spPseud9scl","rarity"
"Forest Elaenia","spMyiop1gai",
"Slaty Elaenia","spElaenstr","rarity"
"Yellow-bellied Elaenia","spElaenfla",
"Small-billed Elaenia","spElaenpar","rarity"
"Lesser Elaenia","spElaenchi",
"Bran-colored Flycatcher","spMyiop2fas",
"Euler's Flycatcher","spLathreul",
"Olive-sided Flycatcher","spContocoo",
"Northern Tropical Pewee","spContobog",
"Eastern Wood-Pewee","spContovir","rarity"
"Fuscous Flycatcher","spCnemofus",
"Willow Flycatcher","spEmpidtra","rarity"
"Northern Scrub-Flycatcher","spSubleare",
"White-headed Marsh Tyrant","spArundleu",
"Pied Water-Tyrant","spFluvipic",
"Bright-rumped Attila","spAttilspa",
"Dusky-capped Flycatcher","spMyiartub",
"Swainson's Flycatcher","spMyiarswa",
"Venezuelan Flycatcher","spMyiarven",
"Brown-crested Flycatcher","spMyiartyr",
"Great Kiskadee","spPitansul",
"Boat-billed Flycatcher","spMegarpit",
"Streaked Flycatcher","spMyiodmac",
"Piratic Flycatcher","spLegatleu",
"Variegated Flycatcher","spEmpid1var",
"Sulphury Flycatcher","spTyran3sul",
"Tropical Kingbird","spTyran4mel",
"Eastern Kingbird","spTyran4tyr","rarity"
"Gray Kingbird","spTyran4dom",
"Fork-tailed Flycatcher","spTyran4sav",
"Rufous-browed Peppershrike","spCyclaguj",
"Scrub Greenlet","spHylop2fla",
"Golden-fronted Greenlet","spPachy4aur",
"White-eyed Vireo","spVireo1gri","rarity"
"Yellow-throated Vireo","spVireo1fla",
"Red-eyed Vireo","spVireo1oli",
"Chivi Vireo","spVireo1chi",
"Black-whiskered Vireo","spVireo1alt",
"Bank Swallow","spRiparrip",
"White-winged Swallow","spTachy4alb",
"Caribbean Martin","spProgndom",
"Gray-breasted Martin","spProgncha",
"Southern Rough-winged Swallow","spStelgruf",
"Blue-and-white Swallow","spPygoccya",
"Barn Swallow","spHirun2rus",
"Cliff Swallow","spPetro2pyr",
"Long-billed Gnatwren","spRamph5mel",
"Southern House Wren","spTroglmus1",
"Rufous-breasted Wren","spPheugrut",
"Tropical Mockingbird","spMimusgil",
"Orange-billed Nightingale-Thrush","spCatha1aur",
"Veery","spCatha1fus1",
"Gray-cheeked Thrush","spCatha1min",
"Yellow-legged Thrush","spTurdufla",
"Cocoa Thrush","spTurdufum",
"White-necked Thrush","spTurdualb",
"Spectacled Thrush","spTurdunud",
"Village Weaver","spPloce2cuc","escaped"
"Tricolored Munia","spLonchmal","introduced"
"Common Waxbill","spEstriast","introduced"
"House Sparrow","spPassedom","introduced"
"White Wagtail","spMotacalb","rarity"
"Golden-rumped Euphonia","spChlor8cya",
"Trinidad Euphonia","spEuphotri",
"Violaceous Euphonia","spEuphovio",
"Lesser Goldfinch","spSpinupsa","rarity"
"Red Siskin","spSpinucuc","extinct"
"Bobolink","spDolicory",
"Red-breasted Meadowlark","spLeistmil",
"Crested Oropendola","spPsarodec",
"Yellow-rumped Cacique","spCaciccel",
"Orchard Oriole","spIcter1spu",
"Epaulet Oriole","spIcter1cay",
"Yellow Oriole","spIcter1nig",
"Baltimore Oriole","spIcter1gal",
"Shiny Cowbird","spMolotbon",
"Giant Cowbird","spMolotory",
"Great-tailed Grackle","spQuiscmex","rarity"
"Carib Grackle","spQuisclug",
"Yellow-hooded Blackbird","spChrys8ict",
"Ovenbird","spSeiuraur",
"Northern Waterthrush","spParkenov",
"Golden-winged Warbler","spVermichr",
"Black-and-white Warbler","spMniotvar",
"Prothonotary Warbler","spProtocit",
"Tennessee Warbler","spLeiot1per","rarity"
"Masked Yellowthroat","spGeothaeq",
"Kentucky Warbler","spGeothfor","rarity"
"Common Yellowthroat","spGeothtri",
"Hooded Warbler","spSetop1cit",
"American Redstart","spSetop1rut",
"Cape May Warbler","spSetop1tig",
"Cerulean Warbler","spSetop1cer",
"Northern Parula","spSetop1ame",
"Tropical Parula","spSetop1pit",
"Magnolia Warbler","spSetop1mag",
"Bay-breasted Warbler","spSetop1cas",
"Blackburnian Warbler","spSetop1fus",
"Yellow Warbler","spSetop1pet",
"Chestnut-sided Warbler","spSetop1pen",
"Blackpoll Warbler","spSetop1str",
"Black-throated Blue Warbler","spSetop1cae",
"Yellow-rumped Warbler","spSetop1cor",
"Prairie Warbler","spSetop1dis",
"Black-throated Green Warbler","spSetop1vir",
"Golden-crowned Warbler","spBasil2cul",
"Canada Warbler","spCardecan",
"Hepatic Tanager","spPiranfla",
"Summer Tanager","spPiranrub",
"Scarlet Tanager","spPiranoli",
"Red-crowned Ant-Tanager","spHabiarub",
"Rose-breasted Grosbeak","spPheuclud",
"Indigo Bunting","spPasse3cya",
"Dickcissel","spSpiza1ame",
"Masked Cardinal","spParoanig",
"White-shouldered Tanager","spLorioluc",
"White-lined Tanager","spTachy5ruf",
"Silver-beaked Tanager","spRamph7car",
"Blue-capped Tanager","spSporacya",
"Blue-gray Tanager","spThrauepi",
"Palm Tanager","spThraupal",
"Speckled Tanager","spIxothgut",
"Turquoise Tanager","spTangamex",
"Bay-headed Tanager","spTangagyr",
"Swallow Tanager","spTersivir",
"Blue Dacnis","spDacnicay",
"Purple Honeycreeper","spCyanecae",
"Red-legged Honeycreeper","spCyanecya",
"Green Honeycreeper","spChlor16spi",
"Bicolored Conebill","spConirbic",
"Orange-fronted Yellow-Finch","spSicalcol","rarity"
"Saffron Finch","spSicalfla",
"Grassland Yellow-Finch","spSicallut2",
"Blue-black Grassquit","spVolatjac",
"Lesson's Seedeater","spSporo1bou",
"Lined Seedeater","spSporo1lin",
"Ruddy-breasted Seedeater","spSporo1min",
"Chestnut-bellied Seed-Finch","spSporo1ang","extinct"
"Large-billed Seed-Finch","spSporo1cra","extinct"
"Gray Seedeater","spSporo1int","extinct"
"Wing-barred Seedeater","spSporo1ame",
"Yellow-bellied Seedeater","spSporo1nig1",
"Slate-colored Seedeater","spSporo1sch","rarity"
"Bananaquit","spCoerefla",
"Black-faced Grassquit","spMelan14bic",
"Sooty Grassquit","spAsemoful",
"Olive-gray Saltator","spSalta1oli",
"Streaked Saltator","spSalta1str",
