"Name","ID","Status"
"Common Ostrich","spStrutcam",
"White-faced Whistling-Duck","spDendrvid",
"Fulvous Whistling-Duck","spDendrbic",
"White-backed Duck","spThalaleu",
"Knob-billed Duck","spSarkimel",
"Hartlaub's Duck","spPterohar",
"Egyptian Goose","spAlopoaeg",
"Spur-winged Goose","spPlectgam",
"African Pygmy-Goose","spNettaaur",
"Garganey","spSpatuque",
"Blue-billed Teal","spSpatuhot",
"Northern Shoveler","spSpatucly",
"Eurasian Wigeon","spMarecpen","rarity"
"African Black Duck","spAnasspa",
"Yellow-billed Duck","spAnasund",
"Cape Teal","spAnascap",
"Red-billed Duck","spAnasery",
"Northern Pintail","spAnasacu",
"Green-winged Teal","spAnascre",
"Southern Pochard","spNetta1ery",
"Common Pochard","spAythyfer",
"Ferruginous Duck","spAythynyr","rarity"
"Tufted Duck","spAythyful",
"Maccoa Duck","spOxyurmac","rarity"
"Helmeted Guineafowl","spNumidmel",
"Vulturine Guineafowl","spAcrylvul","rarity"
"Western Crested Guineafowl","spGuttever",
"Stone Partridge","spPtilopet",
"Nahan's Partridge","spPtilonah",
"Latham's Francolin","spPeliplat",
"Crested Francolin","spOrtygsep",
"Coqui Francolin","spCampocoq",
"Ring-necked Francolin","spSclerstr",
"Red-winged Francolin","spSclerlev",
"Elgon Francolin","spSclerelg",
"Orange River Francolin","spSclergut",
"Shelley's Francolin","spSclershe","rarity"
"Blue Quail","spSynoiada",
"Common Quail","spCoturcot","rarity"
"Harlequin Quail","spCoturdel",
"Handsome Spurfowl","spPternnob",
"Jackson's Spurfowl","spPternjac",
"Scaly Spurfowl","spPternsqu",
"Heuglin's Spurfowl","spPternict",
"Clapperton's Spurfowl","spPterncla",
"Yellow-necked Spurfowl","spPternleu",
"Red-necked Spurfowl","spPternafe",
"Rock Pigeon","spColumliv","introduced"
"Speckled Pigeon","spColumgui",
"Afep Pigeon","spColumuni",
"Rameron Pigeon","spColumarq",
"Eastern Bronze-naped Pigeon","spColumdel",
"Western Bronze-naped Pigeon","spColumiri",
"White-naped Pigeon","spColumalb1",
"Lemon Dove","spAploplar",
"European Turtle-Dove","spStreptur",
"Dusky Turtle-Dove","spStreplug",
"Mourning Collared-Dove","spStrepdec1",
"Red-eyed Dove","spStrepsem",
"Ring-necked Dove","spStrepcap",
"Vinaceous Dove","spStrepvin",
"Laughing Dove","spSpilosen",
"Emerald-spotted Wood-Dove","spTurtucha",
"Black-billed Wood-Dove","spTurtuaby",
"Blue-spotted Wood-Dove","spTurtuafe",
"Tambourine Dove","spTurtutym",
"Namaqua Dove","spOenacap",
"Bruce's Green-Pigeon","spTrerowaa",
"African Green-Pigeon","spTrerocal",
"Lichtenstein's Sandgrouse","spPtero1lic","rarity"
"Four-banded Sandgrouse","spPtero1qua",
"Kori Bustard","spArdeokor",
"Denham's Bustard","spNeotiden",
"White-bellied Bustard","spEupodsen",
"Buff-crested Bustard","spLopho4gin",
"Black-bellied Bustard","spLissomel",
"Hartlaub's Bustard","spLissohar",
"Great Blue Turaco","spCorytcri",
"Bare-faced Go-away-bird","spCriniper",
"White-bellied Go-away-bird","spCrinileu",
"Eastern Plantain-eater","spCrinizon",
"Rwenzori Turaco","spGalli1joh",
"Purple-crested Turaco","spGalli1por",
"Ross's Turaco","spTauraros",
"White-crested Turaco","spTauraleu",
"Black-billed Turaco","spTaurasch",
"Hartlaub's Turaco","spTaurahar",
"Black-throated Coucal","spCentr1leu",
"Senegal Coucal","spCentr1sen",
"Blue-headed Coucal","spCentr1mon",
"White-browed Coucal","spCentr1sup",
"Black Coucal","spCentr1gri",
"Blue Malkoha","spCeuthaer",
"Great Spotted Cuckoo","spClamagla",
"Levaillant's Cuckoo","spClamalev",
"Pied Cuckoo","spClamajac",
"Thick-billed Cuckoo","spPachyaud","rarity"
"Dideric Cuckoo","spChrys1cap",
"Klaas's Cuckoo","spChrys1kla",
"Yellow-throated Cuckoo","spChrys1fla",
"African Emerald Cuckoo","spChrys1cup",
"Dusky Long-tailed Cuckoo","spCercomec",
"Olive Long-tailed Cuckoo","spCercooli",
"Barred Long-tailed Cuckoo","spCercomon",
"Black Cuckoo","spCuculcla",
"Red-chested Cuckoo","spCuculsol",
"African Cuckoo","spCuculgul",
"Madagascar Cuckoo","spCuculroc","rarity"
"Common Cuckoo","spCuculcan",
"Pennant-winged Nightjar","spCaprivex",
"Standard-winged Nightjar","spCaprilon",
"Eurasian Nightjar","spCaprieur",
"Sombre Nightjar","spCaprifra","rarity"
"Fiery-necked Nightjar","spCapripec",
"Montane Nightjar","spCapripol",
"Swamp Nightjar","spCaprinat",
"Plain Nightjar","spCapriino",
"Freckled Nightjar","spCapritri",
"Bates's Nightjar","spCapribat",
"Long-tailed Nightjar","spCapricli",
"Slender-tailed Nightjar","spCapricla",
"Square-tailed Nightjar","spCaprifos",
"Mottled Spinetail","spTelacuss",
"Sabine's Spinetail","spRhaphsab",
"Cassin's Spinetail","spNeafrcas",
"Scarce Swift","spSchoumyo",
"Alpine Swift","spTachy1mel",
"Mottled Swift","spTachy1aeq",
"Common Swift","spApusapu",
"Nyanza Swift","spApusnia",
"Pallid Swift","spApuspal","rarity"
"African Swift","spApusbar",
"Little Swift","spApusaff",
"Horus Swift","spApushor",
"White-rumped Swift","spApuscaf",
"African Palm Swift","spCypsipar",
"White-spotted Flufftail","spSarotpul",
"Buff-spotted Flufftail","spSarotele",
"Red-chested Flufftail","spSarotruf",
"Streaky-breasted Flufftail","spSarotboe","rarity"
"African Rail","spRallucae",
"Corn Crake","spCrexcre","rarity"
"African Crake","spCrecoegr",
"Gray-throated Rail","spCanirocu",
"Spotted Crake","spPorzapor","rarity"
"Lesser Moorhen","spParagang",
"Eurasian Moorhen","spGalli3chl",
"Red-knobbed Coot","spFuliccri",
"Allen's Gallinule","spPorph1all",
"African Swamphen","spPorph1mad",
"Nkulengu Rail","spHimanhae",
"Striped Crake","spAenigmar","rarity"
"Black Crake","spZaporfla",
"Little Crake","spZaporpar","rarity"
"Baillon's Crake","spZaporpus","rarity"
"African Finfoot","spPodicsen",
"Gray Crowned-Crane","spBaleareg",
"Black Crowned-Crane","spBaleapav","rarity"
"Wattled Crane","spBugercar","rarity"
"Spotted Thick-knee","spBurhicap",
"Water Thick-knee","spBurhiver",
"Eurasian Thick-knee","spBurhioed",
"Senegal Thick-knee","spBurhisen",
"Egyptian Plover","spPluvi1aeg","rarity"
"Black-winged Stilt","spHiman1him",
"Pied Avocet","spRecuravo",
"Eurasian Oystercatcher","spHaema1ost","rarity"
"Black-bellied Plover","spPluvi2squ",
"Pacific Golden-Plover","spPluvi2ful","rarity"
"Common Ringed Plover","spCharahia",
"Forbes's Plover","spThinofor","rarity"
"Three-banded Plover","spThinotri",
"Little Ringed Plover","spThinodub",
"Long-toed Lapwing","spVanelcra",
"Spur-winged Lapwing","spVanelspi",
"Black-headed Lapwing","spVaneltec",
"White-crowned Lapwing","spVanelalb","rarity"
"Senegal Lapwing","spVanellug",
"Crowned Lapwing","spVanelcor",
"Wattled Lapwing","spVanelsen",
"Brown-chested Lapwing","spVanelsup",
"Caspian Plover","spAnarhasi",
"Tibetan Sand-Plover","spAnarhatr","rarity"
"Greater Sand-Plover","spAnarhles","rarity"
"Kittlitz's Plover","spAnarhpec",
"White-fronted Plover","spAnarhmar",
"Kentish Plover","spAnarhale","rarity"
"Greater Painted-Snipe","spRostrben",
"Lesser Jacana","spMicro4cap",
"African Jacana","spActopafr",
"Whimbrel","spNumenpha",
"Eurasian Curlew","spNumenarq",
"Bar-tailed Godwit","spLimoslap","rarity"
"Black-tailed Godwit","spLimoslim",
"Jack Snipe","spLymnomin",
"Great Snipe","spGalli5med",
"African Snipe","spGalli5nig",
"Common Snipe","spGalli5gal",
"Red-necked Phalarope","spPhala1lob","rarity"
"Terek Sandpiper","spXenuscin",
"Common Sandpiper","spActithyp",
"Green Sandpiper","spTringoch",
"Marsh Sandpiper","spTringsta",
"Wood Sandpiper","spTringgla",
"Common Redshank","spTringtot",
"Spotted Redshank","spTringery",
"Common Greenshank","spTringneb",
"Ruddy Turnstone","spArenaint",
"Great Knot","spCalidten","rarity"
"Ruff","spCalidpug",
"Broad-billed Sandpiper","spCalidfal","rarity"
"Curlew Sandpiper","spCalidfer",
"Temminck's Stint","spCalidtem",
"Sanderling","spCalidalb",
"Dunlin","spCalidalp","rarity"
"Little Stint","spCalidmin",
"Pectoral Sandpiper","spCalidmel","rarity"
"Small Buttonquail","spTurnisyl",
"Black-rumped Buttonquail","spTurninan",
"Quail-plover","spOrtyxmei","rarity"
"Bronze-winged Courser","spRhino1cha",
"Three-banded Courser","spRhino1cin",
"Temminck's Courser","spCursotem",
"Rock Pratincole","spGlarenuc",
"Gray Pratincole","spGlarecin","rarity"
"Collared Pratincole","spGlarepra",
"Black-winged Pratincole","spGlarenor",
"Long-tailed Jaeger","spSterclon","rarity"
"Slender-billed Gull","spChroigen",
"Black-headed Gull","spChroirid",
"Gray-hooded Gull","spChroicir",
"Franklin's Gull","spLeuco3pip","rarity"
"Pallas's Gull","spIchthich","rarity"
"White-eyed Gull","spIchthleu","rarity"
"Lesser Black-backed Gull","spLarusfus",
"African Skimmer","spRynchfla",
"Gull-billed Tern","spGelocnil",
"Caspian Tern","spHydro4cas","rarity"
"Whiskered Tern","spChlidhyb",
"Black Tern","spChlidnig","rarity"
"White-winged Tern","spChlidleu",
"Common Tern","spStern2hir1","rarity"
"Lesser Crested Tern","spThala1ben","rarity"
"Greater Flamingo","spPhoenros",
"Lesser Flamingo","spPhoen1min",
"Little Grebe","spTachy2ruf1",
"Great Crested Grebe","spPodic1cri",
"Eared Grebe","spPodic1nig","rarity"
"African Openbill","spAnastlam",
"Black Stork","spCiconnig",
"Abdim's Stork","spCiconabd",
"African Woolly-necked Stork","spCiconmic",
"White Stork","spCiconcic",
"Saddle-billed Stork","spEphipsen",
"Marabou Stork","spLepto2cru",
"Yellow-billed Stork","spMycteibi",
"African Darter","spAnhinruf",
"Reed Cormorant","spMicro5afr",
"Great Cormorant","spPhala2car",
"Glossy Ibis","spPlegafal",
"African Sacred Ibis","spThresaet",
"Olive Ibis","spBostroli",
"Spot-breasted Ibis","spBostrrar",
"Hadada Ibis","spBostrhag",
"Eurasian Spoonbill","spPlataleu",
"African Spoonbill","spPlataalb",
"White-crested Tiger-Heron","spTigrileu","rarity"
"Eurasian Bittern","spBotauste","rarity"
"Dwarf Bittern","spBotaustu",
"Little Bittern","spBotaumin",
"Black-crowned Night Heron","spNycti6nyc",
"Black Heron","spEgretard",
"Little Egret","spEgretgar",
"Western Reef-Heron","spEgretgul","rarity"
"White-backed Night Heron","spCalheleu",
"Striated Heron","spButorstr",
"Rufous-bellied Heron","spArdeo1ruf",
"Squacco Heron","spArdeo1ral",
"Malagasy Pond-Heron","spArdeo1ida","rarity"
"Western Cattle-Egret","spArdeaibi",
"Great Egret","spArdeaalb",
"Yellow-billed Egret","spArdeabra",
"Gray Heron","spArdeacin",
"Purple Heron","spArdeapur",
"Black-headed Heron","spArdeamel",
"Goliath Heron","spArdeagol",
"Hamerkop","spScopuumb",
"Shoebill","spBalaerex",
"Great White Pelican","spPelec1ono",
"Pink-backed Pelican","spPelec1ruf",
"Secretarybird","spSagitser",
"Osprey","spPandihal",
"Scissor-tailed Kite","spChelirio",
"Black-winged Kite","spElanucae",
"African Harrier-Hawk","spPolybtyp",
"Palm-nut Vulture","spGypohang",
"Bearded Vulture","spGypaebar",
"Egyptian Vulture","spNeophper",
"African Cuckoo-Hawk","spAvicecuc",
"European Honey-buzzard","spPerniapi",
"White-headed Vulture","spTrigoocc",
"Lappet-faced Vulture","spTorgotra",
"Hooded Vulture","spNecromon",
"White-backed Vulture","spGypsafr",
"Rüppell's Griffon","spGypsrue",
"Bateleur","spTerateca",
"Western Banded Snake-Eagle","spCircacin",
"Congo Snake-Eagle","spCircaspe",
"Beaudouin's Snake-Eagle","spCircabea",
"Black-chested Snake-Eagle","spCircapec",
"Short-toed Snake-Eagle","spCircagal","rarity"
"Brown Snake-Eagle","spCircacin1",
"Crowned Eagle","spSteph1cor",
"Martial Eagle","spPolembel",
"Long-crested Eagle","spLophaocc",
"Lesser Spotted Eagle","spClang1pom",
"Greater Spotted Eagle","spClang1cla","rarity"
"Wahlberg's Eagle","spHierawah",
"Ayres's Hawk-Eagle","spHieraayr",
"Booted Eagle","spHierapen",
"Steppe Eagle","spAquilnip",
"Tawny Eagle","spAquilrap",
"Cassin's Hawk-Eagle","spAquilafr",
"Verreaux's Eagle","spAquilver",
"African Hawk-Eagle","spAquilspi",
"Bat Hawk","spMachealc",
"Gabar Goshawk","spMicro6gab",
"Long-tailed Hawk","spUrotrmac",
"Dark Chanting-Goshawk","spMeliemet",
"Eastern Chanting-Goshawk","spMeliepol",
"Lizard Buzzard","spKaupimon",
"African Goshawk","spAerostac",
"Chestnut-flanked Sparrowhawk","spAeroscas",
"Red-thighed Sparrowhawk","spTachy3ery",
"Little Sparrowhawk","spTachy3min",
"Shikra","spTachy3bad",
"Levant Sparrowhawk","spTachy3bre","rarity"
"Ovambo Sparrowhawk","spAccipova",
"Rufous-breasted Sparrowhawk","spAccipruf",
"Black Goshawk","spAsturmel",
"Western Marsh Harrier","spCircuaer",
"African Marsh Harrier","spCircuran",
"Pallid Harrier","spCircumac1",
"Montagu's Harrier","spCircupyg",
"Black Kite","spMilvumig",
"African Fish-Eagle","spIcthyvoc",
"Grasshopper Buzzard","spButasruf",
"Red-necked Buzzard","spButeo1aug",
"Augur Buzzard","spButeo1aug1",
"Mountain Buzzard","spButeo1ore",
"Common Buzzard","spButeo1but",
"Long-legged Buzzard","spButeo1ruf1",
"African Grass-Owl","spTytocap",
"Western Barn Owl","spTytoalb",
"Eurasian Scops-Owl","spOtussco",
"African Scops-Owl","spOtussen",
"Northern White-faced Owl","spPtilo1leu",
"Southern White-faced Owl","spPtilo1gra",
"Grayish Eagle-Owl","spBubocin",
"Spotted Eagle-Owl","spBuboafr",
"Fraser's Eagle-Owl","spKetuppoe",
"Akun Eagle-Owl","spKetupleu","rarity"
"Verreaux's Eagle-Owl","spKetuplac",
"Pel's Fishing-Owl","spScotopel",
"Pearl-spotted Owlet","spGlauc1per",
"Red-chested Owlet","spGlauc1tep",
"African Barred Owlet","spGlauc1cap","rarity"
"African Wood-Owl","spStrixwoo",
"Abyssinian Owl","spAsioaby","rarity"
"Marsh Owl","spAsiocap",
"Speckled Mousebird","spColiustr",
"Blue-naped Mousebird","spUrocomac",
"Narina Trogon","spApalonar",
"Bar-tailed Trogon","spApalovit",
"Eurasian Hoopoe","spUpupaepo",
"Green Woodhoopoe","spPhoen3pur",
"White-headed Woodhoopoe","spPhoen3bol",
"Forest Scimitarbill","spRhino2cas",
"Black Scimitarbill","spRhino2ate",
"Common Scimitarbill","spRhino2cya",
"Abyssinian Scimitarbill","spRhino2min",
"Abyssinian Ground-Hornbill","spBucoraby",
"Southern Ground-Hornbill","spBucorlea",
"Red-billed Dwarf Hornbill","spLopho11cam",
"Crowned Hornbill","spLopho11alb",
"Congo Pied Hornbill","spLopho11fas",
"Hemprich's Hornbill","spLopho11hem",
"African Gray Hornbill","spLopho11nas",
"Eastern Yellow-billed Hornbill","spTockufla",
"Jackson's Hornbill","spTockujac",
"Northern Red-billed Hornbill","spTockuery",
"Eastern Long-tailed Hornbill","spHorizcas",
"Eastern Dwarf Hornbill","spHorizgra",
"Black-casqued Hornbill","spCeratatr",
"Black-and-white-casqued Hornbill","spBycansub",
"White-thighed Hornbill","spBycanalb",
"Piping Hornbill","spBycanfis",
"Black Bee-eater","spMerop1gul",
"Red-throated Bee-eater","spMerop1bul",
"Little Bee-eater","spMerop1pus",
"Blue-breasted Bee-eater","spMerop1var",
"Cinnamon-chested Bee-eater","spMerop1ore",
"Swallow-tailed Bee-eater","spMerop1hir",
"White-throated Bee-eater","spMerop1alb",
"African Green Bee-eater","spMerop1vir",
"Blue-cheeked Bee-eater","spMerop1per",
"Olive Bee-eater","spMerop1sup",
"European Bee-eater","spMerop1api",
"Northern Carmine Bee-eater","spMerop1nub",
"Southern Carmine Bee-eater","spMerop1nub1","rarity"
"Shining-blue Kingfisher","spAlcedqua",
"Malachite Kingfisher","spCoryt1cri",
"White-bellied Kingfisher","spCoryt1leu",
"African Pygmy Kingfisher","spIspidpic",
"African Dwarf Kingfisher","spIspidlec",
"Chocolate-backed Kingfisher","spHalcybad",
"Gray-headed Kingfisher","spHalcyleu",
"Woodland Kingfisher","spHalcysen",
"Blue-breasted Kingfisher","spHalcymal",
"Striped Kingfisher","spHalcyche",
"Giant Kingfisher","spMegac1max",
"Pied Kingfisher","spCerylrud",
"European Roller","spCoracgar",
"Abyssinian Roller","spCoracaby",
"Lilac-breasted Roller","spCoraccau",
"Purple Roller","spCoracnae",
"Broad-billed Roller","spEurysgla",
"Blue-throated Roller","spEurysgul",
"Eastern Yellow-billed Barbet","spTrachpur",
"Crested Barbet","spTrach1vai",
"Red-and-yellow Barbet","spTrach1ery",
"D'Arnaud's Barbet","spTrach1dar",
"Gray-throated Barbet","spGymno3bon",
"Speckled Tinkerbird","spPogonsco",
"Moustached Tinkerbird","spPogonleu",
"Western Tinkerbird","spPogoncor",
"Red-rumped Tinkerbird","spPogonatr",
"Yellow-throated Tinkerbird","spPogonsub",
"Yellow-rumped Tinkerbird","spPogonbil",
"Northern Red-fronted Tinkerbird","spPogonuro",
"Yellow-fronted Tinkerbird","spPogonchr",
"Yellow-spotted Barbet","spBuccaduc",
"Hairy-breasted Barbet","spTrichhir",
"Red-fronted Barbet","spTrichdia",
"Spot-flanked Barbet","spTrichlac",
"Black-throated Barbet","spTrichmel","rarity"
"White-headed Barbet","spLybiuleu",
"Red-faced Barbet","spLybiurub",
"Black-billed Barbet","spLybiugui",
"Black-collared Barbet","spLybiutor",
"Double-toothed Barbet","spPogon1bid",
"Black-breasted Barbet","spPogon1rol",
"Cassin's Honeybird","spProdoins",
"Brown-backed Honeybird","spProdoreg",
"Zenker's Honeyguide","spMeligzen",
"Dwarf Honeyguide","spIndicpum",
"Willcocks's Honeyguide","spIndicwil",
"Pallid Honeyguide","spIndicmel",
"Least Honeyguide","spIndicexi",
"Lesser Honeyguide","spIndicmin",
"Spotted Honeyguide","spIndicmac",
"Scaly-throated Honeyguide","spIndicvar",
"Greater Honeyguide","spIndicind",
"Lyre-tailed Honeyguide","spMelicrob",
"Eurasian Wryneck","spJynxtor",
"Red-throated Wryneck","spJynxruf",
"African Piculet","spVerreafr",
"Golden-crowned Woodpecker","spChlor3xan",
"Bearded Woodpecker","spChlor3nam",
"Gabon Woodpecker","spDendr4gab",
"Elliot's Woodpecker","spDendr4ell",
"Speckle-breasted Woodpecker","spDendr4poe",
"Cardinal Woodpecker","spDendr4fus",
"Brown-backed Woodpecker","spDendr4obs",
"African Gray Woodpecker","spDendr4goe",
"Olive Woodpecker","spDendr4gri",
"Brown-eared Woodpecker","spPardi1car",
"Buff-spotted Woodpecker","spPardi1niv",
"Fine-banded Woodpecker","spCampe1tae",
"Green-backed Woodpecker","spCampe1mac",
"Nubian Woodpecker","spCampe1nub",
"Bennett's Woodpecker","spCampe1ben","rarity"
"Golden-tailed Woodpecker","spCampe1abi",
"Pygmy Falcon","spPolihsem",
"Lesser Kestrel","spFalconau",
"Eurasian Kestrel","spFalcotin",
"Greater Kestrel","spFalcorup1","rarity"
"Fox Kestrel","spFalcoalo",
"Gray Kestrel","spFalcoard",
"Dickinson's Kestrel","spFalcodic","rarity"
"Red-necked Falcon","spFalcochi",
"Red-footed Falcon","spFalcoves","rarity"
"Amur Falcon","spFalcoamu","rarity"
"Eleonora's Falcon","spFalcoele","rarity"
"Sooty Falcon","spFalcocon","rarity"
"Eurasian Hobby","spFalcosub",
"African Hobby","spFalcocuv",
"Lanner Falcon","spFalcobia",
"Saker Falcon","spFalcoche","rarity"
"Peregrine Falcon","spFalcoper",
"Taita Falcon","spFalcofas",
"Rose-ringed Parakeet","spPsitt2kra",
"Black-collared Lovebird","spAgaposwi",
"Red-headed Lovebird","spAgapopul",
"Gray Parrot","spPsitt5eri",
"Brown-necked Parrot","spPoicefus",
"Meyer's Parrot","spPoicemey",
"African Broadbill","spSmithcap",
"Rufous-sided Broadbill","spSmithruf",
"Grauer's Broadbill","spPseud3gra",
"African Pitta","spPittaang",
"Green-breasted Pitta","spPittarei",
"Gray Cuckooshrike","spCeblecae",
"White-breasted Cuckooshrike","spCeblepec",
"Black Cuckooshrike","spCampe2fla",
"Petit's Cuckooshrike","spCampe2pet",
"Red-shouldered Cuckooshrike","spCampe2pho",
"Purple-throated Cuckooshrike","spCampe2qui",
"Eurasian Golden Oriole","spOriolori",
"African Golden Oriole","spOriolaur",
"Western Black-headed Oriole","spOriolbra",
"African Black-headed Oriole","spOriollar",
"Black-tailed Oriole","spOriolper",
"Black-winged Oriole","spOriolnig",
"Chestnut Wattle-eye","spDyaphcas",
"Brown-throated Wattle-eye","spPlaty2cya",
"Black-throated Wattle-eye","spPlaty2pel",
"Jameson's Wattle-eye","spPlaty2jam",
"Yellow-bellied Wattle-eye","spPlaty2con",
"Rwenzori Batis","spBatisdio",
"Chinspot Batis","spBatismol",
"Gray-headed Batis","spBatisori",
"Western Black-headed Batis","spBatiserl",
"Pygmy Batis","spBatisper",
"Ituri Batis","spBatisitu",
"White-crested Helmetshrike","spPrion2plu",
"Rufous-bellied Helmetshrike","spPrion2ruf",
"African Shrike-flycatcher","spMegabfla",
"Black-and-white Shrike-flycatcher","spBiasmus",
"Brubru","spNilauafe",
"Northern Puffback","spDryosgam",
"Red-eyed Puffback","spDryossen",
"Pink-footed Puffback","spDryosang",
"Marsh Tchagra","spBocagmin",
"Black-crowned Tchagra","spTchagsen",
"Brown-crowned Tchagra","spTchagaus",
"Three-streaked Tchagra","spTchagjam",
"Lühder's Bushshrike","spLanialue",
"Tropical Boubou","spLaniamaj",
"Black-headed Gonolek","spLaniaery",
"Papyrus Gonolek","spLaniamuf",
"Slate-colored Boubou","spLaniafun",
"Lowland Sooty Boubou","spLanialeu",
"Willard's Sooty Boubou","spLaniawil",
"Albertine Boubou","spLaniahol",
"Doherty's Bushshrike","spTelopdoh",
"Gray-green Bushshrike","spChlor5boc",
"Sulphur-breasted Bushshrike","spChlor5sul",
"Many-colored Bushshrike","spChlor5mul",
"Fiery-breasted Bushshrike","spMalac2cru",
"Lagden's Bushshrike","spMalac2lag",
"Gray-headed Bushshrike","spMalac2bla",
"Sharpe's Drongo","spDicrusha",
"Fork-tailed Drongo","spDicruads",
"Velvet-mantled Drongo","spDicrumod",
"Blue-headed Crested Flycatcher","spTroch1nit",
"African Crested Flycatcher","spTroch1cya",
"Black-headed Paradise-Flycatcher","spTerpsruf",
"African Paradise-Flycatcher","spTerpsvir",
"Yellow-billed Shrike","spCorvicor",
"Red-backed Shrike","spLaniucol",
"Red-tailed Shrike","spLaniupho",
"Isabelline Shrike","spLaniuisa",
"Emin's Shrike","spLaniugub",
"Lesser Gray Shrike","spLaniumin",
"Gray-backed Fiscal","spLaniuexc1",
"Taita Fiscal","spLaniudor",
"Mackinnon's Shrike","spLaniumac",
"Northern Fiscal","spLaniuhum",
"Woodchat Shrike","spLaniusen",
"White-rumped Shrike","spEurocrup",
"Piapiac","spPtilo7afe",
"Cape Crow","spCorvucap","rarity"
"Pied Crow","spCorvualb",
"Fan-tailed Raven","spCorvurhi",
"White-necked Raven","spCorvualb1",
"Yellow-bellied Hyliota","spHyliofla",
"Southern Hyliota","spHylioaus",
"African Blue Flycatcher","spElminlon",
"White-tailed Blue Flycatcher","spElminalb",
"Dusky Crested Flycatcher","spElminnig",
"White-bellied Crested Flycatcher","spElminalb1",
"White-tailed Crested Flycatcher","spElminalb2",
"White-shouldered Black-Tit","spMelan8gui",
"White-winged Black-Tit","spMelan8leu",
"White-bellied Tit","spMelan8alb",
"Dusky Tit","spMelan8fun",
"Miombo Tit","spMelan8gri","rarity"
"Stripe-breasted Tit","spMelan8fas",
"Somali Tit","spMelan8thr",
"Mouse-colored Penduline-Tit","spAntho3mus",
"Yellow Penduline-Tit","spAntho3par",
"African Penduline-Tit","spAntho3car",
"Rufous-rumped Lark","spPinarery",
"Dusky Lark","spPinarnig","rarity"
"Chestnut-backed Sparrow-Lark","spEremoleu",
"Fischer's Sparrow-Lark","spEremoleu1",
"Pink-breasted Lark","spCalenpoe",
"Fawn-colored Lark","spCalenafr",
"White-tailed Lark","spMirafalb",
"Singing Bushlark","spMirafjav",
"Flappet Lark","spAmiraruf",
"Rufous-naped Lark","spCoryp1afr",
"Kidepo Lark","spCoryp1kid",
"Sun Lark","spGalermod",
"Red-capped Lark","spCalancin",
"Western Nicator","spNicatchl",
"Yellow-throated Nicator","spNicatvir",
"Green Crombec","spSylvi2vir",
"Lemon-bellied Crombec","spSylvi2den",
"White-browed Crombec","spSylvi2leu",
"Northern Crombec","spSylvi2bra",
"Red-faced Crombec","spSylvi2why",
"Moustached Grass-Warbler","spMelocmen",
"Yellow Longbill","spMacro4fla",
"Gray Longbill","spMacro4con",
"Yellow-vented Eremomela","spEremo2fla",
"Yellow-bellied Eremomela","spEremo2ict",
"Green-backed Eremomela","spEremo2can",
"Green-capped Eremomela","spEremo2sco",
"Rufous-crowned Eremomela","spEremo2bad",
"Turner's Eremomela","spEremo2tur",
"Red-winged Gray Warbler","spDrymo4inc",
"White-chinned Prinia","spSchis1leu",
"Black-collared Apalis","spOreolpul",
"Rwenzori Apalis","spOreolruw",
"Miombo Wren-Warbler","spCalam1und",
"Gray Wren-Warbler","spCalam1sim",
"Green-backed Camaroptera","spCamarbra",
"Yellow-browed Camaroptera","spCamarsup",
"Olive-green Camaroptera","spCamarchl",
"Buff-bellied Warbler","spPhyll3pul",
"Black-capped Apalis","spApalinig",
"Black-throated Apalis","spApalijac",
"Masked Apalis","spApalibin",
"Black-faced Apalis","spApaliper",
"Yellow-breasted Apalis","spApalifla1",
"Buff-throated Apalis","spApaliruf",
"Chestnut-throated Apalis","spApalipor",
"Gray Apalis","spApalicin",
"Karamoja Apalis","spApalikar","endemic"
"Tawny-flanked Prinia","spPrinisub",
"Pale Prinia","spPrinisom",
"Banded Prinia","spPrinibai",
"Red-winged Prinia","spPriniery",
"Red-fronted Prinia","spPriniruf1",
"Black-faced Rufous-Warbler","spBathmruf",
"Gray-capped Warbler","spEminilep",
"Red-faced Cisticola","spCistiery",
"Singing Cisticola","spCistican",
"Whistling Cisticola","spCistilat",
"Trilling Cisticola","spCistiwoo",
"Chubb's Cisticola","spCistichu",
"Hunter's Cisticola","spCistihun",
"Rock-loving Cisticola","spCistiabe",
"Boran Cisticola","spCistibod","rarity"
"Rattling Cisticola","spCistichi",
"Red-pate Cisticola","spCistiruf",
"Lynes's Cisticola","spCistidis",
"Winding Cisticola","spCistimar",
"Carruthers's Cisticola","spCisticar",
"Stout Cisticola","spCistirob",
"Croaking Cisticola","spCistinat",
"Tabora Cisticola","spCistiang",
"Siffling Cisticola","spCistibra",
"Foxy Cisticola","spCistitro",
"Tiny Cisticola","spCistinan","rarity"
"Zitting Cisticola","spCistijun",
"Desert Cisticola","spCistiari","rarity"
"Black-backed Cisticola","spCistiexi",
"Wing-snapping Cisticola","spCistiayr",
"Grauer's Warbler","spGrauevit",
"Papyrus Yellow-Warbler","spCalam2gra",
"Eastern Olivaceous Warbler","spIdunapal",
"African Yellow-Warbler","spIdunanat",
"Mountain Yellow-Warbler","spIdunasim",
"Upcher's Warbler","spHippolan",
"Icterine Warbler","spHippoict",
"Sedge Warbler","spAcroc1sch",
"Marsh Warbler","spAcroc1pal1",
"Common Reed Warbler","spAcroc1sci",
"Basra Reed Warbler","spAcroc1gri","rarity"
"Lesser Swamp Warbler","spAcroc1gra",
"Greater Swamp Warbler","spAcroc1ruf",
"Great Reed Warbler","spAcroc1aru",
"Bamboo Warbler","spLocusalf",
"River Warbler","spLocusflu","rarity"
"Fan-tailed Grassbird","spCatribre",
"Evergreen-forest Warbler","spBradylop",
"Cinnamon Bracken-Warbler","spBradycin",
"White-winged Swamp Warbler","spBradycar",
"Grauer's Swamp Warbler","spBradygra1",
"Highland Rush Warbler","spBradycen",
"White-headed Sawwing","spPsalialb",
"Black Sawwing","spPsalipri",
"Gray-rumped Swallow","spPseud15gri",
"Banded Martin","spNeoph3cin",
"Plain Martin","spRiparpal",
"Bank Swallow","spRiparrip",
"Red-throated Crag-Martin","spPtyonruf",
"Montane Blue Swallow","spHirun2atr",
"Barn Swallow","spHirun2rus",
"Ethiopian Swallow","spHirun2aet",
"Angola Swallow","spHirun2ang",
"White-throated Blue Swallow","spHirun2nig1",
"Wire-tailed Swallow","spHirun2smi",
"Western House-Martin","spDelicurb",
"European Red-rumped Swallow","spCecroruf",
"African Red-rumped Swallow","spCecromel",
"Lesser Striped Swallow","spCecroaby",
"Rufous-chested Swallow","spCecrosem",
"Mosque Swallow","spCecrosen",
"Slender-billed Greenbul","spStelg1gra",
"Red-tailed Bristlebill","spBledasyn",
"Yellow-eyed Bristlebill","spBledauga",
"Pale-throated Greenbul","spAtimafla1",
"Spotted Greenbul","spIxonogut",
"Swamp Greenbul","spThescleu",
"Joyful Greenbul","spChlor6lae",
"Simple Greenbul","spChlor6sim",
"Honeyguide Greenbul","spBaeopind",
"Shelley's Greenbul","spArizemas",
"Kikuyu Mountain Greenbul","spArizekik",
"Eastern Bearded-Greenbul","spCrini1chl",
"Red-tailed Greenbul","spCrini1cal",
"Little Greenbul","spEurilvir",
"Yellow-whiskered Greenbul","spEurillat",
"Plain Greenbul","spEurilcur",
"Gray Greenbul","spEurilgra",
"Ansorge's Greenbul","spEurilans",
"White-throated Greenbul","spPhyll4alb1",
"Yellow-streaked Greenbul","spPhyll4fla",
"Xavier's Greenbul","spPhyll4xav",
"Icterine Greenbul","spPhyll4ict",
"Northern Brownbul","spPhyll4str",
"Cabanis's Greenbul","spPhyll4cab",
"Leaf-love","spPhyll4sca",
"Sassi's Greenbul","spPhyll4lor",
"Toro Olive-Greenbul","spPhyll4hyp",
"Common Bulbul","spPycno2bar",
"Wood Warbler","spPhyll5sib",
"Willow Warbler","spPhyll5tro",
"Common Chiffchaff","spPhyll5col","rarity"
"Brown Woodland-Warbler","spPhyll5umb",
"Red-faced Woodland-Warbler","spPhyll5lae",
"Uganda Woodland-Warbler","spPhyll5bud",
"Green Hylia","spHyliapra",
"Tit-hylia","spPholirus",
"Chestnut-capped Flycatcher","spEryth4mcc",
"Neumann's Warbler","spHemit1neu",
"Eurasian Blackcap","spSylvi3atr",
"Garden Warbler","spSylvi3bor",
"African Hill Babbler","spSylvi3aby",
"Rwenzori Hill Babbler","spSylvi3atr1",
"Barred Warbler","spCurrunis",
"Brown Parisoma","spCurrulug",
"Greater Whitethroat","spCurrucom",
"Green White-eye","spZoste1stu",
"Northern Yellow White-eye","spZoste1sen",
"Brown Illadopsis","spIlladful",
"Pale-breasted Illadopsis","spIlladruf",
"Mountain Illadopsis","spIlladpyr",
"Scaly-breasted Illadopsis","spIlladalb",
"Puvel's Illadopsis","spIlladpuv",
"Rufous Chatterer","spArgyarub",
"Capuchin Babbler","spTurdoatr",
"Red-collared Mountain-Babbler","spTurdoruf",
"Brown Babbler","spTurdople",
"Arrow-marked Babbler","spTurdojar",
"Dusky Babbler","spTurdoten",
"Black-lored Babbler","spTurdosha",
"African Spotted Creeper","spSalposal",
"Red-billed Oxpecker","spBuphaery",
"Yellow-billed Oxpecker","spBuphaafr",
"Wattled Starling","spCreatcin",
"Violet-backed Starling","spCinny1leu",
"Slender-billed Starling","spOnych2ten",
"Red-winged Starling","spOnych2mor",
"Chestnut-winged Starling","spOnych2ful",
"Waller's Starling","spOnych2wal",
"Bristle-crowned Starling","spOnych2sal",
"Magpie Starling","spSpecu1bic","rarity"
"Sharpe's Starling","spPholi1sha",
"Narrow-tailed Starling","spPoeoplug",
"Stuhlmann's Starling","spPoeopstu",
"Purple-headed Starling","spHylop3pur",
"Rüppell's Starling","spLampr2pur",
"Splendid Starling","spLampr2spl",
"Superb Starling","spLampr2sup",
"Lesser Blue-eared Starling","spLampr2chl",
"Greater Blue-eared Starling","spLampr2cha",
"Purple Starling","spLampr2pur1",
"Bronze-tailed Starling","spLampr2cha1",
"Rufous Flycatcher-Thrush","spStizofra",
"Red-tailed Ant-Thrush","spNeocoruf",
"White-tailed Ant-Thrush","spNeocopoe",
"Black-eared Ground-Thrush","spGeokicam",
"Gray Ground-Thrush","spGeokipri",
"Oberländer's Ground-Thrush","spGeokiobe",
"Abyssinian Ground-Thrush","spGeokipia",
"Abyssinian Thrush","spTurduaby",
"African Thrush","spTurdupel",
"African Dusky Flycatcher","spMusci3adu",
"Yellow-footed Flycatcher","spMusci3set",
"Spotted Flycatcher","spMusci3str",
"Gambaga Flycatcher","spMusci3gam","rarity"
"Swamp Flycatcher","spMusci3aqu",
"Cassin's Flycatcher","spMusci3cas",
"Sooty Flycatcher","spArtomful",
"Dusky-blue Flycatcher","spBradocom",
"African Gray Flycatcher","spBradomic",
"Pale Flycatcher","spAgricpal",
"African Forest-Flycatcher","spFraseocr",
"Gray-throated Tit-Flycatcher","spFrasegri",
"Gray Tit-Flycatcher","spFraseplu",
"Chapin's Flycatcher","spFraselen",
"Ashy Flycatcher","spFrasecae",
"Silverbird","spEmpid2sem",
"Yellow-eyed Black-Flycatcher","spMelaeard",
"Northern Black-Flycatcher","spMelaeedo",
"Southern Black-Flycatcher","spMelaepam",
"White-eyed Slaty-Flycatcher","spMelaefis",
"Fire-crested Alethe","spAlethcas",
"Forest Scrub-Robin","spTychaleu",
"Rufous-tailed Scrub-Robin","spCerco3gal","rarity"
"Brown-backed Scrub-Robin","spCerco3har",
"White-browed Scrub-Robin","spCerco3leu",
"White-bellied Robin-Chat","spCossyrob",
"Archer's Robin-Chat","spDessoarc",
"Cape Robin-Chat","spDessocaf",
"Blue-shouldered Robin-Chat","spCossy1cya",
"White-browed Robin-Chat","spCossy1heu",
"Red-capped Robin-Chat","spCossy1nat",
"Snowy-crowned Robin-Chat","spCossy1niv",
"Collared Palm-Thrush","spCichl2arq",
"Spotted Morning-Thrush","spCichl2gut",
"White-starred Robin","spPogon3ste",
"Brown-chested Alethe","spChama3pol",
"Red-throated Alethe","spChama3pol1",
"Yellow-breasted Forest Robin","spStiphmab",
"Gray-winged Robin-Chat","spShepppol",
"Lowland Akalat","spSheppcyo",
"Equatorial Akalat","spSheppaeq",
"White-throated Robin","spIranigut","rarity"
"Thrush Nightingale","spLuscilus","rarity"
"Common Nightingale","spLuscimeg",
"Semicollared Flycatcher","spFicedsem",
"European Pied Flycatcher","spFicedhyp1","rarity"
"Collared Flycatcher","spFicedalb1","rarity"
"Common Redstart","spPhoen5pho",
"Little Rock-Thrush","spMontiruf",
"Rufous-tailed Rock-Thrush","spMontisax",
"Whinchat","spSaxicrub",
"African Stonechat","spSaxictor",
"Moorland Chat","spPinar2sor",
"Mocking Cliff-Chat","spThamn4cin",
"Sooty Chat","spMyrme2nig",
"Arnot's Chat","spMyrme2arn",
"Northern Wheatear","spOenanoen",
"Capped Wheatear","spOenanpil","rarity"
"Isabelline Wheatear","spOenanisa",
"Heuglin's Wheatear","spOenanheu",
"Pied Wheatear","spOenanple",
"White-fronted Black-Chat","spOenanalb",
"Familiar Chat","spOenanfam",
"Brown-tailed Chat","spOenansco",
"Gray-chested Babbler","spKakampol",
"Gray-headed Sunbird","spDeleoaxi",
"Western Violet-backed Sunbird","spAnthr3lon",
"Eastern Violet-backed Sunbird","spAnthr3ori",
"Little Green Sunbird","spAnthr3sei",
"Gray-chinned Sunbird","spAnthr3tep",
"Collared Sunbird","spHedydcol",
"Pygmy Sunbird","spHedydpla",
"Green-headed Sunbird","spCyano12ver",
"Blue-throated Brown Sunbird","spCyano12cya",
"Blue-headed Sunbird","spCyano12ali",
"Olive Sunbird","spCyano12oli",
"Green-throated Sunbird","spChalc5rub",
"Amethyst Sunbird","spChalc5ame",
"Scarlet-chested Sunbird","spChalc5sen",
"Hunter's Sunbird","spChalc5hun","rarity"
"Purple-breasted Sunbird","spNectapur",
"Tacazze Sunbird","spNectatac",
"Bronze Sunbird","spNectakil",
"Malachite Sunbird","spNectafam",
"Red-tufted Sunbird","spNectajoh",
"Golden-winged Sunbird","spDrepa2rei",
"Olive-bellied Sunbird","spCinny2chl",
"Tiny Sunbird","spCinny2min",
"Stuhlmann's Sunbird","spCinny2stu",
"Northern Double-collared Sunbird","spCinny2rei",
"Regal Sunbird","spCinny2reg",
"Beautiful Sunbird","spCinny2pul",
"Marico Sunbird","spCinny2mar",
"Red-chested Sunbird","spCinny2ery",
"Purple-banded Sunbird","spCinny2bif",
"Orange-tufted Sunbird","spCinny2bou",
"Palestine Sunbird","spCinny2ose",
"Abyssinian Sunbird","spCinny2hab",
"Superb Sunbird","spCinny2sup",
"Variable Sunbird","spCinny2ven",
"Copper Sunbird","spCinny2cup",
"White-billed Buffalo-Weaver","spBubalalb",
"Red-billed Buffalo-Weaver","spBubalnig",
"White-headed Buffalo-Weaver","spDinemdin",
"Speckle-fronted Weaver","spSporofro",
"White-browed Sparrow-Weaver","spPloce1mah",
"Chestnut-crowned Sparrow-Weaver","spPloce1sup",
"Gray-capped Social-Weaver","spPseud16arn",
"Red-bellied Malimbe","spMalimery",
"Blue-billed Malimbe","spMalimnit",
"Crested Malimbe","spMalimmal",
"Red-headed Malimbe","spMalimrub",
"Red-headed Weaver","spAnaplrub",
"Baglafecht Weaver","spPloce2bag",
"Little Weaver","spPloce2lut",
"Slender-billed Weaver","spPloce2pel",
"Black-necked Weaver","spPloce2nig1",
"Spectacled Weaver","spPloce2ocu",
"Black-billed Weaver","spPloce2mel",
"Strange Weaver","spPloce2ali",
"Holub's Golden-Weaver","spPloce2xan",
"Orange Weaver","spPloce2aur",
"Northern Brown-throated Weaver","spPloce2cas1",
"Northern Masked-Weaver","spPloce2tae","rarity"
"Lesser Masked-Weaver","spPloce2int",
"Vitelline Masked-Weaver","spPloce2vit",
"Heuglin's Masked-Weaver","spPloce2heu",
"Fox's Weaver","spPloce2spe1","endemic"
"Vieillot's Black Weaver","spPloce2nig2",
"Village Weaver","spPloce2cuc",
"Weyns's Weaver","spPloce2wey",
"Black-headed Weaver","spPloce2mel1",
"Golden-backed Weaver","spPloce2jac",
"Chestnut Weaver","spPloce2rub",
"Golden-naped Weaver","spPloce2aur1","rarity"
"Yellow-mantled Weaver","spPloce2tri",
"Maxwell's Black Weaver","spPloce2alb",
"Dark-backed Weaver","spPloce2bic",
"Brown-capped Weaver","spPloce2ins",
"Compact Weaver","spPachy8sup",
"Cardinal Quelea","spQuelecar",
"Red-headed Quelea","spQueleery",
"Red-billed Quelea","spQueleque",
"Northern Red Bishop","spEuplefra",
"Southern Red Bishop","spEupleori",
"Black-winged Bishop","spEuplehor",
"Black Bishop","spEuplegie",
"Yellow-crowned Bishop","spEupleafe",
"Yellow Bishop","spEuplecap",
"White-winged Widowbird","spEuplealb",
"Yellow-mantled Widowbird","spEuplemac",
"Red-collared Widowbird","spEupleard",
"Fan-tailed Widowbird","spEupleaxi",
"Marsh Widowbird","spEuplehar",
"Grosbeak Weaver","spAmbly1alb",
"Gray-headed Silverbill","spSpermgri","rarity"
"Bronze Mannikin","spSpermcuc",
"Magpie Mannikin","spSpermfri",
"Black-and-white Mannikin","spSpermbic",
"African Silverbill","spEuodican",
"White-collared Oliveback","spNesoc1ans",
"Yellow-bellied Waxbill","spCoccoqua",
"Green-backed Twinspot","spMandinit",
"Shelley's Crimsonwing","spCrypt9she",
"Dusky Crimsonwing","spCrypt9jac",
"Abyssinian Crimsonwing","spCrypt9sal",
"Red-faced Crimsonwing","spCrypt9rei",
"Jameson's Antpecker","spParmojam",
"White-breasted Nigrita","spNigrifus",
"Chestnut-breasted Nigrita","spNigribic",
"Gray-headed Nigrita","spNigrican",
"Pale-fronted Nigrita","spNigrilut",
"Gray-headed Oliveback","spDelaccap",
"Black-faced Waxbill","spBrunhery",
"Black-cheeked Waxbill","spBrunhcha",
"Black-crowned Waxbill","spEstrinon",
"Kandt's Waxbill","spEstrikan",
"Orange-cheeked Waxbill","spEstrimel","rarity"
"Fawn-breasted Waxbill","spEstripal",
"Common Waxbill","spEstriast",
"Black-rumped Waxbill","spEstritro",
"Crimson-rumped Waxbill","spEstrirho",
"Quailfinch","spOrtyg1atr",
"Cut-throat","spAmadifas",
"Zebra Waxbill","spAmandsub",
"Purple Grenadier","spGranaian",
"Red-cheeked Cordonbleu","spUraegben",
"Blue-capped Cordonbleu","spUraegcya","rarity"
"Grant's Bluebill","spSperm1pol",
"Red-headed Bluebill","spSperm1ruf",
"Black-bellied Seedcracker","spPyrenost",
"Green-winged Pytilia","spPytilmel",
"Orange-winged Pytilia","spPytilafr",
"Red-winged Pytilia","spPytilpho",
"Dybowski's Twinspot","spEuschdyb",
"Dusky Twinspot","spEuschcin",
"Brown Twinspot","spClyto3mon",
"Red-billed Firefinch","spLagonsen",
"African Firefinch","spLagonrub",
"Jameson's Firefinch","spLagonrho",
"Black-bellied Firefinch","spLagonrar",
"Bar-breasted Firefinch","spLagonruf",
"Black-faced Firefinch","spLagonlar",
"Pin-tailed Whydah","spViduamac",
"Broad-tailed Paradise-Whydah","spViduaobt","rarity"
"Eastern Paradise-Whydah","spViduapar",
"Steel-blue Whydah","spViduahyp",
"Straw-tailed Whydah","spViduafis",
"Village Indigobird","spViduacha",
"Parasitic Weaver","spAnomaimb",
"House Sparrow","spPassedom","introduced"
"Shelley's Rufous Sparrow","spPasseshe",
"Northern Gray-headed Sparrow","spPassegri",
"Parrot-billed Sparrow","spPassegon",
"Chestnut Sparrow","spPasseemi",
"Yellow-spotted Bush Sparrow","spGymno10pyr",
"Sahel Bush Sparrow","spGymno10den",
"Cape Wagtail","spMotaccap",
"Mountain Wagtail","spMotaccla",
"Gray Wagtail","spMotaccin",
"Western Yellow Wagtail","spMotacfla1",
"African Pied Wagtail","spMotacagu",
"White Wagtail","spMotacalb",
"African Pipit","spAnthucin",
"Long-billed Pipit","spAnthusim",
"Tawny Pipit","spAnthucam","rarity"
"Plain-backed Pipit","spAnthuleu",
"Striped Pipit","spAnthulin",
"Tree Pipit","spAnthutri",
"Red-throated Pipit","spAnthucer",
"Short-tailed Pipit","spAnthubra",
"Golden Pipit","spTmetoten","rarity"
"Yellow-throated Longclaw","spMacro6cro",
"Oriole Finch","spLinuroli",
"White-rumped Seedeater","spCrithleu",
"Yellow-fronted Canary","spCrithmoz",
"African Citril","spCrithcit",
"Western Citril","spCrithfro",
"Southern Citril","spCrithhyp","rarity"
"Papyrus Canary","spCrithkol",
"Black-throated Canary","spCrithatr",
"Reichenow's Seedeater","spCrithrei",
"White-bellied Canary","spCrithdor",
"Brimstone Canary","spCrithsul",
"Streaky Seedeater","spCrithstr",
"Thick-billed Seedeater","spCrithbur",
"West African Seedeater","spCrithcan",
"Stripe-breasted Seedeater","spCrithstr1",
"Yellow-crowned Canary","spSerinfla",
"Brown-rumped Bunting","spEmberaff",
"Ortolan Bunting","spEmberhor","rarity"
"Cabanis's Bunting","spEmbercab",
"Golden-breasted Bunting","spEmberfla",
"Somali Bunting","spEmberpol","rarity"
"Cinnamon-breasted Bunting","spEmbertah",
