"Name","ID","Status"
"Black-bellied Whistling-Duck","spDendraut",
"Fulvous Whistling-Duck","spDendrbic","rarity"
"Snow Goose","spAnser1cae",
"Ross's Goose","spAnser1ros",
"Graylag Goose","spAnser1ans","escaped"
"Greater White-fronted Goose","spAnser1alb",
"Brant","spBrantber","rarity"
"Cackling Goose","spBranthut","rarity"
"Canada Goose","spBrantcan",
"Mute Swan","spCygnuolo","introduced"
"Trumpeter Swan","spCygnubuc","rarity"
"Tundra Swan","spCygnucol","rarity"
"Muscovy Duck","spCairimos","escaped"
"Wood Duck","spAixspo",
"Garganey","spSpatuque","rarity"
"Blue-winged Teal","spSpatudis",
"Cinnamon Teal","spSpatucya","rarity"
"Northern Shoveler","spSpatucly",
"Gadwall","spMarecstr",
"Eurasian Wigeon","spMarecpen","rarity"
"American Wigeon","spMarecame",
"Mallard","spAnaspla",
"American Black Duck","spAnasrub",
"Mottled Duck","spAnasful",
"White-cheeked Pintail","spAnasbah","rarity"
"Northern Pintail","spAnasacu",
"Green-winged Teal","spAnascre",
"Canvasback","spAythyval",
"Redhead","spAythyame",
"Ring-necked Duck","spAythycol",
"Greater Scaup","spAythymar",
"Lesser Scaup","spAythyaff",
"King Eider","spSomatspe","rarity"
"Harlequin Duck","spHistrhis","rarity"
"Surf Scoter","spMelanper",
"White-winged Scoter","spMelandeg",
"Black Scoter","spMelaname",
"Long-tailed Duck","spClanghye",
"Bufflehead","spBucepalb",
"Common Goldeneye","spBucepcla",
"Hooded Merganser","spLopho1cuc",
"Common Merganser","spMergumer","rarity"
"Red-breasted Merganser","spMerguser",
"Ruddy Duck","spOxyurjam",
"Northern Bobwhite","spColinvir",
"Wild Turkey","spMeleagal",
"Ruffed Grouse","spBonasumb","rarity"
"Rock Pigeon","spColumliv","introduced"
"White-crowned Pigeon","spPatagleu","rarity"
"Band-tailed Pigeon","spPatagfas","rarity"
"Passenger Pigeon","spEctopmig","extinct"
"European Turtle-Dove","spStreptur","escaped"
"Eurasian Collared-Dove","spStrepdec","introduced"
"Inca Dove","spColum1inc","rarity"
"Common Ground Dove","spColum1pas",
"White-winged Dove","spZenaiasi",
"Mourning Dove","spZenaimac",
"Groove-billed Ani","spCrotosul","rarity"
"Yellow-billed Cuckoo","spCoccy1ame",
"Mangrove Cuckoo","spCoccy1min","rarity"
"Black-billed Cuckoo","spCoccy1ery",
"Lesser Nighthawk","spChordacu","rarity"
"Common Nighthawk","spChordmin",
"Chuck-will's-widow","spAntrocar",
"Eastern Whip-poor-will","spAntrovoc",
"Black Swift","spCypsenig","rarity"
"Chimney Swift","spChaetpel",
"Vaux's Swift","spChaetvau","rarity"
"Mexican Violetear","spColibtha","rarity"
"Rivoli's Hummingbird","spEugenful","rarity"
"Blue-throated Mountain-gem","spLampocle","rarity"
"Ruby-throated Hummingbird","spArchicol",
"Black-chinned Hummingbird","spArchiale","rarity"
"Anna's Hummingbird","spCalypann","rarity"
"Costa's Hummingbird","spCalypcos","rarity"
"Calliope Hummingbird","spSelascal","rarity"
"Rufous Hummingbird","spSelasruf","rarity"
"Allen's Hummingbird","spSelassas","rarity"
"Broad-tailed Hummingbird","spSelaspla","rarity"
"Broad-billed Hummingbird","spCynanlat","rarity"
"White-eared Hummingbird","spBasilleu","rarity"
"Buff-bellied Hummingbird","spAmaziyuc","rarity"
"King Rail","spRalluele",
"Clapper Rail","spRallucre",
"Virginia Rail","spRallulim",
"Sora","spPorzacar",
"Common Gallinule","spGalli3gal",
"American Coot","spFulicame",
"Purple Gallinule","spPorph1mar",
"Yellow Rail","spCotur1nov","rarity"
"Black Rail","spLaterjam","rarity"
"Limpkin","spAramugua","rarity"
"Sandhill Crane","spAntigcan",
"Whooping Crane","spGrusame","rarity"
"Black-necked Stilt","spHiman1mex",
"American Avocet","spRecurame",
"American Oystercatcher","spHaema1pal",
"Black-bellied Plover","spPluvi2squ",
"American Golden-Plover","spPluvi2dom",
"Killdeer","spCharavoc",
"Semipalmated Plover","spCharasem",
"Piping Plover","spCharamel",
"Wilson's Plover","spAnarhwil",
"Mountain Plover","spAnarhmon1","rarity"
"Snowy Plover","spAnarhniv",
"Upland Sandpiper","spBartrlon",
"Whimbrel","spNumenpha",
"Long-billed Curlew","spNumename","rarity"
"Hudsonian Godwit","spLimoshae","rarity"
"Marbled Godwit","spLimosfed",
"Short-billed Dowitcher","spLimnogri",
"Long-billed Dowitcher","spLimnosco",
"American Woodcock","spScolomin",
"Eurasian Woodcock","spScolorus","rarity"
"Wilson's Snipe","spGalli5del",
"Wilson's Phalarope","spPhala1tri",
"Red Phalarope","spPhala1ful","rarity"
"Red-necked Phalarope","spPhala1lob","rarity"
"Spotted Sandpiper","spActitmac",
"Solitary Sandpiper","spTringsol",
"Lesser Yellowlegs","spTringfla",
"Willet","spTringsem",
"Greater Yellowlegs","spTringmel",
"Ruddy Turnstone","spArenaint",
"Red Knot","spCalidcan",
"Ruff","spCalidpug","rarity"
"Sharp-tailed Sandpiper","spCalidacu","rarity"
"Curlew Sandpiper","spCalidfer","rarity"
"Stilt Sandpiper","spCalidhim",
"Buff-breasted Sandpiper","spCalidsub1",
"Sanderling","spCalidalb",
"Dunlin","spCalidalp",
"Purple Sandpiper","spCalidmar","rarity"
"Baird's Sandpiper","spCalidbai",
"White-rumped Sandpiper","spCalidfus",
"Least Sandpiper","spCalidmin1",
"Pectoral Sandpiper","spCalidmel",
"Western Sandpiper","spCalidmau",
"Semipalmated Sandpiper","spCalidpus",
"Long-tailed Jaeger","spSterclon","rarity"
"Parasitic Jaeger","spStercpar","rarity"
"Pomarine Jaeger","spStercpom","rarity"
"South Polar Skua","spStercmac","rarity"
"Razorbill","spAlcator","rarity"
"Little Gull","spHydro3min","rarity"
"Black-legged Kittiwake","spRissatri","rarity"
"Ivory Gull","spPagopebu","rarity"
"Sabine's Gull","spXemasab","rarity"
"Bonaparte's Gull","spChroiphi",
"Laughing Gull","spLeuco3atr",
"Franklin's Gull","spLeuco3pip",
"Ring-billed Gull","spLarusdel",
"American Herring Gull","spLarussmi",
"Great Black-backed Gull","spLarusmar","rarity"
"Glaucous Gull","spLarushyp","rarity"
"Lesser Black-backed Gull","spLarusfus",
"California Gull","spLaruscal","rarity"
"Glaucous-winged Gull","spLarusgla","rarity"
"Iceland Gull","spLarusgla1","rarity"
"Black Skimmer","spRynchnig",
"Brown Noddy","spAnoussto","rarity"
"Sooty Tern","spOnychfus",
"Bridled Tern","spOnychana","rarity"
"Least Tern","spStern1ant",
"Gull-billed Tern","spGelocnil",
"Caspian Tern","spHydro4cas",
"Black Tern","spChlidnig",
"Forster's Tern","spStern2for",
"Arctic Tern","spStern2par","rarity"
"Common Tern","spStern2hir1",
"Roseate Tern","spStern2dou","rarity"
"Sandwich Tern","spThala1san",
"Royal Tern","spThala1max",
"American Flamingo","spPhoenrub","rarity"
"Pied-billed Grebe","spPodilpod",
"Horned Grebe","spPodic1aur",
"Red-necked Grebe","spPodic1gri","rarity"
"Eared Grebe","spPodic1nig","rarity"
"Western Grebe","spAechmocc","rarity"
"Red-billed Tropicbird","spPhaet2aet","rarity"
"Red-throated Loon","spGaviaste","rarity"
"Pacific Loon","spGaviapac","rarity"
"Common Loon","spGaviaimm",
"Wilson's Storm-Petrel","spOceanoce","rarity"
"Leach's Storm-Petrel","spHydro5leu","rarity"
"Band-rumped Storm-Petrel","spHydro5cas","rarity"
"Black-capped Petrel","spPtero3has","rarity"
"Cory's Shearwater","spCalonbor","rarity"
"Scopoli's Shearwater","spCalondio","rarity"
"Great Shearwater","spArdengra","rarity"
"Sooty Shearwater","spArdengri","rarity"
"Sargasso Shearwater","spPuffilhe","rarity"
"Wood Stork","spMycteame",
"Magnificent Frigatebird","spFregamag",
"Northern Gannet","spMorusbas",
"Brown Booby","spSulaleu","rarity"
"Masked Booby","spSuladac","rarity"
"Anhinga","spAnhinanh",
"Great Cormorant","spPhala2car","rarity"
"Double-crested Cormorant","spNanno1aur",
"Neotropic Cormorant","spNanno1bra","rarity"
"White Ibis","spEudocalb",
"Glossy Ibis","spPlegafal","rarity"
"White-faced Ibis","spPlegachi","rarity"
"Roseate Spoonbill","spPlataaja",
"American Bittern","spBotaulen",
"Least Bittern","spBotauexi",
"Yellow-crowned Night Heron","spNyctavio",
"Black-crowned Night Heron","spNycti6nyc",
"Little Blue Heron","spEgretcae",
"Tricolored Heron","spEgrettri",
"Reddish Egret","spEgretruf",
"Snowy Egret","spEgretthu",
"Green Heron","spButorvir",
"Western Cattle-Egret","spArdeaibi",
"Great Egret","spArdeaalb",
"Great Blue Heron","spArdeaher",
"American White Pelican","spPelec1ery",
"Brown Pelican","spPelec1occ",
"Black Vulture","spCoragatr",
"Turkey Vulture","spCathaaur",
"Osprey","spPandihal",
"White-tailed Kite","spElanuleu","rarity"
"Swallow-tailed Kite","spElanofor",
"Golden Eagle","spAquilchr","rarity"
"Sharp-shinned Hawk","spAccipstr",
"Cooper's Hawk","spAsturcoo",
"American Goshawk","spAsturatr","rarity"
"Northern Harrier","spCircuhud",
"Bald Eagle","spHalia1leu",
"Mississippi Kite","spIctin1mis",
"Harris's Hawk","spParabuni","rarity"
"Broad-winged Hawk","spButeo1pla1",
"Red-shouldered Hawk","spButeo1lin",
"Short-tailed Hawk","spButeo1bra","rarity"
"Swainson's Hawk","spButeo1swa","rarity"
"Red-tailed Hawk","spButeo1jam",
"Rough-legged Hawk","spButeo1lag","rarity"
"Ferruginous Hawk","spButeo1reg","rarity"
"American Barn Owl","spTytofur",
"Flammulated Owl","spPsilofla","rarity"
"Eastern Screech-Owl","spMegasasi",
"Snowy Owl","spBubosca","rarity"
"Great Horned Owl","spBubovir",
"Burrowing Owl","spAthencun","rarity"
"Barred Owl","spStrixvar",
"Long-eared Owl","spAsiootu","rarity"
"Short-eared Owl","spAsiofla",
"Northern Saw-whet Owl","spAegolaca","rarity"
"Belted Kingfisher","spMegac1alc",
"Yellow-bellied Sapsucker","spSphyrvar",
"Red-headed Woodpecker","spMelan2ery",
"Red-bellied Woodpecker","spMelan2car",
"Downy Woodpecker","spDryobpub",
"Red-cockaded Woodpecker","spDryobbor",
"Hairy Woodpecker","spDryobvil",
"Ivory-billed Woodpecker","spCampepri","extinct"
"Pileated Woodpecker","spDryocpil",
"Northern Flicker","spColapaur1",
"Crested Caracara","spCaracpla","rarity"
"American Kestrel","spFalcospa",
"Merlin","spFalcocol",
"Peregrine Falcon","spFalcoper",
"Prairie Falcon","spFalcomex","rarity"
"Carolina Parakeet","spConurcar","extinct"
"Olive-sided Flycatcher","spContocoo",
"Eastern Wood-Pewee","spContovir",
"Yellow-bellied Flycatcher","spEmpidfla",
"Acadian Flycatcher","spEmpidvir",
"Alder Flycatcher","spEmpidaln","rarity"
"Willow Flycatcher","spEmpidtra","rarity"
"Least Flycatcher","spEmpidmin",
"Hammond's Flycatcher","spEmpidham","rarity"
"Dusky Flycatcher","spEmpidobe","rarity"
"Western Flycatcher","spEmpiddif","rarity"
"Eastern Phoebe","spSayorpho",
"Say's Phoebe","spSayorsay","rarity"
"Vermilion Flycatcher","spPyrocrub","rarity"
"Ash-throated Flycatcher","spMyiarcin","rarity"
"Great Crested Flycatcher","spMyiarcri",
"Brown-crested Flycatcher","spMyiartyr","rarity"
"La Sagra's Flycatcher","spMyiarsag","rarity"
"Sulphur-bellied Flycatcher","spMyiodlut","rarity"
"Couch's Kingbird","spTyran4cou","rarity"
"Cassin's Kingbird","spTyran4voc","rarity"
"Western Kingbird","spTyran4ver",
"Eastern Kingbird","spTyran4tyr",
"Gray Kingbird","spTyran4dom",
"Scissor-tailed Flycatcher","spTyran4for",
"Fork-tailed Flycatcher","spTyran4sav","rarity"
"White-eyed Vireo","spVireo1gri",
"Bell's Vireo","spVireo1bel","rarity"
"Yellow-throated Vireo","spVireo1fla",
"Blue-headed Vireo","spVireo1sol",
"Plumbeous Vireo","spVireo1plu","rarity"
"Philadelphia Vireo","spVireo1phi",
"Warbling Vireo","spVireo1gil","rarity"
"Red-eyed Vireo","spVireo1oli",
"Yellow-green Vireo","spVireo1fla1","rarity"
"Black-whiskered Vireo","spVireo1alt",
"Loggerhead Shrike","spLaniulud",
"Blue Jay","spCyano8cri",
"Clark's Nutcracker","spNucifcol","rarity"
"American Crow","spCorvubra",
"Fish Crow","spCorvuoss",
"Common Raven","spCorvucor3","rarity"
"Carolina Chickadee","spPoeci2car",
"Tufted Titmouse","spBaeolbic",
"Horned Lark","spEremo1alp",
"Bank Swallow","spRiparrip",
"Tree Swallow","spTachy4bic",
"Purple Martin","spPrognsub",
"Northern Rough-winged Swallow","spStelgser",
"Barn Swallow","spHirun2rus",
"Cliff Swallow","spPetro2pyr",
"Cave Swallow","spPetro2ful",
"Ruby-crowned Kinglet","spCorthcal",
"Golden-crowned Kinglet","spRegulsat",
"White-breasted Nuthatch","spSitta1car",
"Brown-headed Nuthatch","spSitta1pus",
"Red-breasted Nuthatch","spSitta1can",
"Brown Creeper","spCerth4ame",
"Blue-gray Gnatcatcher","spPolio4cae",
"Rock Wren","spSalpiobs","rarity"
"Northern House Wren","spTroglaed",
"Winter Wren","spTroglhie",
"Sedge Wren","spCistoste",
"Marsh Wren","spCistopal",
"Carolina Wren","spThryo1lud",
"Bewick's Wren","spThryo2bew","rarity"
"European Starling","spSturnvul","introduced"
"Gray Catbird","spDumet1car",
"Brown Thrasher","spToxosruf",
"Sage Thrasher","spOreos1mon","rarity"
"Northern Mockingbird","spMimuspol",
"Eastern Bluebird","spSialisia",
"Varied Thrush","spIxorenae","rarity"
"Veery","spCatha1fus1",
"Gray-cheeked Thrush","spCatha1min",
"Swainson's Thrush","spCatha1ust",
"Hermit Thrush","spCatha1gut",
"Wood Thrush","spHyloc1mus",
"American Robin","spTurdumig",
"Northern Wheatear","spOenanoen","rarity"
"Cedar Waxwing","spBombyced",
"Scaly-breasted Munia","spLonchpun","escaped"
"House Sparrow","spPassedom","introduced"
"Eastern Yellow Wagtail","spMotactsc","rarity"
"American Pipit","spAnthurub",
"Sprague's Pipit","spAnthuspr","rarity"
"Evening Grosbeak","spCocco1ves","rarity"
"House Finch","spHaemomex","introduced"
"Purple Finch","spHaemopur",
"Redpoll","spAcant5fla","rarity"
"Red Crossbill","spLoxiacur",
"White-winged Crossbill","spLoxialeu","rarity"
"Pine Siskin","spSpinupin",
"American Goldfinch","spSpinutri",
"Lapland Longspur","spCalcalap",
"Chestnut-collared Longspur","spCalcaorn","rarity"
"Smith's Longspur","spCalcapic","rarity"
"Thick-billed Longspur","spRhync5mcc","rarity"
"Snow Bunting","spPlect2niv","rarity"
"Bachman's Sparrow","spPeucaaes",
"Grasshopper Sparrow","spAmmodsav",
"Chipping Sparrow","spSpizepas",
"Clay-colored Sparrow","spSpizepal",
"Field Sparrow","spSpizepus",
"Lark Sparrow","spChond1gra",
"Lark Bunting","spCalam3mel","rarity"
"American Tree Sparrow","spSpize1arb","rarity"
"Fox Sparrow","spPasse1ili",
"Dark-eyed Junco","spJuncohye",
"White-crowned Sparrow","spZonotleu",
"Harris's Sparrow","spZonotque","rarity"
"White-throated Sparrow","spZonotalb",
"Vesper Sparrow","spPooecgra",
"LeConte's Sparrow","spAmmoslec",
"Seaside Sparrow","spAmmosmar",
"Nelson's Sparrow","spAmmosnel",
"Savannah Sparrow","spPasse2san",
"Henslow's Sparrow","spCentr2hen",
"Song Sparrow","spMelosmel",
"Lincoln's Sparrow","spMeloslin",
"Swamp Sparrow","spMelosgeo",
"Green-tailed Towhee","spPipil1chl","rarity"
"Spotted Towhee","spPipil1mac","rarity"
"Eastern Towhee","spPipil1ery",
"Yellow-breasted Chat","spIctervir",
"Yellow-headed Blackbird","spXanth2xan","rarity"
"Bobolink","spDolicory",
"Western Meadowlark","spSturn3neg","rarity"
"Eastern Meadowlark","spSturn3mag",
"Orchard Oriole","spIcter1spu",
"Hooded Oriole","spIcter1cuc","rarity"
"Bullock's Oriole","spIcter1bul","rarity"
"Baltimore Oriole","spIcter1gal",
"Red-winged Blackbird","spAgela1pho",
"Shiny Cowbird","spMolotbon","rarity"
"Bronzed Cowbird","spMolotaen","rarity"
"Brown-headed Cowbird","spMolotate",
"Rusty Blackbird","spEuphacar",
"Brewer's Blackbird","spEuphacya",
"Common Grackle","spQuiscqui",
"Boat-tailed Grackle","spQuiscmaj",
"Great-tailed Grackle","spQuiscmex","rarity"
"Ovenbird","spSeiuraur",
"Worm-eating Warbler","spHelmiver",
"Louisiana Waterthrush","spParkemot",
"Northern Waterthrush","spParkenov",
"Bachman's Warbler","spVermibac","extinct"
"Golden-winged Warbler","spVermichr",
"Blue-winged Warbler","spVermicya",
"Black-and-white Warbler","spMniotvar",
"Prothonotary Warbler","spProtocit",
"Swainson's Warbler","spLimno3swa",
"Tennessee Warbler","spLeiot1per",
"Orange-crowned Warbler","spLeiot1cel",
"Nashville Warbler","spLeiot1ruf",
"Connecticut Warbler","spOporoagi","rarity"
"MacGillivray's Warbler","spGeothtol","rarity"
"Mourning Warbler","spGeothphi","rarity"
"Kentucky Warbler","spGeothfor",
"Common Yellowthroat","spGeothtri",
"Hooded Warbler","spSetop1cit",
"American Redstart","spSetop1rut",
"Kirtland's Warbler","spSetop1kir","rarity"
"Cape May Warbler","spSetop1tig",
"Cerulean Warbler","spSetop1cer",
"Northern Parula","spSetop1ame",
"Magnolia Warbler","spSetop1mag",
"Bay-breasted Warbler","spSetop1cas",
"Blackburnian Warbler","spSetop1fus",
"Yellow Warbler","spSetop1pet",
"Chestnut-sided Warbler","spSetop1pen",
"Blackpoll Warbler","spSetop1str",
"Black-throated Blue Warbler","spSetop1cae",
"Palm Warbler","spSetop1pal",
"Pine Warbler","spSetop1pin",
"Yellow-rumped Warbler","spSetop1cor",
"Yellow-throated Warbler","spSetop1dom",
"Prairie Warbler","spSetop1dis",
"Black-throated Gray Warbler","spSetop1nig","rarity"
"Townsend's Warbler","spSetop1tow","rarity"
"Black-throated Green Warbler","spSetop1vir",
"Canada Warbler","spCardecan",
"Wilson's Warbler","spCardepus",
"Painted Redstart","spMyiob1pic","rarity"
"Summer Tanager","spPiranrub",
"Scarlet Tanager","spPiranoli",
"Western Tanager","spPiranlud","rarity"
"Northern Cardinal","spCardicar",
"Rose-breasted Grosbeak","spPheuclud",
"Black-headed Grosbeak","spPheucmel","rarity"
"Blue Grosbeak","spPasse3cae",
"Lazuli Bunting","spPasse3amo","rarity"
"Indigo Bunting","spPasse3cya",
"Painted Bunting","spPasse3cir",
"Dickcissel","spSpiza1ame",
