"Name","ID","Status"
"Black-bellied Whistling-Duck","spDendraut",
"Fulvous Whistling-Duck","spDendrbic",
"Snow Goose","spAnser1cae",
"Ross's Goose","spAnser1ros",
"Graylag Goose","spAnser1ans","escaped"
"Swan Goose","spAnser1cyg","escaped"
"Greater White-fronted Goose","spAnser1alb",
"Brant","spBrantber",
"Barnacle Goose","spBrantleu","rarity"
"Cackling Goose","spBranthut",
"Canada Goose","spBrantcan",
"Mute Swan","spCygnuolo","introduced"
"Trumpeter Swan","spCygnubuc","rarity"
"Tundra Swan","spCygnucol",
"Egyptian Goose","spAlopoaeg","escaped"
"Muscovy Duck","spCairimos","escaped"
"Wood Duck","spAixspo",
"Garganey","spSpatuque","rarity"
"Blue-winged Teal","spSpatudis",
"Cinnamon Teal","spSpatucya",
"Northern Shoveler","spSpatucly",
"Gadwall","spMarecstr",
"Eurasian Wigeon","spMarecpen",
"American Wigeon","spMarecame",
"Mallard","spAnaspla",
"American Black Duck","spAnasrub",
"Mottled Duck","spAnasful",
"White-cheeked Pintail","spAnasbah","rarity"
"Northern Pintail","spAnasacu",
"Green-winged Teal","spAnascre",
"Canvasback","spAythyval",
"Redhead","spAythyame",
"Ring-necked Duck","spAythycol",
"Tufted Duck","spAythyful","rarity"
"Greater Scaup","spAythymar",
"Lesser Scaup","spAythyaff",
"King Eider","spSomatspe",
"Common Eider","spSomatmol",
"Harlequin Duck","spHistrhis",
"Surf Scoter","spMelanper",
"White-winged Scoter","spMelandeg",
"Black Scoter","spMelaname",
"Long-tailed Duck","spClanghye",
"Bufflehead","spBucepalb",
"Common Goldeneye","spBucepcla",
"Hooded Merganser","spLopho1cuc",
"Common Merganser","spMergumer",
"Red-breasted Merganser","spMerguser",
"Masked Duck","spNomondom","rarity"
"Ruddy Duck","spOxyurjam",
"Northern Bobwhite","spColinvir",
"Wild Turkey","spMeleagal",
"Ruffed Grouse","spBonasumb",
"Ring-necked Pheasant","spPhasicol","introduced"
"Rock Pigeon","spColumliv","introduced"
"White-crowned Pigeon","spPatagleu","rarity"
"Band-tailed Pigeon","spPatagfas","rarity"
"Passenger Pigeon","spEctopmig","extinct"
"Eurasian Collared-Dove","spStrepdec","introduced"
"Common Ground Dove","spColum1pas",
"White-winged Dove","spZenaiasi",
"Mourning Dove","spZenaimac",
"Smooth-billed Ani","spCrotoani","rarity"
"Groove-billed Ani","spCrotosul","rarity"
"Yellow-billed Cuckoo","spCoccy1ame",
"Black-billed Cuckoo","spCoccy1ery",
"Lesser Nighthawk","spChordacu","rarity"
"Common Nighthawk","spChordmin",
"Antillean Nighthawk","spChordgun","rarity"
"Chuck-will's-widow","spAntrocar",
"Eastern Whip-poor-will","spAntrovoc",
"Chimney Swift","spChaetpel",
"Common Swift","spApusapu","rarity"
"Mexican Violetear","spColibtha","rarity"
"Green-breasted Mango","spAnthrpre","rarity"
"Ruby-throated Hummingbird","spArchicol",
"Black-chinned Hummingbird","spArchiale",
"Anna's Hummingbird","spCalypann","rarity"
"Calliope Hummingbird","spSelascal",
"Rufous Hummingbird","spSelasruf",
"Allen's Hummingbird","spSelassas","rarity"
"Broad-tailed Hummingbird","spSelaspla","rarity"
"Broad-billed Hummingbird","spCynanlat","rarity"
"Buff-bellied Hummingbird","spAmaziyuc","rarity"
"King Rail","spRalluele",
"Clapper Rail","spRallucre",
"Virginia Rail","spRallulim",
"Sora","spPorzacar",
"Common Gallinule","spGalli3gal",
"American Coot","spFulicame",
"Purple Gallinule","spPorph1mar",
"Yellow Rail","spCotur1nov",
"Black Rail","spLaterjam",
"Limpkin","spAramugua","rarity"
"Sandhill Crane","spAntigcan",
"Black-necked Stilt","spHiman1mex",
"American Avocet","spRecurame",
"American Oystercatcher","spHaema1pal",
"Black-bellied Plover","spPluvi2squ",
"American Golden-Plover","spPluvi2dom",
"Pacific Golden-Plover","spPluvi2ful","rarity"
"Killdeer","spCharavoc",
"Common Ringed Plover","spCharahia","rarity"
"Semipalmated Plover","spCharasem",
"Piping Plover","spCharamel",
"Northern Lapwing","spVanelvan","rarity"
"Wilson's Plover","spAnarhwil",
"Mountain Plover","spAnarhmon1","rarity"
"Snowy Plover","spAnarhniv","rarity"
"Upland Sandpiper","spBartrlon",
"Whimbrel","spNumenpha",
"Long-billed Curlew","spNumename",
"Bar-tailed Godwit","spLimoslap","rarity"
"Black-tailed Godwit","spLimoslim","rarity"
"Hudsonian Godwit","spLimoshae",
"Marbled Godwit","spLimosfed",
"Short-billed Dowitcher","spLimnogri",
"Long-billed Dowitcher","spLimnosco",
"American Woodcock","spScolomin",
"Wilson's Snipe","spGalli5del",
"Wilson's Phalarope","spPhala1tri",
"Red Phalarope","spPhala1ful",
"Red-necked Phalarope","spPhala1lob",
"Spotted Sandpiper","spActitmac",
"Solitary Sandpiper","spTringsol",
"Lesser Yellowlegs","spTringfla",
"Willet","spTringsem",
"Spotted Redshank","spTringery","rarity"
"Greater Yellowlegs","spTringmel",
"Ruddy Turnstone","spArenaint",
"Red Knot","spCalidcan",
"Ruff","spCalidpug",
"Sharp-tailed Sandpiper","spCalidacu","rarity"
"Curlew Sandpiper","spCalidfer",
"Stilt Sandpiper","spCalidhim",
"Buff-breasted Sandpiper","spCalidsub1",
"Sanderling","spCalidalb",
"Dunlin","spCalidalp",
"Purple Sandpiper","spCalidmar",
"Baird's Sandpiper","spCalidbai",
"Little Stint","spCalidmin","rarity"
"White-rumped Sandpiper","spCalidfus",
"Least Sandpiper","spCalidmin1",
"Pectoral Sandpiper","spCalidmel",
"Western Sandpiper","spCalidmau",
"Semipalmated Sandpiper","spCalidpus",
"Long-tailed Jaeger","spSterclon",
"Parasitic Jaeger","spStercpar",
"Pomarine Jaeger","spStercpom",
"Great Skua","spStercsku",
"South Polar Skua","spStercmac",
"Atlantic Puffin","spFratearc",
"Long-billed Murrelet","spBrachper","rarity"
"Black Guillemot","spCepphgry","rarity"
"Razorbill","spAlcator",
"Dovekie","spAlleall",
"Thick-billed Murre","spUrialom",
"Common Murre","spUriaaal","rarity"
"Little Gull","spHydro3min",
"Black-legged Kittiwake","spRissatri",
"Sabine's Gull","spXemasab",
"Bonaparte's Gull","spChroiphi",
"Black-headed Gull","spChroirid",
"Laughing Gull","spLeuco3atr",
"Franklin's Gull","spLeuco3pip",
"Black-tailed Gull","spLaruscra","rarity"
"Heermann's Gull","spLarushee","rarity"
"Common Gull","spLaruscan","rarity"
"Short-billed Gull","spLarusbra","rarity"
"Ring-billed Gull","spLarusdel",
"American Herring Gull","spLarussmi",
"Great Black-backed Gull","spLarusmar",
"Glaucous Gull","spLarushyp",
"Lesser Black-backed Gull","spLarusfus",
"California Gull","spLaruscal",
"Slaty-backed Gull","spLarussch","rarity"
"Iceland Gull","spLarusgla1",
"Black Skimmer","spRynchnig",
"Brown Noddy","spAnoussto",
"Sooty Tern","spOnychfus",
"Bridled Tern","spOnychana",
"Least Tern","spStern1ant",
"Gull-billed Tern","spGelocnil",
"Caspian Tern","spHydro4cas",
"Black Tern","spChlidnig",
"White-winged Tern","spChlidleu","rarity"
"Forster's Tern","spStern2for",
"Arctic Tern","spStern2par",
"Common Tern","spStern2hir1",
"Roseate Tern","spStern2dou",
"Sandwich Tern","spThala1san",
"Elegant Tern","spThala1ele","rarity"
"Royal Tern","spThala1max",
"American Flamingo","spPhoenrub","rarity"
"Pied-billed Grebe","spPodilpod",
"Horned Grebe","spPodic1aur",
"Red-necked Grebe","spPodic1gri",
"Eared Grebe","spPodic1nig",
"Western Grebe","spAechmocc",
"Clark's Grebe","spAechmcla","rarity"
"White-tailed Tropicbird","spPhaet2lep",
"Red-billed Tropicbird","spPhaet2aet",
"Red-throated Loon","spGaviaste",
"Pacific Loon","spGaviapac",
"Common Loon","spGaviaimm",
"Atlantic Yellow-nosed Albatross","spThala2chl","rarity"
"Black-browed Albatross","spThala2mel","rarity"
"Wilson's Storm-Petrel","spOceanoce",
"White-faced Storm-Petrel","spPelagmar",
"Black-bellied Storm-Petrel","spFregetro","rarity"
"European Storm-Petrel","spHydro5pel",
"Leach's Storm-Petrel","spHydro5leu",
"Swinhoe's Storm-Petrel","spHydro5mon","rarity"
"Band-rumped Storm-Petrel","spHydro5cas",
"Northern Fulmar","spFulmagla",
"Trindade Petrel","spPtero3arm",
"Zino's Petrel","spPtero3mad","rarity"
"Fea's Petrel","spPtero3fea",
"Bermuda Petrel","spPtero3cah",
"Black-capped Petrel","spPtero3has",
"Bulwer's Petrel","spBulwebul","rarity"
"Tahiti Petrel","spPseudros","rarity"
"Cory's Shearwater","spCalonbor",
"Scopoli's Shearwater","spCalondio",
"Cape Verde Shearwater","spCalonedw","rarity"
"Great Shearwater","spArdengra",
"Wedge-tailed Shearwater","spArdenpac","rarity"
"Sooty Shearwater","spArdengri",
"Manx Shearwater","spPuffipuf",
"Sargasso Shearwater","spPuffilhe",
"Wood Stork","spMycteame",
"Magnificent Frigatebird","spFregamag",
"Northern Gannet","spMorusbas",
"Red-footed Booby","spSulasul","rarity"
"Brown Booby","spSulaleu",
"Masked Booby","spSuladac",
"Anhinga","spAnhinanh",
"Great Cormorant","spPhala2car",
"Double-crested Cormorant","spNanno1aur",
"Neotropic Cormorant","spNanno1bra","rarity"
"White Ibis","spEudocalb",
"Glossy Ibis","spPlegafal",
"White-faced Ibis","spPlegachi","rarity"
"Roseate Spoonbill","spPlataaja",
"American Bittern","spBotaulen",
"Least Bittern","spBotauexi",
"Yellow-crowned Night Heron","spNyctavio",
"Black-crowned Night Heron","spNycti6nyc",
"Little Blue Heron","spEgretcae",
"Tricolored Heron","spEgrettri",
"Reddish Egret","spEgretruf",
"Snowy Egret","spEgretthu",
"Little Egret","spEgretgar","rarity"
"Green Heron","spButorvir",
"Western Cattle-Egret","spArdeaibi",
"Great Egret","spArdeaalb",
"Great Blue Heron","spArdeaher",
"American White Pelican","spPelec1ery",
"Brown Pelican","spPelec1occ",
"Black Vulture","spCoragatr",
"Turkey Vulture","spCathaaur",
"Osprey","spPandihal",
"White-tailed Kite","spElanuleu","rarity"
"Swallow-tailed Kite","spElanofor",
"Golden Eagle","spAquilchr",
"Sharp-shinned Hawk","spAccipstr",
"Cooper's Hawk","spAsturcoo",
"American Goshawk","spAsturatr",
"Northern Harrier","spCircuhud",
"Bald Eagle","spHalia1leu",
"Mississippi Kite","spIctin1mis",
"Snail Kite","spRostr1soc","rarity"
"Broad-winged Hawk","spButeo1pla1",
"Red-shouldered Hawk","spButeo1lin",
"Swainson's Hawk","spButeo1swa",
"Red-tailed Hawk","spButeo1jam",
"Rough-legged Hawk","spButeo1lag",
"American Barn Owl","spTytofur",
"Eastern Screech-Owl","spMegasasi",
"Snowy Owl","spBubosca",
"Great Horned Owl","spBubovir",
"Burrowing Owl","spAthencun","rarity"
"Barred Owl","spStrixvar",
"Long-eared Owl","spAsiootu",
"Short-eared Owl","spAsiofla",
"Northern Saw-whet Owl","spAegolaca",
"Belted Kingfisher","spMegac1alc",
"Yellow-bellied Sapsucker","spSphyrvar",
"Red-headed Woodpecker","spMelan2ery",
"Red-bellied Woodpecker","spMelan2car",
"Downy Woodpecker","spDryobpub",
"Red-cockaded Woodpecker","spDryobbor",
"Hairy Woodpecker","spDryobvil",
"Ivory-billed Woodpecker","spCampepri","extinct"
"Pileated Woodpecker","spDryocpil",
"Northern Flicker","spColapaur1",
"Crested Caracara","spCaracpla","rarity"
"American Kestrel","spFalcospa",
"Merlin","spFalcocol",
"Gyrfalcon","spFalcorus","rarity"
"Peregrine Falcon","spFalcoper",
"Monk Parakeet","spMyiopmon","escaped"
"Carolina Parakeet","spConurcar","extinct"
"Olive-sided Flycatcher","spContocoo",
"Eastern Wood-Pewee","spContovir",
"Yellow-bellied Flycatcher","spEmpidfla",
"Acadian Flycatcher","spEmpidvir",
"Alder Flycatcher","spEmpidaln",
"Willow Flycatcher","spEmpidtra",
"Least Flycatcher","spEmpidmin",
"Hammond's Flycatcher","spEmpidham","rarity"
"Gray Flycatcher","spEmpidwri","rarity"
"Western Flycatcher","spEmpiddif","rarity"
"Eastern Phoebe","spSayorpho",
"Say's Phoebe","spSayorsay","rarity"
"Vermilion Flycatcher","spPyrocrub","rarity"
"Ash-throated Flycatcher","spMyiarcin",
"Great Crested Flycatcher","spMyiarcri",
"Tropical Kingbird","spTyran4mel","rarity"
"Cassin's Kingbird","spTyran4voc","rarity"
"Western Kingbird","spTyran4ver",
"Eastern Kingbird","spTyran4tyr",
"Gray Kingbird","spTyran4dom",
"Scissor-tailed Flycatcher","spTyran4for",
"Fork-tailed Flycatcher","spTyran4sav","rarity"
"White-eyed Vireo","spVireo1gri",
"Bell's Vireo","spVireo1bel","rarity"
"Yellow-throated Vireo","spVireo1fla",
"Blue-headed Vireo","spVireo1sol",
"Plumbeous Vireo","spVireo1plu","rarity"
"Philadelphia Vireo","spVireo1phi",
"Warbling Vireo","spVireo1gil",
"Red-eyed Vireo","spVireo1oli",
"Yellow-green Vireo","spVireo1fla1","rarity"
"Black-whiskered Vireo","spVireo1alt",
"Loggerhead Shrike","spLaniulud",
"Northern Shrike","spLaniubor","rarity"
"Blue Jay","spCyano8cri",
"American Crow","spCorvubra",
"Fish Crow","spCorvuoss",
"Common Raven","spCorvucor3",
"Carolina Chickadee","spPoeci2car",
"Black-capped Chickadee","spPoeci2atr",
"Tufted Titmouse","spBaeolbic",
"Horned Lark","spEremo1alp",
"Bank Swallow","spRiparrip",
"Tree Swallow","spTachy4bic",
"Purple Martin","spPrognsub",
"Northern Rough-winged Swallow","spStelgser",
"Barn Swallow","spHirun2rus",
"Cliff Swallow","spPetro2pyr",
"Cave Swallow","spPetro2ful",
"Ruby-crowned Kinglet","spCorthcal",
"Golden-crowned Kinglet","spRegulsat",
"White-breasted Nuthatch","spSitta1car",
"Brown-headed Nuthatch","spSitta1pus",
"Red-breasted Nuthatch","spSitta1can",
"Brown Creeper","spCerth4ame",
"Blue-gray Gnatcatcher","spPolio4cae",
"Northern House Wren","spTroglaed",
"Winter Wren","spTroglhie",
"Sedge Wren","spCistoste",
"Marsh Wren","spCistopal",
"Carolina Wren","spThryo1lud",
"Bewick's Wren","spThryo2bew","rarity"
"European Starling","spSturnvul","introduced"
"Gray Catbird","spDumet1car",
"Brown Thrasher","spToxosruf",
"Sage Thrasher","spOreos1mon","rarity"
"Northern Mockingbird","spMimuspol",
"Eastern Bluebird","spSialisia",
"Mountain Bluebird","spSialicur","rarity"
"Townsend's Solitaire","spMyadetow","rarity"
"Varied Thrush","spIxorenae","rarity"
"Veery","spCatha1fus1",
"Gray-cheeked Thrush","spCatha1min",
"Bicknell's Thrush","spCatha1bic","rarity"
"Swainson's Thrush","spCatha1ust",
"Hermit Thrush","spCatha1gut",
"Wood Thrush","spHyloc1mus",
"American Robin","spTurdumig",
"Northern Wheatear","spOenanoen","rarity"
"Cedar Waxwing","spBombyced",
"House Sparrow","spPassedom","introduced"
"White Wagtail","spMotacalb","rarity"
"American Pipit","spAnthurub",
"Sprague's Pipit","spAnthuspr","rarity"
"Brambling","spFringmon","rarity"
"Evening Grosbeak","spCocco1ves",
"Pine Grosbeak","spPinicenu","rarity"
"House Finch","spHaemomex","introduced"
"Purple Finch","spHaemopur",
"Redpoll","spAcant5fla",
"Red Crossbill","spLoxiacur",
"White-winged Crossbill","spLoxialeu",
"Pine Siskin","spSpinupin",
"Lesser Goldfinch","spSpinupsa","rarity"
"American Goldfinch","spSpinutri",
"Lapland Longspur","spCalcalap",
"Chestnut-collared Longspur","spCalcaorn","rarity"
"Smith's Longspur","spCalcapic","rarity"
"Thick-billed Longspur","spRhync5mcc","rarity"
"Snow Bunting","spPlect2niv",
"Cassin's Sparrow","spPeucacas","rarity"
"Bachman's Sparrow","spPeucaaes",
"Grasshopper Sparrow","spAmmodsav",
"Chipping Sparrow","spSpizepas",
"Clay-colored Sparrow","spSpizepal",
"Field Sparrow","spSpizepus",
"Lark Sparrow","spChond1gra",
"Lark Bunting","spCalam3mel","rarity"
"American Tree Sparrow","spSpize1arb",
"Fox Sparrow","spPasse1ili",
"Dark-eyed Junco","spJuncohye",
"White-crowned Sparrow","spZonotleu",
"Golden-crowned Sparrow","spZonotatr","rarity"
"Harris's Sparrow","spZonotque","rarity"
"White-throated Sparrow","spZonotalb",
"Vesper Sparrow","spPooecgra",
"LeConte's Sparrow","spAmmoslec",
"Seaside Sparrow","spAmmosmar",
"Nelson's Sparrow","spAmmosnel",
"Saltmarsh Sparrow","spAmmoscau",
"Savannah Sparrow","spPasse2san",
"Henslow's Sparrow","spCentr2hen",
"Song Sparrow","spMelosmel",
"Lincoln's Sparrow","spMeloslin",
"Swamp Sparrow","spMelosgeo",
"Green-tailed Towhee","spPipil1chl","rarity"
"Spotted Towhee","spPipil1mac","rarity"
"Eastern Towhee","spPipil1ery",
"Yellow-breasted Chat","spIctervir",
"Yellow-headed Blackbird","spXanth2xan",
"Bobolink","spDolicory",
"Western Meadowlark","spSturn3neg","rarity"
"Eastern Meadowlark","spSturn3mag",
"Orchard Oriole","spIcter1spu",
"Hooded Oriole","spIcter1cuc","rarity"
"Bullock's Oriole","spIcter1bul",
"Baltimore Oriole","spIcter1gal",
"Scott's Oriole","spIcter1par","rarity"
"Red-winged Blackbird","spAgela1pho",
"Shiny Cowbird","spMolotbon",
"Bronzed Cowbird","spMolotaen","rarity"
"Brown-headed Cowbird","spMolotate",
"Rusty Blackbird","spEuphacar",
"Brewer's Blackbird","spEuphacya",
"Common Grackle","spQuiscqui",
"Boat-tailed Grackle","spQuiscmaj",
"Ovenbird","spSeiuraur",
"Worm-eating Warbler","spHelmiver",
"Louisiana Waterthrush","spParkemot",
"Northern Waterthrush","spParkenov",
"Bachman's Warbler","spVermibac","extinct"
"Golden-winged Warbler","spVermichr",
"Blue-winged Warbler","spVermicya",
"Black-and-white Warbler","spMniotvar",
"Prothonotary Warbler","spProtocit",
"Swainson's Warbler","spLimno3swa",
"Tennessee Warbler","spLeiot1per",
"Orange-crowned Warbler","spLeiot1cel",
"Nashville Warbler","spLeiot1ruf",
"Connecticut Warbler","spOporoagi",
"MacGillivray's Warbler","spGeothtol","rarity"
"Mourning Warbler","spGeothphi",
"Kentucky Warbler","spGeothfor",
"Common Yellowthroat","spGeothtri",
"Hooded Warbler","spSetop1cit",
"American Redstart","spSetop1rut",
"Kirtland's Warbler","spSetop1kir","rarity"
"Cape May Warbler","spSetop1tig",
"Cerulean Warbler","spSetop1cer",
"Northern Parula","spSetop1ame",
"Magnolia Warbler","spSetop1mag",
"Bay-breasted Warbler","spSetop1cas",
"Blackburnian Warbler","spSetop1fus",
"Yellow Warbler","spSetop1pet",
"Chestnut-sided Warbler","spSetop1pen",
"Blackpoll Warbler","spSetop1str",
"Black-throated Blue Warbler","spSetop1cae",
"Palm Warbler","spSetop1pal",
"Pine Warbler","spSetop1pin",
"Yellow-rumped Warbler","spSetop1cor",
"Yellow-throated Warbler","spSetop1dom",
"Prairie Warbler","spSetop1dis",
"Black-throated Gray Warbler","spSetop1nig","rarity"
"Townsend's Warbler","spSetop1tow","rarity"
"Black-throated Green Warbler","spSetop1vir",
"Canada Warbler","spCardecan",
"Wilson's Warbler","spCardepus",
"Painted Redstart","spMyiob1pic","rarity"
"Summer Tanager","spPiranrub",
"Scarlet Tanager","spPiranoli",
"Western Tanager","spPiranlud",
"Northern Cardinal","spCardicar",
"Rose-breasted Grosbeak","spPheuclud",
"Black-headed Grosbeak","spPheucmel",
"Blue Grosbeak","spPasse3cae",
"Lazuli Bunting","spPasse3amo","rarity"
"Indigo Bunting","spPasse3cya",
"Painted Bunting","spPasse3cir",
"Dickcissel","spSpiza1ame",
