"Name","ID","Status"
"Black-bellied Whistling-Duck","spDendraut","rarity"
"Snow Goose","spAnser1cae",
"Ross's Goose","spAnser1ros",
"Greater White-fronted Goose","spAnser1alb",
"Tundra Bean-Goose","spAnser1ser","rarity"
"Pink-footed Goose","spAnser1bra","rarity"
"Brant","spBrantber",
"Barnacle Goose","spBrantleu","rarity"
"Cackling Goose","spBranthut",
"Canada Goose","spBrantcan",
"Mute Swan","spCygnuolo","introduced"
"Trumpeter Swan","spCygnubuc",
"Tundra Swan","spCygnucol",
"Common Shelduck","spTadortad1","rarity"
"Muscovy Duck","spCairimos","escaped"
"Wood Duck","spAixspo",
"Blue-winged Teal","spSpatudis",
"Cinnamon Teal","spSpatucya","rarity"
"Northern Shoveler","spSpatucly",
"Gadwall","spMarecstr",
"Eurasian Wigeon","spMarecpen",
"American Wigeon","spMarecame",
"Mallard","spAnaspla",
"American Black Duck","spAnasrub",
"Northern Pintail","spAnasacu",
"Green-winged Teal","spAnascre",
"Canvasback","spAythyval",
"Redhead","spAythyame",
"Ring-necked Duck","spAythycol",
"Tufted Duck","spAythyful","rarity"
"Greater Scaup","spAythymar",
"Lesser Scaup","spAythyaff",
"King Eider","spSomatspe","rarity"
"Common Eider","spSomatmol","rarity"
"Harlequin Duck","spHistrhis","rarity"
"Surf Scoter","spMelanper",
"White-winged Scoter","spMelandeg",
"Black Scoter","spMelaname",
"Long-tailed Duck","spClanghye",
"Bufflehead","spBucepalb",
"Common Goldeneye","spBucepcla",
"Barrow's Goldeneye","spBucepisl","rarity"
"Hooded Merganser","spLopho1cuc",
"Common Merganser","spMergumer",
"Red-breasted Merganser","spMerguser",
"Masked Duck","spNomondom","rarity"
"Ruddy Duck","spOxyurjam",
"Northern Bobwhite","spColinvir",
"Wild Turkey","spMeleagal",
"Ruffed Grouse","spBonasumb",
"Greater Prairie-Chicken","spTympacup","extinct"
"Ring-necked Pheasant","spPhasicol","introduced"
"Rock Pigeon","spColumliv","introduced"
"Band-tailed Pigeon","spPatagfas","rarity"
"Passenger Pigeon","spEctopmig","extinct"
"Eurasian Collared-Dove","spStrepdec","introduced"
"Common Ground Dove","spColum1pas","rarity"
"White-winged Dove","spZenaiasi","rarity"
"Mourning Dove","spZenaimac",
"Yellow-billed Cuckoo","spCoccy1ame",
"Black-billed Cuckoo","spCoccy1ery",
"Common Nighthawk","spChordmin",
"Chuck-will's-widow","spAntrocar","rarity"
"Eastern Whip-poor-will","spAntrovoc",
"Chimney Swift","spChaetpel",
"Ruby-throated Hummingbird","spArchicol",
"Black-chinned Hummingbird","spArchiale","rarity"
"Bahama Woodstar","spNesopeve","rarity"
"Anna's Hummingbird","spCalypann","rarity"
"Calliope Hummingbird","spSelascal","rarity"
"Rufous Hummingbird","spSelasruf",
"Allen's Hummingbird","spSelassas","rarity"
"Broad-billed Hummingbird","spCynanlat","rarity"
"King Rail","spRalluele","rarity"
"Clapper Rail","spRallucre",
"Virginia Rail","spRallulim",
"Spotted Rail","spPardimac","rarity"
"Sora","spPorzacar",
"Common Gallinule","spGalli3gal",
"American Coot","spFulicame",
"Purple Gallinule","spPorph1mar","rarity"
"Yellow Rail","spCotur1nov","rarity"
"Black Rail","spLaterjam","rarity"
"Limpkin","spAramugua","rarity"
"Sandhill Crane","spAntigcan",
"Black-necked Stilt","spHiman1mex","rarity"
"American Avocet","spRecurame",
"American Oystercatcher","spHaema1pal","rarity"
"Black-bellied Plover","spPluvi2squ",
"American Golden-Plover","spPluvi2dom",
"Pacific Golden-Plover","spPluvi2ful","rarity"
"Killdeer","spCharavoc",
"Semipalmated Plover","spCharasem",
"Piping Plover","spCharamel","rarity"
"Wilson's Plover","spAnarhwil","rarity"
"Snowy Plover","spAnarhniv","rarity"
"Upland Sandpiper","spBartrlon",
"Whimbrel","spNumenpha",
"Eskimo Curlew","spNumenbor","extinct"
"Long-billed Curlew","spNumename","rarity"
"Black-tailed Godwit","spLimoslim","rarity"
"Hudsonian Godwit","spLimoshae",
"Marbled Godwit","spLimosfed",
"Short-billed Dowitcher","spLimnogri",
"Long-billed Dowitcher","spLimnosco",
"American Woodcock","spScolomin",
"Wilson's Snipe","spGalli5del",
"Wilson's Phalarope","spPhala1tri",
"Red Phalarope","spPhala1ful","rarity"
"Red-necked Phalarope","spPhala1lob",
"Spotted Sandpiper","spActitmac",
"Solitary Sandpiper","spTringsol",
"Lesser Yellowlegs","spTringfla",
"Willet","spTringsem",
"Greater Yellowlegs","spTringmel",
"Ruddy Turnstone","spArenaint",
"Red Knot","spCalidcan",
"Surfbird","spCalidvir","rarity"
"Ruff","spCalidpug","rarity"
"Curlew Sandpiper","spCalidfer","rarity"
"Stilt Sandpiper","spCalidhim",
"Buff-breasted Sandpiper","spCalidsub1",
"Sanderling","spCalidalb",
"Dunlin","spCalidalp",
"Purple Sandpiper","spCalidmar",
"Baird's Sandpiper","spCalidbai",
"White-rumped Sandpiper","spCalidfus",
"Least Sandpiper","spCalidmin1",
"Pectoral Sandpiper","spCalidmel",
"Western Sandpiper","spCalidmau",
"Semipalmated Sandpiper","spCalidpus",
"Long-tailed Jaeger","spSterclon","rarity"
"Parasitic Jaeger","spStercpar","rarity"
"Pomarine Jaeger","spStercpom","rarity"
"Long-billed Murrelet","spBrachper","rarity"
"Black Guillemot","spCepphgry","rarity"
"Dovekie","spAlleall","rarity"
"Thick-billed Murre","spUrialom","rarity"
"Ancient Murrelet","spSynthant","rarity"
"Little Gull","spHydro3min",
"Ross's Gull","spRhodo2ros","rarity"
"Black-legged Kittiwake","spRissatri","rarity"
"Sabine's Gull","spXemasab","rarity"
"Bonaparte's Gull","spChroiphi",
"Black-headed Gull","spChroirid","rarity"
"Laughing Gull","spLeuco3atr",
"Franklin's Gull","spLeuco3pip",
"Common Gull","spLaruscan","rarity"
"Short-billed Gull","spLarusbra","rarity"
"Ring-billed Gull","spLarusdel",
"Kelp Gull","spLarusdom","rarity"
"American Herring Gull","spLarussmi",
"Great Black-backed Gull","spLarusmar",
"Glaucous Gull","spLarushyp",
"Lesser Black-backed Gull","spLarusfus",
"California Gull","spLaruscal","rarity"
"Slaty-backed Gull","spLarussch","rarity"
"Iceland Gull","spLarusgla1",
"Black Skimmer","spRynchnig","rarity"
"Sooty Tern","spOnychfus","rarity"
"Least Tern","spStern1ant",
"Gull-billed Tern","spGelocnil","rarity"
"Caspian Tern","spHydro4cas",
"Black Tern","spChlidnig",
"White-winged Tern","spChlidleu","rarity"
"Forster's Tern","spStern2for",
"Arctic Tern","spStern2par","rarity"
"Common Tern","spStern2hir1",
"Roseate Tern","spStern2dou","rarity"
"Sandwich Tern","spThala1san","rarity"
"Royal Tern","spThala1max","rarity"
"Pied-billed Grebe","spPodilpod",
"Horned Grebe","spPodic1aur",
"Red-necked Grebe","spPodic1gri",
"Eared Grebe","spPodic1nig","rarity"
"Western Grebe","spAechmocc","rarity"
"White-tailed Tropicbird","spPhaet2lep","rarity"
"Red-throated Loon","spGaviaste",
"Pacific Loon","spGaviapac","rarity"
"Common Loon","spGaviaimm",
"Yellow-billed Loon","spGaviaada","rarity"
"Leach's Storm-Petrel","spHydro5leu","rarity"
"Band-rumped Storm-Petrel","spHydro5cas","rarity"
"Northern Fulmar","spFulmagla","rarity"
"Trindade Petrel","spPtero3arm","rarity"
"Black-capped Petrel","spPtero3has","rarity"
"Cory's Shearwater","spCalonbor","rarity"
"Great Shearwater","spArdengra","rarity"
"Wood Stork","spMycteame","rarity"
"Magnificent Frigatebird","spFregamag","rarity"
"Northern Gannet","spMorusbas","rarity"
"Brown Booby","spSulaleu","rarity"
"Anhinga","spAnhinanh","rarity"
"Great Cormorant","spPhala2car",
"Double-crested Cormorant","spNanno1aur",
"Neotropic Cormorant","spNanno1bra","rarity"
"White Ibis","spEudocalb","rarity"
"Glossy Ibis","spPlegafal",
"White-faced Ibis","spPlegachi","rarity"
"Roseate Spoonbill","spPlataaja","rarity"
"American Bittern","spBotaulen",
"Least Bittern","spBotauexi",
"Yellow-crowned Night Heron","spNyctavio",
"Black-crowned Night Heron","spNycti6nyc",
"Little Blue Heron","spEgretcae",
"Tricolored Heron","spEgrettri","rarity"
"Snowy Egret","spEgretthu",
"Green Heron","spButorvir",
"Western Cattle-Egret","spArdeaibi","rarity"
"Great Egret","spArdeaalb",
"Great Blue Heron","spArdeaher",
"American White Pelican","spPelec1ery",
"Brown Pelican","spPelec1occ","rarity"
"Black Vulture","spCoragatr",
"Turkey Vulture","spCathaaur",
"Osprey","spPandihal",
"Swallow-tailed Kite","spElanofor","rarity"
"Golden Eagle","spAquilchr",
"Sharp-shinned Hawk","spAccipstr",
"Cooper's Hawk","spAsturcoo",
"American Goshawk","spAsturatr",
"Northern Harrier","spCircuhud",
"Bald Eagle","spHalia1leu",
"Mississippi Kite","spIctin1mis","rarity"
"Snail Kite","spRostr1soc","rarity"
"Broad-winged Hawk","spButeo1pla1",
"Red-shouldered Hawk","spButeo1lin",
"Swainson's Hawk","spButeo1swa","rarity"
"Red-tailed Hawk","spButeo1jam",
"Rough-legged Hawk","spButeo1lag",
"American Barn Owl","spTytofur",
"Eastern Screech-Owl","spMegasasi",
"Snowy Owl","spBubosca",
"Great Horned Owl","spBubovir",
"Northern Hawk Owl","spSurni1ulu","rarity"
"Barred Owl","spStrixvar",
"Great Gray Owl","spStrixneb","rarity"
"Long-eared Owl","spAsiootu",
"Short-eared Owl","spAsiofla",
"Boreal Owl","spAegolfun","rarity"
"Northern Saw-whet Owl","spAegolaca",
"Belted Kingfisher","spMegac1alc",
"Yellow-bellied Sapsucker","spSphyrvar",
"Lewis's Woodpecker","spMelan2lew","rarity"
"Red-headed Woodpecker","spMelan2ery",
"Red-bellied Woodpecker","spMelan2car",
"Black-backed Woodpecker","spPicoiarc","rarity"
"Downy Woodpecker","spDryobpub",
"Hairy Woodpecker","spDryobvil",
"Pileated Woodpecker","spDryocpil",
"Northern Flicker","spColapaur1",
"Crested Caracara","spCaracpla","rarity"
"American Kestrel","spFalcospa",
"Merlin","spFalcocol",
"Gyrfalcon","spFalcorus","rarity"
"Peregrine Falcon","spFalcoper",
"Prairie Falcon","spFalcomex","rarity"
"Carolina Parakeet","spConurcar","extinct"
"Olive-sided Flycatcher","spContocoo",
"Eastern Wood-Pewee","spContovir",
"Yellow-bellied Flycatcher","spEmpidfla",
"Acadian Flycatcher","spEmpidvir",
"Alder Flycatcher","spEmpidaln",
"Willow Flycatcher","spEmpidtra",
"Least Flycatcher","spEmpidmin",
"Hammond's Flycatcher","spEmpidham","rarity"
"Western Flycatcher","spEmpiddif","rarity"
"Eastern Phoebe","spSayorpho",
"Say's Phoebe","spSayorsay","rarity"
"Vermilion Flycatcher","spPyrocrub","rarity"
"Ash-throated Flycatcher","spMyiarcin","rarity"
"Great Crested Flycatcher","spMyiarcri",
"Tropical Kingbird","spTyran4mel","rarity"
"Western Kingbird","spTyran4ver","rarity"
"Eastern Kingbird","spTyran4tyr",
"Gray Kingbird","spTyran4dom","rarity"
"Scissor-tailed Flycatcher","spTyran4for","rarity"
"Fork-tailed Flycatcher","spTyran4sav","rarity"
"White-eyed Vireo","spVireo1gri",
"Yellow-throated Vireo","spVireo1fla",
"Blue-headed Vireo","spVireo1sol",
"Philadelphia Vireo","spVireo1phi",
"Warbling Vireo","spVireo1gil",
"Red-eyed Vireo","spVireo1oli",
"Loggerhead Shrike","spLaniulud","rarity"
"Northern Shrike","spLaniubor",
"Blue Jay","spCyano8cri",
"American Crow","spCorvubra",
"Fish Crow","spCorvuoss",
"Common Raven","spCorvucor3",
"Carolina Chickadee","spPoeci2car",
"Black-capped Chickadee","spPoeci2atr",
"Boreal Chickadee","spPoeci2hud","rarity"
"Tufted Titmouse","spBaeolbic",
"Horned Lark","spEremo1alp",
"Bank Swallow","spRiparrip",
"Tree Swallow","spTachy4bic",
"Violet-green Swallow","spTachy4tha","rarity"
"Purple Martin","spPrognsub",
"Northern Rough-winged Swallow","spStelgser",
"Barn Swallow","spHirun2rus",
"Cliff Swallow","spPetro2pyr",
"Cave Swallow","spPetro2ful","rarity"
"Ruby-crowned Kinglet","spCorthcal",
"Golden-crowned Kinglet","spRegulsat",
"White-breasted Nuthatch","spSitta1car",
"Brown-headed Nuthatch","spSitta1pus","extinct"
"Red-breasted Nuthatch","spSitta1can",
"Brown Creeper","spCerth4ame",
"Blue-gray Gnatcatcher","spPolio4cae",
"Rock Wren","spSalpiobs","rarity"
"Northern House Wren","spTroglaed",
"Winter Wren","spTroglhie",
"Sedge Wren","spCistoste",
"Marsh Wren","spCistopal",
"Carolina Wren","spThryo1lud",
"Bewick's Wren","spThryo2bew","extinct"
"European Starling","spSturnvul","introduced"
"Gray Catbird","spDumet1car",
"Brown Thrasher","spToxosruf",
"Northern Mockingbird","spMimuspol",
"Eastern Bluebird","spSialisia",
"Mountain Bluebird","spSialicur","rarity"
"Townsend's Solitaire","spMyadetow","rarity"
"Varied Thrush","spIxorenae","rarity"
"Veery","spCatha1fus1",
"Gray-cheeked Thrush","spCatha1min",
"Bicknell's Thrush","spCatha1bic","rarity"
"Swainson's Thrush","spCatha1ust",
"Hermit Thrush","spCatha1gut",
"Wood Thrush","spHyloc1mus",
"Redwing","spTurduili","rarity"
"American Robin","spTurdumig",
"European Robin","spErithrub","rarity"
"Northern Wheatear","spOenanoen","rarity"
"Bohemian Waxwing","spBombygar","rarity"
"Cedar Waxwing","spBombyced",
"House Sparrow","spPassedom","introduced"
"American Pipit","spAnthurub",
"Brambling","spFringmon","rarity"
"Evening Grosbeak","spCocco1ves",
"Pine Grosbeak","spPinicenu","rarity"
"Gray-crowned Rosy-Finch","spLeuco9tep","rarity"
"House Finch","spHaemomex","introduced"
"Purple Finch","spHaemopur",
"Redpoll","spAcant5fla",
"Red Crossbill","spLoxiacur",
"White-winged Crossbill","spLoxialeu",
"Pine Siskin","spSpinupin",
"Lesser Goldfinch","spSpinupsa","rarity"
"American Goldfinch","spSpinutri",
"Lapland Longspur","spCalcalap",
"Snow Bunting","spPlect2niv",
"Bachman's Sparrow","spPeucaaes","extinct"
"Grasshopper Sparrow","spAmmodsav",
"Chipping Sparrow","spSpizepas",
"Clay-colored Sparrow","spSpizepal",
"Field Sparrow","spSpizepus",
"Brewer's Sparrow","spSpizebre","rarity"
"Lark Sparrow","spChond1gra","rarity"
"Lark Bunting","spCalam3mel","rarity"
"American Tree Sparrow","spSpize1arb",
"Fox Sparrow","spPasse1ili",
"Dark-eyed Junco","spJuncohye",
"White-crowned Sparrow","spZonotleu",
"Golden-crowned Sparrow","spZonotatr","rarity"
"Harris's Sparrow","spZonotque","rarity"
"White-throated Sparrow","spZonotalb",
"Vesper Sparrow","spPooecgra",
"LeConte's Sparrow","spAmmoslec","rarity"
"Seaside Sparrow","spAmmosmar","rarity"
"Nelson's Sparrow","spAmmosnel",
"Saltmarsh Sparrow","spAmmoscau","rarity"
"Savannah Sparrow","spPasse2san",
"Henslow's Sparrow","spCentr2hen",
"Song Sparrow","spMelosmel",
"Lincoln's Sparrow","spMeloslin",
"Swamp Sparrow","spMelosgeo",
"Green-tailed Towhee","spPipil1chl","rarity"
"Spotted Towhee","spPipil1mac","rarity"
"Eastern Towhee","spPipil1ery",
"Yellow-breasted Chat","spIctervir",
"Yellow-headed Blackbird","spXanth2xan",
"Bobolink","spDolicory",
"Western Meadowlark","spSturn3neg","rarity"
"Eastern Meadowlark","spSturn3mag",
"Orchard Oriole","spIcter1spu",
"Bullock's Oriole","spIcter1bul","rarity"
"Baltimore Oriole","spIcter1gal",
"Black-backed Oriole","spIcter1abe","rarity"
"Scott's Oriole","spIcter1par","rarity"
"Red-winged Blackbird","spAgela1pho",
"Shiny Cowbird","spMolotbon","rarity"
"Brown-headed Cowbird","spMolotate",
"Rusty Blackbird","spEuphacar",
"Brewer's Blackbird","spEuphacya","rarity"
"Common Grackle","spQuiscqui",
"Ovenbird","spSeiuraur",
"Worm-eating Warbler","spHelmiver",
"Louisiana Waterthrush","spParkemot",
"Northern Waterthrush","spParkenov",
"Golden-winged Warbler","spVermichr",
"Blue-winged Warbler","spVermicya",
"Black-and-white Warbler","spMniotvar",
"Prothonotary Warbler","spProtocit",
"Swainson's Warbler","spLimno3swa","rarity"
"Tennessee Warbler","spLeiot1per",
"Orange-crowned Warbler","spLeiot1cel",
"Nashville Warbler","spLeiot1ruf",
"Connecticut Warbler","spOporoagi",
"MacGillivray's Warbler","spGeothtol","rarity"
"Mourning Warbler","spGeothphi",
"Kentucky Warbler","spGeothfor",
"Common Yellowthroat","spGeothtri",
"Hooded Warbler","spSetop1cit",
"American Redstart","spSetop1rut",
"Kirtland's Warbler","spSetop1kir","rarity"
"Cape May Warbler","spSetop1tig",
"Cerulean Warbler","spSetop1cer",
"Northern Parula","spSetop1ame",
"Magnolia Warbler","spSetop1mag",
"Bay-breasted Warbler","spSetop1cas",
"Blackburnian Warbler","spSetop1fus",
"Yellow Warbler","spSetop1pet",
"Chestnut-sided Warbler","spSetop1pen",
"Blackpoll Warbler","spSetop1str",
"Black-throated Blue Warbler","spSetop1cae",
"Palm Warbler","spSetop1pal",
"Pine Warbler","spSetop1pin",
"Yellow-rumped Warbler","spSetop1cor",
"Yellow-throated Warbler","spSetop1dom",
"Prairie Warbler","spSetop1dis",
"Black-throated Gray Warbler","spSetop1nig","rarity"
"Townsend's Warbler","spSetop1tow","rarity"
"Hermit Warbler","spSetop1occ","rarity"
"Black-throated Green Warbler","spSetop1vir",
"Canada Warbler","spCardecan",
"Wilson's Warbler","spCardepus",
"Summer Tanager","spPiranrub",
"Scarlet Tanager","spPiranoli",
"Western Tanager","spPiranlud","rarity"
"Northern Cardinal","spCardicar",
"Rose-breasted Grosbeak","spPheuclud",
"Black-headed Grosbeak","spPheucmel","rarity"
"Blue Grosbeak","spPasse3cae",
"Lazuli Bunting","spPasse3amo","rarity"
"Indigo Bunting","spPasse3cya",
"Varied Bunting","spPasse3ver","rarity"
"Painted Bunting","spPasse3cir","rarity"
"Dickcissel","spSpiza1ame",
