"Name","ID","Status"
"Fulvous Whistling-Duck","spDendrbic","rarity"
"Snow Goose","spAnser1cae",
"Ross's Goose","spAnser1ros",
"Graylag Goose","spAnser1ans","escaped"
"Swan Goose","spAnser1cyg","escaped"
"Greater White-fronted Goose","spAnser1alb","rarity"
"Brant","spBrantber","rarity"
"Cackling Goose","spBranthut","rarity"
"Canada Goose","spBrantcan",
"Mute Swan","spCygnuolo","escaped"
"Trumpeter Swan","spCygnubuc","rarity"
"Tundra Swan","spCygnucol",
"Muscovy Duck","spCairimos","escaped"
"Wood Duck","spAixspo",
"Mandarin Duck","spAixgal","escaped"
"Garganey","spSpatuque","rarity"
"Blue-winged Teal","spSpatudis",
"Cinnamon Teal","spSpatucya",
"Northern Shoveler","spSpatucly",
"Gadwall","spMarecstr",
"Eurasian Wigeon","spMarecpen","rarity"
"American Wigeon","spMarecame",
"Mallard","spAnaspla",
"Mexican Duck","spAnasdia","rarity"
"American Black Duck","spAnasrub","rarity"
"Northern Pintail","spAnasacu",
"Green-winged Teal","spAnascre",
"Canvasback","spAythyval",
"Redhead","spAythyame",
"Ring-necked Duck","spAythycol",
"Greater Scaup","spAythymar","rarity"
"Lesser Scaup","spAythyaff",
"Harlequin Duck","spHistrhis","rarity"
"Surf Scoter","spMelanper","rarity"
"White-winged Scoter","spMelandeg","rarity"
"Black Scoter","spMelaname","rarity"
"Long-tailed Duck","spClanghye","rarity"
"Bufflehead","spBucepalb",
"Common Goldeneye","spBucepcla",
"Barrow's Goldeneye","spBucepisl",
"Hooded Merganser","spLopho1cuc",
"Common Merganser","spMergumer",
"Red-breasted Merganser","spMerguser",
"Ruddy Duck","spOxyurjam",
"Scaled Quail","spCallisqu","rarity"
"California Quail","spCallical","introduced"
"Gambel's Quail","spCalligam",
"Wild Turkey","spMeleagal",
"Ruffed Grouse","spBonasumb",
"Greater Sage-Grouse","spCentruro",
"Gunnison Sage-Grouse","spCentrmin","rarity"
"Dusky Grouse","spDendr2obs",
"Sharp-tailed Grouse","spTympapha",
"White-tailed Ptarmigan","spLagopleu","rarity"
"Gray Partridge","spPerdiper","introduced"
"Ring-necked Pheasant","spPhasicol","introduced"
"Chukar","spAlect1chu","introduced"
"Rock Pigeon","spColumliv","introduced"
"Band-tailed Pigeon","spPatagfas",
"Eurasian Collared-Dove","spStrepdec","introduced"
"Inca Dove","spColum1inc","rarity"
"Common Ground Dove","spColum1pas","rarity"
"Ruddy Ground Dove","spColum1tal","rarity"
"White-winged Dove","spZenaiasi",
"Mourning Dove","spZenaimac",
"Greater Roadrunner","spGeococal",
"Yellow-billed Cuckoo","spCoccy1ame","rarity"
"Black-billed Cuckoo","spCoccy1ery","rarity"
"Lesser Nighthawk","spChordacu",
"Common Nighthawk","spChordmin",
"Common Poorwill","spPhalanut",
"Mexican Whip-poor-will","spAntroari","rarity"
"Black Swift","spCypsenig","rarity"
"Chimney Swift","spChaetpel","rarity"
"Vaux's Swift","spChaetvau","rarity"
"White-throated Swift","spAeronsax",
"Rivoli's Hummingbird","spEugenful","rarity"
"Ruby-throated Hummingbird","spArchicol","rarity"
"Black-chinned Hummingbird","spArchiale",
"Anna's Hummingbird","spCalypann","rarity"
"Costa's Hummingbird","spCalypcos",
"Calliope Hummingbird","spSelascal",
"Rufous Hummingbird","spSelasruf",
"Allen's Hummingbird","spSelassas","rarity"
"Broad-tailed Hummingbird","spSelaspla",
"Broad-billed Hummingbird","spCynanlat","rarity"
"Virginia Rail","spRallulim",
"Sora","spPorzacar",
"Common Gallinule","spGalli3gal","rarity"
"American Coot","spFulicame",
"Purple Gallinule","spPorph1mar","rarity"
"Sandhill Crane","spAntigcan",
"Common Crane","spGrusgru","rarity"
"Black-necked Stilt","spHiman1mex",
"American Avocet","spRecurame",
"Black-bellied Plover","spPluvi2squ",
"American Golden-Plover","spPluvi2dom","rarity"
"Pacific Golden-Plover","spPluvi2ful","rarity"
"Killdeer","spCharavoc",
"Semipalmated Plover","spCharasem",
"Mountain Plover","spAnarhmon1","rarity"
"Snowy Plover","spAnarhniv",
"Upland Sandpiper","spBartrlon","rarity"
"Whimbrel","spNumenpha","rarity"
"Long-billed Curlew","spNumename",
"Bar-tailed Godwit","spLimoslap","rarity"
"Hudsonian Godwit","spLimoshae","rarity"
"Marbled Godwit","spLimosfed",
"Short-billed Dowitcher","spLimnogri","rarity"
"Long-billed Dowitcher","spLimnosco",
"Wilson's Snipe","spGalli5del",
"Wilson's Phalarope","spPhala1tri",
"Red Phalarope","spPhala1ful","rarity"
"Red-necked Phalarope","spPhala1lob",
"Spotted Sandpiper","spActitmac",
"Solitary Sandpiper","spTringsol",
"Wandering Tattler","spTringinc","rarity"
"Lesser Yellowlegs","spTringfla",
"Willet","spTringsem",
"Greater Yellowlegs","spTringmel",
"Ruddy Turnstone","spArenaint","rarity"
"Red Knot","spCalidcan","rarity"
"Ruff","spCalidpug","rarity"
"Sharp-tailed Sandpiper","spCalidacu","rarity"
"Curlew Sandpiper","spCalidfer","rarity"
"Stilt Sandpiper","spCalidhim","rarity"
"Buff-breasted Sandpiper","spCalidsub1","rarity"
"Sanderling","spCalidalb",
"Dunlin","spCalidalp","rarity"
"Purple Sandpiper","spCalidmar","rarity"
"Baird's Sandpiper","spCalidbai",
"White-rumped Sandpiper","spCalidfus","rarity"
"Least Sandpiper","spCalidmin1",
"Pectoral Sandpiper","spCalidmel",
"Western Sandpiper","spCalidmau",
"Semipalmated Sandpiper","spCalidpus","rarity"
"Long-tailed Jaeger","spSterclon","rarity"
"Parasitic Jaeger","spStercpar","rarity"
"Pomarine Jaeger","spStercpom","rarity"
"Ancient Murrelet","spSynthant","rarity"
"Little Gull","spHydro3min","rarity"
"Black-legged Kittiwake","spRissatri","rarity"
"Sabine's Gull","spXemasab","rarity"
"Bonaparte's Gull","spChroiphi",
"Laughing Gull","spLeuco3atr","rarity"
"Franklin's Gull","spLeuco3pip",
"Heermann's Gull","spLarushee","rarity"
"Short-billed Gull","spLarusbra","rarity"
"Ring-billed Gull","spLarusdel",
"Yellow-footed Gull","spLarusliv","rarity"
"Western Gull","spLarusocc","rarity"
"American Herring Gull","spLarussmi",
"Vega Gull","spLarusveg","rarity"
"Great Black-backed Gull","spLarusmar","rarity"
"Glaucous Gull","spLarushyp","rarity"
"Lesser Black-backed Gull","spLarusfus","rarity"
"California Gull","spLaruscal",
"Glaucous-winged Gull","spLarusgla","rarity"
"Iceland Gull","spLarusgla1","rarity"
"Least Tern","spStern1ant","rarity"
"Caspian Tern","spHydro4cas",
"Black Tern","spChlidnig",
"Forster's Tern","spStern2for",
"Arctic Tern","spStern2par","rarity"
"Common Tern","spStern2hir1","rarity"
"Pied-billed Grebe","spPodilpod",
"Horned Grebe","spPodic1aur",
"Red-necked Grebe","spPodic1gri","rarity"
"Eared Grebe","spPodic1nig",
"Western Grebe","spAechmocc",
"Clark's Grebe","spAechmcla",
"Red-throated Loon","spGaviaste","rarity"
"Pacific Loon","spGaviapac","rarity"
"Common Loon","spGaviaimm",
"Yellow-billed Loon","spGaviaada","rarity"
"Wood Stork","spMycteame","rarity"
"Magnificent Frigatebird","spFregamag","rarity"
"Blue-footed Booby","spSulaneb","rarity"
"Double-crested Cormorant","spNanno1aur",
"Neotropic Cormorant","spNanno1bra","rarity"
"White Ibis","spEudocalb","rarity"
"Glossy Ibis","spPlegafal","rarity"
"White-faced Ibis","spPlegachi",
"Roseate Spoonbill","spPlataaja","rarity"
"American Bittern","spBotaulen",
"Least Bittern","spBotauexi","rarity"
"Yellow-crowned Night Heron","spNyctavio","rarity"
"Black-crowned Night Heron","spNycti6nyc",
"Little Blue Heron","spEgretcae","rarity"
"Tricolored Heron","spEgrettri","rarity"
"Reddish Egret","spEgretruf","rarity"
"Snowy Egret","spEgretthu",
"Green Heron","spButorvir","rarity"
"Western Cattle-Egret","spArdeaibi",
"Great Egret","spArdeaalb",
"Great Blue Heron","spArdeaher",
"American White Pelican","spPelec1ery",
"Brown Pelican","spPelec1occ","rarity"
"California Condor","spGymno2cal",
"Turkey Vulture","spCathaaur",
"Osprey","spPandihal",
"White-tailed Kite","spElanuleu","rarity"
"Golden Eagle","spAquilchr",
"Sharp-shinned Hawk","spAccipstr",
"Cooper's Hawk","spAsturcoo",
"American Goshawk","spAsturatr",
"Northern Harrier","spCircuhud",
"Bald Eagle","spHalia1leu",
"Mississippi Kite","spIctin1mis","rarity"
"Common Black Hawk","spButeoant","rarity"
"Gray Hawk","spButeo1pla","rarity"
"Broad-winged Hawk","spButeo1pla1","rarity"
"Red-shouldered Hawk","spButeo1lin","rarity"
"Zone-tailed Hawk","spButeo1alb","rarity"
"Swainson's Hawk","spButeo1swa",
"Red-tailed Hawk","spButeo1jam",
"Rough-legged Hawk","spButeo1lag",
"Ferruginous Hawk","spButeo1reg",
"American Barn Owl","spTytofur",
"Flammulated Owl","spPsilofla",
"Western Screech-Owl","spMegasken",
"Snowy Owl","spBubosca","rarity"
"Great Horned Owl","spBubovir",
"Northern Pygmy-Owl","spGlauc1gno",
"Elf Owl","spMicrawhi","rarity"
"Burrowing Owl","spAthencun",
"Spotted Owl","spStrixocc","rarity"
"Great Gray Owl","spStrixneb","rarity"
"Long-eared Owl","spAsiootu",
"Short-eared Owl","spAsiofla",
"Boreal Owl","spAegolfun","rarity"
"Northern Saw-whet Owl","spAegolaca","rarity"
"Belted Kingfisher","spMegac1alc",
"Williamson's Sapsucker","spSphyrthy",
"Yellow-bellied Sapsucker","spSphyrvar","rarity"
"Red-naped Sapsucker","spSphyrnuc",
"Red-breasted Sapsucker","spSphyrrub","rarity"
"Lewis's Woodpecker","spMelan2lew",
"Red-headed Woodpecker","spMelan2ery","rarity"
"Acorn Woodpecker","spMelan2for","rarity"
"American Three-toed Woodpecker","spPicoidor",
"Downy Woodpecker","spDryobpub",
"Ladder-backed Woodpecker","spDryobsca",
"Hairy Woodpecker","spDryobvil",
"Northern Flicker","spColapaur1",
"Gilded Flicker","spColapchr","rarity"
"American Kestrel","spFalcospa",
"Merlin","spFalcocol",
"Gyrfalcon","spFalcorus","rarity"
"Peregrine Falcon","spFalcoper",
"Prairie Falcon","spFalcomex",
"Olive-sided Flycatcher","spContocoo",
"Western Wood-Pewee","spContosor",
"Alder Flycatcher","spEmpidaln","rarity"
"Willow Flycatcher","spEmpidtra",
"Least Flycatcher","spEmpidmin","rarity"
"Hammond's Flycatcher","spEmpidham",
"Gray Flycatcher","spEmpidwri",
"Dusky Flycatcher","spEmpidobe",
"Western Flycatcher","spEmpiddif",
"Black Phoebe","spSayornig",
"Eastern Phoebe","spSayorpho","rarity"
"Say's Phoebe","spSayorsay",
"Vermilion Flycatcher","spPyrocrub","rarity"
"Dusky-capped Flycatcher","spMyiartub","rarity"
"Ash-throated Flycatcher","spMyiarcin",
"Great Crested Flycatcher","spMyiarcri","rarity"
"Brown-crested Flycatcher","spMyiartyr","rarity"
"Tropical Kingbird","spTyran4mel","rarity"
"Cassin's Kingbird","spTyran4voc",
"Thick-billed Kingbird","spTyran4cra","rarity"
"Western Kingbird","spTyran4ver",
"Eastern Kingbird","spTyran4tyr",
"Scissor-tailed Flycatcher","spTyran4for","rarity"
"White-eyed Vireo","spVireo1gri","rarity"
"Bell's Vireo","spVireo1bel",
"Gray Vireo","spVireo1vic",
"Yellow-throated Vireo","spVireo1fla","rarity"
"Cassin's Vireo","spVireo1cas",
"Blue-headed Vireo","spVireo1sol","rarity"
"Plumbeous Vireo","spVireo1plu",
"Philadelphia Vireo","spVireo1phi","rarity"
"Warbling Vireo","spVireo1gil",
"Red-eyed Vireo","spVireo1oli","rarity"
"Loggerhead Shrike","spLaniulud",
"Northern Shrike","spLaniubor","rarity"
"Canada Jay","spPeris1can",
"Pinyon Jay","spGymno9cya",
"Steller's Jay","spCyano8ste",
"Blue Jay","spCyano8cri","rarity"
"Woodhouse's Scrub-Jay","spAphel1woo",
"Black-billed Magpie","spPicahud",
"Clark's Nutcracker","spNucifcol",
"American Crow","spCorvubra",
"Common Raven","spCorvucor3",
"Black-capped Chickadee","spPoeci2atr",
"Mountain Chickadee","spPoeci2gam",
"Juniper Titmouse","spBaeolrid",
"Verdin","spAuripfla",
"Horned Lark","spEremo1alp",
"Bank Swallow","spRiparrip",
"Tree Swallow","spTachy4bic",
"Violet-green Swallow","spTachy4tha",
"Purple Martin","spPrognsub","rarity"
"Northern Rough-winged Swallow","spStelgser",
"Barn Swallow","spHirun2rus",
"Cliff Swallow","spPetro2pyr",
"Bushtit","spPsaltmin",
"Ruby-crowned Kinglet","spCorthcal",
"Golden-crowned Kinglet","spRegulsat",
"White-breasted Nuthatch","spSitta1car",
"Pygmy Nuthatch","spSitta1pyg",
"Red-breasted Nuthatch","spSitta1can",
"Brown Creeper","spCerth4ame",
"Blue-gray Gnatcatcher","spPolio4cae",
"Black-tailed Gnatcatcher","spPolio4mel",
"Rock Wren","spSalpiobs",
"Canyon Wren","spCathemex",
"Northern House Wren","spTroglaed",
"Pacific Wren","spTroglpac","rarity"
"Winter Wren","spTroglhie","rarity"
"Marsh Wren","spCistopal",
"Bewick's Wren","spThryo2bew",
"Cactus Wren","spCampy2bru",
"American Dipper","spCincl3mex",
"European Starling","spSturnvul","introduced"
"Gray Catbird","spDumet1car",
"Curve-billed Thrasher","spToxoscur","rarity"
"Brown Thrasher","spToxosruf","rarity"
"Bendire's Thrasher","spToxosben","rarity"
"LeConte's Thrasher","spToxoslec","rarity"
"Crissal Thrasher","spToxoscri",
"Sage Thrasher","spOreos1mon",
"Northern Mockingbird","spMimuspol",
"Eastern Bluebird","spSialisia","rarity"
"Western Bluebird","spSialimex",
"Mountain Bluebird","spSialicur",
"Townsend's Solitaire","spMyadetow",
"Varied Thrush","spIxorenae","rarity"
"Veery","spCatha1fus1","rarity"
"Swainson's Thrush","spCatha1ust",
"Hermit Thrush","spCatha1gut",
"Wood Thrush","spHyloc1mus","rarity"
"American Robin","spTurdumig",
"Rufous-backed Robin","spTurduruf1","rarity"
"Bohemian Waxwing","spBombygar","rarity"
"Cedar Waxwing","spBombyced",
"Phainopepla","spPhain1nit",
"House Sparrow","spPassedom","introduced"
"American Pipit","spAnthurub",
"Brambling","spFringmon","rarity"
"Evening Grosbeak","spCocco1ves","rarity"
"Pine Grosbeak","spPinicenu",
"Gray-crowned Rosy-Finch","spLeuco9tep","rarity"
"Black Rosy-Finch","spLeuco9atr",
"Brown-capped Rosy-Finch","spLeuco9aus","rarity"
"House Finch","spHaemomex",
"Purple Finch","spHaemopur","rarity"
"Cassin's Finch","spHaemocas",
"Redpoll","spAcant5fla","rarity"
"Red Crossbill","spLoxiacur",
"White-winged Crossbill","spLoxialeu","rarity"
"Pine Siskin","spSpinupin",
"Lesser Goldfinch","spSpinupsa",
"Lawrence's Goldfinch","spSpinulaw","rarity"
"American Goldfinch","spSpinutri",
"Lapland Longspur","spCalcalap","rarity"
"Chestnut-collared Longspur","spCalcaorn","rarity"
"Thick-billed Longspur","spRhync5mcc","rarity"
"Snow Bunting","spPlect2niv","rarity"
"Cassin's Sparrow","spPeucacas","rarity"
"Grasshopper Sparrow","spAmmodsav","rarity"
"Chipping Sparrow","spSpizepas",
"Clay-colored Sparrow","spSpizepal","rarity"
"Black-chinned Sparrow","spSpizeatr",
"Field Sparrow","spSpizepus","rarity"
"Brewer's Sparrow","spSpizebre",
"Black-throated Sparrow","spAmphi1bil",
"Lark Sparrow","spChond1gra",
"Lark Bunting","spCalam3mel","rarity"
"American Tree Sparrow","spSpize1arb",
"Fox Sparrow","spPasse1ili",
"Dark-eyed Junco","spJuncohye",
"White-crowned Sparrow","spZonotleu",
"Golden-crowned Sparrow","spZonotatr","rarity"
"Harris's Sparrow","spZonotque","rarity"
"White-throated Sparrow","spZonotalb","rarity"
"Sagebrush Sparrow","spArtemnev",
"Bell's Sparrow","spArtembel","rarity"
"Vesper Sparrow","spPooecgra",
"LeConte's Sparrow","spAmmoslec","rarity"
"Nelson's Sparrow","spAmmosnel","rarity"
"Savannah Sparrow","spPasse2san",
"Baird's Sparrow","spCentr2bai","rarity"
"Song Sparrow","spMelosmel",
"Lincoln's Sparrow","spMeloslin",
"Swamp Sparrow","spMelosgeo","rarity"
"Canyon Towhee","spMelozfus","rarity"
"Abert's Towhee","spMelozabe",
"Rufous-crowned Sparrow","spAimopruf1","rarity"
"Green-tailed Towhee","spPipil1chl",
"Spotted Towhee","spPipil1mac",
"Yellow-breasted Chat","spIctervir",
"Yellow-headed Blackbird","spXanth2xan",
"Bobolink","spDolicory","rarity"
"Western Meadowlark","spSturn3neg",
"Orchard Oriole","spIcter1spu","rarity"
"Hooded Oriole","spIcter1cuc",
"Streak-backed Oriole","spIcter1pus","rarity"
"Bullock's Oriole","spIcter1bul",
"Baltimore Oriole","spIcter1gal","rarity"
"Scott's Oriole","spIcter1par",
"Red-winged Blackbird","spAgela1pho",
"Bronzed Cowbird","spMolotaen","rarity"
"Brown-headed Cowbird","spMolotate",
"Rusty Blackbird","spEuphacar","rarity"
"Brewer's Blackbird","spEuphacya",
"Common Grackle","spQuiscqui","rarity"
"Great-tailed Grackle","spQuiscmex",
"Ovenbird","spSeiuraur","rarity"
"Worm-eating Warbler","spHelmiver","rarity"
"Louisiana Waterthrush","spParkemot","rarity"
"Northern Waterthrush","spParkenov","rarity"
"Golden-winged Warbler","spVermichr","rarity"
"Blue-winged Warbler","spVermicya","rarity"
"Black-and-white Warbler","spMniotvar","rarity"
"Prothonotary Warbler","spProtocit","rarity"
"Tennessee Warbler","spLeiot1per","rarity"
"Orange-crowned Warbler","spLeiot1cel",
"Lucy's Warbler","spLeiot1luc",
"Nashville Warbler","spLeiot1ruf",
"Virginia's Warbler","spLeiot1vir",
"Connecticut Warbler","spOporoagi","rarity"
"MacGillivray's Warbler","spGeothtol",
"Kentucky Warbler","spGeothfor","rarity"
"Common Yellowthroat","spGeothtri",
"Hooded Warbler","spSetop1cit","rarity"
"American Redstart","spSetop1rut","rarity"
"Cape May Warbler","spSetop1tig","rarity"
"Northern Parula","spSetop1ame","rarity"
"Magnolia Warbler","spSetop1mag","rarity"
"Bay-breasted Warbler","spSetop1cas","rarity"
"Blackburnian Warbler","spSetop1fus","rarity"
"Yellow Warbler","spSetop1pet",
"Chestnut-sided Warbler","spSetop1pen","rarity"
"Blackpoll Warbler","spSetop1str","rarity"
"Black-throated Blue Warbler","spSetop1cae","rarity"
"Palm Warbler","spSetop1pal","rarity"
"Pine Warbler","spSetop1pin","rarity"
"Yellow-rumped Warbler","spSetop1cor",
"Yellow-throated Warbler","spSetop1dom","rarity"
"Prairie Warbler","spSetop1dis","rarity"
"Grace's Warbler","spSetop1gra",
"Black-throated Gray Warbler","spSetop1nig",
"Townsend's Warbler","spSetop1tow",
"Hermit Warbler","spSetop1occ","rarity"
"Black-throated Green Warbler","spSetop1vir","rarity"
"Canada Warbler","spCardecan","rarity"
"Wilson's Warbler","spCardepus",
"Painted Redstart","spMyiob1pic","rarity"
"Hepatic Tanager","spPiranfla","rarity"
"Summer Tanager","spPiranrub",
"Scarlet Tanager","spPiranoli","rarity"
"Western Tanager","spPiranlud",
"Northern Cardinal","spCardicar","rarity"
"Pyrrhuloxia","spCardisin","rarity"
"Rose-breasted Grosbeak","spPheuclud","rarity"
"Black-headed Grosbeak","spPheucmel",
"Blue Grosbeak","spPasse3cae",
"Lazuli Bunting","spPasse3amo",
"Indigo Bunting","spPasse3cya","rarity"
"Painted Bunting","spPasse3cir","rarity"
"Dickcissel","spSpiza1ame","rarity"
