"Name","ID","Status"
"Black-bellied Whistling-Duck","spDendraut","rarity"
"Snow Goose","spAnser1cae",
"Ross's Goose","spAnser1ros",
"Graylag Goose","spAnser1ans","escaped"
"Greater White-fronted Goose","spAnser1alb",
"Brant","spBrantber",
"Cackling Goose","spBranthut",
"Canada Goose","spBrantcan",
"Mute Swan","spCygnuolo","introduced"
"Trumpeter Swan","spCygnubuc","rarity"
"Tundra Swan","spCygnucol",
"Muscovy Duck","spCairimos","escaped"
"Wood Duck","spAixspo",
"Blue-winged Teal","spSpatudis",
"Cinnamon Teal","spSpatucya","rarity"
"Northern Shoveler","spSpatucly",
"Gadwall","spMarecstr",
"Eurasian Wigeon","spMarecpen","rarity"
"American Wigeon","spMarecame",
"Mallard","spAnaspla",
"American Black Duck","spAnasrub",
"Northern Pintail","spAnasacu",
"Green-winged Teal","spAnascre",
"Canvasback","spAythyval",
"Redhead","spAythyame",
"Ring-necked Duck","spAythycol",
"Greater Scaup","spAythymar",
"Lesser Scaup","spAythyaff",
"King Eider","spSomatspe","rarity"
"Harlequin Duck","spHistrhis","rarity"
"Surf Scoter","spMelanper",
"White-winged Scoter","spMelandeg",
"Black Scoter","spMelaname",
"Long-tailed Duck","spClanghye",
"Bufflehead","spBucepalb",
"Common Goldeneye","spBucepcla",
"Hooded Merganser","spLopho1cuc",
"Common Merganser","spMergumer",
"Red-breasted Merganser","spMerguser",
"Ruddy Duck","spOxyurjam",
"Northern Bobwhite","spColinvir",
"Wild Turkey","spMeleagal",
"Ruffed Grouse","spBonasumb",
"Ring-necked Pheasant","spPhasicol","introduced"
"Rock Pigeon","spColumliv","introduced"
"Passenger Pigeon","spEctopmig","extinct"
"Eurasian Collared-Dove","spStrepdec","rarity-from-introduced"
"Inca Dove","spColum1inc","rarity"
"White-winged Dove","spZenaiasi","rarity"
"Mourning Dove","spZenaimac",
"Yellow-billed Cuckoo","spCoccy1ame",
"Black-billed Cuckoo","spCoccy1ery",
"Lesser Nighthawk","spChordacu","rarity"
"Common Nighthawk","spChordmin",
"Chuck-will's-widow","spAntrocar",
"Eastern Whip-poor-will","spAntrovoc",
"Chimney Swift","spChaetpel",
"Mexican Violetear","spColibtha","rarity"
"Ruby-throated Hummingbird","spArchicol",
"Black-chinned Hummingbird","spArchiale","rarity"
"Rufous Hummingbird","spSelasruf",
"King Rail","spRalluele","rarity"
"Virginia Rail","spRallulim",
"Sora","spPorzacar",
"Common Gallinule","spGalli3gal",
"American Coot","spFulicame",
"Purple Gallinule","spPorph1mar",
"Yellow Rail","spCotur1nov","rarity"
"Black Rail","spLaterjam","rarity"
"Limpkin","spAramugua","rarity"
"Sandhill Crane","spAntigcan",
"Black-necked Stilt","spHiman1mex","rarity"
"American Avocet","spRecurame",
"Black-bellied Plover","spPluvi2squ",
"American Golden-Plover","spPluvi2dom",
"Killdeer","spCharavoc",
"Semipalmated Plover","spCharasem",
"Piping Plover","spCharamel","rarity"
"Upland Sandpiper","spBartrlon",
"Whimbrel","spNumenpha",
"Hudsonian Godwit","spLimoshae","rarity"
"Marbled Godwit","spLimosfed","rarity"
"Short-billed Dowitcher","spLimnogri",
"Long-billed Dowitcher","spLimnosco",
"American Woodcock","spScolomin",
"Wilson's Snipe","spGalli5del",
"Wilson's Phalarope","spPhala1tri",
"Red Phalarope","spPhala1ful",
"Red-necked Phalarope","spPhala1lob",
"Spotted Sandpiper","spActitmac",
"Solitary Sandpiper","spTringsol",
"Lesser Yellowlegs","spTringfla",
"Willet","spTringsem",
"Greater Yellowlegs","spTringmel",
"Ruddy Turnstone","spArenaint",
"Great Knot","spCalidten","rarity"
"Red Knot","spCalidcan","rarity"
"Stilt Sandpiper","spCalidhim",
"Buff-breasted Sandpiper","spCalidsub1",
"Sanderling","spCalidalb",
"Dunlin","spCalidalp",
"Baird's Sandpiper","spCalidbai",
"White-rumped Sandpiper","spCalidfus",
"Least Sandpiper","spCalidmin1",
"Pectoral Sandpiper","spCalidmel",
"Western Sandpiper","spCalidmau",
"Semipalmated Sandpiper","spCalidpus",
"Long-tailed Jaeger","spSterclon","rarity"
"Parasitic Jaeger","spStercpar","rarity"
"Black-legged Kittiwake","spRissatri","rarity"
"Sabine's Gull","spXemasab","rarity"
"Bonaparte's Gull","spChroiphi",
"Laughing Gull","spLeuco3atr","rarity"
"Franklin's Gull","spLeuco3pip","rarity"
"Ring-billed Gull","spLarusdel",
"Kelp Gull","spLarusdom","rarity"
"American Herring Gull","spLarussmi",
"Great Black-backed Gull","spLarusmar",
"Glaucous Gull","spLarushyp","rarity"
"Lesser Black-backed Gull","spLarusfus","rarity"
"Iceland Gull","spLarusgla1","rarity"
"Sooty Tern","spOnychfus","rarity"
"Least Tern","spStern1ant","rarity"
"Caspian Tern","spHydro4cas",
"Black Tern","spChlidnig",
"Forster's Tern","spStern2for",
"Common Tern","spStern2hir1",
"Pied-billed Grebe","spPodilpod",
"Horned Grebe","spPodic1aur",
"Red-necked Grebe","spPodic1gri",
"Eared Grebe","spPodic1nig","rarity"
"Red-throated Loon","spGaviaste",
"Pacific Loon","spGaviapac","rarity"
"Common Loon","spGaviaimm",
"Wood Stork","spMycteame","rarity"
"Great Cormorant","spPhala2car","rarity"
"Double-crested Cormorant","spNanno1aur",
"White Ibis","spEudocalb",
"Glossy Ibis","spPlegafal","rarity"
"White-faced Ibis","spPlegachi","rarity"
"Roseate Spoonbill","spPlataaja","rarity"
"American Bittern","spBotaulen",
"Least Bittern","spBotauexi",
"Yellow-crowned Night Heron","spNyctavio",
"Black-crowned Night Heron","spNycti6nyc",
"Little Blue Heron","spEgretcae",
"Tricolored Heron","spEgrettri","rarity"
"Snowy Egret","spEgretthu",
"Green Heron","spButorvir",
"Western Cattle-Egret","spArdeaibi",
"Great Egret","spArdeaalb",
"Great Blue Heron","spArdeaher",
"American White Pelican","spPelec1ery",
"Brown Pelican","spPelec1occ","rarity"
"Black Vulture","spCoragatr",
"Turkey Vulture","spCathaaur",
"Osprey","spPandihal",
"Swallow-tailed Kite","spElanofor","rarity"
"Golden Eagle","spAquilchr",
"Sharp-shinned Hawk","spAccipstr",
"Cooper's Hawk","spAsturcoo",
"American Goshawk","spAsturatr",
"Northern Harrier","spCircuhud",
"Bald Eagle","spHalia1leu",
"Mississippi Kite","spIctin1mis","rarity"
"Broad-winged Hawk","spButeo1pla1",
"Red-shouldered Hawk","spButeo1lin",
"Swainson's Hawk","spButeo1swa","rarity"
"Red-tailed Hawk","spButeo1jam",
"Rough-legged Hawk","spButeo1lag",
"American Barn Owl","spTytofur",
"Eastern Screech-Owl","spMegasasi",
"Snowy Owl","spBubosca",
"Great Horned Owl","spBubovir",
"Barred Owl","spStrixvar",
"Long-eared Owl","spAsiootu",
"Short-eared Owl","spAsiofla",
"Northern Saw-whet Owl","spAegolaca",
"Belted Kingfisher","spMegac1alc",
"Yellow-bellied Sapsucker","spSphyrvar",
"Red-headed Woodpecker","spMelan2ery",
"Red-bellied Woodpecker","spMelan2car",
"Downy Woodpecker","spDryobpub",
"Hairy Woodpecker","spDryobvil",
"Pileated Woodpecker","spDryocpil",
"Northern Flicker","spColapaur1",
"Crested Caracara","spCaracpla","rarity"
"American Kestrel","spFalcospa",
"Merlin","spFalcocol",
"Peregrine Falcon","spFalcoper",
"Carolina Parakeet","spConurcar","extinct"
"Olive-sided Flycatcher","spContocoo",
"Eastern Wood-Pewee","spContovir",
"Yellow-bellied Flycatcher","spEmpidfla",
"Acadian Flycatcher","spEmpidvir",
"Alder Flycatcher","spEmpidaln",
"Willow Flycatcher","spEmpidtra",
"Least Flycatcher","spEmpidmin",
"Eastern Phoebe","spSayorpho",
"Say's Phoebe","spSayorsay","rarity"
"Ash-throated Flycatcher","spMyiarcin","rarity"
"Great Crested Flycatcher","spMyiarcri",
"Western Kingbird","spTyran4ver","rarity"
"Eastern Kingbird","spTyran4tyr",
"Scissor-tailed Flycatcher","spTyran4for","rarity"
"Fork-tailed Flycatcher","spTyran4sav","rarity"
"White-eyed Vireo","spVireo1gri",
"Bell's Vireo","spVireo1bel","rarity"
"Yellow-throated Vireo","spVireo1fla",
"Blue-headed Vireo","spVireo1sol",
"Philadelphia Vireo","spVireo1phi",
"Warbling Vireo","spVireo1gil",
"Red-eyed Vireo","spVireo1oli",
"Loggerhead Shrike","spLaniulud",
"Northern Shrike","spLaniubor",
"Blue Jay","spCyano8cri",
"Black-billed Magpie","spPicahud","rarity"
"American Crow","spCorvubra",
"Fish Crow","spCorvuoss",
"Common Raven","spCorvucor3",
"Carolina Chickadee","spPoeci2car",
"Black-capped Chickadee","spPoeci2atr",
"Boreal Chickadee","spPoeci2hud","rarity"
"Tufted Titmouse","spBaeolbic",
"Horned Lark","spEremo1alp",
"Bank Swallow","spRiparrip",
"Tree Swallow","spTachy4bic",
"Purple Martin","spPrognsub",
"Northern Rough-winged Swallow","spStelgser",
"Barn Swallow","spHirun2rus",
"Cliff Swallow","spPetro2pyr",
"Cave Swallow","spPetro2ful","rarity"
"Ruby-crowned Kinglet","spCorthcal",
"Golden-crowned Kinglet","spRegulsat",
"White-breasted Nuthatch","spSitta1car",
"Red-breasted Nuthatch","spSitta1can",
"Brown Creeper","spCerth4ame",
"Blue-gray Gnatcatcher","spPolio4cae",
"Northern House Wren","spTroglaed",
"Winter Wren","spTroglhie",
"Sedge Wren","spCistoste",
"Marsh Wren","spCistopal",
"Carolina Wren","spThryo1lud",
"Bewick's Wren","spThryo2bew","rarity"
"European Starling","spSturnvul","introduced"
"Gray Catbird","spDumet1car",
"Brown Thrasher","spToxosruf",
"Northern Mockingbird","spMimuspol",
"Eastern Bluebird","spSialisia",
"Townsend's Solitaire","spMyadetow","rarity"
"Varied Thrush","spIxorenae","rarity"
"Veery","spCatha1fus1",
"Gray-cheeked Thrush","spCatha1min",
"Bicknell's Thrush","spCatha1bic","rarity"
"Swainson's Thrush","spCatha1ust",
"Hermit Thrush","spCatha1gut",
"Wood Thrush","spHyloc1mus",
"American Robin","spTurdumig",
"Bohemian Waxwing","spBombygar","rarity"
"Cedar Waxwing","spBombyced",
"House Sparrow","spPassedom","introduced"
"American Pipit","spAnthurub",
"Evening Grosbeak","spCocco1ves",
"Pine Grosbeak","spPinicenu","rarity"
"House Finch","spHaemomex","introduced"
"Purple Finch","spHaemopur",
"Redpoll","spAcant5fla",
"Red Crossbill","spLoxiacur",
"White-winged Crossbill","spLoxialeu",
"Pine Siskin","spSpinupin",
"American Goldfinch","spSpinutri",
"Lapland Longspur","spCalcalap",
"Smith's Longspur","spCalcapic","rarity"
"Snow Bunting","spPlect2niv",
"Bachman's Sparrow","spPeucaaes","rarity"
"Grasshopper Sparrow","spAmmodsav",
"Chipping Sparrow","spSpizepas",
"Clay-colored Sparrow","spSpizepal",
"Field Sparrow","spSpizepus",
"Lark Sparrow","spChond1gra",
"Lark Bunting","spCalam3mel","rarity"
"American Tree Sparrow","spSpize1arb",
"Fox Sparrow","spPasse1ili",
"Dark-eyed Junco","spJuncohye",
"White-crowned Sparrow","spZonotleu",
"Harris's Sparrow","spZonotque","rarity"
"White-throated Sparrow","spZonotalb",
"Vesper Sparrow","spPooecgra",
"LeConte's Sparrow","spAmmoslec","rarity"
"Nelson's Sparrow","spAmmosnel",
"Savannah Sparrow","spPasse2san",
"Henslow's Sparrow","spCentr2hen",
"Song Sparrow","spMelosmel",
"Lincoln's Sparrow","spMeloslin",
"Swamp Sparrow","spMelosgeo",
"Green-tailed Towhee","spPipil1chl","rarity"
"Spotted Towhee","spPipil1mac","rarity"
"Eastern Towhee","spPipil1ery",
"Yellow-breasted Chat","spIctervir",
"Yellow-headed Blackbird","spXanth2xan",
"Bobolink","spDolicory",
"Western Meadowlark","spSturn3neg","rarity"
"Eastern Meadowlark","spSturn3mag",
"Orchard Oriole","spIcter1spu",
"Baltimore Oriole","spIcter1gal",
"Red-winged Blackbird","spAgela1pho",
"Brown-headed Cowbird","spMolotate",
"Rusty Blackbird","spEuphacar",
"Brewer's Blackbird","spEuphacya","rarity"
"Common Grackle","spQuiscqui",
"Ovenbird","spSeiuraur",
"Worm-eating Warbler","spHelmiver",
"Louisiana Waterthrush","spParkemot",
"Northern Waterthrush","spParkenov",
"Golden-winged Warbler","spVermichr",
"Blue-winged Warbler","spVermicya",
"Black-and-white Warbler","spMniotvar",
"Prothonotary Warbler","spProtocit",
"Swainson's Warbler","spLimno3swa",
"Tennessee Warbler","spLeiot1per",
"Orange-crowned Warbler","spLeiot1cel",
"Nashville Warbler","spLeiot1ruf",
"Virginia's Warbler","spLeiot1vir","rarity"
"Connecticut Warbler","spOporoagi",
"Mourning Warbler","spGeothphi",
"Kentucky Warbler","spGeothfor",
"Common Yellowthroat","spGeothtri",
"Hooded Warbler","spSetop1cit",
"American Redstart","spSetop1rut",
"Kirtland's Warbler","spSetop1kir","rarity"
"Cape May Warbler","spSetop1tig",
"Cerulean Warbler","spSetop1cer",
"Northern Parula","spSetop1ame",
"Magnolia Warbler","spSetop1mag",
"Bay-breasted Warbler","spSetop1cas",
"Blackburnian Warbler","spSetop1fus",
"Yellow Warbler","spSetop1pet",
"Chestnut-sided Warbler","spSetop1pen",
"Blackpoll Warbler","spSetop1str",
"Black-throated Blue Warbler","spSetop1cae",
"Palm Warbler","spSetop1pal",
"Pine Warbler","spSetop1pin",
"Yellow-rumped Warbler","spSetop1cor",
"Yellow-throated Warbler","spSetop1dom",
"Prairie Warbler","spSetop1dis",
"Black-throated Gray Warbler","spSetop1nig","rarity"
"Black-throated Green Warbler","spSetop1vir",
"Canada Warbler","spCardecan",
"Wilson's Warbler","spCardepus",
"Summer Tanager","spPiranrub",
"Scarlet Tanager","spPiranoli",
"Western Tanager","spPiranlud","rarity"
"Northern Cardinal","spCardicar",
"Rose-breasted Grosbeak","spPheuclud",
"Black-headed Grosbeak","spPheucmel","rarity"
"Blue Grosbeak","spPasse3cae",
"Indigo Bunting","spPasse3cya",
"Painted Bunting","spPasse3cir","rarity"
"Dickcissel","spSpiza1ame",
