"Name","ID","Status"
"Cackling Goose","spBranthut","rarity"
"Northern Shoveler","spSpatucly","rarity"
"Pacific Black Duck","spAnassup","rarity"
"Northern Pintail","spAnasacu","rarity"
"Green-winged Teal","spAnascre","rarity"
"Greater Scaup","spAythymar","rarity"
"Black-bellied Plover","spPluvi2squ","rarity"
"Pacific Golden-Plover","spPluvi2ful","rarity"
"Bristle-thighed Curlew","spNumentah","rarity"
"Wandering Tattler","spTringinc","rarity"
"Ruddy Turnstone","spArenaint","rarity"
"Sanderling","spCalidalb","rarity"
"Long-tailed Jaeger","spSterclon",
"Parasitic Jaeger","spStercpar",
"Pomarine Jaeger","spStercpom",
"Chilean Skua","spStercchi",
"Brown Skua","spStercant",
"South Polar Skua","spStercmac",
"Rhinoceros Auklet","spCerormon",
"Tufted Puffin","spFratecir",
"Horned Puffin","spFratecor",
"Cassin's Auklet","spPtychale",
"Least Auklet","spAethipus",
"Crested Auklet","spAethicri",
"Parakeet Auklet","spAethipsi",
"Thick-billed Murre","spUrialom",
"Common Murre","spUriaaal",
"Ancient Murrelet","spSynthant",
"Swallow-tailed Gull","spCreagfur",
"Black-legged Kittiwake","spRissatri",
"Red-legged Kittiwake","spRissabre",
"Sabine's Gull","spXemasab",
"Franklin's Gull","spLeuco3pip","rarity"
"Western Gull","spLarusocc","rarity"
"Kelp Gull","spLarusdom","rarity"
"Vega Gull","spLarusveg",
"Glaucous Gull","spLarushyp","rarity"
"California Gull","spLaruscal","rarity"
"Glaucous-winged Gull","spLarusgla","rarity"
"Slaty-backed Gull","spLarussch",
"White Tern","spGygisalb",
"Brown Noddy","spAnoussto",
"Black Noddy","spAnousmin",
"Gray Noddy","spAnousalb",
"Blue-gray Noddy","spAnouscer",
"Sooty Tern","spOnychfus",
"Bridled Tern","spOnychana",
"Gray-backed Tern","spOnychlun",
"Arctic Tern","spStern2par",
"Black-naped Tern","spStern2sum",
"White-fronted Tern","spStern2str",
"Great Crested Tern","spThala1ber",
"Red-necked Grebe","spPodic1gri","rarity"
"White-tailed Tropicbird","spPhaet2lep",
"Red-billed Tropicbird","spPhaet2aet",
"Red-tailed Tropicbird","spPhaet2rub",
"King Penguin","spAptenpat",
"Emperor Penguin","spAptenfor","rarity"
"Adelie Penguin","spPygosade","rarity"
"Gentoo Penguin","spPygospap",
"Chinstrap Penguin","spPygosant","rarity"
"Humboldt Penguin","spSphenhum","rarity"
"Galapagos Penguin","spSphenmen",
"Magellanic Penguin","spSphenmag","rarity"
"Fiordland Penguin","spEudyp1pac",
"Erect-crested Penguin","spEudyp1scl",
"Macaroni Penguin","spEudyp1chr",
"Royal Penguin","spEudyp1sch",
"Southern Rockhopper Penguin","spEudyp1chr1",
"Snares Penguin","spEudyp1rob",
"Northern Royal Albatross","spDiomesan",
"Southern Royal Albatross","spDiomeepo",
"Snowy Albatross","spDiomeexu",
"Tristan Albatross","spDiomedab",
"Antipodean Albatross","spDiomeant",
"Waved Albatross","spPhoebirr",
"Laysan Albatross","spPhoebimm",
"Black-footed Albatross","spPhoebnig",
"Short-tailed Albatross","spPhoebalb",
"Sooty Albatross","spPhoeb1fus",
"Light-mantled Albatross","spPhoeb1pal",
"Atlantic Yellow-nosed Albatross","spThala2chl","rarity"
"Indian Yellow-nosed Albatross","spThala2car","rarity"
"Gray-headed Albatross","spThala2chr",
"Buller's Albatross","spThala2bul",
"White-capped Albatross","spThala2cau",
"Salvin's Albatross","spThala2sal",
"Chatham Albatross","spThala2ere",
"Black-browed Albatross","spThala2mel",
"Wilson's Storm-Petrel","spOceanoce",
"Elliot's Storm-Petrel","spOceangra",
"Gray-backed Storm-Petrel","spGarroner",
"White-faced Storm-Petrel","spPelagmar",
"White-bellied Storm-Petrel","spFregegra",
"New Zealand Storm-Petrel","spFregemao","rarity"
"Black-bellied Storm-Petrel","spFregetro",
"Polynesian Storm-Petrel","spNesofful",
"Fork-tailed Storm-Petrel","spHydro5fur",
"Leach's Storm-Petrel","spHydro5leu",
"Townsend's Storm-Petrel","spHydro5soc",
"Swinhoe's Storm-Petrel","spHydro5mon",
"Band-rumped Storm-Petrel","spHydro5cas",
"Wedge-rumped Storm-Petrel","spHydro5tet",
"Black Storm-Petrel","spHydro5mel",
"Markham's Storm-Petrel","spHydro5mar",
"Matsudaira's Storm-Petrel","spHydro5mat",
"Tristram's Storm-Petrel","spHydro5tri",
"Southern Giant-Petrel","spMacro3gig",
"Northern Giant-Petrel","spMacro3hal",
"Northern Fulmar","spFulmagla",
"Southern Fulmar","spFulmagla1",
"Antarctic Petrel","spThala3ant","rarity"
"Pintado Petrel","spDapticap",
"Snow Petrel","spPagodniv","rarity"
"Kerguelen Petrel","spAphrobre",
"Great-winged Petrel","spPtero3mac",
"Gray-faced Petrel","spPtero3gou",
"Kermadec Petrel","spPtero3neg",
"Magenta Petrel","spPtero3mag",
"Herald Petrel","spPtero3her",
"Murphy's Petrel","spPtero3ult",
"Providence Petrel","spPtero3sol",
"Soft-plumaged Petrel","spPtero3mol",
"Barau's Petrel","spPtero3bar","rarity"
"White-headed Petrel","spPtero3les",
"Mottled Petrel","spPtero3ine",
"Juan Fernandez Petrel","spPtero3ext",
"Atlantic Petrel","spPtero3inc","rarity"
"Galapagos Petrel","spPtero3pha",
"Hawaiian Petrel","spPtero3san",
"White-necked Petrel","spPtero3cer",
"Bonin Petrel","spPtero3hyp",
"Black-winged Petrel","spPtero3nig",
"Chatham Islands Petrel","spPtero3axi",
"Cook's Petrel","spPtero3coo",
"Masatierra Petrel","spPtero3def",
"Gould's Petrel","spPtero3leu",
"Collared Petrel","spPtero3bre",
"Stejneger's Petrel","spPtero3lon",
"Pycroft's Petrel","spPtero3pyc",
"Phoenix Petrel","spPtero3alb",
"Vanuatu Petrel","spPtero3occ",
"Blue Petrel","spHalobcae",
"Fairy Prion","spPachy1tur",
"Broad-billed Prion","spPachy1vit",
"Salvin's Prion","spPachy1sal",
"Antarctic Prion","spPachy1des",
"Slender-billed Prion","spPachy1bel",
"Bulwer's Petrel","spBulwebul",
"Tahiti Petrel","spPseudros",
"Beck's Petrel","spPseudbec",
"Gray Petrel","spProcecin",
"White-chinned Petrel","spProceaeq",
"Parkinson's Petrel","spProcepar",
"Westland Petrel","spProcewes",
"Streaked Shearwater","spCalonleu",
"Cory's Shearwater","spCalonbor","rarity"
"Pink-footed Shearwater","spArdencre",
"Flesh-footed Shearwater","spArdencar",
"Great Shearwater","spArdengra","rarity"
"Wedge-tailed Shearwater","spArdenpac",
"Buller's Shearwater","spArdenbul",
"Sooty Shearwater","spArdengri",
"Short-tailed Shearwater","spArdenten",
"Christmas Shearwater","spPuffinat",
"Galapagos Shearwater","spPuffisub",
"Manx Shearwater","spPuffipuf","rarity"
"Hutton's Shearwater","spPuffihut",
"Bannerman's Shearwater","spPuffiban",
"Newell's Shearwater","spPuffinew",
"Rapa Shearwater","spPuffimyr",
"Bryan's Shearwater","spPuffibry",
"Fluttering Shearwater","spPuffigav",
"Little Shearwater","spPuffiass",
"Subantarctic Shearwater","spPuffiele",
"Tropical Shearwater","spPuffibai",
"Heinroth's Shearwater","spPuffihei",
"Common Diving-Petrel","spPelecuri",
"South Georgia Diving-Petrel","spPelecgeo",
"Magnificent Frigatebird","spFregamag",
"Lesser Frigatebird","spFregaari",
"Great Frigatebird","spFregamin",
"Australasian Gannet","spMorusser",
"Red-footed Booby","spSulasul",
"Brown Booby","spSulaleu",
"Masked Booby","spSuladac",
"Nazca Booby","spSulagra",
"Peruvian Booby","spSulavar","rarity"
"Macquarie Shag","spLeuco4pur",
"Medium Egret","spArdeaint","rarity"
"Short-eared Owl","spAsiofla","rarity"
"Peregrine Falcon","spFalcoper","rarity"
"Eurasian Skylark","spAlaudarv","rarity"
"Middendorff's Grasshopper Warbler","spHelopoch","rarity"
"Northern Mockingbird","spMimuspol","rarity"
"Siberian Pipit","spAnthujap","rarity"
"Brambling","spFringmon","rarity"
"Hawfinch","spCocco1coc","rarity"
"Rustic Bunting","spEmberrus","rarity"
"White-crowned Sparrow","spZonotleu","rarity"
