"Name","ID","Status"
"Fulvous Whistling-Duck","spDendrbic","rarity"
"Greater White-fronted Goose","spAnser1alb","rarity"
"Egyptian Goose","spAlopoaeg",
"Ruddy Shelduck","spTadorfer",
"Common Shelduck","spTadortad1",
"Garganey","spSpatuque",
"Northern Shoveler","spSpatucly",
"Gadwall","spMarecstr",
"Eurasian Wigeon","spMarecpen",
"Mallard","spAnaspla",
"Northern Pintail","spAnasacu",
"Green-winged Teal","spAnascre",
"Common Pochard","spAythyfer",
"Ferruginous Duck","spAythynyr",
"Tufted Duck","spAythyful",
"Helmeted Guineafowl","spNumidmel","introduced"
"Sand Partridge","spAmmophey",
"Common Quail","spCoturcot",
"Harlequin Quail","spCoturdel",
"Arabian Partridge","spAlect1mel",
"Philby's Partridge","spAlect1phi",
"Rock Pigeon","spColumliv",
"Speckled Pigeon","spColumgui","rarity"
"Rameron Pigeon","spColumarq",
"European Turtle-Dove","spStreptur",
"Dusky Turtle-Dove","spStreplug",
"Eurasian Collared-Dove","spStrepdec",
"African Collared-Dove","spStrepros",
"Red-eyed Dove","spStrepsem",
"Laughing Dove","spSpilosen",
"Black-billed Wood-Dove","spTurtuaby","rarity"
"Namaqua Dove","spOenacap",
"Bruce's Green-Pigeon","spTrerowaa",
"Chestnut-bellied Sandgrouse","spPtero1exu",
"Spotted Sandgrouse","spPtero1sen",
"Crowned Sandgrouse","spPtero1cor",
"Lichtenstein's Sandgrouse","spPtero1lic",
"Arabian Bustard","spArdeoara",
"Asian Houbara","spChlammac",
"White-browed Coucal","spCentr1sup",
"Great Spotted Cuckoo","spClamagla","rarity"
"Pied Cuckoo","spClamajac",
"Dideric Cuckoo","spChrys1cap",
"Klaas's Cuckoo","spChrys1kla",
"Common Cuckoo","spCuculcan",
"Eurasian Nightjar","spCaprieur",
"Egyptian Nightjar","spCapriaeg",
"Nubian Nightjar","spCaprinub",
"Montane Nightjar","spCapripol",
"Plain Nightjar","spCapriino",
"Alpine Swift","spTachy1mel",
"Common Swift","spApusapu",
"Pallid Swift","spApuspal",
"Forbes-Watson's Swift","spApusber",
"Little Swift","spApusaff",
"White-rumped Swift","spApuscaf","rarity"
"African Palm Swift","spCypsipar",
"Water Rail","spRalluaqu",
"Corn Crake","spCrexcre",
"Spotted Crake","spPorzapor",
"Eurasian Moorhen","spGalli3chl",
"Eurasian Coot","spFulicatr",
"White-breasted Waterhen","spAmaur1pho","rarity"
"Little Crake","spZaporpar",
"Baillon's Crake","spZaporpus",
"Demoiselle Crane","spAnthr1vir",
"Common Crane","spGrusgru",
"Spotted Thick-knee","spBurhicap",
"Eurasian Thick-knee","spBurhioed",
"Black-winged Stilt","spHiman1him",
"Pied Avocet","spRecuravo",
"Eurasian Oystercatcher","spHaema1ost",
"Black-bellied Plover","spPluvi2squ",
"Pacific Golden-Plover","spPluvi2ful",
"Common Ringed Plover","spCharahia",
"Little Ringed Plover","spThinodub",
"Northern Lapwing","spVanelvan","rarity"
"Spur-winged Lapwing","spVanelspi",
"Sociable Lapwing","spVanelgre","rarity"
"White-tailed Lapwing","spVanelleu",
"Caspian Plover","spAnarhasi",
"Tibetan Sand-Plover","spAnarhatr",
"Greater Sand-Plover","spAnarhles",
"Kentish Plover","spAnarhale",
"Pheasant-tailed Jacana","spHydro2chi","rarity"
"Whimbrel","spNumenpha",
"Eurasian Curlew","spNumenarq",
"Bar-tailed Godwit","spLimoslap",
"Black-tailed Godwit","spLimoslim",
"Asian Dowitcher","spLimnosem","rarity"
"Jack Snipe","spLymnomin",
"Great Snipe","spGalli5med","rarity"
"Pin-tailed Snipe","spGalli5ste",
"Common Snipe","spGalli5gal",
"Red-necked Phalarope","spPhala1lob",
"Terek Sandpiper","spXenuscin",
"Common Sandpiper","spActithyp",
"Green Sandpiper","spTringoch",
"Marsh Sandpiper","spTringsta",
"Wood Sandpiper","spTringgla",
"Common Redshank","spTringtot",
"Spotted Redshank","spTringery",
"Common Greenshank","spTringneb",
"Ruddy Turnstone","spArenaint",
"Great Knot","spCalidten","rarity"
"Ruff","spCalidpug",
"Broad-billed Sandpiper","spCalidfal",
"Sharp-tailed Sandpiper","spCalidacu","rarity"
"Curlew Sandpiper","spCalidfer",
"Temminck's Stint","spCalidtem",
"Long-toed Stint","spCalidsub","rarity"
"Sanderling","spCalidalb",
"Dunlin","spCalidalp",
"Little Stint","spCalidmin",
"Small Buttonquail","spTurnisyl",
"Crab-Plover","spDroma1ard",
"Cream-colored Courser","spCursocur",
"Small Pratincole","spGlarelac","rarity"
"Collared Pratincole","spGlarepra",
"Black-winged Pratincole","spGlarenor","rarity"
"Parasitic Jaeger","spStercpar",
"Pomarine Jaeger","spStercpom",
"South Polar Skua","spStercmac","rarity"
"Slender-billed Gull","spChroigen",
"Black-headed Gull","spChroirid",
"Pallas's Gull","spIchthich",
"Sooty Gull","spIchthhem",
"White-eyed Gull","spIchthleu",
"Caspian Gull","spLaruscac",
"Lesser Black-backed Gull","spLarusfus",
"African Skimmer","spRynchfla","rarity"
"Brown Noddy","spAnoussto",
"Lesser Noddy","spAnousten","rarity"
"Sooty Tern","spOnychfus",
"Bridled Tern","spOnychana",
"Little Tern","spStern1alb","rarity"
"Saunders's Tern","spStern1sau",
"Gull-billed Tern","spGelocnil",
"Caspian Tern","spHydro4cas",
"Whiskered Tern","spChlidhyb",
"Black Tern","spChlidnig","rarity"
"White-winged Tern","spChlidleu",
"Common Tern","spStern2hir1",
"White-cheeked Tern","spStern2rep",
"Sandwich Tern","spThala1san",
"Lesser Crested Tern","spThala1ben",
"Great Crested Tern","spThala1ber",
"Greater Flamingo","spPhoenros",
"Lesser Flamingo","spPhoen1min",
"Little Grebe","spTachy2ruf1",
"Eared Grebe","spPodic1nig",
"Red-billed Tropicbird","spPhaet2aet",
"Wilson's Storm-Petrel","spOceanoce",
"White-faced Storm-Petrel","spPelagmar","rarity"
"White-bellied Storm-Petrel","spFregegra","rarity"
"Black-bellied Storm-Petrel","spFregetro","rarity"
"Pintado Petrel","spDapticap","rarity"
"Jouanin's Petrel","spBulwefal",
"Streaked Shearwater","spCalonleu","rarity"
"Flesh-footed Shearwater","spArdencar",
"Wedge-tailed Shearwater","spArdenpac","rarity"
"Persian Shearwater","spPuffiper",
"Black Stork","spCiconnig",
"Abdim's Stork","spCiconabd",
"White Stork","spCiconcic",
"Lesser Frigatebird","spFregaari","rarity"
"Brown Booby","spSulaleu",
"Masked Booby","spSuladac",
"Great Cormorant","spPhala2car",
"Socotra Cormorant","spPhala2nig",
"Glossy Ibis","spPlegafal",
"African Sacred Ibis","spThresaet",
"Northern Bald Ibis","spGeronere","extinct"
"Eurasian Spoonbill","spPlataleu",
"African Spoonbill","spPlataalb","rarity"
"Eurasian Bittern","spBotauste",
"Little Bittern","spBotaumin",
"Black-crowned Night Heron","spNycti6nyc",
"Black Heron","spEgretard","rarity"
"Little Egret","spEgretgar",
"Western Reef-Heron","spEgretgul",
"Striated Heron","spButorstr",
"Squacco Heron","spArdeo1ral",
"Western Cattle-Egret","spArdeaibi",
"Great Egret","spArdeaalb",
"Yellow-billed Egret","spArdeabra","rarity"
"Gray Heron","spArdeacin",
"Purple Heron","spArdeapur",
"Black-headed Heron","spArdeamel",
"Goliath Heron","spArdeagol",
"Hamerkop","spScopuumb",
"Great White Pelican","spPelec1ono",
"Pink-backed Pelican","spPelec1ruf",
"Osprey","spPandihal",
"Scissor-tailed Kite","spChelirio","rarity"
"Black-winged Kite","spElanucae",
"Bearded Vulture","spGypaebar",
"Egyptian Vulture","spNeophper",
"European Honey-buzzard","spPerniapi",
"Oriental Honey-buzzard","spPernipti","rarity"
"Lappet-faced Vulture","spTorgotra",
"Eurasian Griffon","spGypsful",
"Bateleur","spTerateca",
"Short-toed Snake-Eagle","spCircagal",
"Lesser Spotted Eagle","spClang1pom","rarity"
"Greater Spotted Eagle","spClang1cla",
"Booted Eagle","spHierapen",
"Steppe Eagle","spAquilnip",
"Imperial Eagle","spAquilhel",
"Tawny Eagle","spAquilrap",
"Golden Eagle","spAquilchr",
"Verreaux's Eagle","spAquilver",
"Bonelli's Eagle","spAquilfas",
"Gabar Goshawk","spMicro6gab",
"Dark Chanting-Goshawk","spMeliemet",
"Shikra","spTachy3bad",
"Levant Sparrowhawk","spTachy3bre",
"Eurasian Sparrowhawk","spAccipnis",
"Western Marsh Harrier","spCircuaer",
"Hen Harrier","spCircucya","rarity"
"Pallid Harrier","spCircumac1",
"Montagu's Harrier","spCircupyg",
"Black Kite","spMilvumig",
"Common Buzzard","spButeo1but",
"Long-legged Buzzard","spButeo1ruf1",
"Western Barn Owl","spTytoalb",
"Arabian Scops-Owl","spOtuspam",
"Eurasian Scops-Owl","spOtussco",
"Pallid Scops-Owl","spOtusbru","rarity"
"Arabian Eagle-Owl","spBubomil",
"Pharaoh Eagle-Owl","spBuboasc",
"Little Owl","spAthennoc",
"Desert Owl","spStrixhad",
"Short-eared Owl","spAsiofla",
"Eurasian Hoopoe","spUpupaepo",
"African Gray Hornbill","spLopho11nas",
"White-throated Bee-eater","spMerop1alb",
"Arabian Green Bee-eater","spMerop1cya",
"Blue-cheeked Bee-eater","spMerop1per",
"European Bee-eater","spMerop1api",
"Common Kingfisher","spAlcedatt","rarity"
"Malachite Kingfisher","spCoryt1cri",
"Gray-headed Kingfisher","spHalcyleu",
"Collared Kingfisher","spTodirchl","rarity"
"European Roller","spCoracgar",
"Abyssinian Roller","spCoracaby",
"Purple Roller","spCoracnae","rarity"
"Eurasian Wryneck","spJynxtor",
"Arabian Woodpecker","spDendr3dor",
"Lesser Kestrel","spFalconau",
"Eurasian Kestrel","spFalcotin",
"Amur Falcon","spFalcoamu","rarity"
"Sooty Falcon","spFalcocon",
"Merlin","spFalcocol",
"Eurasian Hobby","spFalcosub",
"Lanner Falcon","spFalcobia",
"Saker Falcon","spFalcoche",
"Peregrine Falcon","spFalcoper",
"Rose-ringed Parakeet","spPsitt2kra","introduced"
"Eurasian Golden Oriole","spOriolori",
"Black-crowned Tchagra","spTchagsen",
"African Paradise-Flycatcher","spTerpsvir",
"Red-backed Shrike","spLaniucol",
"Red-tailed Shrike","spLaniupho",
"Isabelline Shrike","spLaniuisa",
"Great Gray Shrike","spLaniuexc",
"Lesser Gray Shrike","spLaniumin",
"Masked Shrike","spLaniunub",
"Woodchat Shrike","spLaniusen",
"House Crow","spCorvuspl","introduced"
"Brown-necked Raven","spCorvuruf",
"Fan-tailed Raven","spCorvurhi",
"Greater Hoopoe-Lark","spAlaemala",
"Thick-billed Lark","spRamph4clo","rarity"
"Bar-tailed Lark","spAmmom1cin",
"Desert Lark","spAmmom1des",
"Black-crowned Sparrow-Lark","spEremonig",
"Singing Bushlark","spMirafjav",
"Crested Lark","spGalercri",
"Temminck's Lark","spEremo1bil","rarity"
"Rufous-capped Lark","spCalanere",
"Greater Short-toed Lark","spCalanbra",
"Bimaculated Lark","spMelan9bim","rarity"
"Arabian Lark","spEremaere",
"Turkestan Short-toed Lark","spAlaud1hei",
"Graceful Prinia","spPrinigra",
"Zitting Cisticola","spCistijun",
"Eastern Olivaceous Warbler","spIdunapal",
"Upcher's Warbler","spHippolan",
"Olive-tree Warbler","spHippooli","rarity"
"Icterine Warbler","spHippoict","rarity"
"Sedge Warbler","spAcroc1sch",
"Marsh Warbler","spAcroc1pal1",
"Common Reed Warbler","spAcroc1sci",
"Great Reed Warbler","spAcroc1aru",
"Clamorous Reed Warbler","spAcroc1ste",
"River Warbler","spLocusflu","rarity"
"Common Grasshopper Warbler","spLocusnae","rarity"
"Banded Martin","spNeoph3cin","rarity"
"Plain Martin","spRiparpal","rarity"
"Bank Swallow","spRiparrip",
"Eurasian Crag-Martin","spPtyonrup",
"Pale Crag-Martin","spPtyonobs",
"Barn Swallow","spHirun2rus",
"Western House-Martin","spDelicurb",
"European Red-rumped Swallow","spCecroruf",
"White-spectacled Bulbul","spPycno2xan2",
"Wood Warbler","spPhyll5sib",
"Willow Warbler","spPhyll5tro",
"Common Chiffchaff","spPhyll5col",
"Brown Woodland-Warbler","spPhyll5umb",
"Scrub Warbler","spScoto1inq",
"Eurasian Blackcap","spSylvi3atr",
"Garden Warbler","spSylvi3bor","rarity"
"Barred Warbler","spCurrunis",
"Lesser Whitethroat","spCurrucur",
"Yemen Warbler","spCurrubur",
"Arabian Warbler","spCurruleu",
"Eastern Orphean Warbler","spCurrucra",
"Asian Desert Warbler","spCurrunan",
"Menetries's Warbler","spCurrumys",
"Eastern Subalpine Warbler","spCurrucan","rarity"
"Greater Whitethroat","spCurrucom",
"Abyssinian White-eye","spZoste1aby",
"Socotra White-eye","spZoste1soc",
"Arabian Babbler","spArgyasqu",
"Red-billed Oxpecker","spBuphaery","rarity"
"European Starling","spSturnvul","rarity"
"Wattled Starling","spCreatcin",
"Rosy Starling","spPastoros","rarity"
"Violet-backed Starling","spCinny1leu",
"Tristram's Starling","spOnych2tri",
"Song Thrush","spTurduphi",
"Yemen Thrush","spTurdumen",
"Black-throated Thrush","spTurduatr","rarity"
"Spotted Flycatcher","spMusci3str",
"Gambaga Flycatcher","spMusci3gam",
"Black Scrub-Robin","spCerco3pod",
"Rufous-tailed Scrub-Robin","spCerco3gal",
"White-throated Robin","spIranigut",
"Thrush Nightingale","spLuscilus",
"Common Nightingale","spLuscimeg",
"Bluethroat","spLuscisve",
"Common Redstart","spPhoen5pho",
"Black Redstart","spPhoen5och",
"Little Rock-Thrush","spMontiruf",
"Rufous-tailed Rock-Thrush","spMontisax",
"Blue Rock-Thrush","spMontisol",
"Whinchat","spSaxicrub",
"European Stonechat","spSaxicrub1",
"Siberian Stonechat","spSaxicmau","rarity"
"African Stonechat","spSaxictor",
"Northern Wheatear","spOenanoen",
"Buff-breasted Wheatear","spOenanbot",
"Isabelline Wheatear","spOenanisa",
"Hooded Wheatear","spOenanmon",
"Desert Wheatear","spOenandes",
"Eastern Black-eared Wheatear","spOenanmel",
"Pied Wheatear","spOenanple",
"Blackstart","spOenanmel1",
"Familiar Chat","spOenanfam","rarity"
"White-crowned Wheatear","spOenanleu1",
"Arabian Wheatear","spOenanlug",
"Mourning Wheatear","spOenanlug2",
"Kurdish Wheatear","spOenanxan","rarity"
"Persian Wheatear","spOenanchr",
"Hypocolius","spHypoc3amp","rarity"
"Nile Valley Sunbird","spHedydmet",
"Palestine Sunbird","spCinny2ose",
"Arabian Sunbird","spCinny2hel",
"Rüppell's Weaver","spPloce2gal",
"African Silverbill","spEuodican",
"Arabian Waxbill","spEstriruf",
"Zebra Waxbill","spAmandsub",
"Radde's Accentor","spPruneocu",
"House Sparrow","spPassedom",
"Arabian Golden Sparrow","spPasseeuc",
"Sahel Bush Sparrow","spGymno10den",
"Pale Rockfinch","spCarpo3bra","rarity"
"Gray Wagtail","spMotaccin",
"Western Yellow Wagtail","spMotacfla1",
"Citrine Wagtail","spMotaccit",
"White Wagtail","spMotacalb",
"Richard's Pipit","spAnthuric",
"African Pipit","spAnthucin",
"Long-billed Pipit","spAnthusim",
"Tawny Pipit","spAnthucam",
"Tree Pipit","spAnthutri",
"Red-throated Pipit","spAnthucer",
"Golden Pipit","spTmetoten","rarity"
"Trumpeter Finch","spBucangit",
"Arabian Grosbeak","spRhync4per",
"Arabian Serin","spCrithrot",
"Yemen Serin","spCrithmen1",
"Yemen Linnet","spLinaryem",
"Cinereous Bunting","spEmbercin",
"Ortolan Bunting","spEmberhor",
"Cretzschmar's Bunting","spEmbercae","rarity"
"Cinnamon-breasted Bunting","spEmbertah",
"Striolated Bunting","spEmberstr",
