"grAcrocbae[ba","ambiguus","sspAcroc1sci[baamb"
"grAmytotexmod","cowarie","sspAmytomodcow"
"grAmytotexmod","curnamona","sspAmytomodcur"
"grAmytotexmod","indulkanna","sspAmytomodind"
"grAmytotexmod","inexpectatus","sspAmytomodine"
"grAmytotexmod","modestus","sspAmytomodmod"
"grAmytotexmod","obscurior","sspAmytomodobs"
"grAmytotexmod","raglessi","sspAmytomodrag"
"grAmytowhiowe","aenigma","sspAmytooweaen"
"grAmytowhiowe","oweni","sspAmytooweowe"
"grAmytowhiwhi","parvus","sspAmytowhipar"
"grAmytowhiwhi","whitei","sspAmytowhiwhi"
"grBatisminerl","congoensis","sspBatiserlcon"
"grBatisminerl","erlangeri","sspBatiserlerl"
"grCacomvar[va","tymbonomus","sspCacomvartym"
"grCentr1supbur","fasciipygialis","sspCentr1burfas"
"grChlor6coc[mo","chlorocephala","sspChlor7molchl"
"grCinny2ludwhy","skye","sspCinny2ludwhysky"
"grCinny2ludwhy","whytei","sspCinny2ludwhywhy"
"grCistigal[ga","isodactylus","sspCistigaliso"
"grColloesc[es","lagonoleucos","sspColloesclag"
"grCopsymal[ma","ngae","grCopsymalnga"
"grCorac2cincuc","grCorac2cincuc","sspCeblecuccuc"
"grCorac2cincuc","moheliensis","sspCeblecucmoh"
"grDicruadsdiv","divaricatus","sspDicruadsdivdiv"
"grDicruadsdiv","lugubris","sspDicruadsdivlug"
"grDinopben[be","jaffnense","sspDinopbenjaf"
"grDinopben[be","tehminae","sspDinopbenteh"
"grEdolitenrem","erythropygia","sspEdolieryeryery"
"grEdolitenrem","remota","grEdoliremrem"
"grEdolitenrem","saturatior","sspEdolieryerysat"
"grFringcoeafr","harterti","sspFringspospohar"
"grHelia1ame[am","apurimacensis","sspHelia1ameapu"
"grIanthlanlan","bonvaloti","sspPtero6lanbon"
"grMacro2amb[am","admiralitatis","sspMacro1ambadm"
"grMacro2ambalb","atrata","sspMacro1dor[alatr"
"grMacro2ambalb","balim","sspMacro1dor[dobal"
"grMacro2ambalb","sedecima","sspMacro1dor[alsed"
"grPernicelste","steerei","sspPernisteste"
"grPernicelste","winkleri","sspPernistewin"
"grRallulimaeq","aequatorialis","sspRalluaeqaeq"
"grRallulimaeq","meyerdeschauenseei","sspRalluaeqmey"
"grRhync3oli[ae","cryptus","grRhync3aeqcry"
"grSitta1eur[eu","baicalensis","sspSitta1eur[asbai"
"grSitta1eur[eu","clara","sspSitta1eur[ascla"
"grSitta1eur[eu","formosana","sspSitta1eursinfor"
"grSitta1eur[eu","hondoensis","sspSitta1eur[rohon"
"grSitta1eur[eu","takatsukasai","sspSitta1eur[astak"
"grSporotortor","atriceps","sspSporo1toratr"
"grSporotortor","torqueola","sspSporo1tortor"
"grTrich1haemol","moluccanus","sspTrich1molmol"
"grTrich1haemol","septentrionalis","sspTrich1molsep"
"grTroglaed[mu","effutitus","sspTroglmus1[mueff"
"grUpupaepo[ep","saturata","sspUpupaepo[epsat"
"spAcant4pus","samueli","sspAcant4pussam"
"spAcridmel","melanopterus","grAcridmelmel"
"spAcridmel","tertius","grAcridmelter"
"spAcridmel","tricolor","grAcridmeltri"
"spAcrocsci","ammon","grAcroc1sciamm"
"spAegit1con","rubricapillus","sspAegit1conirerub"
"spAlaud1gul","australis","sspAlaudgulaus"
"spAlcipfra","laotiana","sspAlcipfralao"
"spAlect1gra","orlandoi","sspAlect1gra[grorl"
"spAmaur1pho","leucocephalus","sspAmaur1pholeu"
"spAmmom1pho","phoenicura","sspAmmom1phopho"
"spAmmom1pho","testacea","sspAmmom1photes"
"spAmytostr","howei","sspAmytostrhow"
"spAmytostr","striatus","sspAmytostrstr"
"spAphraspi","subantarctica","sspAphraspisub"
"spAplonfus","fusca","sspAplonfusfus"
"spAplonfus","hulliana","sspAplonfushul"
"spArami1caj","avicenniae","grArami1cajavi"
"spArborgin","guangxiensis","sspArborgingua"
"spAsthehar","bejaranoi","sspAstheharbej"
"spAsthehar","harterti","sspAstheharhar"
"spAsthemod","cordobae","sspAsthemodcor"
"spAsthemod","hilereti","sspAsthemodhil"
"spAsthescl","brunnescens","sspAsthewya[scbru"
"spBasil1tri","sanlucasensis","grBasil2trisan"
"spBatrahod","hodgsoni","sspBatrahodhod"
"spBatrahod","indochinae","sspBatrahodind"
"spBiziulob","lobata","sspBiziuloblob"
"spBiziulob","menziesi","sspBiziulobmen"
"spBradylop","manengubae","sspBradylop[loman"
"spBuccaduc","dowsetti","sspBuccaducdow"
"spBuccaduc","duchaillui","sspBuccaducduc"
"spButeo1jam","suttoni","grButeo1jamsut"
"spCacatsul","paulandrewi","sspCacatsulpau"
"spCacomfla","meeki","sspCacomfla[flmee"
"spCalcalap","kamtschaticus","sspCalcalapkam"
"spCalcalap","subcalcaratus","sspCalcalapsub"
"spCalidalb","alba","sspCalidalbalb"
"spCalidalb","rubida","sspCalidalbrub"
"spCalidalp","centralis","sspCalidalpalpcen"
"spCapriruw","koesteri","sspCapripol[rukoe"
"spCarducar","ultima","sspCarducanult"
"spCarducar","volgensis","sspCarducarvol"
"spCasuaben","bennetti","sspCasuabenben"
"spCasuaben","westermanni","sspCasuabenwes"
"spCatha1ust","appalachiensis","sspCatha1ust[swapp"
"spCatha1ust","phillipsi","sspCatha1ust[usphi"
"spCathaaur","meridionalis","sspCathaaur[aumer"
"spCentr1cup","cupreicaudus","sspCentr1cupcup"
"spCentr1cup","songweensis","sspCentr1cupson"
"spCentr1mon","occidentalis","sspCentr1monocc"
"spCercomec","lemaireae","sspCercomeclem"
"spCercomec","mechowi","sspCercomecmec"
"spCereonov","grisea","sspCereonovgri"
"spCereonov","novaehollandiae","sspCereonovnov"
"spChaetvau","aphanes","grChaetvauaph"
"spChama2fas","margra","sspChama2fasmar"
"spCharaale","nihonensis","sspAnarhalealenih"
"spCichlleu","holti","grCichlleuhol"
"spCichlleu","leucophrus","grCichlleuleu"
"spCincl1cla","morgani","sspCincl1clamor"
"spCircagal","gallicus","sspCircagalgal"
"spCircagal","sacerdotis","sspCircagalsac"
"spCistitin","elegans","sspCistitinele"
"spCoelilut","albimaculata","sspCoelilutalb"
"spCoelilut","lutetiae","sspCoelilutlut"
"spColumjan","stejnegeri","sspColumjanste"
"spCoturcot","africana","sspCoturcotafr"
"spCoturcot","conturbans","sspCoturcotcon"
"spCoturcot","coturnix","sspCoturcotcot"
"spCoturcot","erlangeri","sspCoturcoterl"
"spCoturcot","inopinata","sspCoturcotino"
"spCranidem","cardonai","sspCranidemcar"
"spCranidem","demissa","sspCranidemdem"
"spCrithleu","pallens","sspCrithleupal"
"spCulic1cey","antioxantha","sspCulic1ceyant"
"spCurrumel1","leucogastra","sspCurrumel1leu"
"spCurrumel1","valverdei","sspCurrumel1val"
"spCyano8chr","insperatus","sspCyano7chrins"
"spDendr4dar","darjellensis","sspDendr5dardar"
"spDendr4dar","desmursi","sspDendr5dardes"
"spDendr9vag","bristoli","sspDendr11vagbri"
"spDicruads","jubaensis","sspDicruads[adjub"
"spDicruhot","banggaiensis","sspDicruhotleuban"
"spDicruhot","faberi","sspDicruhotjenfab"
"spDicruleu","celaenus","sspDicruleu[lecel"
"spDuculaen","andamanica","sspDuculaen[aeand"
"spDuculaen","intermedia","sspDuculaen[aeint"
"spDuculaen","polia","sspDuculaen[aepol"
"spEmber2tah","nivenorum","sspEmbertahniv"
"spEmbercal","buturlini","sspEmbercalbut"
"spEmbercal","calandra","sspEmbercalcal"
"spErithrub","caucasicus","sspErithrubcau"
"spErithrub","marionae","sspErithrubmar"
"spEudynori","hybrida","sspEudynori[orhyb"
"spEuphoxan","oressinoma","sspEuphoxanore"
"spForpuxan","flavescens","sspForpuxanfla"
"spForpuxan","flavissimus","sspForpuxanfla1"
"spForpuxan","xanthopterygius","sspForpuxanxan"
"spGalli4bec","masculinus","sspPampubec[jomas"
"spGamps1tor","luciae","sspGamps1torluc"
"spGarru1mer","laoensis","sspGarru1merlao"
"spGeothspe","limnatis","sspGeothspelim"
"spGeothspe","speciosa","sspGeothspespe"
"spGracurel","miotera","grGracurelmio"
"spGrallgua","binfordi","sspGrallgua[gubin"
"spGrammstr","brahmaputra","sspGrammstrbra"
"spHalia1alb","albicilla","sspHalia1albalb"
"spHalia1alb","groenlandicus","sspHalia1albgro"
"spHemipnov","novaeseelandiae","grHemipnovnov"
"spHororvul","kolichisi","sspHororfla[vukol"
"spHymenmal","hymenolaimus","sspHymenmalhym"
"spHymenmal","malacorhynchos","sspHymenmalmal"
"spIcter1pec","carolynae","sspIcter1peccar"
"spIcter1pec","guttulatus","sspIcter1pecgut"
"spLeistloy","obscurus","grLeistloyobs"
"spLepto9spe","trochilus","sspLepto9spe[sptro"
"spLimoslap","taymyrensis","sspLimoslap[latay"
"spLimoslim","bohaii","grLimoslimboh"
"spLocuslan","hendersonii","sspLocuslanhen"
"spLocuslan","lanceolata","sspLocuslanlan"
"spLopho2scl","orientalis","sspLopho2sclsclori"
"spLoricver","phileticus","sspLoricverphi"
"spLoricver","vernalis","sspLoricverver"
"spMacro2ruf","andamanica","spMacro1ruf"
"spMacro2ruf","rufipennis","spMacro1ruf"
"spMacro2ten","phaea","sspMacro1tenpha"
"spMacro2ten","septentrionalis","sspMacro1tensep"
"spMacro2ten","tenuirostris","sspMacro1tenten"
"spMecocleu","montensis","sspMecocleumon"
"spMegapcum","dillwyni","sspMegapcumdil"
"spMegapcum","tabon","sspMegapcumtab"
"spMegasgua","pallidus","sspMegasror[napal"
"spMullepul","mohun","sspMullepulmoh"
"spMusci3dau","poonensis","sspMusci3daupoopoo"
"spNapotepi","lucilleae","sspNapotepiluc"
"spNeomogeo","amazonicus","sspNeomogeoama"
"spNesoemay","duboisi","sspNesoemaydub"
"spNesoemay","mayeri","sspNesoemaymay"
"spNesop1leu","depauperata","sspNesop1leudep"
"spNesop1leu","schoddei","sspNesop1leusch"
"spNesop1leu","thomasi","sspNesop1leutho"
"spNewtoamp","amphichroa","grNewtoampamp"
"spNewtoamp","lavarambo","grNewtoamplav"
"spNumenarq","suschkini","sspNumenarqsus"
"spOriol1chi","yamamurae","sspOriolchi[chyam"
"spOriolchi","lamprochryseus","sspOriolchi[malam"
"spOrtho3nig","luminosus","sspOrtho3niglum"
"spOrtho3nig","nigriceps","sspOrtho3nignig"
"spOrtho3ruf","germaini","sspOrtho3rufger"
"spOtuslet","cnephaeus","sspOtusletcne"
"spOtussun","distans","sspOtussun[sudis"
"spOtussun","nicobaricus","sspOtussun[sunic"
"spPachy5cin","cinerea","sspPachy5cincin"
"spPachy5cin","plateni","sspPachy5cinpla"
"spPelecgeo","georgicus","sspPelecgeogeo"
"spPelecgeo","whenuahouensis","sspPelecgeowhe"
"spPenelsup","pseudonyma","grPenelsuppse"
"spPeripate","eckodedicatus","sspPeripate[aeeck"
"spPeripate","martensi","sspPeripate[aemar"
"spPhaen2pol","tetraopes","sspPhaen2poltet"
"spPhoen5och","murinus","sspPhoen5och[ocmur"
"spPhyll5int","ocularis","sspPhyll5intocu"
"spPhyll5pul","vegetus","sspPhyll5pulveg"
"spPicumlim","fulvescens","sspPicumlimful"
"spPicumlim","limae","sspPicumlimlim"
"spPloce1kat","katangae","grPloce2katkat"
"spPloce1kat","upembae","grPloce2katupe"
"spPrinibur","burnesii","sspLaticburbur"
"spPrinibur","nipalensis","sspLaticburnip"
"spProceaeq","aequinoctialis","sspProceaeqaeq"
"spProceaeq","steadi","sspProceaeqste"
"spPrunerub","muraria","sspPrunerubmur"
"spPseud7gut","gutturalis","sspPseud6gutgut"
"spPseud7gut","ochroleuca","sspPseud6gutoch"
"spPseud7lop","argentina","sspPseud6loparg"
"spPseud7lop","lophotes","sspPseud6loplop"
"spPternsqu","maranensis","sspPternsqumar"
"spPternsqu","schuetti","sspPternsqusch"
"spPternsqu","squamatus","sspPternsqusqu"
"spPtililec","taiwanus","sspPtililectai"
"spPuffipuf","canariensis","sspPuffipufcan"
"spPuffipuf","puffinus","sspPuffipufpuf"
"spRallulon","berryorum","grRallulonber"
"spRegulten","ellenthalerae","grRegulregell"
"spRhipitey","coomansi","sspRhipiteycoo"
"spSakes1cri","cristatus","grSakes1cricri"
"spSakes1cri","niedeguidonae","grSakes1crinie"
"spSchoe2bru","weigoldi","sspSchoe2bruwei"
"spScler1cau","caligineus","sspScler1caucal"
"spScler1ruf","furfurosus","sspScler1ruffur"
"spSclerlev","crawshayi","sspSclerlevcra"
"spScolocel","celebensis","sspScolocelcel"
"spScolocel","heinrichi","sspScolocelhei"
"spSetop1vir","virens","sspSetop1virvir"
"spSetop1vir","waynei","sspSetop1virway"
"spSialisia","bermudensis","sspSialisiasiaber"
"spSialisia","caribaea","sspSialisia[gucar"
"spSialisia","nidificans","sspSialisia[gunid"
"spSiptostr","nortoni","sspSiptostrnor"
"spSiptostr","striaticollis","sspSiptostrstr"
"spSpilochi","ceylonensis","sspSpilochisurcey"
"spSuthoalp","ganluoensis","sspSuthoalpgan"
"spSuthozap","erlangshanica","sspSuthozaperl"
"spSuthozap","zappeyi","sspSuthozapzap"
"spSympovid","squamulatus","sspSympovidsqu"
"spSympovid","vidua","sspSympovidvid"
"spTarsiruf","pallidior","sspTarsirufpal"
"spTarsiruf","rufilatus","sspTarsirufruf"
"spTesiaoli","chiangmaiensis","sspTesiaolichi"
"spTesiaoli","olivea","sspTesiaolioli"
"spThryo2bew","pulichi","sspThryo2bew[mepul"
"spThryo2bew","sadai","sspThryo2bew[mesad"
"spTopazpel","smaragdulus","sspTopazpelsma"
"spTrerocal","virescens","sspTrerocal[cavir"
"spTrerocur","hainanus","sspTrerocur[cuhai"
"spTrerocur","haliplous","sspTrerocur[cuhal"
"spTrerocur","nipalensis","sspTrerocur[cunip"
"spTrerocur","pegus","sspTrerocur[cupeg"
"spTrerocur","smicrus","sspTrerocurhypsmi"
"spTrerosph","delacouri","sspTrerosphdel"
"spTrerosph","etorques","sspTrerospheto"
"spTroch2chr","ailaoshanense","sspTroch2chrail"
"spTroch2lin","schachdarense","sspTroch2linsch"
"spTurdogym","gymnogenys","sspTurdogymgym"
"spTurdogym","kaokensis","sspTurdogymkao"
"spTurduleu","upichiarum","sspTurduleuupi"
"spTurdupol","beehleri","sspTurduheibee"
"spTurnacap","capensis","sspTurnacapcap"
"spTurnacap","minor","sspTurnacapmin"
"spTympapha","hueyi","sspTympaphahue"
"spUrops1leu","centralis","sspUrops1leu[lecen"
"spUrops1leu","restricta","sspUrops1leu[leres"
"spVireo1fla1","hypoleucus","sspVireo1fla1[flhyp"
"spVireo1pal","angulensis","sspVireo1pal[paang"
"spVireo1pal","nicoyensis","sspVireo1pal[panic"
"spVireo1pal","salvini","sspVireo1pal[sesal"
"spVireo1plu","gravis","sspVireo1pluplugra"
"spYuhinhum","humilis","sspYuhinhumhum"
"spZancljav","javanicus","sspZancljavjav"
"spZancljav","pallidus","sspZancljavpal"
"spZentrlin","linearis","grZentrlinlin"
"spZentrlin","trinitatis","grZentrlintri"
"spZoothdau","iriomotensis","grZoothdauiri"
"spZoste1eve","medius","sspZoste1aurmed"
"spZoste1pal1","erwini","sspZoste1simerw"
"spZoste1pal1","occidentis","sspZoste1palocc"
"spZoste1pal1","siamensis","sspZoste1palsia"
"sspColloescsum","sumbae","sspCollosumsum1"
"sspColloescsum","sumbawae","sspCollosumsum"
