"grAmytowhiowe","aenigma","sspAmytooweaen"
"grAmytowhiowe","oweni","sspAmytooweowe"
"grAmytowhiwhi","parvus","sspAmytowhipar"
"grAmytowhiwhi","whitei","sspAmytowhiwhi"
"grFringcoeafr","harterti","sspFringspospohar"
"grRhync3oli[ae","cryptus","grRhync3aeqcry"
"grTroglaed[mu","effutitus","sspTroglmus1[mueff"
"grUpupaepo[ep","saturata","sspUpupaepo[epsat"
"spAcant4pus","samueli","sspAcant4pussam"
"spAegit1con","rubricapillus","sspAegit1conirerub"
"spAlaud1gul","australis","sspAlaudgulaus"
"spAlcipfra","laotiana","sspAlcipfralao"
"spAmaur1pho","leucocephalus","sspAmaur1pholeu"
"spAmmom1pho","phoenicura","sspAmmom1phopho"
"spAmmom1pho","testacea","sspAmmom1photes"
"spAmytostr","howei","sspAmytostrhow"
"spAmytostr","striatus","sspAmytostrstr"
"spAphraspi","subantarctica","sspAphraspisub"
"spAplonfus","fusca","sspAplonfusfus"
"spAplonfus","hulliana","sspAplonfushul"
"spAsthehar","bejaranoi","sspAstheharbej"
"spAsthehar","harterti","sspAstheharhar"
"spAsthemod","cordobae","sspAsthemodcor"
"spAsthemod","hilereti","sspAsthemodhil"
"spAsthescl","brunnescens","sspAsthewya[scbru"
"spBuccaduc","dowsetti","sspBuccaducdow"
"spBuccaduc","duchaillui","sspBuccaducduc"
"spButeo1jam","suttoni","grButeo1jamsut"
"spCacatsul","paulandrewi","sspCacatsulpau"
"spCacomfla","meeki","sspCacomfla[flmee"
"spCalcalap","kamtschaticus","sspCalcalapkam"
"spCalcalap","subcalcaratus","sspCalcalapsub"
"spCalidalp","centralis","sspCalidalpalpcen"
"spCasuaben","bennetti","sspCasuabenben"
"spCasuaben","westermanni","sspCasuabenwes"
"spCathaaur","meridionalis","sspCathaaur[aumer"
"spCentr1cup","cupreicaudus","sspCentr1cupcup"
"spCentr1cup","songweensis","sspCentr1cupson"
"spCercomec","lemaireae","sspCercomeclem"
"spCercomec","mechowi","sspCercomecmec"
"spCincl1cla","morgani","sspCincl1clamor"
"spCistitin","elegans","sspCistitinele"
"spColumjan","stejnegeri","sspColumjanste"
"spCoturcot","africana","sspCoturcotafr"
"spCoturcot","conturbans","sspCoturcotcon"
"spCoturcot","coturnix","sspCoturcotcot"
"spCoturcot","erlangeri","sspCoturcoterl"
"spCoturcot","inopinata","sspCoturcotino"
"spCranidem","cardonai","sspCranidemcar"
"spCranidem","demissa","sspCranidemdem"
"spCrithleu","pallens","sspCrithleupal"
"spCurrumel1","leucogastra","sspCurrumel1leu"
"spCurrumel1","valverdei","sspCurrumel1val"
"spCyano8chr","insperatus","sspCyano7chrins"
"spDendr4dar","darjellensis","sspDendr5dardar"
"spDendr4dar","desmursi","sspDendr5dardes"
"spDicruleu","celaenus","sspDicruleu[lecel"
"spForpuxan","flavescens","sspForpuxanfla"
"spForpuxan","flavissimus","sspForpuxanfla1"
"spForpuxan","xanthopterygius","sspForpuxanxan"
"spGamps1tor","luciae","sspGamps1torluc"
"spGarru1mer","laoensis","sspGarru1merlao"
"spGeothspe","limnatis","sspGeothspelim"
"spGeothspe","speciosa","sspGeothspespe"
"spGrammstr","brahmaputra","sspGrammstrbra"
"spHalia1alb","albicilla","sspHalia1albalb"
"spHalia1alb","groenlandicus","sspHalia1albgro"
"spIcter1pec","carolynae","sspIcter1peccar"
"spIcter1pec","guttulatus","sspIcter1pecgut"
"spLeistloy","obscurus","grLeistloyobs"
"spLocuslan","hendersonii","sspLocuslanhen"
"spLocuslan","lanceolata","sspLocuslanlan"
"spMullepul","mohun","sspMullepulmoh"
"spMusci3dau","poonensis","sspMusci3daupoopoo"
"spNapotepi","lucilleae","sspNapotepiluc"
"spNesop1leu","depauperata","sspNesop1leudep"
"spNesop1leu","schoddei","sspNesop1leusch"
"spNesop1leu","thomasi","sspNesop1leutho"
"spOriolchi","lamprochryseus","sspOriolchi[malam"
"spOrtho3nig","luminosus","sspOrtho3niglum"
"spOrtho3nig","nigriceps","sspOrtho3nignig"
"spOrtho3ruf","germaini","sspOrtho3rufger"
"spOtuslet","cnephaeus","sspOtusletcne"
"spPenelsup","pseudonyma","grPenelsuppse"
"spPeripate","eckodedicatus","sspPeripate[aeeck"
"spPeripate","martensi","sspPeripate[aemar"
"spPhaen2pol","tetraopes","sspPhaen2poltet"
"spPhoen5och","murinus","sspPhoen5och[ocmur"
"spPhyll5int","ocularis","sspPhyll5intocu"
"spPhyll5pul","vegetus","sspPhyll5pulveg"
"spPicumlim","fulvescens","sspPicumlimful"
"spPicumlim","limae","sspPicumlimlim"
"spProceaeq","aequinoctialis","sspProceaeqaeq"
"spProceaeq","steadi","sspProceaeqste"
"spPrunerub","muraria","sspPrunerubmur"
"spPseud7gut","gutturalis","sspPseud6gutgut"
"spPseud7gut","ochroleuca","sspPseud6gutoch"
"spPseud7lop","argentina","sspPseud6loparg"
"spPseud7lop","lophotes","sspPseud6loplop"
"spPuffipuf","canariensis","sspPuffipufcan"
"spPuffipuf","puffinus","sspPuffipufpuf"
"spRhipitey","coomansi","sspRhipiteycoo"
"spSakes1cri","cristatus","grSakes1cricri"
"spSakes1cri","niedeguidonae","grSakes1crinie"
"spSchoe2bru","weigoldi","sspSchoe2bruwei"
"spScler1cau","caligineus","sspScler1caucal"
"spScler1ruf","furfurosus","sspScler1ruffur"
"spSclerlev","crawshayi","sspSclerlevcra"
"spScolocel","celebensis","sspScolocelcel"
"spScolocel","heinrichi","sspScolocelhei"
"spSetop1vir","virens","sspSetop1virvir"
"spSetop1vir","waynei","sspSetop1virway"
"spSiptostr","nortoni","sspSiptostrnor"
"spSiptostr","striaticollis","sspSiptostrstr"
"spSpilochi","ceylonensis","sspSpilochisurcey"
"spSuthoalp","ganluoensis","sspSuthoalpgan"
"spSuthozap","erlangshanica","sspSuthozaperl"
"spSuthozap","zappeyi","sspSuthozapzap"
"spSympovid","squamulatus","sspSympovidsqu"
"spSympovid","vidua","sspSympovidvid"
"spTarsiruf","pallidior","sspTarsirufpal"
"spTarsiruf","rufilatus","sspTarsirufruf"
"spTrerocur","hainanus","sspTrerocur[cuhai"
"spTrerocur","haliplous","sspTrerocur[cuhal"
"spTrerocur","nipalensis","sspTrerocur[cunip"
"spTrerocur","pegus","sspTrerocur[cupeg"
"spTrerocur","smicrus","sspTrerocurhypsmi"
"spTrerosph","delacouri","sspTrerosphdel"
"spTrerosph","etorques","sspTrerospheto"
"spTroch2lin","schachdarense","sspTroch2linsch"
"spTurdogym","gymnogenys","sspTurdogymgym"
"spTurdogym","kaokensis","sspTurdogymkao"
"spTurduleu","upichiarum","sspTurduleuupi"
"spTurdupol","beehleri","sspTurduheibee"
"spTympapha","hueyi","sspTympaphahue"
"spVireo1fla1","hypoleucus","sspVireo1fla1[flhyp"
"spVireo1pal","angulensis","sspVireo1pal[paang"
"spVireo1pal","nicoyensis","sspVireo1pal[panic"
"spVireo1pal","salvini","sspVireo1pal[sesal"
"spZancljav","javanicus","sspZancljavjav"
"spZancljav","pallidus","sspZancljavpal"
