"spPipilcum/spPipilgra","Blue-throated/White-throated Piping Guan"
"spGutteedo/spGuttepuc/spGuttever","Western/Eastern/Southern Crested Guineafowl"
"spLagoplag","Red Grouse/Willow Ptarmigan"
"spSclershe/spSclerwhy","Shelley's/Whyte's Francolin"
"spSclerelg/spSclerpsi","Moorland/Elgon Francolin"
"spTropicha/spTropigra","Chestnut-necklaced/Sabah Partridge"
"spLophuery/spLophupyr","Malayan/Bornean Crestless Fireback"
"spLophuign/spLophuruf","Malayan/Bornean Crested Fireback"
"spCapriaff/spCaprigri","Savanna/Chirruping Nightjar"
"spAegotben/spAegotter","Barred/Karimui Owlet-nightjar"
"spAnthrnig/spAnthrpre","Green-breasted/Black-throated Mango"
"spAnthraur/spAnthrdom","Hispaniolan/Puerto Rican Mango"
"spCoelicon/spCoeliinc/spCoelitor","Green/Collared/Gould's Inca"
"spCoelibon/spCoelicon1/spCoelieos","Perija/Golden-bellied/Golden-tailed Starfrontlet"
"spCynanlat/spCynanlaw","Broad-billed/Tres Marias Hummingbird"
"spSaucecup/spSaucevir","Green-bellied/Copper-tailed Hummingbird"
"spCentr1pha","Kai/Pheasant Coucal"
"spCouaoli/spCouaruf","Red-capped/Olive-capped Coua"
"spPhaencur/spPhaenoen","Chestnut-breasted/Mentawai Malkoha"
"spChalc1cra/spChalc1min","Little/Pied Bronze Cuckoo"
"spCacomadd/spCacombla/spCacomvar","Sahul/Manus/Solomons Brush Cuckoo"
"spCacomsep/spCacomvir","Sunda/Sulawesi Brush Cuckoo"
"spStrepbit/spStrepdus","Sunda/Philippine Collared Dove"
"spStrepdec/spStrepxan","Eurasian/Burmese Collared Dove"
"spTrerofor","Ryukyu/Taiwan Green Pigeon"
"spPtilichr/spPtilipur","Raiatea/Grey-green Fruit Dove"
"spPtilisol/spPtilispe","Geelvink/Yellow-bibbed Fruit Dove"
"spDuculaen/spDuculoen","Green/Enggano Imperial Pigeon"
"spDuculgee/spDuculmyr","Spice/Geelvink Imperial Pigeon"
"spDuculbad/spDuculcup","Malabar/Mountain Imperial Pigeon"
"spTurninov/spTurnivar","Painted/New Caledonian Buttonquail"
"spAnarhatr/spAnarhmon","Tibetan/Siberian Sand Plover"
"spLarusbra/spLaruscan","Common/Short-billed Gull"
"spLarusmon/spLarusveg","Vega/Mongolian Gull"
"spEudyp1chr1","Eastern/Western Rockhopper Penguin"
"spPachy1mac/spPachy1sal","Salvin's/MacGillivray's Prion"
"spCiconepi/spCiconmic","African/Asian Woolly-necked Stork"
"spSulabre/spSulaleu","Brown/Cocos Booby"
"grButorstr[at/grButorstrstr","Little/Striated Heron"
"spArdeabra/spArdeaint/spArdeaplu","Yellow-billed/Medium/Plumed Egret"
"spTachy3cir/spTachy3fas","Collared Sparrowhawk/Brown Goshawk"
"spAsturatr/spAsturgen","Eurasian/American Goshawk"
"spButeo1but","Common/Cape Verde Buzzard"
"spTytofur","American Barn/Ashy-faced Owl"
"spNinoxleu/spNinoxnov","Tasmanian Boobook/Morepork"
"spAthengra/spAthenjac/spAthenmal/spAthenros","West Solomons/Guadalcanal/Malaita/Makira Owl"
"spOtusmag/spOtustem","Moluccan/Wetar Scops Owl"
"spOtusmag/spOtusman1/spOtusmen1","Moluccan/Sulawesi/Banggai Scops Owl"
"spOtuslem/spOtuslet","Collared/Sunda Scops Owl"
"spMegasalb/spMegasing","White-throated/Rufescent Screech Owl"
"spTrogochr/spTrogocup/spTrogoruf/spTrogoten","Northern/Choco/Amazonian/Atlantic Black-throated Trogon"
"spLopho11fas/spLopho11sem","West African/Congo Pied Hornbill"
"spHorizgra/spHorizhar","Western/Eastern Dwarf Hornbill"
"spHorizalb/spHorizcas","Western/Eastern Long-tailed Hornbill"
"spCittucya/spCittusan","Sulawesi/Sangihe Lilac Kingfisher"
"spHalcygul/spHalcysmy","White-throated/Brown-breasted Kingfisher"
"spAlcedeur/spAlcedpen","Malaysian/Javan Blue-banded Kingfisher"
"spCeyxeri/spCeyxruf","Black-backed/Rufous-backed Dwarf Kingfisher"
"spCeyxfal/spCeyxsan","Sangihe/Sulawesi Dwarf Kingfisher"
"spMerop1laf/spMerop1var","Blue-breasted/Ethiopian Bee-eater"
"spMerop1cya/spMerop1ori/spMerop1vir","African/Arabian/Asian Green Bee-eater"
"spMerop1ame/spMerop1vir1","Blue-throated/Rufous-crowned Bee-eater"
"spPsilo1cya/spPsilo1duv","Blue-eared/Black-eared Barbet"
"spPogonpus/spPogonuro","Northern/Southern Red-fronted Tinkerbird"
"spTrachgof/spTrachpur","Western/Eastern Yellow-billed Barbet"
"spTrach1dar","D'Arnaud's/Usambiro Barbet"
"grCampe1mac[ca/grCampe1macper","Little Green/Little Spotted Woodpecker"
"spDryobcat/spDryobper","Crimson-naped/Necklaced Woodpecker"
"spColapaur1/spColapmex","Northern/Guatemalan Flicker"
"spCampehae","Splendid/Crimson-bellied Woodpecker"
"spPicuscan","Grey-headed/Sumatran Woodpecker"
"spChrys4gut/spChrys4soc","Greater/Malabar Flameback"
"spMeiglgra/spMeigltri","Buff-rumped/Zebra Woodpecker"
"spMulleful1/spMullefun","Northern/Southern Sooty Woodpecker"
"spCacatcit/spCacatsul","Yellow-crested/Citron-crested Cockatoo"
"spAmazo1aut/sspAmazo1autautaut","Red-lored/Diademed Amazon"
"spCorac1nig/spCorac1sib","Comoro Black/Lesser Vasa Parrot"
"spEcleccor/spEclecpol/spEclecrie/spEclecror","Moluccan/Sumba/Tanimbar/Papuan Eclectus"
"spPsitt1abb/spPsitt1cya","Blue-rumped/Simeulue Parrot"
"spTanygeve/spTanygsum","Blue-backed/Azure-rumped Parrot"
"spCyano1coo","Norfolk/Lord Howe Parakeet"
"spCharm2pap/spCharm2ste","West Papuan/Stella's Lorikeet"
"spTrich1fla/spTrich1mey","Sula/Yellow-cheeked Lorikeet"
"spNanno2gul/spNanno2mel/spNanno2nig","Blue-fronted/Black-fronted/Dusky-cheeked Fig Parrot"
"spLoricbon/spLoricphi","Philippine/Black-billed Hanging Parrot"
"spSerillun/spSerilrub","Grey-lored/Silver-breasted Broadbill"
"spPittaabb/spPittafor/spPittanov/spPittaros/spPittasor","Western/Nicobar/Minahasa/Eastern/Biak Hooded Pitta"
"spScler1mex/spScler1obs","Tawny-throated/Dusky Leaftosser"
"spDeconlon/spDeconpal/spDecontyp","Little/Northern/Southern Long-tailed Woodcreeper"
"spCampy1mul/spCampy1pro/spCampy1pro1","Curve-billed/Tapajos/Xingu Scythebill"
"spXenop1gen/spXenop1mex/spXenop1min","Northern/Amazonian/Atlantic Plain Xenops"
"spAutomcer/spAutomoch","Fawn-throated/Ochre-throated Foliage-gleaner"
"spCranimar","Vilcabamba/Marcapata Spinetail"
"spSynalalb/spSynalsim","Araguaia/White-lored Spinetail"
"spGrallalv/spGrallcaj/spGrallcoc/spGrallgra/spGrallobs/spGrallocc/spGrallone/spGrallruf2/spGrallsal/spGrallsat/spGrallsin/spGrallspa","Sierra Nevada/Perija/Muisca/Chami/Equatorial/Cajamarca/Chachapoyas/Panao/Junin/Urubamba/Puno/Bolivian Antpitta"
"spGrallaya/spGrallbla/spGrallcen","Chestnut/Oxapampa/Ayacucho Antpitta"
"spGrallalt/spGrallatu/spGrallqui","Tawny/Boyaca/Atuen Antpitta"
"spConopaur/spConopsne","Chestnut-belted/Black-breasted Gnateater"
"spMyiop1can/spMyiop1cin/spMyiop1par","Choco/Amazonian/Grey-headed Elaenia"
"spNesotmar/spNesottum","Tumbesian/Maranon Tyrannulet"
"spEuscaful/spEuscamel","Fulvous-crowned/Fulvous-faced Scrub Tyrant"
"spStigmbah/spStigmnap","Lesser/Bahia Wagtail-Tyrant"
"spMionegal/spMioneoli","Olive-streaked/Olive-striped Flycatcher"
"spMyiop2cry1/spMyiop2fas/spMyiop2ruf","Bran-colored/Mouse-grey/Rufescent Flycatcher"
"spRhync3aeq/spRhync3oli","Western/Eastern Olivaceous Flatbill"
"spContobog/spContocin","Northern/Southern Tropical Pewee"
"spOchth1fum/spOchth1sup","Brown-backed/Rufous-browed Chat-Tyrant"
"spMyiodchr/spMyiodhem","Golden-bellied/Golden-crowned Flycatcher"
"spCrypt5hol/spCrypt5lit","Choco/Green Manakin"
"spLepid1cor/spLepid1vel","Velvety/Blue-capped Manakin"
"spPachy2alb/spPachy2sal","Cryptic/Black-and-white Becard"
"spAmytoowe/spAmytowhi","Pilbara/Sandhill Grasswren"
"spMyzomobs/spMyzomrub/spMyzomrub1/spMyzomsim","Moluccan/Red-tinged/Biak/Dusky Myzomela"
"spMyzomcru/spMyzomery","Red/Reddish Myzomela"
"spMyzombat/spMyzomchl","Sulawesi/Bacan Myzomela"
"spMyzomlon/spMyzomros","Red-collared/Long-billed Myzomela"
"spSeric1bec/spSeric1nou","Tropical/Large Scrubwren"
"spGerygcit/spGerygfla","Fan-tailed/Rennell Gerygone"
"spMelan5cra/spMelan5pip","Thick-billed/Spotted Berrypecker"
"spParammon/spParamoli","Western/Eastern Crested Berrypecker"
"spBatiscap/spBatisdim","Malawi/Cape Batis"
"spBatisocc/spBatispoe","West African/Fernando Po Batis"
"spCyano5com/spCyano5mad","Comoro/Madagascar Blue Vanga"
"spCorac2gui/spCorac2koc/spCorac2min/spCorac2pan/spCorac2str","Bar-bellied/Mindoro/Visayan/Mindanao/Sulu Cuckooshrike"
"spCorac2jav/spCorac2lar/spCorac2mac","Indian/Oriental/Malayan Cuckooshrike"
"spEdolihol/spEdolitri","Solomons/Malaita Cicadabird"
"spEdolimor/spEdolisal1","Sangihe/Sulawesi Cicadabird"
"spEdoliery/spEdolirem","Central Melanesian/Bismarck Cicadabird"
"grEdoligragra/spEdolimey/spEdoliobi/spEdoliros/spEdoliten","Geelvink/Obi/North Moluccan/Rossel/Sahul Cicadabird"
"spLalagatr/spLalagleu1","Black-browed/Biak Triller"
"spFalcufro/spFalculeu/spFalcuwhi","Northern/Western/Eastern Shriketit"
"spPachy5cal1/spPachy5tey","Tenggara/Selayar Whistler"
"spPachy5cal1/spPachy5mac/spPachy5mel/spPachy5orp/spPachy5sha","Fawn-breasted/Tenggara/Yellow-throated/Mangrove Golden/Babar Whistler"
"spPachy5pec","Australian Golden/Western Whistler"
"spPachy5gra/spPachy5vit","White-throated/Yellow-throated Fiji Whistler"
"spPachy5orn/spPachy5utu/spPachy5van","Nendo/Utupua/Vanikoro Whistler"
"spLaniugig/spLaniusph","Giant/Chinese Grey Shrike"
"spOriolfin/spOriolmel","Timor/Wetar Oriole"
"spOriolcon1/spOriolcru","Javan/Black-and-crimson Oriole"
"spOriolcon/spOriolxan","Dark-throated/Ventriloquial Oriole"
"spDicruhot/spDicrupal/spDicrustr","Hair-crested/Palawan/Short-tailed Drongo"
"spRhipiruf","Northern/Biak Fantail"
"spRhipicoc/spRhipicou","White-winged/White-gorgeted Fantail"
"spRhipidro/spRhipiocu","Bougainville/Guadalcanal Fantail"
"spRhipilay/spRhipispi/spRhipiver1","New Caledonian/Vanuatu/Fiji Streaked Fantail"
"spRhipilou/spRhipimel/spRhipiruf2/spRhipiruf3/spRhipitor/spRhipiver","Gilolo/Australian Rufous/Louisiade/Santa Cruz/Micronesian Rufous/Solomons Rufous Fantail"
"spRhipidry/spRhipisem1","Arafura/Supertramp Fantail"
"spTerpsaff/spTerpsflo","Blyth's/Tenggara Paradise Flycatcher"
"spSympobim/spSympomel/spSympotri","Louisiade/Spectacled/Moluccan Monarch"
"spSympobar/spSympomal","Solomons/Malaita Monarch"
"spSympobro/spSymponig","Vella Lavella/Kolombangara Monarch"
"spCartecas/spCartepil","White-naped/Tanimbar Monarch"
"spMyiageic/spMyiagheb","Mussau/Velvet Flycatcher"
"spPlaty4ate/spPlaty4leu","Malayan/Bornean Black Magpie"
"spNucifcar/spNucifhem","Northern/Southern Nutcracker"
"spCorvucel/spCorvuenc/spCorvupus/spCorvusam/spCorvusie","Sunda/Sulawesi/Samar/Sierra Madre/Palawan Crow"
"spCorvumac/spCorvuphi","Large-billed/Eastern Jungle/Indian Jungle/Philippine Jungle Crow"
"spLycocobi/spLycocpyr","Halmahera/Obi Paradise-crow"
"spManucate","Glossy-mantled/Tagula Manucode"
"spHeter6alb/spHeter6arm","Ashy/Black-capped Robin"
"spCoryp1hyp/spCoryp1kid","Kidepo/Red-winged Lark"
"spCoryp1afr/spCoryp1ath/spCoryp1kab/spCoryp1kur/spCoryp1nig/spCoryp1sha","Highland/Rufous-naped/Sentinel/Plains/Plateau/Russet Lark"
"spEremadun/spEremaere","Dunn's/Arabian Lark"
"spAlaud1hei/spAlaud1ruf","Mediterranean/Turkestan Short-toed Lark"
"spAtimafla/spAtimafla1","Yellow-gorgeted/Pale-throated Greenbul"
"spPhyll4alb1/spPhyll4vir","White-throated/Angola Greenbul"
"spIxossum/spIxosvir","Sumatran/Javan Bulbul"
"spHypsiaur/spHypsichl/spHypsihar/spHypsilon/spHypsiluc/spHypsipla","Sangihe/Togian/Banggai/Sula/Halmahera/Obi Golden Bulbul"
"spHypsicat/spHypsieve","Yellowish/Camiguin Bulbul"
"spPycno2dav/spPycno2fin","Pale-eyed/Stripe-throated Bulbul"
"spRiparcow/spRiparpal","Brown-throated/Madagascar Martin"
"spHirun2jav/spHirun2tah","Pacific/Tahiti Swallow"
"spPtyonobs/spPtyonruf","Pale Crag/Red-throated Rock Martin"
"spPtyonful/spPtyonruf","Red-throated/Large Rock Martin"
"spDeliclag/spDelicurb","Western/Siberian House Martin"
"spCecrodau/spCecromel/spCecroruf","European/Eastern/African Red-rumped Swallow"
"spPhyll5pre","Flores/Timor Leaf Warbler"
"spPhyll5nes/spPhyll5sar","Sulawesi/Lompobattang Leaf Warbler"
"spCincl2tur/spCincl2whi","Guadalcanal/Santo Thicketbird"
"grCistiabe[em/spCistibai","Rock-loving/Huambo Cisticola"
"sspPrinicriban/sspPrinicricri/sspPrinicristr/sspPrinistrcat","Himalayan/Striped Prinia"
"spPriniatr/spPrinikha","Black-throated/Rufous-crowned Prinia"
"spPrinigra/spPrinilep","Graceful/Delicate Prinia"
"spApalifla1","Brown-tailed/Yellow-breasted Apalis"
"spApalikar/spApalistr","Karamoja/Maasai Apalis"
"spSuthobru/spSuthoric","Brown-winged/Eye-ringed Parrotbill"
"spSterraff/spSterrnig","Calabarzon/Visayan Babbler"
"spZoste1kaf/spZoste1pol","Ethiopian/Kafa White-eye"
"spZoste1kas/spZoste1sen","Northern Yellow/Angola White-eye"
"spZoste1anj/spZoste1com/spZoste1mad","Anjouan/Moheli/Malagasy White-eye"
"spZoste1min","Green-fronted/Black-fronted White-eye"
"spZoste1fus","Capped/Oya Tabu White-eye"
"spZoste1ham/spZoste1obl/spZoste1ren","Bougainville/Guadalcanal/Makira White-eye"
"spMixorfla/spMixorpri","Grey-cheeked/Kangean Tit-Babbler"
"spCyano10bic/spCyano10ery","Chestnut-winged/Grey-hooded Babbler"
"spPomat1fer/spPomat1pha","Black-crowned/Brown-crowned Scimitar Babbler"
"spPomat1bor/spPomat1mon","Sunda/Javan Scimitar Babbler"
"spEryth5ery/spEryth5imb","Rusty-cheeked/Red-eyed Scimitar Babbler"
"spPellocap/spPellocap1/spPellonig","Malayan/Javan/Bornean Black-capped Babbler"
"spPellomal","Mourning/Glissando/Leaflitter Babbler"
"spPelloros","Malayan/Bornean Swamp Babbler"
"spIlladdis/spIlladruf","Pale-breasted/Tanzanian Illadopsis"
"spIrenapue/spIrenatwe","Asian/Palawan Fairy-bluebird"
"spPheugeuo/spPheugsch","Plain-tailed/Grey-browed Wren"
"spTroglaed/spTroglbea/spTroglgre/spTroglmar/spTroglmes/spTroglmus/spTroglmus1","Northern House/Southern House/Cozumel/Kalinago/St. Lucia/St. Vincent/Grenada Wren"
"spCyphodic/spCyphotho","Northern/Southern Chestnut-breasted Wren"
"spPolio4bil/spPolio4mai/spPolio4plu","Tropical/Maranon/White-browed Gnatcatcher"
"spSitta1ins/spSitta1pus","Brown-headed/Bahama Nuthatch"
"spRamph6bra/spRamph6san","Martinique/St. Lucia Thrasher"
"spGracurel/spGracuven","Common/Nias/Tenggara Hill Myna"
"spAcridbur/spAcridleu","Burmese/Vinous-breasted Myna"
"spGracu1con/spGracu1flo/spGracu1jal","Indian/Siamese/Javan Pied Myna"
"spRhabd1ino/spRhabd1rab","Stripe-breasted/Visayan Rhabdornis"
"spZoothatr/spZoothtal","New Britain/Bougainville Thrush"
"spTurdulit/spTurdusim","Ethiopian/Groundscraper Thrush"
"spTurdubou1/spTurduden/spTurduery/spTurduhei/spTurdujav/spTurdukul/spTurdumin/spTurdunig2/spTurduniv/spTurdupap/spTurdupol/spTurdupri/spTurduruf3/spTurdusam/spTurdusch/spTurdutho/spTurduvan/spTurduxan1","Taiwan/Mindoro Island/Luzon Island/Mindanao Island/Wallacean Island/Christmas Island/Sundaic Island/Moluccan Island/Papuan Island/Bismarck Island/Bougainville Island/Solomons Island/Vanikoro Island/White-headed Island/New Caledonian Island/Tasman Sea Island/Samoan Island/Fiji Island Thrush"
"grCopsymal[me/spCopsyleg/spCopsymal/spCopsynig/spCopsyomi","Larwo/Kangean/Sri Lanka/White-rumped Shama"
"spCopsybar/spCopsystr","White-crowned/Maratua Shama"
"spCopsyluz/spCopsysup","White-browed/Visayan Shama"
"spCyorncam/spCyornher","Blue-breasted/Rufous-breasted Blue Flycatcher"
"spCyornban/spCyornmon","Javan/Dayak Blue Flycatcher"
"spCyornhai/spCyornrub","Blue-throated/Hainan Blue Flycatcher"
"spEumyiosc/spEumyistr","Flores/Sumba Jungle Flycatcher"
"spCyornocu/spCyornruf1/spCyornruf2","Philippine/Sulu/Crocker Jungle Flycatcher"
"spNiltaoat/spNiltaviv","Chinese/Taiwan Vivid Niltava"
"spStiphery/spStiphmab/spStiphpyr","Orange-breasted/Yellow-breasted/Olive-backed Forest Robin"
"spSheppboc/spShepppoe","Bocage's/Short-tailed Akalat"
"spBrach3ery/spBrach3flo/spBrach3mon/spBrach3pol/spBrach3sat","Philippine/Bornean/Sumatran/Javan/Flores Shortwing"
"spLarvikom/spLarvinam","Ryukyu/Okinawa Robin"
"spLarviaka/spLarvitan","Japanese/Izu Robin"
"spTarsifor/spTarsiind","White-browed/Taiwan Bush Robin"
"spTarsialb/spTarsicya","Red-flanked/Qilian Bluetail"
"spFicednar/spFicedows","Narcissus/Ryukyu Flycatcher"
"spMontiery/spMontisha","Amber Mountain/Forest Rock Thrush"
"spMyrme2arn","Ruaha/Arnot's Chat"
"spOenanoen/spOenansee","Northern/Atlas Wheatear"
"spOenanbot/spOenanfre","Buff-breasted/Rusty-breasted Wheatear"
"spOenanlug2","Maghreb/Mourning/Basalt Wheatear"
"spChlor7coc/spChlor7mol","Blue-winged/Javan Leafbird"
"spDicaeant/spDicaekam","Yellow-crowned/Flame-crowned Flowerpecker"
"grDicaehirhir/spDicaehir/spDicaekei","Pink-breasted Flowerpecker/Mistletoebird"
"spDicaebec/spDicaecam/spDicaeign1/spDicaeluz","Fire-breasted/Cambodian/Sumatran/Fire-throated Flowerpecker"
"spDicaehan/spDicaerho/spDicaesan/spDicaewil","Javan/Flores/Sumba/Timor Flowerpecker"
"spAnthr3rec/spAnthr3tep","Yellow-chinned/Grey-chinned Sunbird"
"spCinny2mel/spCinny2pul","Beautiful/Gorgeous Sunbird"
"spCinny2hab/spCinny2hel","Arabian/Abyssinian Sunbird"
"spCinny2aur/spCinny2cle/spCinny2fre/spCinny2ide/spCinny2inf/spCinny2jug/spCinny2orn/spCinny2tey","Ornate/Garden/Palawan/Sahul/Tukangbesi/Flores Sea/South Moluccan/Mamberamo Sunbird"
"spAetho1bol/spAetho1tib","Apo/Tboli Sunbird"
"spAracheve/spArachmod","Grey-breasted/Bornean Spiderhunter"
"spPloce2bra/spPloce2nig1","Olive-naped/Black-necked Weaver"
"spPloce2hol/spPloce2sub1","Eastern Golden/Ruvu Weaver"
"spPloce2cas2/spPloce2nig2","Chestnut-and-black/Vieillot's Black Weaver"
"spAnapljub/spAnaplrub","Red-headed/Red Weaver"
"spEupleard/spEuplelat","Red-collared/Red-cowled Widowbird"
"spTaeni2gut","Sunda/Australian Zebra Finch"
"spLonchhun/spLonchnig","Mottled/New Hanover Mannikin"
"spAnthunic/spAnthusim","Long-billed/Nicholson's Pipit"
"spAnthujap/spAnthurub","Siberian/American Pipit"
"spFringcan/spFringcoe/spFringmad/spFringmor/spFringspo","Eurasian/African/Azores/Madeira/Canary Islands Chaffinch"
"spCarpo4sib","Siberian/Chinese Long-tailed Rosefinch"
"spChlor11sin","Oriental/Bonin Greenfinch"
"spCrithrei1/spCrithstr1","Stripe-breasted/Reichard's Seedeater"
"spChrys7est/spChrys7min","Indonesian/Mindanao Serin"
"spCarducan/spCarducar","European/Grey-crowned Goldfinch"
"spEuphoaff/spEuphogod","West Mexican/Scrub Euphonia"
"spChlor8fla/spChlor8mus/spChlor8scl","Hispaniolan/Puerto Rican/Lesser Antillean Euphonia"
"spEmberper/spEmberspo","Black-faced/Masked Bunting"
"spArrem1abe/spArrem1nig","Black-capped/Maranon Sparrow"
"spArrem1tac","Yellow-mandibled/Pectoral Sparrow"
"spAtlapsch/spAtlaptac","Slaty/Taczanowski's Brushfinch"
"spSturn3lil/spSturn3mag","Eastern/Chihuahuan Meadowlark"
"spBasil2del/spBasil2ruf","Rufous-capped/Chestnut-capped Warbler"
"spSalta1coe/spSalta1gra/spSalta1oli","Cinnamon-bellied/Olive-grey/Bluish-grey Saltator"
"spMelop1gra/spMelop1por","Puerto Rican/St. Kitts Bullfinch"
"spMelop1nig/spMelop1tay","Cuban/Grand Cayman Bullfinch"
"spGeosp1mag/spGeosp1pro","Genovesa Cactus/Large Ground Finch"
"spXenodpar","Streaked/Tit-like Dacnis"
"spDubustae","Carriker's/Buff-breasted/Streak-crowned Mountain Tanager"
"spStilpcya","Black-headed/Black-hooded Tanager"
"spTangabra/spTangamex","Turquoise/White-bellied Tanager"
