"spLagoplag","Red Grouse/Willow Ptarmigan"
"spAegotben/spAegotter","Barred/Karimui Owlet-nightjar"
"spCouaoli/spCouaruf","Red-capped/Olive-capped Coua"
"spPhaencur/spPhaenoen","Chestnut-breasted/Mentawai Malkoha"
"spChalc1cra/spChalc1min","Little/Pied Bronze Cuckoo"
"spCacomadd/spCacombla/spCacomvar","Sahul/Manus/Solomons Brush Cuckoo"
"spCacomsep/spCacomvir","Sunda/Sulawesi Brush Cuckoo"
"spLarusmon/spLarusveg","Vega/Mongolian Gull"
"spEudyp1chr1","Eastern/Western Rockhopper Penguin"
"spSulabre/spSulaleu","Brown/Cocos Booby"
"grButorstr[at/grButorstrstr","Little/Striated Heron"
"spArdeabra/spArdeaint/spArdeaplu","Yellow-billed/Medium/Plumed Egret"
"spOtuslem/spOtuslet","Collared/Sunda Scops Owl"
"spTrogochr/spTrogocup/spTrogoruf/spTrogoten","Northern/Choco/Amazonian/Atlantic Black-throated Trogon"
"spHorizgra/spHorizhar","Western/Eastern Dwarf Hornbill"
"spHorizalb/spHorizcas","Western/Eastern Long-tailed Hornbill"
"spCeyxeri/spCeyxruf","Black-backed/Rufous-backed Dwarf Kingfisher"
"spPsilo1cya/spPsilo1duv","Blue-eared/Black-eared Barbet"
"spPogonpus/spPogonuro","Northern/Southern Red-fronted Tinkerbird"
"spTrachgof/spTrachpur","Western/Eastern Yellow-billed Barbet"
"spColapaur1/spColapmex","Northern/Guatemalan Flicker"
"spPittaabb/spPittafor/spPittanov/spPittaros/spPittasor","Western/Nicobar/Minahasa/Eastern/Biak Hooded Pitta"
"spXenop1gen/spXenop1mex","Northern/Amazonian Plain Xenops"
"spAmytoowe/spAmytowhi","Pilbara/Sandhill Grasswren"
"spCorac2gui/spCorac2koc/spCorac2min/spCorac2pan/spCorac2str","Bar-bellied/Mindoro/Visayan/Mindanao/Sulu Cuckooshrike"
"spCorac2jav/spCorac2lar/spCorac2mac","Indian/Oriental/Malayan Cuckooshrike"
"spEdolihol/spEdolitri","Solomons/Malaita Cicadabird"
"spEdolimor/spEdolisal1","Sangihe/Sulawesi Cicadabird"
"spEdoliery/spEdolirem","Central Melanesian/Bismarck Cicadabird"
"grEdoligragra/spEdolimey/spEdoliobi/spEdoliros/spEdoliten","Geelvink/Obi/North Moluccan/Rossel/Sahul Cicadabird"
"spPachy5cal1/spPachy5tey","Tenggara/Selayar Whistler"
"spPachy5cal1/spPachy5mac/spPachy5mel/spPachy5orp/spPachy5sha","Fawn-breasted/Tenggara/Yellow-throated/Mangrove Golden/Babar Whistler"
"spPachy5pec","Australian Golden/Western Whistler"
"spPachy5gra/spPachy5vit","White-throated/Yellow-throated Fiji Whistler"
"spPachy5orn/spPachy5utu/spPachy5van","Nendo/Utupua/Vanikoro Whistler"
"spRhipicoc/spRhipicou","White-winged/White-gorgeted Fantail"
"spRhipidro/spRhipiocu","Bougainville/Guadalcanal Fantail"
"spRhipilay/spRhipispi/spRhipiver1","New Caledonian/Vanuatu/Fiji Streaked Fantail"
"spRhipilou/spRhipimel/spRhipiruf2/spRhipiruf3/spRhipitor/spRhipiver","Gilolo/Australian Rufous/Louisiade/Santa Cruz/Micronesian Rufous/Solomons Rufous Fantail"
"spRhipidry/spRhipisem1","Arafura/Supertramp Fantail"
"spSympobim/sspSympotri[trwel","Spectacled/Moluccan Monarch"
"spSympobar/spSympomal","Solomons/Malaita Monarch"
"spSympobro/spSymponig","Vella Lavella/Kolombangara Monarch"
"spNucifcar/spNucifhem","Northern/Southern Nutcracker"
"spCorvucel/spCorvuenc","Sunda/Sulawesi Crow"
"spCorvumac/spCorvuphi","Large-billed/Eastern Jungle/Indian Jungle/Philippine Jungle Crow"
"spCoryp1hyp/spCoryp1kid","Kidepo/Red-winged Lark"
"spCoryp1afr/spCoryp1ath/spCoryp1kab/spCoryp1kur/spCoryp1nig","Highland/Rufous-naped/Sentinel/Plains/Plateau Lark"
"spAtimafla/spAtimafla1","Yellow-gorgeted/Pale-throated Greenbul"
"spPhyll4alb1/spPhyll4vir","White-throated/Angola Greenbul"
"spRiparcow/spRiparpal","Brown-throated/Madagascar Martin"
"spPtyonobs/spPtyonruf","Pale Crag/Red-throated Rock Martin"
"spPtyonful/spPtyonruf","Red-throated/Large Rock Martin"
"spHirun2jav/spHirun2tah","Pacific/Tahiti Swallow"
"spCecrodau/spCecromel/spCecroruf","European/Eastern/African Red-rumped Swallow"
"grCistiabe[em/spCistibai","Rock-loving/Huambo Cisticola"
"spApalikar/spApalistr","Karamoja/Maasai Apalis"
"spSuthobru/spSuthoric","Brown-winged/Eye-ringed Parrotbill"
"spZoste1kaf/spZoste1pol","Ethiopian/Kafa White-eye"
"spZoste1kas/spZoste1sen","Northern Yellow/Angola White-eye"
"spEryth5ery/spEryth5imb","Rusty-cheeked/Red-eyed Scimitar Babbler"
"spPellomal","Mourning/Glissando/Leaflitter Babbler"
"spPelloros","Malayan/Bornean Swamp Babbler"
"spPheugeuo/spPheugsch","Plain-tailed/Grey-browed Wren"
"spTroglaed/spTroglbea/spTroglgre/spTroglmar/spTroglmes/spTroglmus/spTroglmus1","Northern House/Southern House/Cozumel/Kalinago/St. Lucia/St. Vincent/Grenada Wren"
"spCyphodic/spCyphotho","Northern/Southern Chestnut-breasted Wren"
"spPolio4mai/spPolio4plu","Tropical/Maranon Gnatcatcher"
"spRamph6bra/spRamph6san","Martinique/St. Lucia Thrasher"
"spZoothatr/spZoothtal","New Britain/Bougainville Thrush"
"spTurdubou1/spTurduden/spTurduery/spTurduhei/spTurdujav/spTurdukul/spTurdumin/spTurdunig2/spTurdupap/spTurdupol/spTurdupri/spTurduruf3/spTurdusam/spTurdusch/spTurdutho/spTurduvan/spTurduxan1","Mindoro/Luzon/Mindanao/Wallacean/Christmas/Sundaic/Moluccan/Papuan/Bismarck/Bougainville/Solomons/Vanikoro/White-headed/New Caledonian/Tasman Sea/Samoan/Fiji Island Thrush"
"spCopsybar/spCopsystr","White-crowned/Maratua Shama"
"spCopsyleg/spCopsymal/spCopsynig/spCopsyomi","Larwo/Kangean/Sri Lanka/White-rumped Shama"
"spCyornhai/spCyornrub","Blue-throated/Hainan Blue Flycatcher"
"spStiphery/spStiphmab/spStiphpyr","Orange-breasted/Yellow-breasted/Olive-backed Forest Robin"
"spTarsifor/spTarsiind","White-browed/Taiwan Bush Robin"
"spTarsialb/spTarsicya","Red-flanked/Qilian Bluetail"
"grDicaehirhir/spDicaehir/spDicaekei","Pink-breasted Flowerpecker/Mistletoebird"
"spDicaebec/spDicaecam/spDicaeign1/spDicaeluz","Fire-breasted/Cambodian/Sumatran/Fire-throated Flowerpecker"
"spDicaehan/spDicaerho/spDicaesan/spDicaewil","Javan/Flores/Sumba/Timor Flowerpecker"
"spCinny2mel/spCinny2pul","Beautiful/Gorgeous Sunbird"
"spCinny2aur/spCinny2cle/spCinny2fre/spCinny2ide/spCinny2inf/spCinny2jug/spCinny2orn/spCinny2tey","Ornate/Garden/Palawan/Sahul/Tukangbesi/Flores Sea/South Moluccan/Mamberamo Sunbird"
"spAetho1bol/spAetho1tib","Apo/Tboli Sunbird"
"spAnthujap/spAnthurub","Siberian/American Pipit"
"spCarducan/spCarducar","European/Grey-crowned Goldfinch"
"spArrem1abe/spArrem1nig","Black-capped/Maranon Sparrow"
"spArrem1tac","Yellow-mandibled/Pectoral Sparrow"
"spAtlapsch/spAtlaptac","Slaty/Taczanowski's Brushfinch"
"spStilpcya","Black-headed/Black-hooded Tanager"
