"spMelandeg/spMelanste","White-winged/Stejneger's Scoter"
"spPenelbri/spPenelobs","Dusky-legged/Yungas Guan"
"spPipilcum/spPipilgra","Blue-throated/White-throated Piping Guan"
"spGutteedo/spGuttepuc/spGuttever","Western/Eastern/Southern Crested Guineafowl"
"spLagoplag","Red Grouse/Willow Ptarmigan"
"spSclershe/spSclerwhy","Shelley's/Whyte's Francolin"
"spSclerelg/spSclerpsi","Moorland/Elgon Francolin"
"spTropicha/spTropigra","Chestnut-necklaced/Sabah Partridge"
"spLophuery/spLophupyr","Malayan/Bornean Crestless Fireback"
"spLophuign/spLophuruf","Malayan/Bornean Crested Fireback"
"spRheinnig/spRheinoce","Vietnamese/Malayan Crested Argus"
"spEudyp1chr1","Eastern/Western Rockhopper Penguin"
"spPachy1mac/spPachy1sal","Salvin's/MacGillivray's Prion"
"spCiconepi/spCiconmic","African/Asian Woolly-necked Stork"
"grButorstr[at/grButorstrstr","Little/Striated Heron"
"spArdeabra/spArdeaint/spArdeaplu","Yellow-billed/Medium/Plumed Egret"
"spSulabre/spSulaleu","Brown/Cocos Booby"
"spTachy3cir/spTachy3fas","Collared Sparrowhawk/Brown Goshawk"
"spAsturatr/spAsturgen","Eurasian/American Goshawk"
"spButeo1but","Common/Cape Verde Buzzard"
"spPorph1ind/spPorph1pol","Grey-headed/Black-backed Swamphen"
"spTurninov/spTurnivar","Painted/New Caledonian Buttonquail"
"spAnarhale/spAnarhdea","Kentish/White-faced Plover"
"spAnarhatr/spAnarhmon","Tibetan/Siberian Sand Plover"
"spGalli5mag/spGalli5par","Pantanal/Magellanic Snipe"
"spNumenpha","Eurasian/Hudsonian Whimbrel"
"spLarusbra/spLaruscan","Common/Short-billed Gull"
"spLarusmon/spLarusveg","Vega/Mongolian Gull"
"spGelocmac/spGelocnil","Gull-billed/Australian Tern"
"spThala1alb/spThala1max","West African Crested/Royal Tern"
"spStrepbit/spStrepdus","Sunda/Philippine Collared Dove"
"spStrepdec/spStrepxan","Eurasian/Burmese Collared Dove"
"spGourasch/spGourascl","Scheepmaker's/Sclater's Crowned Pigeon"
"spTrerofor","Ryukyu/Taiwan Green Pigeon"
"spPtilichr/spPtilipur","Raiatea/Grey-green Fruit Dove"
"spPtilisol/spPtilispe","Geelvink/Yellow-bibbed Fruit Dove"
"spDuculaen/spDuculoen","Green/Enggano Imperial Pigeon"
"spDuculgee/spDuculmyr","Spice/Geelvink Imperial Pigeon"
"spDuculbad/spDuculcup","Malabar/Mountain Imperial Pigeon"
"spCentr1pha","Kai/Pheasant Coucal"
"spCouaoli/spCouaruf","Red-capped/Olive-capped Coua"
"spPhaencur/spPhaenoen","Chestnut-breasted/Mentawai Malkoha"
"spChalc1cra/spChalc1min","Little/Pied Bronze Cuckoo"
"spCacomadd/spCacombla/spCacomvar","Sahul/Manus/Solomons Brush Cuckoo"
"spCacomsep/spCacomvir","Sunda/Sulawesi Brush Cuckoo"
"spSurnidic/spSurnilug","Square-tailed/Fork-tailed Drongo-Cuckoo"
"spTytofur","American Barn/Ashy-faced Owl"
"spOtusbak/spOtuslet","Indian/Collared Scops Owl"
"spOtuslem/spOtuslet","Collared/Sunda Scops Owl"
"spOtussen","African/Annobon Scops Owl"
"spOtusmag/spOtustem","Moluccan/Wetar Scops Owl"
"grOtusmagkal/spOtusman1","Moluccan/Sulawesi Scops Owl"
"spMegasalb/spMegasing","White-throated/Rufescent Screech Owl"
"spBuboafr/spBubomil","Arabian/Spotted Eagle-Owl"
"spStrixalu/spStrixmau","Tawny/Maghreb Owl"
"spTaenibro/spTaenisyl","Collared/Sunda Owlet"
"spNinoxboo/spNinoxfus/spNinoxple/spNinoxrot","Australian/Rote/Timor/Alor Boobook"
"spNinoxleu/spNinoxnov","Tasmanian Boobook/Morepork"
"spNinoxhan/spNinoxsqu","Buru/Seram Boobook"
"spAthengra/spAthenjac/spAthenmal/spAthenros","West Solomons/Guadalcanal/Malaita/Makira Owl"
"spCapriaff/spCaprigri","Savanna/Chirruping Nightjar"
"spAegotben/spAegotter","Barred/Karimui Owlet-nightjar"
"spColloaff/spColloesc/spColloiso/spCollomar/spCollonat/spColloneg/spCollosum/spCollouro","Plume-toed/Grey-rumped/Ridgetop/Tenggara/Drab/Glossy/Satin/Christmas Swiftlet"
"spChaetand/spChaetvau","Vaux's/Ashy-tailed Swift"
"spCypsigra/spCypsipar","African/Malagasy Palm Swift"
"spCampycal/spCampydia/spCampylar","Grey-breasted/Outcrop/Diamantina Sabrewing"
"spAnthrnig/spAnthrpre","Green-breasted/Black-throated Mango"
"spAnthraur/spAnthrdom","Hispaniolan/Puerto Rican Mango"
"spLopho5cha/spLopho5ver","Festive/Butterfly Coquette"
"spCynanlat/spCynanlaw","Broad-billed/Tres Marias Hummingbird"
"spSaucecup/spSaucevir","Green-bellied/Copper-tailed Hummingbird"
"spUrochbou/spUrochleu","Rufous-gaped/Green-backed Hillstar"
"spOreotest/spOreotsto","Andean/Green-headed Hillstar"
"spCoelicon/spCoeliinc/spCoelitor","Green/Collared/Gould's Inca"
"spCoelibon/spCoelicon1/spCoelieos","Perija/Golden-bellied/Golden-tailed Starfrontlet"
"spHelia1cla/spHelia1spe","Longuemare's/Merida Sunangel"
"spSchisalb/spSchisgeo","White-throated/Geoffroy's Daggerbill"
"spTrogochr/spTrogocup/spTrogoruf/spTrogoten","Northern/Choco/Amazonian/Atlantic Black-throated Trogon"
"spCoracaff/spCoracben","Indian/Indochinese Roller"
"spCittucya/spCittusan","Sulawesi/Sangihe Lilac Kingfisher"
"spHalcygul/spHalcysmy","White-throated/Brown-breasted Kingfisher"
"spAlcedeur/spAlcedpen","Malaysian/Javan Blue-banded Kingfisher"
"spCeyxeri/spCeyxruf/sspCeyxrufruf","Black-backed/Rufous-backed Dwarf Kingfisher"
"spCeyxfal/spCeyxsan","Sangihe/Sulawesi Dwarf Kingfisher"
"spMerop1laf/spMerop1var","Blue-breasted/Ethiopian Bee-eater"
"spMerop1cya/spMerop1ori/spMerop1vir","African/Arabian/Asian Green Bee-eater"
"spMerop1ame/spMerop1vir1","Blue-throated/Rufous-crowned Bee-eater"
"spLopho11fas/spLopho11sem","West African/Congo Pied Hornbill"
"spHorizgra/spHorizhar","Western/Eastern Dwarf Hornbill"
"spHorizalb/spHorizcas","Western/Eastern Long-tailed Hornbill"
"spPsilo1cya/spPsilo1duv","Blue-eared/Black-eared Barbet"
"spPogonpus/spPogonuro","Northern/Southern Red-fronted Tinkerbird"
"spTrachgof/spTrachpur","Western/Eastern Yellow-billed Barbet"
"spTrach1dar","D'Arnaud's/Usambiro Barbet"
"grCampe1mac[ca/grCampe1macper","Little Green/Little Spotted Woodpecker"
"spCampe1tae/spCampe1tul","Tullberg's/Fine-banded Woodpecker"
"spDryobcat/spDryobper","Crimson-naped/Necklaced Woodpecker"
"spColapaur1/spColapmex","Northern/Guatemalan Flicker"
"spCampehae","Splendid/Crimson-bellied Woodpecker"
"spPicuscan","Grey-headed/Sumatran Woodpecker"
"spChrys4gut/spChrys4soc","Greater/Malabar Flameback"
"spMeiglgra/spMeigltri","Buff-rumped/Zebra Woodpecker"
"spMulleful1/spMullefun","Northern/Southern Sooty Woodpecker"
"spCacatcit/spCacatsul","Yellow-crested/Citron-crested Cockatoo"
"spAmazo1aut/sspAmazo1autautaut","Red-lored/Diademed Amazon"
"spCorac1nig/spCorac1sib","Comoro Black/Lesser Vasa Parrot"
"spEcleccor/spEclecpol/spEclecrie/spEclecror","Moluccan/Sumba/Tanimbar/Papuan Eclectus"
"spPsitt1abb/spPsitt1cya","Blue-rumped/Simeulue Parrot"
"spTanygeve/spTanygsum","Blue-backed/Azure-rumped Parrot"
"spCyano1coo","Norfolk/Lord Howe Parakeet"
"spCharm2pap/spCharm2ste","West Papuan/Stella's Lorikeet"
"spTrich1fla/spTrich1mey","Sula/Yellow-cheeked Lorikeet"
"spNanno2gul/spNanno2mel/spNanno2nig","Blue-fronted/Black-fronted/Dusky-cheeked Fig Parrot"
"spLoricbon/spLoricphi","Philippine/Black-billed Hanging Parrot"
"spSerillun/spSerilrub","Grey-lored/Silver-breasted Broadbill"
"spPittaabb/spPittafor/spPittanov/spPittaros/spPittasor","Western/Nicobar/Minahasa/Eastern/Biak Hooded Pitta"
"spPittacon/spPittaele/spPittavig","Ornate/Elegant/Banda Sea Pitta"
"spSynalalb/spSynalsim","Araguaia/White-lored Spinetail"
"spSynalchi/spSynalsti","Chinchipe/Necklaced Spinetail"
"spCranimar","Vilcabamba/Marcapata Spinetail"
"spAutomcer/spAutomexs/spAutomoch","Fawn-throated/Ochre-throated/Chiriqui Foliage-gleaner"
"spScler1mex/spScler1obs","Tawny-throated/Dusky Leaftosser"
"spXenop1gen/spXenop1mex/spXenop1min","Northern/Amazonian/Atlantic Plain Xenops"
"spDeconlon/spDeconpal/spDecontyp","Little/Northern/Southern Long-tailed Woodcreeper"
"spXipho1atl/spXipho1fus","Lesser/Ceara Woodcreeper"
"spCampy1mul/spCampy1pro/spCampy1pro1","Curve-billed/Tapajos/Xingu Scythebill"
"spThamn1ana/spThamn1ruf","Russet/Rufescent Antshrike"
"spHerpsfra/spHerpsruf","Rusty-winged/Rufous-margined Antwren"
"spPyrigleu/spPyrigmau/spPyrigsim","Western/Tapajos/East Amazonian Fire-eye"
"spGrallalv/spGrallcaj/spGrallcoc/spGrallgra/spGrallobs/spGrallocc/spGrallone/spGrallruf2/spGrallsal/spGrallsat/spGrallsin/spGrallspa","Sierra Nevada/Perija/Muisca/Chami/Equatorial/Cajamarca/Chachapoyas/Panao/Junin/Urubamba/Puno/Bolivian Antpitta"
"spGrallaya/spGrallbla/spGrallcen","Chestnut/Oxapampa/Ayacucho Antpitta"
"spGrallalt/spGrallatu/spGrallqui","Tawny/Boyaca/Atuen Antpitta"
"spMyrmo7cam/spMyrmo7sub","Thrush-like/Tapajos Antpitta"
"spGrall1fer/spGrall1ley","Rusty-breasted/Rufous-breasted Antpitta"
"spConopaur/spConopsne","Chestnut-belted/Black-breasted Gnateater"
"spScytaand/spScytaopa","Loja/Paramo Tapaculo"
"spScytaint/spScytalat","Utcubamba/Blackish Tapaculo"
"spMyiop1can/spMyiop1cin/spMyiop1par","Choco/Amazonian/Grey-headed Elaenia"
"spElaenobs/spElaensor","Highland/Small-headed Elaenia"
"spNesotmar/spNesottum","Tumbesian/Maranon Tyrannulet"
"spEuscaful/spEuscamel","Fulvous-crowned/Fulvous-faced Scrub Tyrant"
"spStigmbah/spStigmnap","Lesser/Bahia Wagtail-Tyrant"
"spMionegal/spMioneoli","Olive-streaked/Olive-striped Flycatcher"
"spMyiop2cry1/spMyiop2fas/spMyiop2ruf","Bran-colored/Mouse-grey/Rufescent Flycatcher"
"spRhync3aeq/spRhync3oli","Western/Eastern Olivaceous Flatbill"
"spContobog/spContocin","Northern/Southern Tropical Pewee"
"spOchth1fum/spOchth1sup","Brown-backed/Rufous-browed Chat-Tyrant"
"spMyiodchr/spMyiodhem","Golden-bellied/Golden-crowned Flycatcher"
"spCrypt5hol/spCrypt5lit","Choco/Green Manakin"
"spLepid1cor/spLepid1vel","Velvety/Blue-capped Manakin"
"spPachy2alb/spPachy2sal","Cryptic/Black-and-white Becard"
"spMalurass/spMalurlam","Purple-backed/Variegated Fairywren"
"spAmytoowe/spAmytorow/spAmytostr/spAmytowhi","Pilbara/Sandhill/Opalton/Striated Grasswren"
"spMyzomobs/spMyzomrub/spMyzomrub1/spMyzomsim","Moluccan/Red-tinged/Biak/Dusky Myzomela"
"spMyzomcru/spMyzomery","Red/Reddish Myzomela"
"spMyzombat/spMyzomchl","Sulawesi/Bacan Myzomela"
"spMyzomcar/spMyzomnig1","Cardinal/Samoan Myzomela"
"spMyzomlon/spMyzomros","Red-collared/Long-billed Myzomela"
"spPtilo4gui/spPtilo4may","Rufous-backed/Mayr's Honeyeater"
"spMelipgra/spMelipimi","Graceful/Cryptic Honeyeater"
"spSeric1fro/spSeric1mac","White-browed/Spotted Scrubwren"
"spSeric1bec/spSeric1nou","Tropical/Large Scrubwren"
"spGerygcit/spGerygfla","Fan-tailed/Rennell Gerygone"
"spMelan5cra/spMelan5pip","Thick-billed/Spotted Berrypecker"
"spParammon/spParamoli","Western/Eastern Crested Berrypecker"
"spBatiscap/spBatisdim","Malawi/Cape Batis"
"spBatisocc/spBatispoe","West African/Fernando Po Batis"
"spLaniahol/spLaniapoe","Mountain/Albertine Sooty Boubou"
"spCyano5com/spCyano5mad","Comoro/Madagascar Blue Vanga"
"spCorac2jav/spCorac2lar/spCorac2mac","Indian/Oriental/Malayan Cuckooshrike"
"spCorac2gui/spCorac2koc/spCorac2min/spCorac2pan/spCorac2str","Bar-bellied/Mindoro/Visayan/Mindanao/Sulu Cuckooshrike"
"grEdoligragra/grEdoliremhei/grEdoliremmat/grEdoliremroo/spEdoliery/spEdolimey/spEdoliobi/spEdoliros/spEdoliten","Central Melanesian/Geelvink/Obi/North Moluccan/Bismarck/Rossel/Sahul Cicadabird"
"spEdolimor/spEdolisal1","Sangihe/Sulawesi Cicadabird"
"spEdolihol/spEdolitri","Solomons/Malaita Cicadabird"
"spLalagatr/spLalagleu1","Black-browed/Biak Triller"
"spFalcufro/spFalculeu/spFalcuwhi","Northern/Western/Eastern Shriketit"
"spPachy5cal1/spPachy5tey","Tenggara/Selayar Whistler"
"spPachy5cal1/spPachy5mac/spPachy5mel/spPachy5orp/spPachy5sha","Fawn-breasted/Tenggara/Yellow-throated/Mangrove Golden/Babar Whistler"
"grPachy5pecful/spPachy5pec","Australian Golden/Western Whistler"
"spPachy5gra/spPachy5vit","White-throated/Yellow-throated Fiji Whistler"
"spPachy5orn/spPachy5utu/spPachy5van","Nendo/Utupua/Vanikoro Whistler"
"spColluaff/spColludis/spCollufor/spCollumeg/spColluobs/spColluruf/spCollutap/spPachy5mel1","Biak Whistler/Arafura Shrikethrush/Variable Shrikethrush/Waigeo Shrikethrush/Mamberamo Shrikethrush/Tagula Shrikethrush/Sepik-Ramu Shrikethrush/Rufous Shrikethrush"
"spLaniubor/spLaniuexc","Great Grey/Northern Shrike"
"grLaniuexc[el/grLaniuexcauc/grLaniuexclah/grLaniuexcunc/spLaniumer","Great/Iberian Grey Shrike"
"spLaniugig/spLaniusph","Giant/Chinese Grey Shrike"
"spVireo1chi/spVireo1oli","Red-eyed/Chivi Vireo"
"spOriolfin/spOriolmel","Timor/Wetar Oriole"
"spOriolcon/spOriolxan","Dark-throated/Ventriloquial Oriole"
"spOriolcon1/spOriolcru","Javan/Black-and-crimson Oriole"
"spDicrulud/spDicrusha","Square-tailed/Sharpe's Drongo"
"spDicruhot/spDicrupal/spDicrustr","Hair-crested/Palawan/Short-tailed Drongo"
"spRhipiruf","Northern/Biak Fantail"
"spRhipicoc/spRhipicou","White-winged/White-gorgeted Fantail"
"spRhipidro/spRhipiocu","Bougainville/Guadalcanal Fantail"
"spRhipilay/spRhipispi/spRhipiver1","New Caledonian/Vanuatu/Fiji Streaked Fantail"
"spRhipisul/spRhipitey","Sulawesi/Taliabu Fantail"
"spRhipilou/spRhipimel/spRhipiruf2/spRhipiruf3/spRhipitor/spRhipiver","Gilolo/Australian Rufous/Louisiade/Santa Cruz/Micronesian Rufous/Solomons Rufous Fantail"
"spRhipidry/spRhipisem1","Arafura/Supertramp Fantail"
"spLampr1kli/spLampr1vic","Natewa/Taveuni Silktail"
"spTerpsaff/spTerpsflo","Blyth's/Tenggara Paradise Flycatcher"
"spSympobim/spSympomel/spSympotri","Louisiade/Spectacled/Moluccan Monarch"
"spSympobar/spSympomal","Solomons/Malaita Monarch"
"spSympobro/spSymponig","Vella Lavella/Kolombangara Monarch"
"spCartecas/spCartepil","White-naped/Tanimbar Monarch"
"spMyiageic/spMyiagheb","Mussau/Velvet Flycatcher"
"spPlaty4ate/spPlaty4leu","Malayan/Bornean Black Magpie"
"spPicaasi/spPicabot/spPicamau/spPicapic/spPicaser","Eurasian/Maghreb/Asir/Black-rumped/Oriental Magpie"
"spNucifcar/spNucifhem","Northern/Southern Nutcracker"
"spCorvucel/spCorvuenc/spCorvupus/spCorvusam/spCorvusie","Sunda/Sulawesi/Samar/Sierra Madre/Palawan Crow"
"spCorvumac/spCorvuphi","Large-billed/Eastern Jungle/Indian Jungle/Philippine Jungle Crow"
"spLycocobi/spLycocpyr","Halmahera/Obi Paradise-crow"
"spManucate","Glossy-mantled/Tagula Manucode"
"spLopho14lat/spLopho14min/spLopho14sup","Vogelkop/Greater/Lesser Lophorina"
"spHeter6alb/spHeter6arm","Ashy/Black-capped Robin"
"spPetro1mul/spPetro1pol/spPetro1pus","Norfolk/Solomons/Pacific Robin"
"spCoryp1hyp/spCoryp1kid","Kidepo/Red-winged Lark"
"spCoryp1afr/spCoryp1ath/spCoryp1kab/spCoryp1kur/spCoryp1nig/spCoryp1sha","Highland/Rufous-naped/Sentinel/Plains/Plateau/Russet Lark"
"spCalanbla/spCalanere","Blanford's/Rufous-capped Lark"
"spEremadun/spEremaere","Dunn's/Arabian Lark"
"spAlaud1hei/spAlaud1ruf","Mediterranean/Turkestan Short-toed Lark"
"spPycno2dav/spPycno2fin","Pale-eyed/Stripe-throated Bulbul"
"spPycno2fla/spPycno2leu","Flavescent/Pale-faced Bulbul"
"spArizekik/spArizenig","Kikuyu/Black-headed Mountain Greenbul"
"spAtimafla/spAtimafla1","Yellow-gorgeted/Pale-throated Greenbul"
"spPhyll4alb1/spPhyll4vir","White-throated/Angola Greenbul"
"spBledanot/spBledauga","Yellow-lored/Yellow-eyed Bristlebill"
"spAlophoch/spAlophruf","Penan/Ochraceous Bulbul"
"spAlophbre/spAlophtep","Grey-cheeked/Brown-cheeked Bulbul"
"spIolepro/spIolevir","Olive/Grey-eyed Bulbul"
"spIxossum/spIxosvir","Sumatran/Javan Bulbul"
"spHypsiaur/spHypsichl/spHypsihar/spHypsilon/spHypsiluc/spHypsipla","Sangihe/Togian/Banggai/Sula/Halmahera/Obi Golden Bulbul"
"spHypsicat/spHypsieve","Yellowish/Camiguin Bulbul"
"spRiparcow/spRiparpal","Brown-throated/Madagascar Martin"
"spHirun2jav/spHirun2tah","Pacific/Tahiti Swallow"
"spPtyonobs/spPtyonruf","Pale Crag/Red-throated Rock Martin"
"spPtyonful/spPtyonruf","Red-throated/Large Rock Martin"
"spDeliclag/spDelicurb","Western/Siberian House Martin"
"spCecrodau/spCecromel/spCecroruf","European/Eastern/African Red-rumped Swallow"
"spHororcan/spHorordip","Japanese/Manchurian Bush Warbler"
"spPhyll5int1/spPhyll5ogi","Kloss's/Davison's Leaf Warbler"
"spPhyll5nes/spPhyll5sar","Sulawesi/Lompobattang Leaf Warbler"
"spPhyll5pre","Flores/Timor Leaf Warbler"
"spPhyll5maf/spPhyll5mis/spPhyll5pol1","Island/Numfor/Biak Leaf Warbler"
"spAcroc1aus/spAcroc1ste","Clamorous/Australian Reed Warbler"
"spLocusido/spLocusman","Russet/Dalat Bush Warbler"
"spLocuscas/spLocusdis/spLocusmus","Sulawesi/Seram/Buru Bush Warbler"
"spBradybab/spBradycen","Little/Highland Rush Warbler"
"spCincl2tur/spCincl2whi","Guadalcanal/Santo Thicketbird"
"grCistiabe[em/spCistibai","Rock-loving/Huambo Cisticola"
"spPrinicri/spPrinistr","Himalayan/Striped Prinia"
"spPrinicoo/spPrinicri/spPrinipol/spPriniroc","Himalayan/Brown/Burmese/Annam Prinia"
"spPriniatr/spPrinikha","Black-throated/Rufous-crowned Prinia"
"spPrinigra/spPrinilep","Graceful/Delicate Prinia"
"spApalifla1","Brown-tailed/Yellow-breasted Apalis"
"spApalikar/spApalistr","Karamoja/Maasai Apalis"
"spEryth5ery/spEryth5imb","Rusty-cheeked/Red-eyed Scimitar Babbler"
"spPomat1bor/spPomat1mon","Sunda/Javan Scimitar Babbler"
"spPomat1fer/spPomat1pha","Black-crowned/Brown-crowned Scimitar Babbler"
"spCyano10bic/spCyano10ery","Chestnut-winged/Grey-hooded Babbler"
"spMixorfla/spMixorpri","Grey-cheeked/Kangean Tit-Babbler"
"spGypsoann/spGypsocal/spGypsocri","Annam/Rufous/Variable Limestone Babbler"
"spIlladdis/spIlladruf","Pale-breasted/Tanzanian Illadopsis"
"spPellomal","Mourning/Glissando/Leaflitter Babbler"
"spPelloros","Malayan/Bornean Swamp Babbler"
"spPellocap/spPellocap1/spPellonig","Malayan/Javan/Bornean Black-capped Babbler"
"spCurrucan/spCurruibe","Western/Eastern Subalpine Warbler"
"spSuthobru/spSuthoric","Brown-winged/Eye-ringed Parrotbill"
"spYuhinfla/spYuhinhum","Whiskered/Burmese Yuhina"
"spSterraff/spSterrnig","Calabarzon/Visayan Babbler"
"spZoste1jap/spZoste1sim","Swinhoe's/Warbling White-eye"
"spZoste1aur/spZoste1cit/spZoste1mel1/spZoste1pal/spZoste1sim","Swinhoe's/Indian/Ashy-bellied/Hume's/Sangkar White-eye"
"spZoste1aur/spZoste1eve","Hume's/Everett's White-eye"
"spZoste1chl1/spZoste1fla1","Lemon-bellied/Wakatobi White-eye"
"spZoste1atr2/spZoste1deh","Morotai/Cream-throated White-eye"
"spZoste1min","Green-fronted/Black-fronted White-eye"
"spZoste1fus","Capped/Oya Tabu White-eye"
"spZoste1ham/spZoste1obl/spZoste1ren","Bougainville/Guadalcanal/Makira White-eye"
"spZoste1aby/spZoste1fla/spZoste1soc","Abyssinian/Pale/Socotra White-eye"
"spZoste1and/spZoste1kas/spZoste1sen/spZoste1stu","Green/Northern Yellow/Angola/Southern Yellow White-eye"
"spZoste1eur/spZoste1kaf/spZoste1mbu/spZoste1pol/spZoste1win","Mbulu/Broad-ringed/Ethiopian/Kafa/South Pare White-eye"
"spZoste1ald/spZoste1anj/spZoste1com/spZoste1mad","Anjouan/Aldabra/Moheli/Malagasy White-eye"
"spIrenapue/spIrenatwe","Asian/Palawan Fairy-bluebird"
"spPheugeuo/spPheugsch","Plain-tailed/Grey-browed Wren"
"spTroglaed/spTroglbea/spTroglgre/spTroglmar/spTroglmes/spTroglmus/spTroglmus1","Northern House/Southern House/Cozumel/Kalinago/St. Lucia/St. Vincent/Grenada Wren"
"spCyphodic/spCyphotho","Northern/Southern Chestnut-breasted Wren"
"spRamph5mel/spRamph5sti","Chattering/Trilling Gnatwren"
"spPolio4alb/spPolio4alb1","Yucatan/White-lored Gnatcatcher"
"spPolio4bil/spPolio4mai/spPolio4plu","Tropical/Maranon/White-browed Gnatcatcher"
"spSitta1ins/spSitta1pus","Brown-headed/Bahama Nuthatch"
"spRamph6bra/spRamph6san","Martinique/St. Lucia Thrasher"
"spGracurel/spGracuven","Common/Nias/Tenggara Hill Myna"
"spAcridbur/spAcridleu","Burmese/Vinous-breasted Myna"
"spGracu1con/spGracu1flo/spGracu1jal","Indian/Siamese/Javan Pied Myna"
"spRhabd1ino/spRhabd1rab","Stripe-breasted/Visayan Rhabdornis"
"spZoothatr/spZoothtal","New Britain/Bougainville Thrush"
"spCatha1dry/spCatha1mac","Yellow-throated/Speckled Nightingale-Thrush"
"spTurdulit/spTurdusim","Ethiopian/Groundscraper Thrush"
"spTurdubou1/spTurduden/spTurduery/spTurduhei/spTurdujav/spTurdukul/spTurdumin/spTurdunig2/spTurduniv/spTurdupap/spTurdupol/spTurdupri/spTurduruf3/spTurdusam/spTurdusch/spTurdutho/spTurduvan/spTurduxan1","Taiwan/Mindoro Island/Luzon Island/Mindanao Island/Wallacean Island/Christmas Island/Sundaic Island/Moluccan Island/Papuan Island/Bismarck Island/Bougainville Island/Solomons Island/Vanikoro Island/White-headed Island/New Caledonian Island/Tasman Sea Island/Samoan Island/Fiji Island Thrush"
"spTurduart/spTurduign/spTurdumur","Pantepui/Black-billed/Campina Thrush"
"grCopsymal[me/spCopsyleg/spCopsymal/spCopsynig/spCopsyomi","Larwo/Kangean/Sri Lanka/White-rumped Shama"
"spCopsybar/spCopsystr","White-crowned/Maratua Shama"
"spCopsyluz/spCopsysup","White-browed/Visayan Shama"
"spCyorncam/spCyornher","Blue-breasted/Rufous-breasted Blue Flycatcher"
"spCyornban/spCyornmon/spCyornwhi","Hill/Javan/Dayak Blue Flycatcher"
"spCyornsum/spCyorntic","Tickell's/Indochinese Blue Flycatcher"
"spCyornhai/spCyornrub","Blue-throated/Hainan Blue Flycatcher"
"spEumyiosc/spEumyistr","Flores/Sumba Jungle Flycatcher"
"spCyornocu/spCyornruf1/spCyornruf2","Philippine/Sulu/Crocker Jungle Flycatcher"
"spCyorncol/spCyornpel","Banggai/Sula Jungle Flycatcher"
"spNiltaoat/spNiltaviv","Chinese/Taiwan Vivid Niltava"
"spStiphery/spStiphmab/spStiphpyr","Orange-breasted/Yellow-breasted/Olive-backed Forest Robin"
"spSheppboc/spShepppoe","Bocage's/Short-tailed Akalat"
"spBrach3cru/spBrach3ery/spBrach3flo/spBrach3goo/spBrach3mon/spBrach3pol/spBrach3sat/spBrach3sin","Himalayan/Chinese/Taiwan/Philippine/Bornean/Sumatran/Javan/Flores Shortwing"
"spLarvikom/spLarvinam","Ryukyu/Okinawa Robin"
"spLarviaka/spLarvitan","Japanese/Izu Robin"
"spCalli2pec1/spCalli2tsc","Himalayan/Chinese Rubythroat"
"spMyiomdia/spMyiomsum","Sumatran/Javan Blue Robin"
"spTarsifor/spTarsiind","White-browed/Taiwan Bush Robin"
"spTarsialb/spTarsicya","Red-flanked/Qilian Bluetail"
"spFicednar/spFicedows","Narcissus/Ryukyu Flycatcher"
"spMontiery/spMontisha","Amber Mountain/Forest Rock Thrush"
"spMyrme2arn","Ruaha/Arnot's Chat"
"spOenanoen/spOenansee","Northern/Atlas Wheatear"
"spOenanbot/spOenanfre","Buff-breasted/Rusty-breasted Wheatear"
"spOenanhis/spOenanmel","Western/Eastern Black-eared Wheatear"
"spOenanlug2","Maghreb/Mourning/Basalt Wheatear"
"spChlor7coc/spChlor7mol","Blue-winged/Javan Leafbird"
"spDicaeant/spDicaekam","Yellow-crowned/Flame-crowned Flowerpecker"
"grDicaehirhir/spDicaehir/spDicaekei","Pink-breasted Flowerpecker/Mistletoebird"
"spDicaebec/spDicaecam/spDicaeign1/spDicaeluz","Fire-breasted/Cambodian/Sumatran/Fire-throated Flowerpecker"
"spDicaehan/spDicaerho/spDicaesan/spDicaewil","Javan/Flores/Sumba/Timor Flowerpecker"
"spAnthr3rec/spAnthr3tep","Yellow-chinned/Grey-chinned Sunbird"
"spCinny2ger/spCinny2man","Eastern/Western Miombo Sunbird"
"spCinny2mel/spCinny2pul","Beautiful/Gorgeous Sunbird"
"spCinny2hab/spCinny2hel","Arabian/Abyssinian Sunbird"
"spCinny2aur/spCinny2cle/spCinny2fre/spCinny2ide/spCinny2inf/spCinny2jug/spCinny2orn/spCinny2tey","Ornate/Garden/Palawan/Sahul/Tukangbesi/Flores Sea/South Moluccan/Mamberamo Sunbird"
"spAetho1bol/spAetho1tib","Apo/Tboli Sunbird"
"spAracheve/spArachmod","Grey-breasted/Bornean Spiderhunter"
"spPloce2bra/spPloce2nig1","Olive-naped/Black-necked Weaver"
"spPloce2hol/spPloce2sub1","Eastern Golden/Ruvu Weaver"
"spPloce2cas2/spPloce2nig2","Chestnut-and-black/Vieillot's Black Weaver"
"spAnapljub/spAnaplrub","Red-headed/Red Weaver"
"spEupleard/spEuplelat","Red-collared/Red-cowled Widowbird"
"spTaeni2gut","Sunda/Australian Zebra Finch"
"spLonchhun/spLonchnig","Mottled/New Hanover Mannikin"
"spAnthunic/spAnthusim","Long-billed/Nicholson's Pipit"
"spAnthuleu/spAnthuvaa","Buffy/Plain-backed Pipit"
"spAnthujap/spAnthurub","Siberian/American Pipit"
"spAnthuchi/spAnthuper","Yellowish/Peruvian Pipit"
"spAnthubre/spAnthufur","Short-billed/Puna Pipit"
"spFringcan/spFringcoe/spFringmad/spFringmor/spFringspo","Eurasian/African/Azores/Madeira/Canary Islands Chaffinch"
"spPyrrh4ery1/spPyrrh4ows","Grey-headed/Taiwan Bullfinch"
"spCarpo4sib","Siberian/Chinese Long-tailed Rosefinch"
"spChlor11sin","Oriental/Bonin Greenfinch"
"spCrithrei1/spCrithstr1","Stripe-breasted/Reichard's Seedeater"
"spLoxiacur/spLoxiasin","Red/Cassia Crossbill"
"spChrys7est/spChrys7min","Indonesian/Mindanao Serin"
"spCarducan/spCarducar","European/Grey-crowned Goldfinch"
"spEuphoaff/spEuphogod","West Mexican/Scrub Euphonia"
"spChlor8fla/spChlor8mus/spChlor8scl","Hispaniolan/Puerto Rican/Lesser Antillean Euphonia"
"spBasil2del/spBasil2ruf","Rufous-capped/Chestnut-capped Warbler"
"spSturn3lil/spSturn3mag","Eastern/Chihuahuan Meadowlark"
"spEmbercia/spEmbergod","Rock/Godlewski's Bunting"
"spEmberper/spEmberspo","Black-faced/Masked Bunting"
"spJuncobai/spJuncopha","Yellow-eyed/Baird's Junco"
"spRhync6dab/spRhync6str","Yungas/Chaco Sparrow"
"spArrem1tac","Yellow-mandibled/Pectoral Sparrow"
"spArrem1dor/spArrem1fla","Moss-backed/Saffron-billed Sparrow"
"spArrem1abe/spArrem1nig","Black-capped/Maranon Sparrow"
"spAtlapsch/spAtlaptac","Slaty/Taczanowski's Brushfinch"
"spDubustae","Carriker's/Buff-breasted/Streak-crowned Mountain Tanager"
"spTangabra/spTangamex","Turquoise/White-bellied Tanager"
"spStilpcya","Black-headed/Black-hooded Tanager"
"spXenodpar","Streaked/Tit-like Dacnis"
"spSalta1coe/spSalta1gra/spSalta1oli","Cinnamon-bellied/Olive-grey/Bluish-grey Saltator"
"spSporo1mor/spSporo1tor","Cinnamon-rumped/Morelet's Seedeater"
"spMelop1nig/spMelop1tay","Cuban/Grand Cayman Bullfinch"
"spMelop1gra/spMelop1por","Puerto Rican/St. Kitts Bullfinch"
"spGeosp1con/sspGeosp1magdar","Espanola Cactus/Large Ground Finch"
