"Index","Type","Old Common","Old Sci","New IDs"
"1","complex","Spotted Nothura/Chaco Nothura","Nothura maculosa/Nothura chacoensis","spNothumac"
"1","complex","Spotted Nothura","Nothura maculosa","sspNothumaccea/sspNothumacmaj/sspNothumacpal/sspNothumacmac/sspNothumacpal1/sspNothumacann/sspNothumacsub/sspNothumacnig"
"1","complex","Chaco Nothura","Nothura chacoensis","sspNothumaccha"
"2","simple","White-winged Scoter","Melanitta deglandi","spMelandeg/spMelanste"
"3","simple","Dusky-legged Guan","Penelope obscura","spPenelbri/spPenelobs"
"4","simple","Blue-throated Piping Guan","Pipile cumanensis","spPipilcum/spPipilgra"
"5","simple","Crested Guineafowl","Guttera pucherani","spGutteedo/spGuttepuc/spGuttever"
"6","complex","Udzungwa Forest Partridge/Rubeho Forest Partridge","Xenoperdix udzungwensis/Xenoperdix obscuratus","spXenopudz"
"6","complex","Udzungwa Forest Partridge","Xenoperdix udzungwensis","sspXenopudzudz"
"6","complex","Rubeho Forest Partridge","Xenoperdix obscuratus","sspXenopudzobs"
"7","complex","Chestnut-headed Partridge/Siamese Partridge","Arborophila cambodiana/Arborophila diversa","spArborcam"
"7","complex","Siamese Partridge","Arborophila diversa","sspArborcamdiv"
"7","complex","Chestnut-headed Partridge","Arborophila cambodiana","sspArborcamcha/sspArborcamcam"
"8","simple","Willow Ptarmigan","Lagopus lagopus","spLagoplag/spLagopsco"
"9","simple","Crestless Fireback","Lophura erythrophthalma","spLophuery/spLophupyr"
"10","complex","Hoogerwerf's Pheasant/Salvadori's Pheasant","Lophura hoogerwerfi/Lophura inornata","spLophuino"
"10","complex","Salvadori's Pheasant","Lophura inornata","sspLophuinoino"
"10","complex","Hoogerwerf's Pheasant","Lophura hoogerwerfi","sspLophuinohoo"
"11","simple","Crested Fireback","Lophura ignita","spLophuign/spLophuruf"
"12","simple","Crested Argus","Rheinardia ocellata","spRheinnig/spRheinoce"
"13","simple","Chestnut-necklaced Partridge","Arborophila charltonii","spTropicha/spTropigra"
"14","simple","Moorland Francolin","Scleroptila psilolaema","spSclerelg/spSclerpsi"
"15","simple","Shelley's Francolin","Scleroptila shelleyi","spSclershe/spSclerwhy"
"16","complex","European Nightjar/Vaurie's Nightjar","Caprimulgus europaeus/Caprimulgus centralasicus","spCaprieur"
"16","complex","European Nightjar","Caprimulgus europaeus","sspCaprieureur/sspCaprieurmer/sspCaprieursar/sspCaprieurunw/sspCaprieurplu/sspCaprieurdem"
"17","complex","Black-shouldered Nightjar/Fiery-necked Nightjar","Caprimulgus nigriscapularis/Caprimulgus pectoralis","spCapripec"
"17","complex","Black-shouldered Nightjar","Caprimulgus nigriscapularis","sspCapripecnig"
"17","complex","Fiery-necked Nightjar","Caprimulgus pectoralis","sspCapripecshe/sspCapripecfer/sspCapripeccre/sspCapripecpec"
"18","complex","Montane Nightjar/Ruwenzori Nightjar","Caprimulgus poliocephalus/Caprimulgus ruwenzorii","spCapripol"
"18","complex","Montane Nightjar","Caprimulgus poliocephalus","sspCapripolpol"
"18","complex","Ruwenzori Nightjar","Caprimulgus ruwenzorii","sspCapripolruw/sspCapripolgut/sspCapripolkoe"
"19","simple","Savanna Nightjar","Caprimulgus affinis","spCapriaff/spCaprigri"
"20","complex","Archbold's Owlet-nightjar/Mountain Owlet-nightjar","Aegotheles archboldi/Aegotheles albertisi","spAegotalb"
"21","simple","Barred Owlet-nightjar","Aegotheles bennettii","spAegotben/spAegotter"
"22","simple","Glossy Swiftlet","Collocalia esculenta","spColloaff/spColloesc/spColloiso/spCollomar/spCollonat/spColloneg/spCollosum/spCollouro"
"23","complex","Halmahera Swiftlet/Sulawesi Swiftlet/Seram Swiftlet","Aerodramus infuscatus/Aerodramus sororum/Aerodramus ceramensis","spAerodinf"
"23","complex","Halmahera Swiftlet","Aerodramus infuscatus","sspAerodinfinf"
"23","complex","Sulawesi Swiftlet","Aerodramus sororum","sspAerodinfsor"
"23","complex","Seram Swiftlet","Aerodramus ceramensis","sspAerodinfcer"
"24","complex","Edible-nest Swiftlet/Germain's Swiftlet","Aerodramus fuciphagus/Aerodramus germani","spAerodfuc"
"24","complex","Edible-nest Swiftlet","Aerodramus fuciphagus","sspAerodfucine/sspAerodfucves/sspAerodfucper/sspAerodfucfuc/sspAerodfucdam/sspAerodfucmic"
"24","complex","Germain's Swiftlet","Aerodramus germani","sspAerodfucger/sspAerodfucame"
"25","complex","Scarce Swift/Schouteden's Swift","Schoutedenapus myoptilus/Schoutedenapus schoutedeni","spSchoumyo"
"25","complex","Scarce Swift","Schoutedenapus myoptilus","sspSchoumyomyo/sspSchoumyopoe/sspSchoumyocha"
"26","simple","Vaux's Swift","Chaetura vauxi","spChaetand/spChaetvau"
"27","complex","Chapman's Swift/Mato Grosso Swift","Chaetura chapmani/Chaetura viridipennis","spChaetcha"
"27","complex","Chapman's Swift","Chaetura chapmani","sspChaetchacha"
"27","complex","Mato Grosso Swift","Chaetura viridipennis","sspChaetchavir"
"28","simple","African Palm Swift","Cypsiurus parvus","spCypsigra/spCypsipar"
"29","complex","Green-breasted Mango/Black-throated Mango","Anthracothorax prevostii/Anthracothorax nigricollis","spAnthrnig"
"29","complex","Green-breasted Mango","Anthracothorax prevostii","sspAnthrnigiri/spAnthrpre/sspAnthrprepre/sspAnthrpregra/sspAnthrprehen/sspAnthrprevir"
"29","complex","Black-throated Mango","Anthracothorax nigricollis","sspAnthrnignig"
"30","simple","Antillean Mango","Anthracothorax dominicus","spAnthraur/spAnthrdom"
"31","complex","Longuemare's Sunangel","Heliangelus clarisse","spHelia1cla/sspHelia1clavio/sspHelia1claver/sspHelia1clacla"
"31","complex","Longuemare's Sunangel/Merida Sunangel","Heliangelus clarisse/Heliangelus spencei","spHelia1spe"
"32","simple","Festive Coquette","Lophornis chalybeus","spLopho3cha/spLopho3ver"
"33","simple","Andean Hillstar","Oreotrochilus estella","spOreotest/spOreotsto"
"34","simple","Collared Inca","Coeligena torquata","spCoelicon/spCoeliinc/spCoelitor"
"35","simple","Golden-bellied Starfrontlet","Coeligena bonapartei","spCoelibon/spCoelicon1/spCoelieos"
"36","simple","Booted Racket-tail","Ocreatus underwoodii","spOcreaadd/spOcreaper/spOcreaund"
"37","simple","White-tailed Hillstar","Urochroa bougueri","spUrochbou/spUrochleu"
"38","simple","Broad-billed Hummingbird","Cynanthus latirostris","spCynanlat/spCynanlaw"
"39","complex","Curve-winged Sabrewing/Long-tailed Sabrewing","Campylopterus curvipennis/Campylopterus excellens","spPampacur"
"39","complex","Curve-winged Sabrewing","Campylopterus curvipennis","sspPampacurcur"
"39","complex","Long-tailed Sabrewing","Campylopterus excellens","sspPampacurexc"
"40","simple","Grey-breasted Sabrewing","Campylopterus largipennis","spCampycal/spCampydia/spCampylar"
"41","simple","Steely-vented Hummingbird","Amazilia saucerottei","spSaucehof/spSaucesau"
"42","simple","Green-bellied Hummingbird","Amazilia viridigaster","spSaucecup/spSaucevir"
"43","simple","Pheasant Coucal","Centropus phasianinus","spCentr1pha/spCentr1spi"
"44","simple","Red-capped Coua","Coua ruficeps","spCouaoli/spCouaruf"
"45","simple","Chestnut-breasted Malkoha","Phaenicophaeus curvirostris","spPhaencur/spPhaenoen"
"46","simple","Little Bronze Cuckoo","Chrysococcyx minutillus","spChalc1cra/spChalc1min"
"47","simple","Rusty-breasted Cuckoo","Cacomantis sepulcralis","spCacomsep/spCacomvir"
"48","simple","Brush Cuckoo","Cacomantis variolosus","spCacomadd/spCacombla/spCacomvar"
"49","complex","Fork-tailed Drongo-Cuckoo","Surniculus dicruroides","spSurnidic/sspSurnidicdic/sspSurnidicste/sspSurnilugbar"
"49","complex","Fork-tailed Drongo-Cuckoo/Square-tailed Drongo-Cuckoo","Surniculus dicruroides/Surniculus lugubris","spSurnilug"
"49","complex","Square-tailed Drongo-Cuckoo","Surniculus lugubris","sspSurnilugbra/sspSurniluglug"
"50","simple","Island Collared Dove","Streptopelia bitorquata","spStrep1bit/spStrep1dus"
"51","simple","Eurasian Collared Dove","Streptopelia decaocto","spStrep1dec/spStrep1xan"
"52","simple","Southern Crowned Pigeon","Goura scheepmakeri","spGourasch/spGourascl"
"53","simple","Whistling Green Pigeon","Treron formosae","spTrerofor/spTreroper"
"54","simple","Grey-green Fruit Dove","Ptilinopus purpuratus","spPtilichr/spPtilipur"
"55","simple","Yellow-bibbed Fruit Dove","Ptilinopus solomonensis","spPtilisol/spPtilispe"
"56","simple","Green Imperial Pigeon","Ducula aenea","spDuculaen/spDuculoen"
"57","simple","Spice Imperial Pigeon","Ducula myristicivora","spDuculgee/spDuculmyr"
"58","simple","Mountain Imperial Pigeon","Ducula badia","spDuculbad/spDuculcup"
"59","complex","Black-backed Swamphen","Porphyrio indicus","spPorph1ind/sspPorph1polvir"
"59","complex","Black-backed Swamphen/Grey-headed Swamphen","Porphyrio indicus/Porphyrio poliocephalus","spPorph1pol"
"59","complex","Grey-headed Swamphen","Porphyrio poliocephalus","sspPorph1polsei/sspPorph1polpol"
"60","simple","Painted Buttonquail","Turnix varius","spTurninov/spTurnivar"
"61","simple","Lesser Sand Plover","Charadrius mongolus","spAnarhatr/spAnarhmon"
"62","simple","Kentish Plover","Charadrius alexandrinus","spAnarhale/spAnarhdea"
"63","simple","Whimbrel","Numenius phaeopus","spNumenhud/spNumenpha"
"64","simple","South American Snipe","Gallinago paraguaiae","spGalli5mag/spGalli5par"
"65","simple","Gull-billed Tern","Gelochelidon nilotica","spGelocmac/spGelocnil"
"66","simple","Royal Tern","Thalasseus maximus","spThala1alb/spThala1max"
"67","simple","Mew Gull","Larus canus","spLarusbra/spLaruscan"
"68","simple","Vega Gull","Larus vegae","spLarusmon/spLarusveg"
"69","complex","Iceland Gull/Thayer's Gull","Larus glaucoides/Larus thayeri","spLarusgla1"
"69","complex","Iceland Gull","Larus glaucoides","sspLarusgla1gla/sspLarusgla1kum"
"69","complex","Thayer's Gull","Larus thayeri","sspLarusgla1tha"
"70","simple","Southern Rockhopper Penguin","Eudyptes chrysocome","spEudyp1chr1/spEudyp1fil"
"71","simple","Salvin's Prion","Pachyptila salvini","spPachy1mac/spPachy1sal"
"72","simple","Woolly-necked Stork","Ciconia episcopus","spCiconepi/spCiconmic"
"73","simple","Brown Booby","Sula leucogaster","spSulabre/spSulaleu"
"74","complex","Great Cormorant/White-breasted Cormorant","Phalacrocorax carbo/Phalacrocorax lucidus","spPhala2car"
"74","complex","Great Cormorant","Phalacrocorax carbo","sspPhala2carcar/sspPhala2carsin/sspPhala2carhan/sspPhala2carmar/sspPhala2carnov"
"74","complex","White-breasted Cormorant","Phalacrocorax lucidus","sspPhala2carluc"
"75","complex","Otago Shag/Foveaux Shag","Leucocarbo chalconotus/Leucocarbo stewarti","spLeuco4cha"
"75","complex","Otago Shag","Leucocarbo chalconotus","sspLeuco4chacha"
"75","complex","Foveaux Shag","Leucocarbo stewarti","sspLeuco4chaste"
"76","simple","Striated Heron","Butorides striata","spButoratr/spButorstr"
"77","simple","Intermediate Egret","Ardea intermedia","spArdeabra/spArdeaint/spArdeaplu"
"78","complex","Western Osprey/Eastern Osprey","Pandion haliaetus/Pandion cristatus","spPandihal"
"78","complex","Western Osprey","Pandion haliaetus","sspPandihalcar/sspPandihalrid/sspPandihalhal"
"78","complex","Eastern Osprey","Pandion cristatus","sspPandihalcri"
"79","complex","Red-chested Goshawk/African Goshawk","Accipiter toussenelii/Accipiter tachiro","spAerostac"
"79","complex","Red-chested Goshawk","Accipiter toussenelii","sspAerostacmac/sspAerostaclop/sspAerostactou/sspAerostaccan"
"79","complex","African Goshawk","Accipiter tachiro","sspAerostacund/sspAerostacspa/sspAerostacpem/sspAerostactac"
"80","complex","Collared Sparrowhawk","Accipiter cirrocephalus","spTachy3cir/sspTachy3cirpap/sspTachy3circir/sspTachy3fasros"
"80","complex","Collared Sparrowhawk/Brown Goshawk","Accipiter cirrocephalus/Accipiter fasciatus","spTachy3fas"
"80","complex","Brown Goshawk","Accipiter fasciatus","sspTachy3fasnat/sspTachy3faswal/sspTachy3fastje/sspTachy3fasstr/sspTachy3fassav/sspTachy3fashel/sspTachy3fasbur/sspTachy3fasdog/sspTachy3faspol/sspTachy3fasvig/sspTachy3fasdid/sspTachy3fasfas"
"81","simple","Northern Goshawk","Accipiter gentilis","spAsturatr/spAsturgen"
"82","complex","Archer's Buzzard/Augur Buzzard","Buteo archeri/Buteo augur","spButeo1aug1"
"82","complex","Archer's Buzzard","Buteo archeri","sspButeo1aug1arc"
"82","complex","Augur Buzzard","Buteo augur","sspButeo1aug1aug"
"83","complex","Common Buzzard/Cape Verde Buzzard","Buteo buteo/Buteo bannermani","spButeo1ban"
"83","complex","Common Buzzard","Buteo buteo","spButeo1but/sspButeo1butbut/sspButeo1butrot/sspButeo1butpoj/sspButeo1butins/sspButeo1butmen/sspButeo1butvul"
"84","complex","Western Barn Owl","Tyto alba","spTytoalb/sspTytoalbalb/sspTytoalbgut/sspTytoalbern/sspTytoalberl/sspTytoalbsch/sspTytoalbgra/sspTytoalbdet/sspTytoalbpoe/sspTytoalbtho/sspTytoalbhyp/spTytofur/sspTytofurpra/sspTytofurgua/sspTytofurbon/sspTytofurniv/sspTytofurfur/sspTytofurbar/sspTytofurcon/sspTytofurhel/sspTytofurtui/sspTytofurpun/sspTytoglanig/sspTytoglains"
"84","complex","Western Barn Owl/Ashy-faced Owl","Tyto alba/Tyto glaucops","spTytogla"
"84","complex","Ashy-faced Owl","Tyto glaucops","sspTytoglagla"
"85","simple","Southern Boobook","Ninox boobook","spNinoxboo/spNinoxfus/spNinoxple/spNinoxrot"
"86","simple","Morepork","Ninox novaeseelandiae","spNinoxleu/spNinoxnov"
"87","simple","Hantu Boobook","Ninox squamipila","spNinoxhan/spNinoxsqu"
"88","simple","Collared Owlet","Glaucidium brodiei","spTaenibro/spTaenisyl"
"89","simple","Solomons Boobook","Ninox jacquinoti","spAthengra/spAthenjac/spAthenmal/spAthenros"
"90","simple","African Scops Owl","Otus senegalensis","spOtusfea/spOtussen"
"91","complex","Moluccan Scops Owl/Sulawesi Scops Owl","Otus magicus/Otus manadensis","spOtusmag"
"91","complex","Sulawesi Scops Owl","Otus manadensis","sspOtusmagkal/spOtusman"
"91","complex","Moluccan Scops Owl","Otus magicus","sspOtusmagmor/sspOtusmagleu/sspOtusmagobi/sspOtusmagbou/sspOtusmagmag/sspOtusmagalb/spOtustem"
"92","complex","Sunda Scops Owl","Otus lempiji","spOtuslem/sspOtuslemcon/sspOtuslemhyp/sspOtuslemlem/sspOtuslemkan/sspOtuslemlem1"
"92","complex","Sunda Scops Owl/Collared Scops Owl","Otus lempiji/Otus lettia","spOtuslet"
"92","complex","Collared Scops Owl","Otus lettia","sspOtusletplu/sspOtusletlet/sspOtusletery/sspOtusletgla/sspOtusletumb/sspOtusletcne"
"93","simple","Spotted Eagle-Owl","Bubo africanus","spBuboafr/spBubomil"
"94","complex","Fraser's Eagle-Owl/Usambara Eagle-Owl","Bubo poensis/Bubo vosseleri","spKetuppoe"
"94","complex","Fraser's Eagle-Owl","Bubo poensis","sspKetuppoepoe"
"94","complex","Usambara Eagle-Owl","Bubo vosseleri","sspKetuppoevos"
"95","complex","White-throated Screech Owl","Megascops albogularis","spMegasalb/sspMegasalbobs/sspMegasalbmer/sspMegasalbmac/sspMegasalbalb/sspMegasalbrem"
"95","complex","White-throated Screech Owl/Rufescent Screech Owl/Colombian Screech Owl","Megascops albogularis/Megascops ingens/Megascops colombianus","spMegasing"
"95","complex","Rufescent Screech Owl","Megascops ingens","sspMegasingven/sspMegasinging"
"95","complex","Colombian Screech Owl","Megascops colombianus","sspMegasingcol"
"96","complex","Middle American Screech Owl/Vermiculated Screech Owl","Megascops guatemalae/Megascops vermiculatus","spMegasgua"
"96","complex","Middle American Screech Owl","Megascops guatemalae","sspMegasguahas/sspMegasguacas/sspMegasguafus/sspMegasguagua/sspMegasguadac"
"96","complex","Vermiculated Screech Owl","Megascops vermiculatus","sspMegasguaver"
"97","complex","Rufescent Screech Owl/Colombian Screech Owl","Megascops ingens/Megascops colombianus","spMegasing"
"97","complex","Rufescent Screech Owl","Megascops ingens","sspMegasingven/sspMegasinging"
"97","complex","Colombian Screech Owl","Megascops colombianus","sspMegasingcol"
"98","complex","Roraiman Screech Owl/Napo Screech Owl","Megascops roraimae/Megascops napensis","spMegasror"
"98","complex","Roraiman Screech Owl","Megascops roraimae","sspMegasrorror/sspMegasrorpal/sspMegasrornap"
"99","simple","Tawny Owl","Strix aluco","spStrixalu/spStrixmau"
"100","complex","Ural Owl/Pere David's Owl","Strix uralensis/Strix davidi","spStrixura"
"100","complex","Ural Owl","Strix uralensis","sspStrixuramac/sspStrixuralit/sspStrixuraura/sspStrixurayen/sspStrixuradau/sspStrixuranik/sspStrixurajap/sspStrixurahon/sspStrixuramom/sspStrixurafus"
"100","complex","Pere David's Owl","Strix davidi","sspStrixuradav"
"101","simple","Black-throated Trogon","Trogon rufus","spTrogochr/spTrogocup/spTrogoruf/spTrogoten"
"102","complex","Eurasian Hoopoe/African Hoopoe","Upupa epops/Upupa africana","spUpupaepo"
"102","complex","Eurasian Hoopoe","Upupa epops","sspUpupaepoepo/sspUpupaeposat/sspUpupaepocey/sspUpupaepolon/sspUpupaepomaj/sspUpupaeposen/sspUpupaepowai"
"102","complex","African Hoopoe","Upupa africana","sspUpupaepoafr"
"103","complex","Violet Wood Hoopoe/Grant's Wood Hoopoe","Phoeniculus damarensis/Phoeniculus granti","spPhoen3dam"
"103","complex","Violet Wood Hoopoe","Phoeniculus damarensis","sspPhoen3damdam"
"103","complex","Grant's Wood Hoopoe","Phoeniculus granti","sspPhoen3damgra"
"104","simple","African Pied Hornbill","Lophoceros fasciatus","spLopho11fas/spLopho11sem"
"105","simple","Black Dwarf Hornbill","Horizocerus hartlaubi","spHorizgra/spHorizhar"
"106","simple","White-crested Hornbill","Horizocerus albocristatus","spHorizalb/spHorizcas"
"107","simple","Indian Roller","Coracias benghalensis","spCoracaff/spCoracben"
"108","simple","Lilac Kingfisher","Cittura cyanotis","spCittucya/spCittusan"
"109","simple","White-throated Kingfisher","Halcyon smyrnensis","spHalcygul/spHalcysmy"
"110","simple","Blue-banded Kingfisher","Alcedo euryzona","spAlcedeur/spAlcedpen"
"111","simple","Oriental Dwarf Kingfisher","Ceyx erithaca","spCeyxeri/spCeyxruf"
"112","simple","Sulawesi Dwarf Kingfisher","Ceyx fallax","spCeyxfal/spCeyxsan"
"113","complex","Malaita Dwarf Kingfisher/Guadalcanal Dwarf Kingfisher","Ceyx malaitae/Ceyx nigromaxilla","spCeyxnig"
"113","complex","Malaita Dwarf Kingfisher","Ceyx malaitae","sspCeyxnigmal"
"113","complex","Guadalcanal Dwarf Kingfisher","Ceyx nigromaxilla","sspCeyxnignig"
"114","simple","Blue-breasted Bee-eater","Merops variegatus","spMerop1laf/spMerop1var"
"115","simple","Green Bee-eater","Merops orientalis","spMerop1cya/spMerop1ori/spMerop1vir"
"116","simple","Blue-throated Bee-eater","Merops viridis","spMerop1ame/spMerop1vir1"
"117","complex","Caatinga Puffbird/Chaco Puffbird","Nystalus maculatus/Nystalus striatipectus","spNystamac"
"117","complex","Caatinga Puffbird","Nystalus maculatus","sspNystamacmac"
"117","complex","Chaco Puffbird","Nystalus striatipectus","sspNystamacstr"
"118","complex","Ivory-billed Aracari/Brown-mandibled Aracari","Pteroglossus azara/Pteroglossus mariae","spPtero4aza"
"118","complex","Ivory-billed Aracari","Pteroglossus azara","sspPtero4azafla/sspPtero4azaaza"
"118","complex","Brown-mandibled Aracari","Pteroglossus mariae","sspPtero4azamar"
"119","simple","Blue-eared Barbet","Psilopogon duvaucelii","spPsilo1cya/spPsilo1duv"
"120","simple","Yellow-billed Barbet","Trachyphonus purpuratus","spTrachgof/spTrachpur"
"121","simple","D'Arnaud's Barbet","Trachyphonus darnaudii","spTrach1dar/spTrach1usa"
"122","complex","Yellow-rumped Tinkerbird/White-chested Tinkerbird","Pogoniulus bilineatus/Pogoniulus makawai","spPogonbil"
"122","complex","Yellow-rumped Tinkerbird","Pogoniulus bilineatus","sspPogonbilleu/sspPogonbilpoe/sspPogonbilmfu/sspPogonbiljac/sspPogonbilfis/sspPogonbilbil"
"123","simple","Red-fronted Tinkerbird","Pogoniulus pusillus","spPogonpus/spPogonuro"
"124","complex","Thick-billed Honeyguide/Lesser Honeyguide","Indicator conirostris/Indicator minor","spIndicmin"
"124","complex","Thick-billed Honeyguide","Indicator conirostris","sspIndicminuss/sspIndicmincon"
"124","complex","Lesser Honeyguide","Indicator minor","sspIndicminsen/sspIndicminrig/sspIndicmindia/sspIndicmintei/sspIndicmindam/sspIndicminmin"
"125","complex","Black-dotted Piculet/Scaled Piculet","Picumnus nigropunctatus/Picumnus squamulatus","spPicumsqu/sspPicumsquobs"
"125","complex","Scaled Piculet","Picumnus squamulatus","sspPicumsqusqu/sspPicumsquroe/sspPicumsqulov/sspPicumsquapu"
"126","complex","Ochraceous Piculet/Tawny Piculet","Picumnus limae/Picumnus fulvescens","spPicumlim/sspPicumlimlim/sspPicumlimful"
"127","complex","Golden-fronted Woodpecker/Velasquez's Woodpecker","Melanerpes aurifrons/Melanerpes santacruzi","spMelan2aur"
"127","complex","Golden-fronted Woodpecker","Melanerpes aurifrons","sspMelan2auraur"
"127","complex","Velasquez's Woodpecker","Melanerpes santacruzi","sspMelan2aurpol/sspMelan2aurgra/sspMelan2aurver/sspMelan2aurdub/sspMelan2aurlee/sspMelan2aurtur/sspMelan2aursan/sspMelan2aurhug/sspMelan2aurpau/sspMelan2aurins/sspMelan2aurcan"
"128","complex","Green-backed Woodpecker","Campethera cailliautii","spCampecai/sspCampecainya/sspCampecaicai/sspCampecailov/sspCampemacper"
"128","complex","Green-backed Woodpecker/Little Green Woodpecker","Campethera cailliautii/Campethera maculosa","spCampemac"
"128","complex","Little Green Woodpecker","Campethera maculosa","sspCampemacmac"
"129","simple","Tullberg's Woodpecker","Campethera tullbergi","spCampetae/spCampetul"
"130","simple","Crimson-breasted Woodpecker","Dryobates cathpharius","spDryobcat/spDryobper"
"131","simple","Northern Flicker","Colaptes auratus","spColapaur1/spColapmex"
"132","complex","Waved Woodpecker/Scaly-breasted Woodpecker","Celeus undatus/Celeus grammicus","spCeleuund"
"132","complex","Scaly-breasted Woodpecker","Celeus grammicus","sspCeleuundgra/sspCeleuundver/sspCeleuundsub/sspCeleuundlat"
"132","complex","Waved Woodpecker","Celeus undatus","sspCeleuundund/sspCeleuundama/sspCeleuundmul"
"133","simple","Crimson-bellied Woodpecker","Campephilus haematogaster","spCampe1hae/spCampe1spl"
"134","simple","Grey-headed Woodpecker","Picus canus","spPicuscan/spPicusded"
"135","simple","Greater Flameback","Chrysocolaptes guttacristatus","spChrys5gut/spChrys5soc"
"136","simple","Buff-rumped Woodpecker","Meiglyptes tristis","spMeiglgra/spMeigltri"
"137","simple","Sooty Woodpecker","Mulleripicus funebris","spMulleful1/spMullefun"
"138","complex","Northern Crested Caracara/Southern Crested Caracara","Caracara cheriway/Caracara plancus","spCaracpla"
"138","complex","Northern Crested Caracara","Caracara cheriway","sspCaracplache"
"138","complex","Southern Crested Caracara","Caracara plancus","sspCaracplapla"
"139","complex","Peregrine Falcon/Barbary Falcon","Falco peregrinus/Falco pelegrinoides","spFalcoper"
"139","complex","Peregrine Falcon","Falco peregrinus","sspFalcopertun/sspFalcoperpea/sspFalcoperana/sspFalcopercas/sspFalcoperper/sspFalcopercal/sspFalcoperjap/sspFalcoperbro/sspFalcoperper1/sspFalcoperfur/sspFalcopermad/sspFalcopermin/sspFalcoperrad/sspFalcoperern/sspFalcopermac/sspFalcopernes"
"139","complex","Barbary Falcon","Falco pelegrinoides","sspFalcoperbab/sspFalcoperpel"
"140","simple","Yellow-crested Cockatoo","Cacatua sulphurea","spCacatcit/spCacatsul"
"141","complex","Red-lored Amazon","Amazona autumnalis","spAmazo1aut/sspAmazo1autaut/sspAmazo1autsal/sspAmazo1autlil"
"141","complex","Red-lored Amazon/Diademed Amazon","Amazona autumnalis/Amazona diadema","spAmazo1dia"
"142","complex","Yellow-headed Amazon/Tres Marias Amazon","Amazona oratrix/Amazona tresmariae","spAmazo1ora"
"142","complex","Yellow-headed Amazon","Amazona oratrix","sspAmazo1oraora/sspAmazo1orabel/sspAmazo1orahon"
"142","complex","Tres Marias Amazon","Amazona tresmariae","sspAmazo1oratre"
"143","complex","Northern Mealy Amazon/Southern Mealy Amazon","Amazona guatemalae/Amazona farinosa","spAmazo1far"
"143","complex","Northern Mealy Amazon","Amazona guatemalae","sspAmazo1fargua/sspAmazo1farvir"
"143","complex","Southern Mealy Amazon","Amazona farinosa","sspAmazo1farfar"
"144","complex","Green Parakeet/Red-throated Parakeet","Psittacara holochlorus/Psittacara rubritorquis","spPsitt1hol"
"144","complex","Green Parakeet","Psittacara holochlorus","sspPsitt1holbre/sspPsitt1holhol"
"144","complex","Red-throated Parakeet","Psittacara rubritorquis","sspPsitt1holrub"
"145","simple","Scarlet-fronted Parakeet","Psittacara wagleri","spPsitt1fro/spPsitt1wag"
"146","simple","Lesser Vasa Parrot","Coracopsis nigra","spCorac1nig/spCorac1sib"
"147","simple","Eclectus Parrot","Eclectus roratus","spEcleccor/spEclecpol/spEclecrie/spEclecror"
"148","simple","Blue-rumped Parrot","Psittinus cyanurus","spPsitt3abb/spPsitt3cya"
"149","simple","Blue-backed Parrot","Tanygnathus sumatranus","spTanygeve/spTanygsum"
"150","simple","Norfolk Parakeet","Cyanoramphus cookii","spCyano3coo/spCyano3sub"
"151","complex","Eastern Ground Parrot/Western Ground Parrot","Pezoporus wallicus/Pezoporus flaviventris","spPezop1wal"
"151","complex","Western Ground Parrot","Pezoporus flaviventris","sspPezop1walfla"
"151","complex","Eastern Ground Parrot","Pezoporus wallicus","sspPezop1walwal/sspPezop1wallea"
"152","simple","Papuan Lorikeet","Charmosyna papou","spCharm2pap/spCharm2ste"
"153","simple","Citrine Lorikeet","Trichoglossus flavoviridis","spSaudafla/spSaudamey"
"154","simple","Orange-breasted Fig Parrot","Cyclopsitta gulielmitertii","spCyclogul/spCyclomel/spCyclonig"
"155","simple","Philippine Hanging Parrot","Loriculus philippensis","spLoricbon/spLoricphi"
"156","simple","Silver-breasted Broadbill","Serilophus lunatus","spSerillun/spSerilrub"
"157","complex","Sulawesi Pitta/Siao Pitta/Sangihe Pitta","Erythropitta celebensis/Erythropitta palliceps/Erythropitta caeruleitorques","spEryth3cel"
"157","complex","Sulawesi Pitta","Erythropitta celebensis","sspEryth3celcel"
"157","complex","Siao Pitta","Erythropitta palliceps","sspEryth3celpal"
"157","complex","Sangihe Pitta","Erythropitta caeruleitorques","sspEryth3celcae"
"158","simple","Hooded Pitta","Pitta sordida","spPittaabb/spPittafor/spPittanov/spPittaros/spPittasor"
"159","simple","Elegant Pitta","Pitta elegans","spPittacon/spPittaele/spPittavig"
"160","complex","Tawny-throated Leaftosser","Sclerurus mexicanus","spScler1mex/sspScler1mexmex/sspScler1mexpul"
"160","complex","Tawny-throated Leaftosser/Dusky Leaftosser","Sclerurus mexicanus/Sclerurus obscurior","spScler1obs"
"160","complex","Dusky Leaftosser","Sclerurus obscurior","sspScler1obsand/sspScler1obsobs/sspScler1obsper/sspScler1obsmac/sspScler1obsbah"
"161","simple","Long-tailed Woodcreeper","Deconychura longicauda","spDeconlon/spDeconpal/spDecontyp"
"162","complex","Uniform Woodcreeper/Brigida's Woodcreeper","Hylexetastes uniformis/Hylexetastes brigidai","spHylexuni"
"162","complex","Uniform Woodcreeper","Hylexetastes uniformis","sspHylexuniuni"
"162","complex","Brigida's Woodcreeper","Hylexetastes brigidai","sspHylexunibri"
"163","simple","Lesser Woodcreeper","Xiphorhynchus fuscus","spXipho1atl/spXipho1fus"
"164","complex","Ocellated Woodcreeper/Tschudi's Woodcreeper","Xiphorhynchus ocellatus/Xiphorhynchus chunchotambo","spXipho1oce"
"164","complex","Ocellated Woodcreeper","Xiphorhynchus ocellatus","sspXipho1ocelin/sspXipho1ocebea/sspXipho1oceper/sspXipho1oceoce"
"164","complex","Tschudi's Woodcreeper","Xiphorhynchus chunchotambo","sspXipho1ocenap/sspXipho1ocechu/sspXipho1ocebre"
"165","simple","Curve-billed Scythebill","Campylorhamphus procurvoides","spCampy1mul/spCampy1pro/spCampy1pro1"
"166","complex","Rondonia Woodcreeper/Layard's Woodcreeper","Lepidocolaptes fuscicapillus/Lepidocolaptes layardi","spLepidfus"
"166","complex","Rondonia Woodcreeper","Lepidocolaptes fuscicapillus","sspLepidfusfus"
"166","complex","Layard's Woodcreeper","Lepidocolaptes layardi","sspLepidfuslay"
"167","simple","Plain Xenops","Xenops minutus","spXenop1gen/spXenop1mex/spXenop1min"
"168","simple","Buff-throated Foliage-gleaner","Automolus ochrolaemus","spAutomcer/spAutomexs/spAutomoch"
"169","complex","Streak-backed Canastero/Puna Canastero","Asthenes wyatti/Asthenes sclateri","spAsthewya"
"169","complex","Streak-backed Canastero","Asthenes wyatti","sspAsthewyawya/sspAsthewyasan/sspAsthewyaphe/sspAsthewyamuc/sspAsthewyaaeq/sspAsthewyaazu/sspAsthewyagra"
"169","complex","Puna Canastero","Asthenes sclateri","sspAsthewyapun/sspAsthewyacuc/sspAsthewyalil/sspAsthewyascl/sspAsthewyabru"
"170","simple","Marcapata Spinetail","Cranioleuca marcapatae","spCranimar/spCraniwes"
"171","complex","Line-cheeked Spinetail/Baron's Spinetail","Cranioleuca antisiensis/Cranioleuca baroni","spCraniant"
"171","complex","Line-cheeked Spinetail","Cranioleuca antisiensis","sspCraniantant/sspCraniantpal"
"171","complex","Baron's Spinetail","Cranioleuca baroni","sspCraniantbar/sspCraniantcap/sspCraniantzar"
"172","simple","White-lored Spinetail","Synallaxis albilora","spSynalalb/spSynalsim"
"173","simple","Necklaced Spinetail","Synallaxis stictothorax","spSynalchi/spSynalsti"
"174","simple","Russet Antshrike","Thamnistes anabatinus","spThamnana/spThamnruf"
"175","complex","Napo Stipple-throated Antwren/Negro Stipple-throated Antwren/Yasuni Antwren","Epinecrophylla haematonota/Epinecrophylla pyrrhonota/Epinecrophylla fjeldsaai","spEpinehae"
"175","complex","Negro Stipple-throated Antwren","Epinecrophylla pyrrhonota","sspEpinehaehae/sspEpinehaepyr"
"175","complex","Yasuni Antwren","Epinecrophylla fjeldsaai","sspEpinehaefje"
"176","simple","Rufous-winged Antwren","Herpsilochmus rufimarginatus","spHerpsfra/spHerpsruf"
"177","simple","White-backed Fire-eye","Pyriglena leuconota","spPyrigleu/spPyrigmau/spPyrigsim"
"178","simple","Rufous Antpitta","Grallaria rufula","spGrallalv/spGrallcaj/spGrallcoc/spGrallgra/spGrallobs/spGrallocc/spGrallone/spGrallruf1/spGrallsal/spGrallsat/spGrallsin/spGrallspa"
"179","simple","Chestnut Antpitta","Grallaria blakei","spGrallaya/spGrallbla/spGrallcen"
"180","simple","Tawny Antpitta","Grallaria quitensis","spGrallalt/spGrallatu/spGrallqui"
"181","simple","Thrush-like Antpitta","Myrmothera campanisona","spMyrmo7cam/spMyrmo7sub"
"182","simple","Rusty-breasted Antpitta","Grallaricula ferrugineipectus","spGrall1fer/spGrall1ley"
"183","simple","Chestnut-belted Gnateater","Conopophaga aurita","spConopaur/spConopsne"
"184","simple","Paramo Tapaculo","Scytalopus opacus","spScytaand/spScytaopa"
"185","complex","Ayacucho Tapaculo (undescribed)/Ampay Tapaculo (undescribed)","Scytalopus sp. nov. 4/Scytalopus sp. nov. 5","spScytawhi"
"186","simple","Blackish Tapaculo","Scytalopus latrans","spScytaint/spScytalat"
"187","complex","Collared Crescentchest/Double-collared Crescentchest","Melanopareia torquata/Melanopareia bitorquata","spMelan3tor"
"187","complex","Collared Crescentchest","Melanopareia torquata","sspMelan3tortor/sspMelan3torruf"
"187","complex","Double-collared Crescentchest","Melanopareia bitorquata","sspMelan3torbit"
"188","simple","Grey Elaenia","Myiopagis caniceps","spMyiop1can/spMyiop1cin/spMyiop1par"
"189","simple","Highland Elaenia","Elaenia obscura","spElaenobs/spElaensor"
"190","complex","White-crested Tyrannulet/White-bellied Tyrannulet","Serpophaga subcristata/Serpophaga munda","spSerposub"
"190","complex","White-bellied Tyrannulet","Serpophaga munda","sspSerposubmun"
"190","complex","White-crested Tyrannulet","Serpophaga subcristata","sspSerposubstr/sspSerposubsub"
"191","simple","Tumbesian Tyrannulet","Phaeomyias tumbezana","spNesotmar/spNesottum"
"192","simple","Tawny-crowned Pygmy Tyrant","Euscarthmus meloryphus","spEuscaful/spEuscamel"
"193","simple","Lesser Wagtail-Tyrant","Stigmatura napensis","spStigmbah/spStigmnap"
"194","simple","Olive-striped Flycatcher","Mionectes olivaceus","spMionegal/spMioneoli"
"195","simple","Bran-colored Flycatcher","Myiophobus fasciatus","spMyiop2cry1/spMyiop2fas/spMyiop2ruf"
"196","simple","Olivaceous Flatbill","Rhynchocyclus olivaceus","spRhync3aeq/spRhync3oli"
"197","simple","Tropical Pewee","Contopus cinereus","spContobog/spContocin"
"198","complex","Pacific-slope Flycatcher/Cordilleran Flycatcher","Empidonax difficilis/Empidonax occidentalis","spEmpiddif"
"198","complex","Pacific-slope Flycatcher","Empidonax difficilis","sspEmpiddifdif/sspEmpiddifins/sspEmpiddifcin"
"198","complex","Cordilleran Flycatcher","Empidonax occidentalis","sspEmpiddifhel/sspEmpiddifocc"
"199","simple","Brown-backed Chat-Tyrant","Ochthoeca fumicolor","spOchth1fum/spOchth1sup"
"200","complex","Golden-crowned Flycatcher","Myiodynastes chrysocephalus","spMyiodchr/sspMyiodhemhem/sspMyiodhemmin/sspMyiodhemcin"
"200","complex","Golden-crowned Flycatcher/Golden-bellied Flycatcher","Myiodynastes chrysocephalus/Myiodynastes hemichrysus","spMyiodhem"
"201","simple","Green Manakin","Cryptopipo holochlora","spCrypt5hol/spCrypt5lit"
"202","simple","Blue-crowned Manakin","Lepidothrix coronata","spLepid1cor/spLepid1vel"
"203","simple","Black-and-white Becard","Pachyramphus albogriseus","spPachy2alb/spPachy2sal"
"204","complex","Amazonian Royal Flycatcher/Northern Royal Flycatcher/Pacific Royal Flycatcher","Onychorhynchus coronatus/Onychorhynchus mexicanus/Onychorhynchus occidentalis","spOnych1cor"
"204","complex","Amazonian Royal Flycatcher","Onychorhynchus coronatus","sspOnych1corcas/sspOnych1corcor"
"204","complex","Northern Royal Flycatcher","Onychorhynchus mexicanus","sspOnych1cormex/sspOnych1corfra"
"204","complex","Pacific Royal Flycatcher","Onychorhynchus occidentalis","sspOnych1corocc"
"205","simple","Variegated Fairywren","Malurus lamberti","spMalurass/spMalurlam"
"206","simple","Striated Grasswren","Amytornis striatus","spAmytoowe/spAmytorow/spAmytostr/spAmytowhi"
"207","simple","Dusky Myzomela","Myzomela obscura","spMyzomobs/spMyzomrub/spMyzomrub1/spMyzomsim"
"208","simple","Red Myzomela","Myzomela cruentata","spMyzomcru/spMyzomery"
"209","simple","Sulawesi Myzomela","Myzomela chloroptera","spMyzombat/spMyzomchl"
"210","simple","Cardinal Myzomela","Myzomela cardinalis","spMyzomcar/spMyzomnig1"
"211","simple","Red-collared Myzomela","Myzomela rosenbergii","spMyzomlon/spMyzomros"
"212","complex","Helmeted Friarbird/New Guinea Friarbird/Hornbill Friarbird","Philemon buceroides/Philemon novaeguineae/Philemon yorki","spPhile1buc"
"212","complex","New Guinea Friarbird","Philemon novaeguineae","sspPhile1bucjob/sspPhile1bucnov"
"212","complex","New Guinea Friarbird/Helmeted Friarbird","Philemon novaeguineae/Philemon buceroides","sspPhile1bucaru/sspPhile1bucsub/sspPhile1buctag"
"212","complex","Helmeted Friarbird","Philemon buceroides","sspPhile1bucneg/sspPhile1bucbuc/sspPhile1bucgor/sspPhile1bucamm"
"212","complex","Hornbill Friarbird","Philemon yorki","sspPhile1bucyor"
"213","complex","Indonesian Honeyeater/Brown Honeyeater","Lichmera limbata/Lichmera indistincta","spLichmind"
"213","complex","Indonesian Honeyeater","Lichmera limbata","sspLichmindlim"
"213","complex","Brown Honeyeater","Lichmera indistincta","sspLichmindnup/sspLichmindmel/sspLichmindind/sspLichmindocu"
"214","simple","Graceful Honeyeater","Meliphaga gracilis","spMicro14gra/spMicro14imi"
"215","simple","White-browed Scrubwren","Sericornis frontalis","spSeric1fro/spSeric1mac"
"216","complex","Tropical Scrubwren","Sericornis beccarii","spSeric1bec/sspSeric1becwon/sspSeric1becwey/sspSeric1becbec/sspSeric1beccyc/sspSeric1becran/sspSeric1becmin/sspSeric1becdub/sspSeric1nouide"
"216","complex","Tropical Scrubwren/Perplexing Scrubwren/Large Scrubwren","Sericornis beccarii/Sericornis virgatus/Sericornis nouhuysi","spSeric1nou"
"216","complex","Perplexing Scrubwren/Large Scrubwren","Sericornis virgatus/Sericornis nouhuysi","sspSeric1noucan"
"216","complex","Large Scrubwren","Sericornis nouhuysi","sspSeric1nounou/sspSeric1noustr/sspSeric1nouade/sspSeric1nouoor/sspSeric1noumon"
"216","complex","Perplexing Scrubwren","Sericornis virgatus","sspSeric1noujob/sspSeric1noupon/sspSeric1nouvir"
"217","complex","Perplexing Scrubwren/Large Scrubwren","Sericornis virgatus/Sericornis nouhuysi","spSeric1nou/sspSeric1noucan"
"217","complex","Large Scrubwren","Sericornis nouhuysi","sspSeric1nounou/sspSeric1nouide/sspSeric1noustr/sspSeric1nouade/sspSeric1nouoor/sspSeric1noumon"
"217","complex","Perplexing Scrubwren","Sericornis virgatus","sspSeric1noujob/sspSeric1noupon/sspSeric1nouvir"
"218","simple","Fan-tailed Gerygone","Gerygone flavolateralis","spGerygcit/spGerygfla"
"219","simple","Spotted Berrypecker","Rhamphocharis crassirostris","spRhamp1cra/spRhamp1pip"
"220","simple","Crested Berrypecker","Paramythia montium","spParammon/spParamoli"
"221","complex","Forest Batis/Reichenow's Batis","Batis mixta/Batis reichenowi","spBatismix"
"221","complex","Forest Batis","Batis mixta","sspBatismixmix"
"221","complex","Reichenow's Batis","Batis reichenowi","sspBatismixrei"
"222","simple","Cape Batis","Batis capensis","spBatiscap/spBatisdim"
"223","simple","Fernando Po Batis","Batis poensis","spBatisocc/spBatispoe"
"224","simple","Mountain Sooty Boubou","Laniarius poensis","spLaniahol/spLaniapoe"
"225","simple","Blue Vanga","Cyanolanius madagascarinus","spCyano4com/spCyano4mad"
"226","simple","Bar-bellied Cuckooshrike","Coracina striata","spCorac2gui/spCorac2koc/spCorac2min/spCorac2pan/spCorac2str"
"227","complex","Large Cuckooshrike/Javan Cuckooshrike","Coracina macei/Coracina javensis","spCorac2jav"
"227","complex","Javan Cuckooshrike","Coracina javensis","sspCorac2javjav"
"227","complex","Large Cuckooshrike","Coracina macei","sspCorac2javnip/sspCorac2javand/sspCorac2javsia/sspCorac2javlar/sspCorac2javrex/spCorac2lar/spCorac2mac/sspCorac2macmac/sspCorac2maclay"
"228","simple","Solomons Cuckooshrike","Coracina holopolia","spEdolihol/spEdolitri"
"229","simple","Sulawesi Cicadabird","Coracina morio","spEdolimor/spEdolisal1"
"230","complex","Common Cicadabird/Grey-capped Cicadabird","Coracina tenuirostris/Coracina remota","spEdoliery/spEdolirem"
"230","complex","Grey-capped Cicadabird","Coracina remota","sspEdolieryult/sspEdolierysat/sspEdolieryery/sspEdoliremrem"
"230","complex","Common Cicadabird","Coracina tenuirostris","sspEdolierynis/spEdoligra/sspEdoligraper/sspEdoligragra/spEdolimey/sspEdolimeynum/sspEdolimeymey/spEdoliobi/sspEdoliremmat/sspEdoliremroo/sspEdoliremhei/spEdoliros/spEdoliten/sspEdolitenneh/sspEdolitenmue/sspEdolitenaru/sspEdolitentag/sspEdolitenmel/sspEdolitenten"
"231","simple","Black-browed Triller","Lalage atrovirens","spLalagatr/spLalagleu1"
"232","simple","Crested Shriketit","Falcunculus frontatus","spFalcu1fro/spFalcu1leu/spFalcu1whi"
"233","simple","Little Shrikethrush","Colluricincla megarhyncha","spColluaff/spColludis/spCollufor/spCollumeg/spColluobs/spColluruf/spCollutap/spPachy4mel"
"234","complex","Rusty-breasted Whistler/Yellow-throated Whistler","Pachycephala fulvotincta/Pachycephala macrorhyncha","spPachy4cal"
"234","complex","Rusty-breasted Whistler","Pachycephala fulvotincta","sspPachy4caleve/sspPachy4caljav/sspPachy4calful/sspPachy4calful1/spPachy4tey"
"234","complex","Yellow-throated Whistler","Pachycephala macrorhyncha","sspPachy4calcal/spPachy4mac/sspPachy4macfus/sspPachy4macmac/sspPachy4macbur/sspPachy4maccli/sspPachy4macpel/sspPachy4mel1dam/sspPachy4orporp/sspPachy4orppar/sspPachy4orpcom/spPachy4sha"
"234","complex","Yellow-throated Whistler/Mangrove Golden Whistler","Pachycephala macrorhyncha/Pachycephala melanura","spPachy4mel1"
"234","complex","Mangrove Golden Whistler","Pachycephala melanura","sspPachy4mel1dah/sspPachy4mel1spi/sspPachy4mel1vio/sspPachy4mel1mel/sspPachy4mel1rob"
"234","complex","Yellow-throated Whistler/Fawn-breasted Whistler","Pachycephala macrorhyncha/Pachycephala orpheus","spPachy4orp"
"235","complex","Australian Golden Whistler/Western Whistler","Pachycephala pectoralis/Pachycephala occidentalis","spPachy4ful"
"235","complex","Australian Golden Whistler","Pachycephala pectoralis","sspPachy4fulful/spPachy4pec/sspPachy4pecpec/sspPachy4pecxan/sspPachy4peccon/sspPachy4pecyou/sspPachy4pecgla"
"235","complex","Western Whistler","Pachycephala occidentalis","sspPachy4fulocc"
"236","simple","Fiji Whistler","Pachycephala vitiensis","spPachy4gra/spPachy4vit"
"237","simple","Temotu Whistler","Pachycephala vanikorensis","spPachy4orn/spPachy4utu/spPachy4van"
"238","complex","Himalayan Shrike-babbler/Blyth's Shrike-babbler/Dalat Shrike-babbler","Pteruthius ripleyi/Pteruthius aeralatus/Pteruthius annamensis","spPteruaer"
"238","complex","Himalayan Shrike-babbler","Pteruthius ripleyi","sspPteruaerrip"
"238","complex","Blyth's Shrike-babbler","Pteruthius aeralatus","sspPteruaerval/sspPteruaerric/sspPteruaeraer/sspPteruaersch/sspPteruaercam/sspPteruaerrob"
"238","complex","Dalat Shrike-babbler","Pteruthius annamensis","sspPteruaerann"
"239","simple","Red-eyed Vireo","Vireo olivaceus","spVireo1chi/spVireo1oli"
"240","complex","Mangrove Vireo/Providencia Vireo","Vireo pallens/Vireo approximans","spVireo1pal"
"240","complex","Mangrove Vireo","Vireo pallens","sspVireo1palpal/sspVireo1palsem/sspVireo1paloch/sspVireo1palsal/sspVireo1palpal1/sspVireo1palwet/sspVireo1palang/sspVireo1palbro/sspVireo1palnic"
"240","complex","Providencia Vireo","Vireo approximans","sspVireo1palapp"
"241","simple","Olive-brown Oriole","Oriolus melanotis","spOriol1fin/spOriol1mel"
"242","simple","Black-and-crimson Oriole","Oriolus cruentus","spOriol1con/spOriol1cru"
"243","simple","Dark-throated Oriole","Oriolus xanthonotus","spOriol1con1/spOriol1xan1"
"244","complex","Hair-crested Drongo/Sumatran Drongo","Dicrurus hottentottus/Dicrurus sumatranus","spDicruhot"
"244","complex","Hair-crested Drongo","Dicrurus hottentottus","sspDicruhothot/sspDicruhotbre/sspDicruhotbor/sspDicruhotfab/sspDicruhotter/sspDicruhotjen/sspDicruhotleu/sspDicruhotban/sspDicruhotgui/sspDicruhotpec/sspDicruhotsul/spDicrupal/sspDicrupalpal/sspDicrupalcuy/spDicrustr/sspDicrustrsam/sspDicrustrstr"
"244","complex","Sumatran Drongo","Dicrurus sumatranus","sspDicruhotvir"
"245","simple","Square-tailed Drongo","Dicrurus ludwigii","spDicrulud/spDicrusha"
"246","simple","Northern Fantail","Rhipidura rufiventris","spRhipikor/spRhipiruf"
"247","simple","Cockerell's Fantail","Rhipidura cockerelli","spRhipicoc/spRhipicou"
"248","simple","Brown Fantail","Rhipidura drownei","spRhipidro/spRhipiocu"
"249","simple","Streaked Fantail","Rhipidura verreauxi","spRhipilay/spRhipispi/spRhipiver"
"250","simple","Rusty-bellied Fantail","Rhipidura teysmanni","spRhipisul/spRhipitey"
"251","simple","Arafura Fantail","Rhipidura dryas","spRhipidry/spRhipisem1"
"252","simple","Rufous Fantail","Rhipidura rufifrons","spRhipilou/spRhipimel/spRhipiruf2/spRhipiruf3/spRhipitor/spRhipiver1"
"253","simple","Silktail","Lamprolia victoriae","spLampr1kli/spLampr1vic"
"254","complex","Red-bellied Paradise Flycatcher/Annobon Paradise Flycatcher","Terpsiphone rufiventer/Terpsiphone smithii","spTerpsruf1"
"254","complex","Red-bellied Paradise Flycatcher","Terpsiphone rufiventer","sspTerpsruf1ruf/sspTerpsruf1nig/sspTerpsruf1fag/sspTerpsruf1tri/sspTerpsruf1neu/sspTerpsruf1sch/sspTerpsruf1may/sspTerpsruf1som/sspTerpsruf1emi/sspTerpsruf1ign"
"254","complex","Annobon Paradise Flycatcher","Terpsiphone smithii","sspTerpsruf1smi"
"255","simple","Oriental Paradise Flycatcher","Terpsiphone affinis","spTerpsaff/spTerpsflo"
"256","complex","Spectacled Monarch/Moluccan Monarch","Symposiachrus trivirgatus/Symposiachrus bimaculatus","spSympobim"
"256","complex","Moluccan Monarch","Symposiachrus bimaculatus","sspSympobimbim/sspSympobimdia"
"256","complex","Spectacled Monarch","Symposiachrus trivirgatus","sspSympobimnig/spSympomel/spSympotri/sspSympotritri/sspSympotrialb/sspSympotrigou"
"257","simple","Solomons Monarch","Symposiachrus barbatus","spSympobar/spSympomal"
"258","simple","Kolombangara Monarch","Symposiachrus browni","spSympobro/spSymponig"
"259","complex","Bougainville Monarch/Chestnut-bellied Monarch","Monarcha erythrostictus/Monarcha castaneiventris","spMonarcas"
"259","complex","Bougainville Monarch","Monarcha erythrostictus","sspMonarcasery"
"259","complex","Chestnut-bellied Monarch","Monarcha castaneiventris","sspMonarcascas/sspMonarcasobs/sspMonarcasmeg/sspMonarcasugi"
"260","simple","White-naped Monarch","Carterornis pileatus","spCartecas/spCartepil"
"261","simple","Velvet Flycatcher","Myiagra hebetior","spMyiageic/spMyiagheb"
"262","complex","Great Grey Shrike","Lanius excubitor","spLaniubor/sspLaniuborsib/sspLaniuborbia/sspLaniubormol/sspLaniuborfun/sspLaniuborbor/sspLaniuexc1exc/sspLaniuexc1hom"
"262","complex","Great Grey Shrike/Southern Grey Shrike/Steppe Grey Shrike","Lanius excubitor/Lanius meridionalis/Lanius pallidirostris","spLaniuexc1"
"262","complex","Southern Grey Shrike","Lanius meridionalis","sspLaniuexc1koe/sspLaniuexc1alg/sspLaniuexc1ele/sspLaniuexc1leu/sspLaniuexc1auc/sspLaniuexc1the/sspLaniuexc1bur/sspLaniuexc1unc/sspLaniuexc1lah/spLaniumer"
"262","complex","Steppe Grey Shrike","Lanius pallidirostris","sspLaniuexc1pal"
"263","simple","Chinese Grey Shrike","Lanius sphenocercus","spLaniugig/spLaniusph"
"264","simple","Black Magpie","Platysmurus leucopterus","spPlaty4ate/spPlaty4leu"
"265","simple","Eurasian Magpie","Pica pica","spPicaasi/spPicabot/spPicamau/spPicapic/spPicaser"
"266","simple","Spotted Nutcracker","Nucifraga caryocatactes","spNucifcar/spNucifhem"
"267","simple","Slender-billed Crow","Corvus enca","spCorvucel/spCorvuenc/spCorvusam/spCorvusie"
"268","complex","American Crow/Northwestern Crow","Corvus brachyrhynchos/Corvus caurinus","spCorvubra"
"268","complex","Northwestern Crow","Corvus caurinus","sspCorvubracau"
"268","complex","American Crow","Corvus brachyrhynchos","sspCorvubrahes/sspCorvubrahar/sspCorvubrabra/sspCorvubrapas"
"269","complex","Large-billed Crow/Indian Jungle Crow","Corvus macrorhynchos/Corvus culminatus","spCorvucul"
"269","complex","Large-billed Crow/Eastern Jungle Crow","Corvus macrorhynchos/Corvus levaillantii","spCorvulev"
"269","complex","Large-billed Crow","Corvus macrorhynchos","spCorvumac/sspCorvumacjap/sspCorvumaccon/sspCorvumacosa/sspCorvumacman/sspCorvumaccol/sspCorvumactib/sspCorvumacint/sspCorvumacmac/spCorvuphi"
"270","simple","Paradise-crow","Lycocorax pyrrhopterus","spLycocobi/spLycocpyr"
"271","simple","Glossy-mantled Manucode","Manucodia ater","spManucalt/spManucate"
"272","simple","Superb Bird-of-paradise","Lophorina superba","spLopho14lat/spLopho14min/spLopho14sup"
"273","simple","Pacific Robin","Petroica pusilla","spPetro1pol/spPetro1pus"
"274","simple","Ashy Robin","Heteromyias albispecularis","spHeter6alb/spHeter6arm"
"275","complex","Japanese Tit/Cinereous Tit","Parus minor/Parus cinereus","spParuscin"
"275","complex","Cinereous Tit","Parus cinereus","sspParuscindec/sspParuscinzia/sspParuscincas/sspParuscinpla/sspParuscinvau/sspParuscinstu/sspParuscinmah/sspParuscintem/sspParuscinhai/sspParuscinamb/sspParuscinsar/sspParuscincin"
"275","complex","Japanese Tit","Parus minor","sspParuscinmin/sspParuscindag/sspParuscinama/sspParuscinoki/sspParuscinnig/sspParuscintib/sspParuscincom/sspParuscinnub"
"276","complex","Rufous-bellied Tit/Cinnamon-breasted Tit","Melaniparus rufiventris/Melaniparus pallidiventris","spMelan8ruf/sspMelan8rufdil"
"276","complex","Rufous-bellied Tit","Melaniparus rufiventris","sspMelan8rufruf/sspMelan8rufmas"
"276","complex","Cinnamon-breasted Tit","Melaniparus pallidiventris","sspMelan8rufpal/sspMelan8rufste"
"277","complex","Foxy Lark/Fawn-colored Lark","Calendulauda alopex/Calendulauda africanoides","spCalenafr"
"277","complex","Foxy Lark","Calendulauda alopex","sspCalenafrint/sspCalenafralo"
"277","complex","Fawn-colored Lark","Calendulauda africanoides","sspCalenafrtra/sspCalenafrhar/sspCalenafrmak/sspCalenafrsar/sspCalenafrvin/sspCalenafrafr"
"278","complex","Dune Lark/Barlow's Lark","Calendulauda erythrochlamys/Calendulauda barlowi","spCalenery"
"278","complex","Dune Lark","Calendulauda erythrochlamys","sspCaleneryery"
"278","complex","Barlow's Lark","Calendulauda barlowi","sspCalenerybar/sspCalenerypat/sspCalenerycav"
"279","complex","Horsfield's Bush Lark/Singing Bush Lark","Mirafra javanica/Mirafra cantillans","spMirafjav"
"279","complex","Singing Bush Lark","Mirafra cantillans","sspMirafjavmar/sspMirafjavcha/sspMirafjavsim/sspMirafjavcan"
"279","complex","Horsfield's Bush Lark","Mirafra javanica","sspMirafjavwil/sspMirafjavphi/sspMirafjavmin/sspMirafjavjav/sspMirafjavpar/sspMirafjavtim/sspMirafjavali/sspMirafjavwoo/sspMirafjavhal/sspMirafjavfor/sspMirafjavmel/sspMirafjavsod/sspMirafjavruf/sspMirafjavath/sspMirafjavhor/sspMirafjavsec"
"280","simple","Red-winged Lark","Mirafra hypermetra","spCoryp1hyp/spCoryp1kid"
"281","simple","Rufous-naped Lark","Mirafra africana","spCoryp1afr/spCoryp1ath/spCoryp1kab/spCoryp1kur/spCoryp1nig/spCoryp1sha"
"282","complex","Ash's Lark/Somali Lark","Mirafra ashi/Mirafra somalica","spCoryp1som"
"282","complex","Somali Lark","Mirafra somalica","sspCoryp1somsom"
"282","complex","Ash's Lark","Mirafra ashi","sspCoryp1somash"
"283","complex","Blanford's Lark/Erlanger's Lark","Calandrella blanfordi/Calandrella erlangeri","spCalanbla"
"283","complex","Blanford's Lark","Calandrella blanfordi","sspCalanblabla/spCalanere/sspCalanereere/sspCalaneredaa"
"283","complex","Erlanger's Lark","Calandrella erlangeri","sspCalanblaerl"
"284","simple","Dunn's Lark","Eremalauda dunni","spEremadun/spEremaere"
"285","complex","Athi Short-toed Lark/Somali Short-toed Lark","Alaudala athensis/Alaudala somalica","spAlaud1som"
"285","complex","Somali Short-toed Lark","Alaudala somalica","sspAlaud1somper/sspAlaud1somsom/sspAlaud1sommeg"
"285","complex","Athi Short-toed Lark","Alaudala athensis","sspAlaud1somath"
"286","simple","Lesser Short-toed Lark","Alaudala rufescens","spAlaud1hei/spAlaud1ruf"
"287","simple","Yellow-lored Bristlebill","Bleda notatus","spBledanot/spBledauga"
"288","simple","Yellow-throated Leaflove","Atimastillas flavicollis","spAtimafla/spAtimafla1"
"289","complex","Mountain Greenbul/Olive-breasted Greenbul","Arizelocichla nigriceps/Arizelocichla kikuyuensis","spArizekik"
"289","complex","Mountain Greenbul","Arizelocichla nigriceps","spArizenig/sspArizenignig/sspArizenigusa"
"290","complex","Olive-headed Greenbul/Stripe-faced Greenbul","Arizelocichla olivaceiceps/Arizelocichla striifacies","spArizestr"
"290","complex","Stripe-faced Greenbul","Arizelocichla striifacies","sspArizestrstr"
"290","complex","Olive-headed Greenbul","Arizelocichla olivaceiceps","sspArizestroli"
"291","simple","White-throated Greenbul","Phyllastrephus albigularis","spPhyll3alb1/spPhyll3vir"
"292","complex","Cabanis's Greenbul/Placid Greenbul","Phyllastrephus cabanisi/Phyllastrephus placidus","spPhyll3cab"
"292","complex","Cabanis's Greenbul","Phyllastrephus cabanisi","sspPhyll3cabcab/sspPhyll3cabsuc"
"292","complex","Placid Greenbul","Phyllastrephus placidus","sspPhyll3cabpla"
"293","simple","Grey-cheeked Bulbul","Alophoixus bres","spAlophbre/spAlophtep"
"294","simple","Ochraceous Bulbul","Alophoixus ochraceus","spAlophoch/spAlophruf"
"295","complex","Olive Bulbul","Iole virescens","spIolecac/sspIolepromyi/sspIolevirvir"
"295","complex","Olive Bulbul/Grey-eyed Bulbul","Iole virescens/Iole propinqua","spIolepro/spIolevir"
"295","complex","Grey-eyed Bulbul","Iole propinqua","sspIoleproaqu/sspIolepropro/sspIoleprosim/sspIoleproinn/sspIolevirlek/sspIolevircin"
"296","simple","Sunda Bulbul","Ixos virescens","spIxossum/spIxosvir"
"297","simple","Northern Golden Bulbul","Thapsinillas longirostris","spHypsiaur/spHypsichl/spHypsihar/spHypsilon/spHypsiluc/spHypsipla"
"298","simple","Yellowish Bulbul","Hypsipetes everetti","spHypsicat/spHypsieve"
"299","simple","Stripe-throated Bulbul","Pycnonotus finlaysoni","spPycno2dav/spPycno2fin"
"300","simple","Flavescent Bulbul","Pycnonotus flavescens","spPycno2fla/spPycno2leu"
"301","complex","Common Bulbul/Somali Bulbul/Dodson's Bulbul/Dark-capped Bulbul","Pycnonotus barbatus/Pycnonotus somaliensis/Pycnonotus dodsoni/Pycnonotus tricolor","spPycno2bar"
"301","complex","Common Bulbul","Pycnonotus barbatus","sspPycno2barbar/sspPycno2barino/sspPycno2bargab/sspPycno2barars/sspPycno2barsch"
"301","complex","Dodson's Bulbul","Pycnonotus dodsoni","sspPycno2bardod"
"301","complex","Somali Bulbul","Pycnonotus somaliensis","sspPycno2barsom"
"301","complex","Dark-capped Bulbul","Pycnonotus tricolor","sspPycno2barspu/sspPycno2barlay/sspPycno2bartri"
"302","simple","Brown-throated Martin","Riparia paludicola","spRiparcow/spRiparpal"
"303","complex","Rock Martin","Ptyonoprogne fuligula","spPtyonful/sspPtyonfuland/sspPtyonfulful/sspPtyonfulpre/sspPtyonrufpus/sspPtyonrufban/sspPtyonrufruf"
"303","complex","Pale Crag Martin","Ptyonoprogne obsoleta","spPtyonobs/sspPtyonobspre/sspPtyonobsspa/sspPtyonobsbuc/sspPtyonobsobs/sspPtyonobsara/sspPtyonobsper/sspPtyonobspal"
"303","complex","Pale Crag Martin/Rock Martin","Ptyonoprogne obsoleta/Ptyonoprogne fuligula","spPtyonruf"
"304","simple","Pacific Swallow","Hirundo tahitica","spHirun2jav/spHirun2tah"
"305","simple","Common House Martin","Delichon urbicum","spDeliclag/spDelicurb"
"306","complex","Red-rumped Swallow/Striated Swallow","Cecropis daurica/Cecropis striolata","spCecrodau"
"306","complex","Red-rumped Swallow","Cecropis daurica","sspCecrodaudau/sspCecrodaujap/sspCecrodaunip/sspCecrodauery/sspCecromelmel/sspCecromelkum/sspCecromelemi/spCecroruf"
"306","complex","Striated Swallow","Cecropis striolata","sspCecrodaumay/sspCecrodausta/sspCecrodauver/sspCecrodaustr"
"306","complex","Red-rumped Swallow/West African Swallow","Cecropis daurica/Cecropis domicella","spCecromel"
"306","complex","West African Swallow","Cecropis domicella","sspCecromeldom"
"307","complex","Scaly-breasted Wren-babbler/Chinese Wren-babbler","Pnoepyga albiventer/Pnoepyga mutica","spPnoepalb"
"307","complex","Scaly-breasted Wren-babbler","Pnoepyga albiventer","sspPnoepalbpal/sspPnoepalbalb"
"307","complex","Chinese Wren-babbler","Pnoepyga mutica","sspPnoepalbmut"
"308","complex","Japanese Bush Warbler/Manchurian Bush Warbler","Horornis diphone/Horornis borealis","spHororcan"
"308","complex","Japanese Bush Warbler","Horornis diphone","sspHororcancan/spHorordip/sspHorordipriu/sspHorordipcan/sspHorordipres/sspHorordipdip"
"308","complex","Manchurian Bush Warbler","Horornis borealis","sspHororcanbor"
"309","complex","Sunda Bush Warbler/Aberrant Bush Warbler","Horornis vulcanius/Horornis flavolivaceus","spHororfla"
"309","complex","Aberrant Bush Warbler","Horornis flavolivaceus","sspHororflafla/sspHororflastr/sspHororflaweb/sspHororflaint/sspHororflaobl"
"309","complex","Sunda Bush Warbler","Horornis vulcanius","sspHororflasep/sspHororflafla1/sspHororflavul/sspHororflakol/sspHororflaeve/sspHororflaban/sspHororflaore/sspHororflapal"
"310","complex","Black-browed Bushtit/Burmese Bushtit","Aegithalos bonvaloti/Aegithalos sharpei","spAegit1bon"
"310","complex","Black-browed Bushtit","Aegithalos bonvaloti","sspAegit1bonbon/sspAegit1bonobs"
"310","complex","Burmese Bushtit","Aegithalos sharpei","sspAegit1bonsha"
"311","complex","Tickell's Leaf Warbler/Alpine Leaf Warbler","Phylloscopus affinis/Phylloscopus occisinensis","spPhyll5aff"
"311","complex","Tickell's Leaf Warbler","Phylloscopus affinis","sspPhyll5affaff/sspPhyll5affper"
"311","complex","Alpine Leaf Warbler","Phylloscopus occisinensis","sspPhyll5affocc"
"312","complex","Kloss's Leaf Warbler/Davison's Leaf Warbler","Phylloscopus ogilviegranti/Phylloscopus davisoni","spPhyll5int1"
"312","complex","Davison's Leaf Warbler","Phylloscopus davisoni","sspPhyll5int1mul"
"312","complex","Kloss's Leaf Warbler","Phylloscopus ogilviegranti","sspPhyll5int1int/spPhyll5ogi/sspPhyll5ogidis/sspPhyll5ogiogi/sspPhyll5ogiklo"
"313","simple","Timor Leaf Warbler","Phylloscopus presbytes","spPhyll5flo/spPhyll5pre"
"314","simple","Sulawesi Leaf Warbler","Phylloscopus sarasinorum","spPhyll5nes/spPhyll5sar"
"315","simple","Island Leaf Warbler","Phylloscopus maforensis","spPhyll5maf/spPhyll5mis/spPhyll5pol1"
"316","complex","Eurasian Reed Warbler/African Reed Warbler","Acrocephalus scirpaceus/Acrocephalus baeticatus","spAcroc1sci"
"316","complex","Eurasian Reed Warbler","Acrocephalus scirpaceus","sspAcroc1scisci/sspAcroc1scifus/sspAcroc1sciavi/sspAcroc1sciamm"
"316","complex","African Reed Warbler","Acrocephalus baeticatus","sspAcroc1sciamb/sspAcroc1scimin/sspAcroc1scicin/sspAcroc1scisua/sspAcroc1scihal/sspAcroc1scibae"
"317","simple","Chestnut-backed Bush Warbler","Locustella castanea","spLocuscas/spLocusdis/spLocusmus"
"318","simple","Melanesian Thicketbird","Megalurulus whitneyi","spCincl2tur/spCincl2whi"
"319","complex","Rock-loving Cisticola/Lazy Cisticola","Cisticola emini/Cisticola aberrans","spCistiabe"
"319","complex","Rock-loving Cisticola","Cisticola emini","sspCistiabeadm/sspCistiabepet/sspCistiabeemi/spCistibai"
"319","complex","Lazy Cisticola","Cisticola aberrans","sspCistiabenyi/sspCistiabelur/sspCistiabeabe/sspCistiabemin"
"320","complex","Brown Prinia","Prinia polychroa","spPrinicoo/sspPrinicriban/spPrinipol/sspPrinipolpol/sspPrinipoldei/spPriniroc"
"320","complex","Striated Prinia/Brown Prinia","Prinia crinigera/Prinia polychroa","spPrinicri/sspPrinicriyun"
"320","complex","Striated Prinia","Prinia crinigera","sspPrinicristr/sspPrinicricri/spPrinistr/sspPrinistrcat/sspPrinistrpar/sspPrinistrstr"
"321","simple","Black-throated Prinia","Prinia atrogularis","spPriniatr/spPrinikha"
"322","simple","Graceful Prinia","Prinia gracilis","spPrinigra/spPrinilep"
"323","complex","Banded Prinia/Black-faced Prinia","Prinia bairdii/Prinia melanops","spPrinibai"
"323","complex","Banded Prinia","Prinia bairdii","sspPrinibaibai/sspPrinibaihei"
"323","complex","Black-faced Prinia","Prinia melanops","sspPrinibaiobs/sspPrinibaimel"
"324","simple","Yellow-breasted Apalis","Apalis flavida","spApalifla1/spApalifla2"
"325","simple","Karamoja Apalis","Apalis karamojae","spApalikar/spApalistr"
"326","complex","Winifred's Warbler/Rubeho Warbler","Scepomycter winifredae/Scepomycter rubehoensis","spScepowin"
"326","complex","Winifred's Warbler","Scepomycter winifredae","sspScepowinwin"
"326","complex","Rubeho Warbler","Scepomycter rubehoensis","sspScepowinrub"
"327","complex","Yellow-bellied Eremomela/Salvadori's Eremomela","Eremomela icteropygialis/Eremomela salvadorii","spEremo2ict"
"327","complex","Yellow-bellied Eremomela","Eremomela icteropygialis","sspEremo2ictale/sspEremo2ictgri/sspEremo2ictabd/sspEremo2ictpol/sspEremo2icthel/sspEremo2ictpue/sspEremo2ictsha/sspEremo2ictvir/sspEremo2ictict/sspEremo2ictsat"
"327","complex","Salvadori's Eremomela","Eremomela salvadorii","sspEremo2ictsal"
"328","complex","Lesser Whitethroat/Desert Whitethroat/Hume's Whitethroat","Sylvia curruca/Sylvia minula/Sylvia althaea","spCurrucur"
"328","complex","Lesser Whitethroat","Sylvia curruca","sspCurrucurcur/sspCurrucurbly/sspCurrucurhal"
"328","complex","Hume's Whitethroat","Sylvia althaea","sspCurrucuralt"
"328","complex","Desert Whitethroat","Sylvia minula","sspCurrucurmin/sspCurrucurmar"
"329","simple","Subalpine Warbler","Sylvia cantillans","spCurrucan/spCurruibe"
"330","simple","Brown-winged Parrotbill","Sinosuthora brunnea","spSuthobru/spSuthoric"
"331","complex","Whiskered Yuhina","Yuhina flavicollis","spYuhinfla/sspYuhinflaalb/sspYuhinflafla/sspYuhinflarou/sspYuhinflarog/sspYuhinflacon"
"331","complex","Whiskered Yuhina/Burmese Yuhina","Yuhina flavicollis/Yuhina humilis","spYuhinhum"
"331","complex","Burmese Yuhina","Yuhina humilis","sspYuhinhumcla/sspYuhinhumhum"
"332","simple","Black-crowned Babbler","Sterrhoptilus nigrocapitatus","spSterraff/spSterrnig"
"333","simple","Abyssinian White-eye","Zosterops abyssinicus","spZoste1aby/spZoste1fla/spZoste1soc"
"334","simple","Montane White-eye","Zosterops poliogastrus","spZoste1eur/spZoste1kaf/spZoste1mbu/spZoste1pol/spZoste1win"
"335","complex","Oriental White-eye/Everett's White-eye","Zosterops palpebrosus/Zosterops everetti","spZoste1aur"
"335","complex","Oriental White-eye","Zosterops palpebrosus","sspZoste1auraur/sspZoste1cituni/spZoste1mel1/sspZoste1mel1mel/sspZoste1mel1bux/spZoste1pal/sspZoste1palocc/sspZoste1palpal/sspZoste1palnil/sspZoste1palsal/sspZoste1palegr/sspZoste1palsia/sspZoste1palnic/sspZoste1simwil"
"335","complex","Everett's White-eye","Zosterops everetti","sspZoste1aurtah/sspZoste1aurwet/sspZoste1aurmed"
"335","complex","Oriental White-eye/Ashy-bellied White-eye","Zosterops palpebrosus/Zosterops citrinella","spZoste1cit"
"335","complex","Ashy-bellied White-eye","Zosterops citrinella","sspZoste1citcit/sspZoste1cithar/sspZoste1citalb"
"335","complex","Japanese White-eye/Mountain White-eye","Zosterops japonicus/Zosterops montanus","spZoste1jap"
"335","complex","Japanese White-eye","Zosterops japonicus","sspZoste1japjap/sspZoste1japste/sspZoste1japala/sspZoste1japins/sspZoste1japloo/sspZoste1japdai/sspZoste1simsim/sspZoste1simhai"
"335","complex","Mountain White-eye","Zosterops montanus","sspZoste1japobs/sspZoste1japmon/sspZoste1japdif/sspZoste1jappar/sspZoste1japwhi/sspZoste1japdiu/sspZoste1japvul/sspZoste1jappec/sspZoste1japhal"
"335","complex","Japanese White-eye/Oriental White-eye/Enggano White-eye","Zosterops japonicus/Zosterops palpebrosus/Zosterops salvadorii","spZoste1sim"
"335","complex","Japanese White-eye/Oriental White-eye","Zosterops japonicus/Zosterops palpebrosus","sspZoste1simerw"
"335","complex","Enggano White-eye","Zosterops salvadorii","sspZoste1simsal"
"336","simple","African Yellow White-eye","Zosterops senegalensis","spZoste1and/spZoste1kas/spZoste1sen/spZoste1stu"
"337","simple","Malagasy White-eye","Zosterops maderaspatanus","spZoste1ald/spZoste1anj/spZoste1com/spZoste1mad"
"338","simple","Lemon-bellied White-eye","Zosterops chloris","spZoste1chl1/spZoste1fla1"
"339","simple","Black-fronted White-eye","Zosterops minor","spZoste1chr/spZoste1min"
"340","simple","Cream-throated White-eye","Zosterops atriceps","spZoste1atr2/spZoste1deh"
"341","simple","Capped White-eye","Zosterops fuscicapilla","spZoste1cro/spZoste1fus"
"342","simple","Grey-throated White-eye","Zosterops rendovae","spZoste1ham/spZoste1obl/spZoste1ren"
"343","simple","Grey-cheeked Tit-Babbler","Macronus flavicollis","spMixorfla/spMixorpri"
"344","simple","Chestnut-winged Babbler","Stachyris erythroptera","spCyano10bic/spCyano10ery"
"345","complex","Rufous-fronted Babbler/Buff-chested Babbler","Stachyridopsis rufifrons/Stachyridopsis ambigua","spCyano10ruf1"
"345","complex","Buff-chested Babbler","Stachyridopsis ambigua","sspCyano10ruf1amb/sspCyano10ruf1pla/sspCyano10ruf1adj/sspCyano10ruf1ins"
"345","complex","Rufous-fronted Babbler","Stachyridopsis rufifrons","sspCyano10ruf1pal/sspCyano10ruf1ruf/sspCyano10ruf1obs/sspCyano10ruf1pol/sspCyano10ruf1sar"
"346","simple","Coral-billed Scimitar Babbler","Pomatorhinus ferruginosus","spPomat1fer/spPomat1pha"
"347","simple","Chestnut-backed Scimitar Babbler","Pomatorhinus montanus","spPomat1bor/spPomat1mon"
"348","simple","Rusty-cheeked Scimitar Babbler","Pomatorhinus erythrogenys","spEryth5ery/spEryth5imb"
"349","simple","Black-capped Babbler","Pellorneum capistratum","spPellocap/spPellocap1/spPellonig"
"350","simple","Short-tailed Babbler","Malacocincla malaccensis","spPellomal/spPellopol/spPellosat"
"351","simple","White-chested Babbler","Trichastoma rostratum","spPellomac/spPelloros"
"352","simple","Pale-breasted Illadopsis","Illadopsis rufipennis","spIlladdis/spIlladruf"
"353","simple","Limestone Wren-Babbler","Napothera crispifrons","spGypsoann/spGypsocal/spGypsocri"
"354","simple","Asian Fairy-bluebird","Irena puella","spIrenapue/spIrenatwe"
"355","simple","Plain-tailed Wren","Pheugopedius euophrys","spPheugeuo/spPheugsch"
"356","simple","House Wren","Troglodytes aedon","spTroglaed/spTroglbea/spTroglgre/spTroglmar/spTroglmes/spTroglmus/spTroglmus1"
"357","simple","Chestnut-breasted Wren","Cyphorhinus thoracicus","spCyphodic/spCyphotho"
"358","simple","Long-billed Gnatwren","Ramphocaenus melanurus","spRamph5mel/spRamph5sti"
"359","simple","Tropical Gnatcatcher","Polioptila plumbea","spPolio5bil/spPolio5mai/spPolio5plu"
"360","simple","White-lored Gnatcatcher","Polioptila albiloris","spPolio5alb/spPolio5alb1"
"361","simple","Brown-headed Nuthatch","Sitta pusilla","spSitta1ins/spSitta1pus"
"362","simple","White-breasted Thrasher","Ramphocinclus brachyurus","spRamph6bra/spRamph6san"
"363","complex","Common Hill Myna/Enggano Hill Myna","Gracula religiosa/Gracula enganensis","spGracurel/sspGracurelmio"
"363","complex","Common Hill Myna","Gracula religiosa","sspGracurelpen/sspGracurelint/sspGracureland/sspGracurelrel/sspGracurelbat/sspGracurelpal/spGracuven"
"363","complex","Enggano Hill Myna","Gracula enganensis","sspGracureleng"
"363","complex","Common Hill Myna/Nias Hill Myna","Gracula religiosa/Gracula robusta","spGracurob"
"364","simple","Vinous-breasted Starling","Acridotheres burmannicus","spAcridbur/spAcridleu"
"365","simple","Pied Myna","Gracupica contra","spGracu1con/spGracu1flo/spGracu1jal"
"366","complex","Lesser Blue-eared Starling/Miombo Blue-eared Starling","Lamprotornis chloropterus/Lamprotornis elisabeth","spLampr2chl"
"366","complex","Lesser Blue-eared Starling","Lamprotornis chloropterus","sspLampr2chlchl"
"366","complex","Miombo Blue-eared Starling","Lamprotornis elisabeth","sspLampr2chleli"
"367","simple","Stripe-breasted Rhabdornis","Rhabdornis inornatus","spRhabd1ino/spRhabd1rab"
"368","simple","Spotted Nightingale-Thrush","Catharus dryas","spCatha1dry/spCatha1mac"
"369","simple","Black-backed Thrush","Zoothera talaseae","spZoothatr/spZoothtal"
"370","simple","Groundscraper Thrush","Turdus litsitsirupa","spTurdulit/spTurdusim"
"371","simple","Island Thrush","Turdus poliocephalus","spTurdubou1/spTurduden/spTurduery/spTurduhei/spTurdujav/spTurdukul/spTurdumin/spTurdunig/spTurduniv/spTurdupap/spTurdupol/spTurdupri/spTurduruf/spTurdusam/spTurdusch/spTurdutho/spTurduvan/spTurduxan1"
"372","simple","Black-billed Thrush","Turdus ignobilis","spTurduart/spTurduign/spTurdumur"
"373","simple","White-browed Shama","Copsychus luzoniensis","spCopsyluz/spCopsysup"
"374","simple","White-rumped Shama","Copsychus malabaricus","spCopsyleg/spCopsymal/spCopsynig1/spCopsyomi"
"375","simple","White-crowned Shama","Copsychus stricklandii","spCopsybar/spCopsystr"
"376","complex","Chapin's Flycatcher/Itombwe Flycatcher","Muscicapa lendu/Muscicapa itombwensis","spFraselen"
"376","complex","Chapin's Flycatcher","Muscicapa lendu","sspFraselenlen"
"376","complex","Itombwe Flycatcher","Muscicapa itombwensis","sspFraselenito"
"377","simple","Vivid Niltava","Niltava vivida","spNiltaoat/spNiltaviv"
"378","simple","Russet-backed Jungle Flycatcher","Cyornis oscillans","spEumyiosc/spEumyistr"
"379","complex","Blue-throated Blue Flycatcher/Hainan Blue Flycatcher","Cyornis rubeculoides/Cyornis hainanus","spCyornhai"
"379","complex","Blue-throated Blue Flycatcher","Cyornis rubeculoides","sspCyornhaidia/sspCyornhaiklo/spCyornrub/sspCyornrubrub/sspCyornrubrog"
"379","complex","Hainan Blue Flycatcher","Cyornis hainanus","sspCyornhaihai"
"380","simple","Blue-breasted Blue Flycatcher","Cyornis herioti","spCyorncam/spCyornher"
"381","simple","Rufous-tailed Jungle Flycatcher","Cyornis ruficauda","spCyornocu/spCyornruf/spCyornruf1"
"382","simple","Tickell's Blue Flycatcher","Cyornis tickelliae","spCyornsum/spCyorntic"
"383","simple","Hill Blue Flycatcher","Cyornis banyumas","spCyornban/spCyornmon/spCyornwhi"
"384","complex","Tanahjampea Blue Flycatcher/Sulawesi Blue Flycatcher","Cyornis djampeanus/Cyornis omissus","spCyornomi"
"384","complex","Sulawesi Blue Flycatcher","Cyornis omissus","sspCyornomiomi/sspCyornomiomi1/sspCyornomiper"
"384","complex","Tanahjampea Blue Flycatcher","Cyornis djampeanus","sspCyornomidja"
"385","simple","Henna-tailed Jungle Flycatcher","Cyornis colonus","spCyorncol/spCyornpel"
"386","simple","Forest Robin","Stiphrornis erythrothorax","spStiphery/spStiphpyr/spStiphxan"
"387","simple","Bocage's Akalat","Sheppardia bocagei","spSheppboc/spShepppoe"
"388","simple","Sunda Robin","Myiomela diana","spMyiomdia/spMyiomsum"
"389","simple","White-browed Shortwing","Brachypteryx montana","spBrach4cru/spBrach4ery/spBrach4flo/spBrach4goo/spBrach4mon/spBrach4pol/spBrach4sat/spBrach4sin"
"390","simple","Japanese Robin","Larvivora akahige","spLarviaka/spLarvitan"
"391","simple","Ryukyu Robin","Larvivora komadori","spLarvikom/spLarvinam"
"392","simple","Narcissus Flycatcher","Ficedula narcissina","spFicednar/spFicedows"
"393","simple","White-browed Bush Robin","Tarsiger indicus","spTarsifor/spTarsiind"
"394","simple","Red-flanked Bluetail","Tarsiger cyanurus","spTarsialb/spTarsicya"
"395","simple","Forest Rock Thrush","Monticola sharpei","spMontiery/spMontisha"
"396","complex","African Stonechat/Madagascan Stonechat","Saxicola torquatus/Saxicola sibilla","spSaxictor"
"396","complex","African Stonechat","Saxicola torquatus","sspSaxictorfel/sspSaxictorjeb/sspSaxictormop/sspSaxictorneb/sspSaxictoraxi/sspSaxictorpro/sspSaxictorsal/sspSaxictorsto/sspSaxictorcla/sspSaxictortor/sspSaxictorore/sspSaxictorvoe/sspSaxictoralb"
"396","complex","Madagascan Stonechat","Saxicola sibilla","sspSaxictorsib/sspSaxictortsa/sspSaxictorank"
"397","complex","Mocking Cliff Chat/White-crowned Cliff Chat","Thamnolaea cinnamomeiventris/Thamnolaea coronata","spThamn4cin"
"397","complex","White-crowned Cliff Chat","Thamnolaea coronata","sspThamn4cincav/sspThamn4cinbam/sspThamn4cincor"
"397","complex","Mocking Cliff Chat","Thamnolaea cinnamomeiventris","sspThamn4cinalb/sspThamn4cinsub/sspThamn4cinodi/sspThamn4cincin/sspThamn4cinaut/sspThamn4cinkor"
"398","complex","Arnott's Chat","Myrmecocichla arnotti","spMyrme2arn/sspMyrme2arnarn/sspMyrme2arnhar"
"398","complex","Arnott's Chat/Ruaha Chat","Myrmecocichla arnotti/Myrmecocichla collaris","spMyrme2col"
"399","simple","Northern Wheatear","Oenanthe oenanthe","spOenanoen/spOenansee"
"400","simple","Red-breasted Wheatear","Oenanthe bottae","spOenanbot/spOenanfre"
"401","simple","Black-eared Wheatear","Oenanthe hispanica","spOenanhis/spOenanmel"
"402","simple","Mourning Wheatear","Oenanthe lugens","spOenanhal/spOenanlug/spOenanwar"
"403","simple","Blue-winged Leafbird","Chloropsis cochinchinensis","spChlor7coc/spChlor7mol"
"404","complex","Thick-billed Flowerpecker/Striped Flowerpecker","Dicaeum agile/Dicaeum aeruginosum","spPachy7agi"
"404","complex","Thick-billed Flowerpecker","Dicaeum agile","sspPachy7agiagi/sspPachy7agizey/sspPachy7agipal/sspPachy7agimod/sspPachy7agiatj/sspPachy7agifin/sspPachy7agitin/sspPachy7agiobs"
"404","complex","Striped Flowerpecker","Dicaeum aeruginosum","sspPachy7agistr/sspPachy7agiaer/sspPachy7agiaff"
"405","simple","Flame-crowned Flowerpecker","Dicaeum anthonyi","spDicaeant/spDicaekam"
"406","simple","Mistletoebird","Dicaeum hirundinaceum","spDicaehir/spDicaekei"
"407","simple","Fire-breasted Flowerpecker","Dicaeum ignipectus","spDicaebec/spDicaecam/spDicaeign1/spDicaeluz"
"408","simple","Blood-breasted Flowerpecker","Dicaeum sanguinolentum","spDicaehan/spDicaerho/spDicaesan/spDicaewil"
"409","simple","Grey-chinned Sunbird","Anthreptes rectirostris","spAnthr2rec/spAnthr2tep"
"410","simple","Miombo Double-collared Sunbird","Cinnyris manoensis","spCinny2ger/spCinny2man"
"411","simple","Ludwig's Double-collared Sunbird","Cinnyris ludovicensis","spCinny2lud/spCinny2why"
"412","simple","Beautiful Sunbird","Cinnyris pulchellus","spCinny2mel/spCinny2pul"
"413","complex","Shelley's Sunbird/Hofmann's Sunbird","Cinnyris shelleyi/Cinnyris hofmanni","spCinny2she"
"413","complex","Shelley's Sunbird","Cinnyris shelleyi","sspCinny2sheshe"
"413","complex","Hofmann's Sunbird","Cinnyris hofmanni","sspCinny2shehof"
"414","simple","Shining Sunbird","Cinnyris habessinicus","spCinny2hab/spCinny2hel"
"415","simple","Olive-backed Sunbird","Cinnyris jugularis","spCinny2aur/spCinny2cle/spCinny2fre/spCinny2ide/spCinny2inf/spCinny2jug/spCinny2orn/spCinny2tey"
"416","complex","Souimanga Sunbird/Abbott's Sunbird","Cinnyris sovimanga/Cinnyris abbotti","spCinny2sov"
"416","complex","Souimanga Sunbird","Cinnyris sovimanga","sspCinny2sovsov/sspCinny2sovapo/sspCinny2sovald"
"416","complex","Abbott's Sunbird","Cinnyris abbotti","sspCinny2sovabb/sspCinny2sovbuc"
"417","simple","Apo Sunbird","Aethopyga boltoni","spAetho1bol/spAetho1tib"
"418","complex","Metallic-winged Sunbird/Luzon Sunbird/Bohol Sunbird","Aethopyga pulcherrima/Aethopyga jefferyi/Aethopyga decorosa","spAetho1pul"
"418","complex","Metallic-winged Sunbird","Aethopyga pulcherrima","sspAetho1pulpul"
"418","complex","Luzon Sunbird","Aethopyga jefferyi","sspAetho1puljef"
"418","complex","Bohol Sunbird","Aethopyga decorosa","sspAetho1puldec"
"419","complex","Grey-breasted Spiderhunter/Bornean Spiderhunter","Arachnothera modesta/Arachnothera everetti","spAracheve"
"419","complex","Grey-breasted Spiderhunter","Arachnothera modesta","spArachmod/sspArachmodcae/sspArachmodmod/sspArachmodcon"
"420","simple","Black-necked Weaver","Ploceus nigricollis","spPloce2bra/spPloce2nig1"
"421","simple","Eastern Golden Weaver","Ploceus subaureus","spPloce2hol/spPloce2sub1"
"422","simple","Vieillot's Black Weaver","Ploceus nigerrimus","spPloce2cas2/spPloce2nig2"
"423","simple","Red-headed Weaver","Anaplectes rubriceps","spAnapljub/spAnaplrub"
"424","simple","Red-collared Widowbird","Euplectes ardens","spEupleard/spEuplelat"
"425","simple","Zebra Finch","Taeniopygia guttata","spTaeni2cas/spTaeni2gut"
"426","complex","Black-and-white Mannikin/Red-backed Mannikin","Lonchura bicolor/Lonchura nigriceps","spSpermbic"
"426","complex","Black-and-white Mannikin","Lonchura bicolor","sspSpermbicbic/sspSpermbicpoe/sspSpermbicwol"
"426","complex","Red-backed Mannikin","Lonchura nigriceps","sspSpermbicnig"
"427","simple","Hunstein's Mannikin","Lonchura hunsteini","spLonchhun/spLonchnig"
"428","complex","Fawn-breasted Waxbill/Abyssinian Waxbill","Estrilda paludicola/Estrilda ochrogaster","spEstripal"
"428","complex","Fawn-breasted Waxbill","Estrilda paludicola","sspEstripalpal/sspEstripalros/sspEstripalmar/sspEstripalben/sspEstripalrut"
"428","complex","Abyssinian Waxbill","Estrilda ochrogaster","sspEstripaloch"
"429","complex","African Firefinch/Landana Firefinch","Lagonosticta rubricata/Lagonosticta landanae","spLagonrub"
"429","complex","African Firefinch","Lagonosticta rubricata","sspLagonrubpol/sspLagonrubcon/sspLagonrubhae/sspLagonrubrub"
"429","complex","Landana Firefinch","Lagonosticta landanae","sspLagonrublan"
"430","complex","Radde's Accentor/Arabian Accentor","Prunella ocularis/Prunella fagani","spPruneocu"
"430","complex","Radde's Accentor","Prunella ocularis","sspPruneocuocu"
"430","complex","Arabian Accentor","Prunella fagani","sspPruneocufag"
"431","simple","Long-billed Pipit","Anthus similis","spAnthunic/spAnthusim"
"432","complex","Buffy Pipit/Plain-backed Pipit","Anthus vaalensis/Anthus leucophrys","spAnthuleu"
"432","complex","Plain-backed Pipit","Anthus leucophrys","sspAnthuleuans/sspAnthuleugou/sspAnthuleuzen/sspAnthuleusap/sspAnthuleugoo/sspAnthuleuomo/sspAnthuleuboh/sspAnthuleuleu/sspAnthuleutep"
"432","complex","Buffy Pipit","Anthus vaalensis","spAnthuvaa/sspAnthuvaacho/sspAnthuvaaneu/sspAnthuvaanam/sspAnthuvaaexa/sspAnthuvaavaa"
"433","simple","Buff-bellied Pipit","Anthus rubescens","spAnthujap/spAnthurub"
"434","simple","Yellowish Pipit","Anthus lutescens","spAnthuchi/spAnthuper"
"435","simple","Short-billed Pipit","Anthus furcatus","spAnthubre/spAnthufur"
"436","simple","Common Chaffinch","Fringilla coelebs","spFringcan/spFringcoe/spFringmad/spFringmor/spFringspo"
"437","simple","Grey-headed Bullfinch","Pyrrhula erythaca","spPyrrh4ery1/spPyrrh4ows"
"438","complex","Eurasian Crimson-winged Finch/African Crimson-winged Finch","Rhodopechys sanguineus/Rhodopechys alienus","spRhodo3san"
"438","complex","Eurasian Crimson-winged Finch","Rhodopechys sanguineus","sspRhodo3sansan"
"438","complex","African Crimson-winged Finch","Rhodopechys alienus","sspRhodo3sanali"
"439","simple","Long-tailed Rosefinch","Carpodacus sibiricus","spCarpo4lep/spCarpo4sib"
"440","simple","Grey-capped Greenfinch","Chloris sinica","spChlor10kit/spChlor10sin"
"441","simple","Reichard's Seedeater","Crithagra reichardi","spCrithrei1/spCrithstr"
"442","complex","Common Redpoll/Arctic Redpoll","Acanthis flammea/Acanthis hornemanni","spAcant5fla"
"442","complex","Common Redpoll","Acanthis flammea","sspAcant5flafla/sspAcant5flaros/sspAcant5flacab"
"442","complex","Arctic Redpoll","Acanthis hornemanni","sspAcant5flaexi/sspAcant5flahor"
"443","simple","Red Crossbill","Loxia curvirostra","spLoxiacur/spLoxiasin"
"444","simple","Mountain Serin","Chrysocorythus estherae","spChrys7est/spChrys7min"
"445","simple","European Goldfinch","Carduelis carduelis","spCarducan/spCarducar"
"446","simple","Antillean Euphonia","Euphonia musica","spChlor11fla/spChlor11mus/spChlor11scl"
"447","simple","Scrub Euphonia","Euphonia affinis","spEuphoaff/spEuphogod"
"448","complex","Cape Bunting/Vincent's Bunting","Emberiza capensis/Emberiza vincenti","spEmbercap"
"448","complex","Cape Bunting","Emberiza capensis","sspEmbercapneb/sspEmbercapbra/sspEmbercapcap/sspEmbercapvin/sspEmbercapcin/sspEmbercaplim/sspEmbercapsmi/sspEmbercapplo/sspEmbercaprei/sspEmbercapbas"
"448","complex","Vincent's Bunting","Emberiza vincenti","sspEmbercapvin1"
"449","simple","Black-faced Bunting","Emberiza spodocephala","spEmberper/spEmberspo"
"450","simple","Stripe-capped Sparrow","Rhynchospiza strigiceps","spRhync6dab/spRhync6str"
"451","simple","Black-capped Sparrow","Arremon abeillei","spArrem1abe/spArrem1nig"
"452","simple","Pectoral Sparrow","Arremon taciturnus","spArrem1axi/spArrem1tac"
"453","simple","Saffron-billed Sparrow","Arremon flavirostris","spArrem1dor/spArrem1fla"
"454","simple","Yellow-eyed Junco","Junco phaeonotus","spJuncobai/spJuncopha"
"455","simple","Slaty Brushfinch","Atlapetes schistaceus","spAtlapsch/spAtlaptac"
"456","simple","Eastern Meadowlark","Sturnella magna","spSturn3lil/spSturn3mag"
"457","complex","Northern Mountain Cacique/Southern Mountain Cacique","Cacicus leucoramphus/Cacicus chrysonotus","spCacicchr1"
"457","complex","Northern Mountain Cacique","Cacicus leucoramphus","sspCacicchr1leu/sspCacicchr1per"
"457","complex","Southern Mountain Cacique","Cacicus chrysonotus","sspCacicchr1chr"
"458","complex","Orchard Oriole/Ochre Oriole","Icterus spurius/Icterus fuertesi","spIcter1spu"
"458","complex","Orchard Oriole","Icterus spurius","sspIcter1spuspu"
"458","complex","Ochre Oriole","Icterus fuertesi","sspIcter1spufue"
"459","simple","Rufous-capped Warbler","Basileuterus rufifrons","spBasil2del/spBasil2ruf"
"460","simple","Greyish Saltator","Saltator coerulescens","spSalta1coe/spSalta1gra/spSalta1oli"
"461","simple","Puerto Rican Bullfinch","Loxigilla portoricensis","spMelop1gra/spMelop1por"
"462","simple","Cuban Bullfinch","Melopyrrha nigra","spMelop1nig/spMelop1tay"
"463","complex","Passerini's Tanager/Cherrie's Tanager","Ramphocelus passerinii/Ramphocelus costaricensis","spRamph7pas"
"463","complex","Passerini's Tanager","Ramphocelus passerinii","sspRamph7paspas"
"463","complex","Cherrie's Tanager","Ramphocelus costaricensis","sspRamph7pascos"
"464","simple","White-collared Seedeater","Sporophila torqueola","spSporo1mor/spSporo1tor"
"465","complex","Wing-barred Seedeater/Caqueta Seedeater","Sporophila americana/Sporophila murallae","spSporo1ame"
"465","complex","Wing-barred Seedeater","Sporophila americana","sspSporo1ameame/sspSporo1amedis"
"465","complex","Caqueta Seedeater","Sporophila murallae","sspSporo1amemur"
"466","simple","Tit-like Dacnis","Xenodacnis parina","spXenodpar/spXenodpet"
"467","simple","Buff-breasted Mountain Tanager","Dubusia taeniata","spDubuscar/spDubussti/spDubustae"
"468","simple","Black-headed Tanager","Tangara cyanoptera","spStilpcya/spStilpwhi"
"469","simple","Turquoise Tanager","Tangara mexicana","spTangabra/spTangamex"
