"Index","Type","Old Common","Old Sci","New IDs"
"1","complex","Spotted Nothura/Chaco Nothura","Nothura maculosa/Nothura chacoensis","spNothumac"
"1","complex","Spotted Nothura","Nothura maculosa","sspNothumaccea/sspNothumacmaj/sspNothumacpal/sspNothumacmac/sspNothumacpal1/sspNothumacann/sspNothumacsub/sspNothumacnig"
"1","complex","Chaco Nothura","Nothura chacoensis","sspNothumaccha"
"2","simple","Comb Duck","Sarkidiornis melanotos","spSarkimel/spSarkisyl"
"3","simple","Mallard","Anas platyrhynchos","spAnasdia/spAnaspla"
"4","simple","White-winged Scoter","Melanitta fusca","spMelandeg/spMelanfus/spMelanste"
"5","simple","Ruddy Duck","Oxyura jamaicensis","spOxyurfer/spOxyurjam"
"6","complex","Dusky Scrubfowl/Forsten's Scrubfowl","Megapodius freycinet/Megapodius forsteni","spMegapfre"
"6","complex","Dusky Scrubfowl","Megapodius freycinet","grMegapfre[fr/sspMegapfre[frquo/sspMegapfre[frfre/sspMegapfre[frous"
"6","complex","Forsten's Scrubfowl","Megapodius forsteni","grMegapfrefor/sspMegapfreforbur/sspMegapfreforfor"
"7","simple","Variable Chachalaca","Ortalis motmot","spOrtalmot/spOrtalruf1"
"8","simple","Dusky-legged Guan","Penelope obscura","spPenelbri/spPenelobs"
"9","simple","Blue-throated Piping-Guan","Pipile cumanensis","spPipilcum/spPipilgra"
"10","simple","Crested Guineafowl","Guttera pucherani","spGutteedo/spGuttepuc/spGuttever"
"11","simple","Crested Bobwhite","Colinus cristatus","spColincri/spColinleu"
"12","simple","Gray-breasted Partridge","Arborophila orientalis","spArborcam1/spArborori/spArborrol/spArborsum"
"13","simple","Long-billed Partridge","Rhizothera longirostris","spRhizodul/spRhizolon"
"14","simple","Ring-necked Pheasant","Phasianus colchicus","spPhasicol/spPhasiver"
"15","simple","White Eared-Pheasant","Crossoptilon crossoptilon","spCrosscro/spCrosshar"
"16","simple","Crestless Fireback","Lophura erythrophthalma","spLophuery/spLophupyr"
"17","simple","Crested Fireback","Lophura ignita","spLophuign/spLophuruf"
"18","simple","Crested Argus","Rheinardia ocellata","spRheinnig/spRheinoce"
"19","complex","Scaly-breasted Partridge/Vietnam Partridge","Arborophila chloropus/Arborophila merlini","spTropichl/grTropichl[ch"
"19","complex","Scaly-breasted Partridge","Arborophila chloropus","grTropichlton/sspTropichl[chchl/sspTropichl[chpen/sspTropichl[choli/sspTropichl[chcog"
"19","complex","Vietnam Partridge","Arborophila merlini","sspTropichl[chmer/sspTropichl[chviv"
"20","simple","Chestnut-necklaced Partridge","Arborophila charltonii","spTropicha/spTropigra"
"21","simple","Moorland Francolin","Scleroptila psilolaema","spSclerelg/spSclerpsi"
"22","simple","Shelley's Francolin","Scleroptila shelleyi","spSclershe/spSclerwhy"
"23","complex","Lemon Dove/Forest Dove","Columba larvata/Columba simplex","spAploplar"
"23","complex","Lemon Dove","Columba larvata","grAploplarino/grAploplarpri/grAploplarlar/sspAploplarlarbro/sspAploplarlarlar"
"23","complex","Forest Dove","Columba simplex","grAploplarsim"
"24","simple","Eurasian Collared-Dove","Streptopelia decaocto","spStrepdec/spStrepxan"
"25","simple","Dusky Cuckoo-Dove","Macropygia magna","spMacro1mac/spMacro1mag/spMacro1tim"
"26","simple","Slender-billed Cuckoo-Dove","Macropygia amboinensis","spMacro1amb/spMacro1dor"
"27","complex","Ruddy Cuckoo-Dove","Macropygia emiliana","spMacro1cin/spMacro1emi/sspMacro1emiemi/sspMacro1emimeg/spMacro1mod/sspMacro1modhyp/sspMacro1modmod/sspMacro1modela/sspMacro1tensep/sspMacro1tenpha/sspMacro1tenten/sspMacro1tenbor"
"27","complex","Ruddy Cuckoo-Dove/Philippine Cuckoo-Dove","Macropygia emiliana/Macropygia tenuirostris","spMacro1ten"
"28","simple","White-faced Cuckoo-Dove","Turacoena manadensis","spTuracman/spTuracsul"
"29","simple","Emerald Dove","Chalcophaps indica","spChalcind/spChalclon"
"30","simple","Southern Crowned-Pigeon","Goura scheepmakeri","spGourasch/spGourascl"
"31","simple","Madagascar Green-Pigeon","Treron australis","spTreroaus/spTrerogri1"
"32","simple","Crimson-crowned Fruit-Dove","Ptilinopus porphyraceus","spPtiliher/spPtilipon/spPtilipor1"
"33","simple","Gray-green Fruit-Dove","Ptilinopus purpuratus","spPtilichr/spPtilipur"
"34","simple","Yellow-bibbed Fruit-Dove","Ptilinopus solomonensis","spPtilisol/spPtilispe"
"35","simple","Green Imperial-Pigeon","Ducula aenea","spDuculaen/spDuculoen"
"36","simple","Spice Imperial-Pigeon","Ducula myristicivora","spDuculgee/spDuculmyr"
"37","simple","Mountain Imperial-Pigeon","Ducula badia","spDuculbad/spDuculcup"
"38","simple","Torresian Imperial-Pigeon","Ducula spilorrhoa","spDuculspi/spDuculsub"
"39","complex","New Zealand Pigeon/Norfolk Island Pigeon","Hemiphaga novaeseelandiae/Hemiphaga spadicea","spHemipnov"
"39","complex","Norfolk Island Pigeon","Hemiphaga spadicea","grHemipnovspa"
"39","complex","New Zealand Pigeon","Hemiphaga novaeseelandiae","grHemipnovnov"
"40","simple","Red-capped Coua","Coua ruficeps","spCouaoli/spCouaruf"
"41","simple","White-browed Coucal","Centropus superciliosus","spCentr1bur/spCentr1sup"
"42","simple","Yellowbill","Ceuthmochares aereus","spCeuthaer/spCeuthaus"
"43","simple","Chestnut-breasted Malkoha","Phaenicophaeus curvirostris","spPhaencur/spPhaenoen"
"44","simple","Little Bronze-Cuckoo","Chrysococcyx minutillus","spChalc1cra/spChalc1min"
"45","simple","Brush Cuckoo","Cacomantis variolosus","spCacomadd/spCacombla/spCacomsep/spCacomvar/spCacomvir"
"46","complex","Fork-tailed Drongo-Cuckoo","Surniculus dicruroides","spSurnidic/sspSurnidicdic/sspSurnidicste/sspSurnilugbar"
"46","complex","Fork-tailed Drongo-Cuckoo/Square-tailed Drongo-Cuckoo","Surniculus dicruroides/Surniculus lugubris","spSurnilug"
"46","complex","Square-tailed Drongo-Cuckoo","Surniculus lugubris","sspSurnilugbra/sspSurniluglug"
"47","simple","Large Hawk-Cuckoo","Hierococcyx sparverioides","spHieroboc/spHierospa"
"48","simple","Band-winged Nightjar","Systellura longirostris","spQuechdec/spSystelon"
"49","simple","Greater Antillean Nightjar","Antrostomus cubanensis","spAntrocub/spAntroekm"
"50","complex","Eurasian Nightjar/Vaurie's Nightjar","Caprimulgus europaeus/Caprimulgus centralasicus","spCaprieur"
"50","complex","Eurasian Nightjar","Caprimulgus europaeus","sspCaprieureur/sspCaprieurmer/sspCaprieursar/sspCaprieurunw/sspCaprieurplu/sspCaprieurdem"
"51","complex","Black-shouldered Nightjar/Fiery-necked Nightjar","Caprimulgus nigriscapularis/Caprimulgus pectoralis","spCapripec"
"51","complex","Black-shouldered Nightjar","Caprimulgus nigriscapularis","grCapripecnig"
"51","complex","Fiery-necked Nightjar","Caprimulgus pectoralis","grCapripec[pe/sspCapripec[peshe/sspCapripec[pefer/sspCapripec[pecre/sspCapripec[pepec"
"52","complex","Abyssinian Nightjar/Montane Nightjar","Caprimulgus poliocephalus/Caprimulgus ruwenzorii","spCapripol"
"52","complex","Abyssinian Nightjar","Caprimulgus poliocephalus","grCapripolpol"
"52","complex","Montane Nightjar","Caprimulgus ruwenzorii","grCapripol[ru/sspCapripol[ruruw/sspCapripol[rugut/sspCapripol[rukoe"
"53","simple","Savanna Nightjar","Caprimulgus affinis","spCapriaff/spCaprigri"
"54","simple","Short-tailed Frogmouth","Batrachostomus poliolophus","spBatramix/spBatrapol"
"55","complex","Archbold's Owlet-nightjar/Mountain Owlet-nightjar","Aegotheles archboldi/Aegotheles albertisi","spAegotalb"
"56","simple","Barred Owlet-nightjar","Aegotheles bennettii","spAegotben/spAegotter"
"57","simple","Vaux's Swift","Chaetura vauxi","spChaetand/spChaetvau"
"58","complex","Chapman's Swift/Amazonian Swift","Chaetura chapmani/Chaetura viridipennis","spChaetcha"
"58","complex","Chapman's Swift","Chaetura chapmani","sspChaetchacha"
"58","complex","Amazonian Swift","Chaetura viridipennis","sspChaetchavir"
"59","simple","Glossy Swiftlet","Collocalia esculenta","spColloaff/spColloesc/spColloiso/spCollomar/spCollonat/spColloneg/spCollosum/spCollouro"
"60","complex","Sulawesi Swiftlet/Halmahera Swiftlet/Seram Swiftlet","Aerodramus sororum/Aerodramus infuscatus/Aerodramus ceramensis","spAerodinf"
"60","complex","Sulawesi Swiftlet","Aerodramus sororum","sspAerodinfsor"
"60","complex","Halmahera Swiftlet","Aerodramus infuscatus","sspAerodinfinf"
"60","complex","Seram Swiftlet","Aerodramus ceramensis","sspAerodinfcer"
"61","complex","White-nest Swiftlet/Germain's Swiftlet","Aerodramus fuciphagus/Aerodramus germani","spAerodfuc"
"61","complex","Germain's Swiftlet","Aerodramus germani","grAerodfucger/sspAerodfucgerger/sspAerodfucgerame"
"61","complex","White-nest Swiftlet","Aerodramus fuciphagus","grAerodfuc[fu/sspAerodfuc[fuine/sspAerodfuc[fuves/sspAerodfuc[fuper/sspAerodfuc[fufuc/sspAerodfuc[fudam/sspAerodfuc[fumic"
"62","complex","Scarce Swift/Schouteden's Swift","Schoutedenapus myoptilus/Schoutedenapus schoutedeni","spSchoumyo"
"62","complex","Scarce Swift","Schoutedenapus myoptilus","sspSchoumyopoe/sspSchoumyocha/sspSchoumyomyo"
"63","simple","African Palm-Swift","Cypsiurus parvus","spCypsigra/spCypsipar"
"64","simple","Wedge-billed Hummingbird","Schistes geoffroyi","spSchisalb/spSchisgeo"
"65","simple","Green Violetear","Colibri thalassinus","spColibcya/spColibtha"
"66","complex","Green-breasted Mango/Black-throated Mango","Anthracothorax prevostii/Anthracothorax nigricollis","spAnthrnig"
"66","complex","Black-throated Mango","Anthracothorax nigricollis","grAnthrnignig"
"66","complex","Green-breasted Mango","Anthracothorax prevostii","grAnthrnigiri/spAnthrpre/sspAnthrprepre/sspAnthrpregra/sspAnthrprehen/sspAnthrprevir"
"67","simple","Antillean Mango","Anthracothorax dominicus","spAnthraur/spAnthrdom"
"68","simple","Amethyst-throated Sunangel","Heliangelus amethysticollis","spHelia1ame/spHelia1cla/spHelia1spe"
"69","simple","Festive Coquette","Lophornis chalybeus","spLopho5cha/spLopho5ver"
"70","simple","Andean Hillstar","Oreotrochilus estella","spOreotest/spOreotsto"
"71","simple","Collared Inca","Coeligena torquata","spCoelicon/spCoeliinc/spCoelitor"
"72","simple","Golden-bellied Starfrontlet","Coeligena bonapartei","spCoelibon/spCoelicon1/spCoelieos"
"73","simple","Booted Racket-tail","Ocreatus underwoodii","spOcreaadd/spOcreaper/spOcreaund"
"74","simple","White-tailed Hillstar","Urochroa bougueri","spUrochbou/spUrochleu"
"75","simple","Magnificent Hummingbird","Eugenes fulgens","spEugenful/spEugenspe"
"76","simple","Broad-billed Hummingbird","Cynanthus latirostris","spCynandou/spCynanlat/spCynanlaw"
"77","complex","Wedge-tailed Sabrewing/Long-tailed Sabrewing","Campylopterus curvipennis/Campylopterus excellens","spPampacur"
"77","complex","Wedge-tailed Sabrewing","Campylopterus curvipennis","grPampacurcur/grPampacurpam"
"77","complex","Long-tailed Sabrewing","Campylopterus excellens","grPampacurexc"
"78","simple","Gray-breasted Sabrewing","Campylopterus largipennis","spCampycal/spCampydia/spCampylar"
"79","simple","Streamertail","Trochilus polytmus","spTrochpol/spTrochsci"
"80","simple","Steely-vented Hummingbird","Amazilia saucerottei","spSaucehof/spSaucesau"
"81","simple","Green-bellied Hummingbird","Amazilia viridigaster","spSaucecup/spSaucevir"
"82","simple","Virginia Rail","Rallus limicola","spRalluaeq/spRallulim"
"83","simple","Gray-necked Wood-Rail","Aramides cajaneus","spArami1alb/spArami1caj"
"84","simple","Tristan Moorhen","Gallinula nesiotis","spGalli3com/spGalli3nes"
"85","complex","American Coot/Caribbean Coot","Fulica americana/Fulica caribaea","spFulicame/sspFulicameame"
"85","complex","American Coot","Fulica americana","sspFulicamecol"
"86","complex","Black-backed Swamphen","Porphyrio indicus","spPorph1ind/sspPorph1polvir"
"86","complex","Black-backed Swamphen/Gray-headed Swamphen","Porphyrio indicus/Porphyrio poliocephalus","spPorph1pol"
"86","complex","Gray-headed Swamphen","Porphyrio poliocephalus","sspPorph1polcas/sspPorph1polsei/sspPorph1polpol"
"87","simple","Lesser Sand-Plover","Charadrius mongolus","spAnarhatr/spAnarhmon"
"88","simple","Kentish Plover","Charadrius alexandrinus","spAnarhale/spAnarhdea"
"89","simple","South American Snipe","Gallinago paraguaiae","spGalli5mag/spGalli5par"
"90","simple","Hottentot Buttonquail","Turnix hottentottus","spTurnihot/spTurninan"
"91","simple","Painted Buttonquail","Turnix varius","spTurninov/spTurnivar"
"92","complex","Red-billed Gull/Silver Gull","Chroicocephalus scopulinus/Chroicocephalus novaehollandiae","spChroinov"
"92","complex","Silver Gull","Chroicocephalus novaehollandiae","grChroinovnov/sspChroinovnovfor/sspChroinovnovnov"
"92","complex","Red-billed Gull","Chroicocephalus scopulinus","grChroinovsco"
"93","simple","Mew Gull","Larus canus","spLarusbra/spLaruscan"
"94","simple","Herring Gull","Larus argentatus","spLarusarg/spLarusmon/spLarussmi/spLarusveg"
"95","complex","Thayer's Gull/Iceland Gull","Larus thayeri/Larus glaucoides","spLarusgla1"
"95","complex","Thayer's Gull","Larus thayeri","grLarusgla1tha"
"95","complex","Iceland Gull","Larus glaucoides","grLarusgla1kum/grLarusgla1gla"
"96","simple","Gull-billed Tern","Gelochelidon nilotica","spGelocmac/spGelocnil"
"97","simple","Royal Tern","Thalasseus maximus","spThala1alb/spThala1max"
"98","simple","Royal Albatross","Diomedea epomophora","spDiomeepo/spDiomesan"
"99","simple","Wandering Albatross","Diomedea exulans","spDiomeams/spDiomeant/spDiomedab/spDiomeexu"
"100","simple","Yellow-nosed Albatross","Thalassarche chlororhynchos","spThala2car/spThala2chl"
"101","simple","Leach's Storm-Petrel","Oceanodroma leucorhoa","spHydro5che/spHydro5leu/spHydro5soc"
"102","simple","Great-winged Petrel","Pterodroma macroptera","spPtero3gou/spPtero3mac"
"103","simple","Black-capped Petrel","Pterodroma hasitata","spPtero3car/spPtero3has"
"104","simple","Salvin's Prion","Pachyptila salvini","spPachy1mac/spPachy1sal"
"105","simple","Cory's Shearwater","Calonectris diomedea","spCalonbor/spCalondio"
"106","simple","Tropical Shearwater","Puffinus bailloni","spPuffibai/spPuffiban"
"107","simple","Little Shearwater","Puffinus assimilis","spPuffiass/spPuffiele"
"108","simple","Woolly-necked Stork","Ciconia episcopus","spCiconepi/spCiconmic"
"109","simple","Brown Booby","Sula leucogaster","spSulabre/spSulaleu"
"110","simple","Black-faced Ibis","Theristicus melanopis","spTheribra/spTherimel"
"111","simple","Sacred Ibis","Threskiornis aethiopicus","spThresaet/spThresber"
"112","simple","Cattle Egret","Bubulcus ibis","spArdeacor/spArdeaibi"
"113","simple","Intermediate Egret","Mesophoyx intermedia","spArdeabra/spArdeaint/spArdeaplu"
"114","simple","Hook-billed Kite","Chondrohierax uncinatus","spChondunc/spChondwil"
"115","simple","Barred Honey-buzzard","Pernis celebensis","spPernicel/spPerniste"
"116","complex","Changeable Hawk-Eagle/Crested Hawk-Eagle","Nisaetus limnaeetus/Nisaetus cirrhatus","spNisaecir"
"116","complex","Crested Hawk-Eagle","Nisaetus cirrhatus","grNisaecircir/sspNisaecircircir/sspNisaecircircey"
"116","complex","Changeable Hawk-Eagle","Nisaetus limnaeetus","grNisaecir[li/sspNisaecir[lilim/sspNisaecir[liand/sspNisaecir[livan"
"117","complex","Red-chested Goshawk/African Goshawk","Accipiter toussenelii/Accipiter tachiro","spAerostac"
"117","complex","Red-chested Goshawk","Accipiter toussenelii","grAerostacmac/grAerostactou/sspAerostactoutou/sspAerostactoucan/grAerostaclop"
"117","complex","African Goshawk","Accipiter tachiro","grAerostacund/sspAerostacundund/sspAerostacundcro/grAerostacspa/grAerostacpem/grAerostactac"
"118","complex","Collared Sparrowhawk","Accipiter cirrocephalus","spTachy3cir/sspTachy3cirpap/sspTachy3circir/sspTachy3fasros"
"118","complex","Collared Sparrowhawk/Brown Goshawk","Accipiter cirrocephalus/Accipiter fasciatus","spTachy3fas"
"118","complex","Brown Goshawk","Accipiter fasciatus","sspTachy3fasnat/sspTachy3fasstr/sspTachy3faswal/sspTachy3fastje/sspTachy3fassav/sspTachy3fashel/sspTachy3fasdog/sspTachy3faspol/sspTachy3fasdid/sspTachy3fasfas/sspTachy3fasvig"
"119","simple","Bicolored Hawk","Accipiter bicolor","spAsturbic/spAsturchi"
"120","simple","Northern Goshawk","Accipiter gentilis","spAsturatr/spAsturgen"
"121","simple","Eastern Marsh-Harrier","Circus spilonotus","spCircuspi/spCircuspi1"
"122","simple","Reunion Harrier","Circus maillardi","spCircumac/spCircumai"
"123","simple","Northern Harrier","Circus cyaneus","spCircucya/spCircuhud"
"124","complex","Augur Buzzard/Archer's Buzzard","Buteo augur/Buteo archeri","spButeo1aug1"
"124","complex","Augur Buzzard","Buteo augur","grButeo1aug1aug"
"124","complex","Archer's Buzzard","Buteo archeri","grButeo1aug1arc"
"125","complex","Common Buzzard/Cape Verde Buzzard","Buteo buteo/Buteo bannermani","spButeo1but"
"125","complex","Common Buzzard","Buteo buteo","grButeo1butbut/grButeo1butarr/grButeo1butrot/grButeo1butins/grButeo1butvul/sspButeo1butvulvul/sspButeo1butvulmen"
"125","complex","Cape Verde Buzzard","Buteo bannermani","grButeo1butban"
"126","simple","Barn Owl","Tyto alba","spTytoalb/spTytofur/spTytojav"
"127","complex","Indian Scops-Owl","Otus bakkamoena","spOtusbak/sspOtusbakdes/sspOtusbakgan/sspOtusbakmar/sspOtusbakbak/sspOtusletplu"
"127","complex","Sunda Scops-Owl","Otus lempiji","spOtuslem/sspOtuslemcon/sspOtuslemlem/sspOtuslemhyp/sspOtuslemlem1/sspOtuslemkan/sspOtusletcne"
"127","complex","Indian Scops-Owl/Sunda Scops-Owl/Collared Scops-Owl","Otus bakkamoena/Otus lempiji/Otus lettia","spOtuslet"
"127","complex","Collared Scops-Owl","Otus lettia","sspOtusletlet/sspOtusletery/sspOtusletgla/sspOtusletumb"
"128","complex","Moluccan Scops-Owl/Sulawesi Scops-Owl","Otus magicus/Otus manadensis","spOtusmag"
"128","complex","Moluccan Scops-Owl","Otus magicus","grOtusmag[ma/sspOtusmag[mamor/sspOtusmag[maleu/sspOtusmag[maobi/sspOtusmag[mamag/sspOtusmag[mabou/sspOtusmag[maalb/spOtustem"
"128","complex","Sulawesi Scops-Owl","Otus manadensis","grOtusmagkal/spOtusman1/spOtusmen1/spOtussia/spOtussul"
"129","simple","European Scops-Owl","Otus scops","spOtuscyp/spOtussco"
"130","complex","Malagasy Scops-Owl/Torotoroka Scops-Owl","Otus rutilus/Otus madagascariensis","spOtusrut"
"130","complex","Malagasy Scops-Owl","Otus rutilus","grOtusrutrut"
"130","complex","Torotoroka Scops-Owl","Otus madagascariensis","grOtusrutmad"
"131","complex","White-throated Screech-Owl","Megascops albogularis","spMegasalb/sspMegasalbobs/sspMegasalbmac/sspMegasalbalb/sspMegasalbmer/sspMegasalbrem"
"131","complex","White-throated Screech-Owl/Colombian Screech-Owl/Rufescent Screech-Owl","Megascops albogularis/Megascops colombianus/Megascops ingens","spMegasing"
"131","complex","Colombian Screech-Owl","Megascops colombianus","grMegasingcol"
"131","complex","Rufescent Screech-Owl","Megascops ingens","grMegasinging/sspMegasingingven/sspMegasinginging"
"132","complex","Colombian Screech-Owl/Rufescent Screech-Owl","Megascops colombianus/Megascops ingens","spMegasing"
"132","complex","Colombian Screech-Owl","Megascops colombianus","grMegasingcol"
"132","complex","Rufescent Screech-Owl","Megascops ingens","grMegasinging/sspMegasingingven/sspMegasinginging"
"133","simple","Vermiculated Screech-Owl","Megascops guatemalae","spMegascen/spMegasgua/spMegasror"
"134","simple","Great Horned Owl","Bubo virginianus","spBubomag/spBubovir"
"135","simple","Spotted Eagle-Owl","Bubo africanus","spBuboafr/spBubomil"
"136","complex","Fraser's Eagle-Owl/Usambara Eagle-Owl","Bubo poensis/Bubo vosseleri","spKetuppoe"
"136","complex","Fraser's Eagle-Owl","Bubo poensis","grKetuppoepoe"
"136","complex","Usambara Eagle-Owl","Bubo vosseleri","grKetuppoevos"
"137","complex","African Barred Owlet/Chestnut Owlet","Glaucidium capense/Glaucidium castaneum","spGlauc1cap"
"137","complex","African Barred Owlet","Glaucidium capense","grGlauc1capsch/grGlauc1capcap/sspGlauc1capcapnga/sspGlauc1capcapcap"
"137","complex","Chestnut Owlet","Glaucidium castaneum","grGlauc1capetc/grGlauc1capcas"
"138","simple","Collared Owlet","Glaucidium brodiei","spTaenibro/spTaenisyl"
"139","simple","Solomons Boobook","Ninox jacquinoti","spAthengra/spAthenjac/spAthenmal/spAthenros"
"140","simple","Tawny Owl","Strix aluco","spStrixalu/spStrixmau"
"141","simple","Barred Owl","Strix varia","spStrixsar/spStrixvar"
"142","complex","Ural Owl/Pere David's Owl","Strix uralensis/Strix davidi","spStrixura"
"142","complex","Ural Owl","Strix uralensis","grStrixura[ur/sspStrixura[urlit/sspStrixura[urura/sspStrixura[urmac/sspStrixura[uryen/sspStrixura[urnik/sspStrixura[urjap/sspStrixura[urhon/sspStrixura[urfus"
"142","complex","Pere David's Owl","Strix davidi","grStrixuradav"
"143","simple","Southern Boobook","Ninox novaeseelandiae","spNinoxboo/spNinoxfus/spNinoxleu/spNinoxnov/spNinoxple/spNinoxrot"
"144","simple","Hantu Boobook","Ninox squamipila","spNinoxhan/spNinoxsqu"
"145","simple","Black-throated Trogon","Trogon rufus","spTrogochr/spTrogocup/spTrogoruf/spTrogoten"
"146","complex","Orange-bellied Trogon/Collared Trogon","Trogon aurantiiventris/Trogon collaris","spTrogocol"
"146","complex","Collared Trogon","Trogon collaris","grTrogocolpue/grTrogocol[co/sspTrogocol[coext/sspTrogocol[coheo/sspTrogocol[covir/sspTrogocol[cosub/sspTrogocol[coexo/sspTrogocol[cocol/sspTrogocol[cocas"
"146","complex","Orange-bellied Trogon","Trogon aurantiiventris","grTrogocolaur/sspTrogocolaurund/sspTrogocolauraur"
"147","simple","African Pied Hornbill","Lophoceros fasciatus","spLopho11fas/spLopho11sem"
"148","simple","White-crested Hornbill","Horizocerus albocristatus","spHorizalb/spHorizcas"
"149","simple","Black Dwarf Hornbill","Horizocerus hartlaubi","spHorizgra/spHorizhar"
"150","simple","Blue-breasted Bee-eater","Merops variegatus","spMerop1laf/spMerop1var"
"151","simple","Green Bee-eater","Merops orientalis","spMerop1cya/spMerop1ori/spMerop1vir"
"152","simple","Blue-crowned Motmot","Momotus coeruliceps","spMomotcoe/spMomotles"
"153","simple","Blue-banded Kingfisher","Alcedo euryzona","spAlcedeur/spAlcedpen"
"154","complex","Black-backed Dwarf-Kingfisher","Ceyx erithaca","spCeyxeri/sspCeyxerieri/sspCeyxerimac/sspCeyxrufmot/sspCeyxrufcap/sspCeyxrufjun"
"154","complex","Black-backed Dwarf-Kingfisher/Rufous-backed Dwarf-Kingfisher","Ceyx erithaca/Ceyx rufidorsa","spCeyxruf"
"154","complex","Rufous-backed Dwarf-Kingfisher","Ceyx rufidorsa","sspCeyxrufruf"
"155","simple","Sulawesi Dwarf-Kingfisher","Ceyx fallax","spCeyxfal/spCeyxsan"
"156","complex","North Moluccan Dwarf-Kingfisher/Seram Dwarf-Kingfisher","Ceyx uropygialis/Ceyx lepidus","spCeyxlep"
"156","complex","North Moluccan Dwarf-Kingfisher","Ceyx uropygialis","grCeyxlepuro"
"156","complex","Seram Dwarf-Kingfisher","Ceyx lepidus","grCeyxleplep"
"157","complex","Bougainville Dwarf-Kingfisher/North Solomons Dwarf-Kingfisher","Ceyx pallidus/Ceyx meeki","spCeyxmee"
"157","complex","Bougainville Dwarf-Kingfisher","Ceyx pallidus","grCeyxmeepal"
"157","complex","North Solomons Dwarf-Kingfisher","Ceyx meeki","grCeyxmeemee"
"158","complex","Malaita Dwarf-Kingfisher/Guadalcanal Dwarf-Kingfisher","Ceyx malaitae/Ceyx nigromaxilla","spCeyxnig"
"158","complex","Malaita Dwarf-Kingfisher","Ceyx malaitae","grCeyxnigmal"
"158","complex","Guadalcanal Dwarf-Kingfisher","Ceyx nigromaxilla","grCeyxnignig"
"159","simple","Lilac-cheeked Kingfisher","Cittura cyanotis","spCittucya/spCittusan"
"160","complex","Niau Kingfisher/Mangareva Kingfisher","Todiramphus gertrudae/Todiramphus gambieri","spTodirgam"
"160","complex","Niau Kingfisher","Todiramphus gertrudae","grTodirgamger"
"160","complex","Mangareva Kingfisher","Todiramphus gambieri","grTodirgamgam"
"161","simple","Buff-breasted Paradise-Kingfisher","Tanysiptera sylvia","spTanysnig/spTanyssyl"
"162","simple","Indian Roller","Coracias benghalensis","spCoracaff/spCoracben"
"163","simple","Russet-throated Puffbird","Hypnelus ruficollis","spHypnebic/spHypneruf"
"164","simple","Yellow-billed Barbet","Trachyphonus purpuratus","spTrachgof/spTrachpur"
"165","complex","Yellow-rumped Tinkerbird/White-chested Tinkerbird","Pogoniulus bilineatus/Pogoniulus makawai","spPogonbil"
"165","complex","Yellow-rumped Tinkerbird","Pogoniulus bilineatus","grPogonbil[bi/sspPogonbil[bileu/sspPogonbil[bipoe/sspPogonbil[bimfu/sspPogonbil[bijac/sspPogonbil[bifis/sspPogonbil[bibil"
"165","complex","White-chested Tinkerbird","Pogoniulus makawai","grPogonbilmak"
"166","simple","Red-fronted Tinkerbird","Pogoniulus pusillus","spPogonpus/spPogonuro"
"167","simple","Blue-eared Barbet","Psilopogon duvaucelii","spPsilo1cya/spPsilo1duv"
"168","simple","Golden-throated Barbet","Psilopogon franklinii","spPsilo1aur/spPsilo1fra"
"169","complex","Gold-whiskered Barbet/Gold-faced Barbet","Psilopogon chrysopogon/Psilopogon chrysopsis","spPsilo1chr"
"169","complex","Gold-whiskered Barbet","Psilopogon chrysopogon","grPsilo1chrchr/sspPsilo1chrchrlae/sspPsilo1chrchrchr"
"169","complex","Gold-faced Barbet","Psilopogon chrysopsis","grPsilo1chrchr1"
"170","simple","Scarlet-banded Barbet","Capito wallacei","spCapitfit/spCapitwal"
"171","simple","Emerald Toucanet","Aulacorhynchus prasinus","spAulacalb/spAulacpra"
"172","complex","Thick-billed Honeyguide/Lesser Honeyguide","Indicator conirostris/Indicator minor","spIndicmin"
"172","complex","Thick-billed Honeyguide","Indicator conirostris","grIndicmincon/sspIndicminconuss/sspIndicminconcon"
"172","complex","Lesser Honeyguide","Indicator minor","grIndicmin[mi/sspIndicmin[misen/sspIndicmin[mirig/sspIndicmin[midia/sspIndicmin[midam/sspIndicmin[mitei/sspIndicmin[mimin"
"173","complex","Tawny Piculet/Ochraceous Piculet","Picumnus fulvescens/Picumnus limae","spPicumlim/sspPicumlimful/sspPicumlimlim"
"174","simple","Crimson-breasted Woodpecker","Dendrocopos cathpharius","spDryobcat/spDryobper"
"175","simple","Greater Flameback","Chrysocolaptes guttacristatus","spChrys4gut/spChrys4soc"
"176","simple","Buff-rumped Woodpecker","Meiglyptes tristis","spMeiglgra/spMeigltri"
"177","simple","Black-rumped Flameback","Dinopium benghalense","spDinopben/spDinoppsa"
"178","simple","Eurasian Green Woodpecker","Picus viridis","spPicussha/spPicusvir1"
"179","simple","Tullberg's Woodpecker","Campethera tullbergi","spCampe1tae/spCampe1tul"
"180","complex","Little Green Woodpecker/Green-backed Woodpecker","Campethera maculosa/Campethera cailliautii","spCampe1mac"
"180","complex","Little Green Woodpecker","Campethera maculosa","grCampe1macmac"
"180","complex","Green-backed Woodpecker","Campethera cailliautii","grCampe1macper/grCampe1mac[ca/sspCampe1mac[canya/sspCampe1mac[cacai/sspCampe1mac[calov"
"181","complex","Waved Woodpecker/Scale-breasted Woodpecker","Celeus undatus/Celeus grammicus","spCeleuund"
"181","complex","Scale-breasted Woodpecker","Celeus grammicus","grCeleuund[gr/sspCeleuund[grgra/sspCeleuund[grver/sspCeleuund[grsub/sspCeleuund[grlat"
"181","complex","Waved Woodpecker","Celeus undatus","grCeleuund[un/sspCeleuund[unund/sspCeleuund[unama/sspCeleuund[unmul"
"182","simple","Blond-crested Woodpecker","Celeus flavescens","spCeleufla1/spCeleuoch"
"183","simple","Northern Flicker","Colaptes auratus","spColapaur1/spColapmex"
"184","complex","Crested Caracara/Southern Caracara","Caracara cheriway/Caracara plancus","spCaracpla"
"184","complex","Crested Caracara","Caracara cheriway","grCaracplache"
"184","complex","Southern Caracara","Caracara plancus","grCaracplapla"
"185","complex","Peregrine Falcon/Barbary Falcon","Falco peregrinus/Falco pelegrinoides","spFalcoper"
"185","complex","Peregrine Falcon","Falco peregrinus","grFalcoperana/grFalcopercal/sspFalcopercaltun/sspFalcopercalcal/grFalcoperpea/grFalcopercas/grFalcoper[pe/sspFalcoper[pejap/sspFalcoper[pefur/sspFalcoper[peper/grFalcoperbro/grFalcopermad/grFalcoperbab/grFalcopermin/grFalcoperrad/grFalcoperper/grFalcoperern/sspFalcoperernern/sspFalcoperernnes/grFalcopermac"
"185","complex","Barbary Falcon","Falco pelegrinoides","grFalcoperpel"
"186","simple","Yellow-crested Cockatoo","Cacatua sulphurea","spCacatcit/spCacatsul"
"187","simple","Lesser Vasa-Parrot","Mascarinus niger","spCorac1nig/spCorac1sib"
"188","simple","Eclectus Parrot","Eclectus roratus","spEcleccor/spEclecpol/spEclecrie/spEclecror"
"189","simple","Blue-rumped Parrot","Psittinus cyanurus","spPsitt1abb/spPsitt1cya"
"190","simple","Azure-rumped Parrot","Tanygnathus sumatranus","spTanygeve/spTanygsum"
"191","simple","Horned Parakeet","Eunymphicus cornutus","spEunymcor/spEunymuva"
"192","complex","Port Lincoln Parrot/Mallee Ringneck","Barnardius zonarius/Barnardius barnardi","spBarnazon"
"192","complex","Port Lincoln Parrot","Barnardius zonarius","grBarnazonsem/grBarnazonzon"
"192","complex","Mallee Ringneck","Barnardius barnardi","grBarnazonbar/grBarnazonmac"
"193","simple","Orange-breasted Fig-Parrot","Cyclopsitta gulielmitertii","spNanno2gul/spNanno2mel/spNanno2nig"
"194","simple","Papuan Lorikeet","Charmosyna papou","spCharm2pap/spCharm2ste"
"195","simple","Yellow-and-green Lorikeet","Trichoglossus flavoviridis","spTrich1fla/spTrich1mey"
"196","simple","Rainbow Lorikeet","Trichoglossus haematodus","spTrich1cap/spTrich1for/spTrich1hae/spTrich1mol/spTrich1ros/spTrich1rub1/spTrich1web"
"197","simple","Philippine Hanging-Parrot","Loriculus philippensis","spLoricbon/spLoricphi"
"198","simple","Gray Parrot","Psittacus erithacus","spPsitt5eri/spPsitt5tim"
"199","simple","Brown-necked Parrot","Poicephalus robustus","spPoicefus/spPoicerob"
"200","simple","Blue-winged Parrotlet","Forpus xanthopterygius","spForpucra/spForpuspe/spForpuxan"
"201","simple","Green Parakeet","Psittacara holochlorus","spPsitt6bre/spPsitt6hol"
"202","simple","Scarlet-fronted Parakeet","Psittacara wagleri","spPsitt6fro/spPsitt6wag"
"203","simple","Silver-breasted Broadbill","Serilophus lunatus","spSerillun/spSerilrub"
"204","complex","Blue-breasted Pitta/Sulu Pitta/Talaud Pitta","Erythropitta erythrogaster/Erythropitta yairocho/Erythropitta inspeculata","spEryth3ery"
"204","complex","Blue-breasted Pitta/Sulu Pitta","Erythropitta erythrogaster/Erythropitta yairocho","grEryth3ery[er"
"204","complex","Blue-breasted Pitta","Erythropitta erythrogaster","sspEryth3ery[erery/sspEryth3ery[erpro"
"204","complex","Sulu Pitta","Erythropitta yairocho","sspEryth3ery[eryai"
"204","complex","Talaud Pitta","Erythropitta inspeculata","grEryth3eryins"
"205","complex","Sangihe Pitta/Siao Pitta/Sulawesi Pitta","Erythropitta caeruleitorques/Erythropitta palliceps/Erythropitta celebensis","spEryth3cel"
"205","complex","Sulawesi Pitta","Erythropitta celebensis","grEryth3celcel"
"205","complex","Sangihe Pitta","Erythropitta caeruleitorques","grEryth3celcae"
"205","complex","Siao Pitta","Erythropitta palliceps","grEryth3celpal"
"206","complex","Buru Pitta/Seram Pitta","Erythropitta rubrinucha/Erythropitta piroensis","spEryth3rub"
"206","complex","Buru Pitta","Erythropitta rubrinucha","sspEryth3rubrub"
"206","complex","Seram Pitta","Erythropitta piroensis","sspEryth3rubpir"
"207","complex","Papuan Pitta/Habenicht's Pitta/D'Entrecasteaux Pitta","Erythropitta macklotii/Erythropitta habenichti/Erythropitta finschii","spEryth3mac"
"207","complex","Papuan Pitta/Habenicht's Pitta","Erythropitta macklotii/Erythropitta habenichti","grEryth3machab"
"207","complex","Papuan Pitta","Erythropitta macklotii","grEryth3mac[ma/sspEryth3mac[mamac/sspEryth3mac[madig/sspEryth3mac[malor"
"207","complex","Papuan Pitta/D'Entrecasteaux Pitta","Erythropitta macklotii/Erythropitta finschii","grEryth3macfin"
"208","complex","New Ireland Pitta/Tabar Pitta/New Britain Pitta","Erythropitta novaehibernicae/Erythropitta splendida/Erythropitta gazellae","spEryth3nov"
"208","complex","New Ireland Pitta","Erythropitta novaehibernicae","grEryth3novnov/sspEryth3novnovext/sspEryth3novnovnov"
"208","complex","Tabar Pitta","Erythropitta splendida","grEryth3novspl"
"208","complex","New Britain Pitta","Erythropitta gazellae","grEryth3novgaz"
"209","simple","Hooded Pitta","Pitta sordida","spPittaabb/spPittafor/spPittanov/spPittaros/spPittasor"
"210","simple","Elegant Pitta","Pitta elegans","spPittacon/spPittaele/spPittavig"
"211","simple","Russet Antshrike","Thamnistes anabatinus","spThamn1ana/spThamn1ruf"
"212","complex","Stipple-throated Antwren","Epinecrophylla haematonota","spEpineama/grEpineamaama/grEpineamaden/grEpinehaepyr"
"212","complex","Stipple-throated Antwren/Brown-backed Antwren","Epinecrophylla haematonota/Epinecrophylla fjeldsaai","spEpinehae"
"212","complex","Brown-backed Antwren","Epinecrophylla fjeldsaai","grEpinehaefje/grEpinehaehae"
"213","simple","Rufous-winged Antwren","Herpsilochmus rufimarginatus","spHerpsfra/spHerpsruf"
"214","simple","White-fringed Antwren","Formicivora grisea","spFormigri/spFormiint"
"215","complex","Serra Antwren/Restinga Antwren","Formicivora serrana/Formicivora littoralis","spFormiser"
"215","complex","Serra Antwren","Formicivora serrana","grFormiserser/sspFormiserserser/sspFormiserserint"
"215","complex","Restinga Antwren","Formicivora littoralis","grFormiserlit"
"216","simple","White-backed Fire-eye","Pyriglena leuconota","spPyrigleu/spPyrigmau/spPyrigsim"
"217","simple","Chestnut-belted Gnateater","Conopophaga aurita","spConopaur/spConopsne"
"218","simple","Rufous Gnateater","Conopophaga lineata","spConopcea/spConoplin"
"219","simple","Rufous Antpitta","Grallaria rufula","spGrallalv/spGrallcaj/spGrallcoc/spGrallgra/spGrallobs/spGrallocc/spGrallone/spGrallruf2/spGrallsal/spGrallsat/spGrallsin/spGrallspa"
"220","simple","Chestnut Antpitta","Grallaria blakei","spGrallaya/spGrallbla/spGrallcen"
"221","simple","Tawny Antpitta","Grallaria quitensis","spGrallalt/spGrallatu/spGrallqui"
"222","simple","Thrush-like Antpitta","Myrmothera campanisona","spMyrmo7cam/spMyrmo7sub"
"223","simple","Rusty-breasted Antpitta","Grallaricula ferrugineipectus","spGrall1fer/spGrall1ley"
"224","simple","Paramo Tapaculo","Scytalopus opacus","spScytaand/spScytaopa"
"225","complex","Apurimac Tapaculo (undescribed form)/Ampay Tapaculo (undescribed form)","Scytalopus [undescribed form 4]/Scytalopus [undescribed form 5]","spScytawhi"
"226","simple","Blackish Tapaculo","Scytalopus latrans","spScytaint/spScytalat"
"227","simple","Black-faced Antthrush","Formicarius analis","spFormi1ana/spFormi1mon"
"228","simple","Tawny-throated Leaftosser","Sclerurus mexicanus","spScler1mex/spScler1obs"
"229","simple","Long-tailed Woodcreeper","Deconychura longicauda","spDeconlon/spDeconpal/spDecontyp"
"230","simple","Red-billed Woodcreeper","Hylexetastes perrotii","spHylexper/spHylexuni"
"231","simple","Lesser Woodcreeper","Xiphorhynchus fuscus","spXipho1atl/spXipho1fus"
"232","simple","Curve-billed Scythebill","Campylorhamphus procurvoides","spCampy1mul/spCampy1pro/spCampy1pro1"
"233","complex","Rondonia Woodcreeper/Layard's Woodcreeper","Lepidocolaptes fuscicapillus/Lepidocolaptes layardi","spLepidfus"
"233","complex","Rondonia Woodcreeper","Lepidocolaptes fuscicapillus","grLepidfusfus"
"233","complex","Layard's Woodcreeper","Lepidocolaptes layardi","grLepidfuslay"
"234","simple","Plain Xenops","Xenops minutus","spXenop1gen/spXenop1mex/spXenop1min"
"235","simple","Buffy Tuftedcheek","Pseudocolaptes lawrencii","spPseud4joh/spPseud4law"
"236","simple","Pale-legged Hornero","Furnarius leucopus","spFurnacin/spFurnaleu/spFurnalon"
"237","simple","Buff-throated Foliage-gleaner","Automolus ochrolaemus","spAutomcer/spAutomexs/spAutomoch"
"238","simple","Striped Woodhaunter","Automolus subulatus","spAutomsub/spAutomvir"
"239","simple","Rufous-fronted Thornbird","Phacellodomus rufifrons","spPhaceino/spPhaceruf"
"240","complex","Streak-backed Canastero/Puna Canastero","Asthenes wyatti/Asthenes sclateri","spAsthewya"
"240","complex","Streak-backed Canastero","Asthenes wyatti","grAsthewya[wy/sspAsthewya[wywya/sspAsthewya[wysan/sspAsthewya[wyphe/sspAsthewya[wymuc/sspAsthewya[wyaeq/sspAsthewya[wyazu/sspAsthewya[wygra"
"240","complex","Puna Canastero","Asthenes sclateri","grAsthewya[sc/sspAsthewya[scpun/sspAsthewya[sccuc/sspAsthewya[sclil/sspAsthewya[scscl/sspAsthewya[scbru"
"241","simple","Vilcabamba Thistletail","Asthenes vilcabambae","spAstheaya/spAsthevil"
"242","complex","Line-cheeked Spinetail/Baron's Spinetail","Cranioleuca antisiensis/Cranioleuca baroni","spCraniant"
"242","complex","Line-cheeked Spinetail","Cranioleuca antisiensis","grCraniantant/sspCraniantantant/sspCraniantantpal"
"242","complex","Baron's Spinetail","Cranioleuca baroni","grCraniant[ba/sspCraniant[babar/sspCraniant[bacap/sspCraniant[bazar"
"243","simple","White-lored Spinetail","Synallaxis albilora","spSynalalb/spSynalsim"
"244","simple","Necklaced Spinetail","Synallaxis stictothorax","spSynalchi/spSynalsti"
"245","simple","Green Manakin","Cryptopipo holochlora","spCrypt5hol/spCrypt5lit"
"246","simple","Blue-crowned Manakin","Lepidothrix coronata","spLepid1cor/spLepid1vel"
"247","simple","Striped Manakin","Machaeropterus regulus","spMachareg/spMachastr"
"248","simple","Shrike-like Cotinga","Laniisoma elegans","spLaniibuc/spLaniiele"
"249","simple","Black-and-white Becard","Pachyramphus albogriseus","spPachy2alb/spPachy2sal"
"250","simple","Royal Flycatcher","Onychorhynchus coronatus","spOnych1cor/spOnych1swa"
"251","simple","Olive-striped Flycatcher","Mionectes olivaceus","spMionegal/spMioneoli"
"252","simple","McConnell's Flycatcher","Mionectes macconnelli","spMionemac/spMioneror"
"253","simple","Olivaceous Flatbill","Rhynchocyclus olivaceus","spRhync3aeq/spRhync3oli"
"254","simple","Yellow-margined Flycatcher","Tolmomyias assimilis","spTolmoass/spTolmofla"
"255","simple","Yellow-breasted Flycatcher","Tolmomyias flaviventris","spTolmofla1/spTolmovir"
"256","simple","Mouse-colored Tyrannulet","Phaeomyias murina","spNesotmar/spNesotmur/spNesottum"
"257","simple","Gray Elaenia","Myiopagis caniceps","spMyiop1can/spMyiop1cin/spMyiop1par"
"258","simple","Highland Elaenia","Elaenia obscura","spElaenobs/spElaensor"
"259","simple","Lesser Elaenia","Elaenia chiriquensis","spElaenbra/spElaenchi"
"260","simple","Sierran Elaenia","Elaenia pallatangae","spElaenoli/spElaenpal"
"261","complex","White-crested Tyrannulet/White-bellied Tyrannulet","Serpophaga subcristata/Serpophaga munda","spSerposub"
"261","complex","White-crested Tyrannulet","Serpophaga subcristata","grSerposubsub/sspSerposubsubsub/sspSerposubsubstr"
"261","complex","White-bellied Tyrannulet","Serpophaga munda","grSerposubmun"
"262","simple","Rough-legged Tyrannulet","Phyllomyias burmeisteri","spAcrocbur/spAcroczel"
"263","simple","Paltry Tyrannulet","Zimmerius vilissimus","spZimmeimp/spZimmepar/spZimmepet/spZimmevil1"
"264","complex","Golden-faced Tyrannulet","Zimmerius chrysops","spZimmechr/grZimmechrmin/sspZimmechrminmin/sspZimmechrmincum/grZimmechrchr/grZimmevirfla"
"264","complex","Golden-faced Tyrannulet/Peruvian Tyrannulet","Zimmerius chrysops/Zimmerius viridiflavus","spZimmevir"
"264","complex","Peruvian Tyrannulet","Zimmerius viridiflavus","grZimmevirvir"
"265","simple","Tawny-crowned Pygmy-Tyrant","Euscarthmus meloryphus","spEuscaful/spEuscamel"
"266","simple","Lesser Wagtail-Tyrant","Stigmatura napensis","spStigmbah/spStigmnap"
"267","simple","Bran-colored Flycatcher","Myiophobus fasciatus","spMyiop2cry1/spMyiop2fas/spMyiop2ruf"
"268","simple","Tropical Pewee","Contopus cinereus","spContobog/spContocin/spContopun"
"269","complex","Pacific-slope Flycatcher/Cordilleran Flycatcher","Empidonax difficilis/Empidonax occidentalis","spEmpiddif"
"269","complex","Pacific-slope Flycatcher","Empidonax difficilis","grEmpiddif[di/sspEmpiddif[didif/sspEmpiddif[diins/sspEmpiddif[dicin"
"269","complex","Cordilleran Flycatcher","Empidonax occidentalis","grEmpiddifocc/sspEmpiddifocchel/sspEmpiddifoccocc"
"270","simple","Vermilion Flycatcher","Pyrocephalus rubinus","spPyrocnan/spPyrocrub"
"271","simple","Slaty-backed Chat-Tyrant","Ochthoeca cinnamomeiventris","spOchth1cin/spOchth1nig/spOchth1tho"
"272","simple","Brown-backed Chat-Tyrant","Ochthoeca fumicolor","spOchth1fum/spOchth1sup"
"273","complex","Golden-crowned Flycatcher","Myiodynastes chrysocephalus","spMyiodchr/sspMyiodhemhem/sspMyiodhemmin/sspMyiodhemcin"
"273","complex","Golden-crowned Flycatcher/Golden-bellied Flycatcher","Myiodynastes chrysocephalus/Myiodynastes hemichrysus","spMyiodhem"
"274","simple","White-eared Catbird","Ailuroedus buccoides","spAilurbuc/spAilurgei/spAilursto"
"275","simple","Spotted Catbird","Ailuroedus melanotis","spAilurarf/spAilurast/spAilurjob/spAilurmac/spAilurmel/spAilurmel1"
"276","complex","Archbold's Bowerbird/Sanford's Bowerbird","Archboldia papuensis/Archboldia sanfordi","spArchbpap"
"276","complex","Archbold's Bowerbird","Archboldia papuensis","sspArchbpappap"
"276","complex","Sanford's Bowerbird","Archboldia sanfordi","sspArchbpapsan"
"277","simple","Flame Bowerbird","Sericulus aureus","spSericard/spSericaur"
"278","simple","Striated Grasswren","Amytornis striatus","spAmytoowe/spAmytorow/spAmytostr/spAmytowhi"
"279","simple","Thick-billed Grasswren","Amytornis textilis","spAmytomod/spAmytotex"
"280","simple","Variegated Fairywren","Malurus lamberti","spMalurass/spMalurlam"
"281","simple","Graceful Honeyeater","Meliphaga gracilis","spMelipgra/spMelipimi"
"282","simple","Dusky Myzomela","Myzomela obscura","spMyzomobs/spMyzomrub/spMyzomrub1/spMyzomsim"
"283","simple","Red Myzomela","Myzomela cruentata","spMyzomcru/spMyzomery"
"284","simple","Sulawesi Myzomela","Myzomela chloroptera","spMyzombat/spMyzomchl"
"285","simple","Cardinal Myzomela","Myzomela cardinalis","spMyzomcar/spMyzomnig1"
"286","simple","Red-collared Myzomela","Myzomela rosenbergii","spMyzomlon/spMyzomros"
"287","complex","Rufous-backed Honeyeater","Ptiloprora guisei","spPtilo4gui/sspPtilo4mayacr"
"287","complex","Rufous-backed Honeyeater/Mayr's Honeyeater","Ptiloprora guisei/Ptiloprora mayri","spPtilo4may"
"287","complex","Mayr's Honeyeater","Ptiloprora mayri","sspPtilo4maymay"
"288","complex","Brown Honeyeater/Indonesian Honeyeater","Lichmera indistincta/Lichmera limbata","spLichmind"
"288","complex","Indonesian Honeyeater","Lichmera limbata","sspLichmindlim"
"288","complex","Brown Honeyeater","Lichmera indistincta","sspLichmindocu/sspLichmindnup/sspLichmindind/sspLichmindmel"
"289","simple","Black-faced Friarbird","Philemon moluccensis","spPhile1mol/spPhile1plu"
"290","simple","Rufous Fieldwren","Calamanthus campestris","spCalamcam/spCalammon"
"291","simple","White-browed Scrubwren","Sericornis frontalis","spSeric1fro/spSeric1mac"
"292","complex","Tropical Scrubwren","Sericornis beccarii","spSeric1bec/sspSeric1becwon/sspSeric1becbec/sspSeric1beccyc/sspSeric1becran/sspSeric1becmin/sspSeric1becdub/sspSeric1nouide/sspSeric1noubor/sspSeric1noupon"
"292","complex","Tropical Scrubwren/Perplexing Scrubwren/Large Scrubwren","Sericornis beccarii/Sericornis virgatus/Sericornis nouhuysi","spSeric1nou"
"292","complex","Tropical Scrubwren/Large Scrubwren","Sericornis beccarii/Sericornis nouhuysi","sspSeric1noucan"
"292","complex","Perplexing Scrubwren","Sericornis virgatus","sspSeric1noujob/sspSeric1nouvir"
"292","complex","Large Scrubwren","Sericornis nouhuysi","sspSeric1nounou/sspSeric1noustr/sspSeric1nouade/sspSeric1nouoor/sspSeric1noumon"
"293","complex","Perplexing Scrubwren/Large Scrubwren","Sericornis virgatus/Sericornis nouhuysi","spSeric1nou/sspSeric1noupon"
"293","complex","Large Scrubwren","Sericornis nouhuysi","sspSeric1noucan/sspSeric1nounou/sspSeric1noustr/sspSeric1nouade/sspSeric1nouoor/sspSeric1noumon"
"293","complex","Perplexing Scrubwren","Sericornis virgatus","sspSeric1noujob/sspSeric1nouvir"
"293","complex","Large Scrubwren/Perplexing Scrubwren","Sericornis nouhuysi/Sericornis virgatus","sspSeric1nouide/sspSeric1noubor"
"294","simple","Fan-tailed Gerygone","Gerygone flavolateralis","spGerygcit/spGerygfla"
"295","simple","Blue Jewel-babbler","Ptilorrhoa caerulescens","spPtilo5cae/spPtilo5gei"
"296","simple","White-bellied Minivet","Pericrocotus erythropygius","spPericalb/spPericery"
"297","simple","Ashy Cuckooshrike","Coracina cinerea","spCeblecin/spCeblecuc"
"298","complex","Large Cuckooshrike/Javan Cuckooshrike","Coracina macei/Coracina javensis","spCorac2jav"
"298","complex","Javan Cuckooshrike","Coracina javensis","grCorac2javjav"
"298","complex","Large Cuckooshrike","Coracina macei","grCorac2jav[ni/sspCorac2jav[ninip/sspCorac2jav[niand/sspCorac2jav[nisia/sspCorac2jav[nilar/grCorac2javrex/spCorac2lar/spCorac2mac/sspCorac2macmac/sspCorac2maclay"
"299","simple","Bar-bellied Cuckooshrike","Coracina striata","spCorac2gui/spCorac2koc/spCorac2min/spCorac2pan/spCorac2str"
"300","simple","Black-browed Triller","Lalage atrovirens","spLalagatr/spLalagleu1"
"301","complex","Common Cicadabird","Edolisoma tenuirostre","spEdoliamb/spEdoliery/grEdolieryult/grEdolieryery/sspEdolieryerysat/sspEdolieryeryery/grEdolierynis/spEdoligra/grEdoligraper/grEdoligragra/spEdoliins/spEdolimey/sspEdolimeynum/sspEdolimeymey/spEdolimon1/sspEdolimoredi/spEdolines/spEdoliobi/spEdolipel/spEdolirem/grEdoliremmat/grEdoliremrem/grEdoliremroo/grEdoliremhei/spEdoliros/spEdoliten/sspEdolitenmue/sspEdolitenneh/sspEdolitenaru/sspEdolitentag/sspEdolitenmel/sspEdolitenten/spEdolitim/grEdolitimema/sspEdolitimemaema/sspEdolitimemakal/grEdolitimtim"
"301","complex","Sulawesi Cicadabird/Common Cicadabird","Edolisoma morio/Edolisoma tenuirostre","spEdolimor"
"301","complex","Sulawesi Cicadabird","Edolisoma morio","sspEdolimormor/spEdolisal1/grEdolisal1sal/grEdolisal1tal"
"302","simple","Solomons Cuckooshrike","Edolisoma holopolium","spEdolihol/spEdolitri"
"303","simple","Varied Sittella","Daphoenositta chrysoptera","spDaphochr/spDaphopap"
"304","simple","Crested Shrike-tit","Falcunculus frontatus","spFalcufro/spFalculeu/spFalcuwhi"
"305","simple","Crested Berrypecker","Paramythia montium","spParammon/spParamoli"
"306","complex","Himalayan Shrike-Babbler/Blyth's Shrike-Babbler/Dalat Shrike-Babbler","Pteruthius ripleyi/Pteruthius aeralatus/Pteruthius annamensis","spPteruaer"
"306","complex","Himalayan Shrike-Babbler","Pteruthius ripleyi","grPteruaerrip"
"306","complex","Blyth's Shrike-Babbler","Pteruthius aeralatus","grPteruaerval/grPteruaerric/grPteruaer[ae/sspPteruaer[aeaer/sspPteruaer[aesch/sspPteruaer[aecam/sspPteruaer[aerob"
"306","complex","Dalat Shrike-Babbler","Pteruthius annamensis","grPteruaerann"
"307","simple","Red-eyed Vireo","Vireo olivaceus","spVireo1chi/spVireo1oli"
"308","simple","Little Shrikethrush","Colluricincla megarhyncha","spColluaff/spColludis/spCollufor/spCollumeg/spColluobs/spColluruf/spCollutap/spPachy5mel1"
"309","complex","Rusty-breasted Whistler/Yellow-throated Whistler","Pachycephala fulvotincta/Pachycephala macrorhyncha","spPachy5cal1"
"309","complex","Rusty-breasted Whistler","Pachycephala fulvotincta","grPachy5cal1[fu/sspPachy5cal1[fujav/sspPachy5cal1[fueve/sspPachy5cal1[fuful/sspPachy5cal1[fuful1/spPachy5tey"
"309","complex","Yellow-throated Whistler","Pachycephala macrorhyncha","grPachy5cal1cal/spPachy5mac/sspPachy5macpel/sspPachy5maccli/sspPachy5macbur/sspPachy5macmac/sspPachy5macfus/grPachy5meldam/grPachy5orporp/grPachy5orppar/sspPachy5orpparcom/sspPachy5orpparpar/spPachy5sha"
"309","complex","Yellow-throated Whistler/Black-tailed Whistler","Pachycephala macrorhyncha/Pachycephala melanura","spPachy5mel"
"309","complex","Black-tailed Whistler","Pachycephala melanura","grPachy5mel[me/sspPachy5mel[medah/sspPachy5mel[memel/sspPachy5mel[merob/sspPachy5mel[mespi"
"309","complex","Yellow-throated Whistler/Fawn-breasted Whistler","Pachycephala macrorhyncha/Pachycephala orpheus","spPachy5orp"
"310","complex","New Caledonian Whistler","Pachycephala caledonica","spPachy5cal/sspPachy5chllit"
"310","complex","New Caledonian Whistler/Vanuatu Whistler","Pachycephala caledonica/Pachycephala chlorura","spPachy5chl"
"310","complex","Vanuatu Whistler","Pachycephala chlorura","sspPachy5chlint/sspPachy5chlchl/sspPachy5chlcuc"
"311","simple","Fiji Whistler","Pachycephala vitiensis","spPachy5gra/spPachy5vit"
"312","simple","Temotu Whistler","Pachycephala utupuae","spPachy5orn/spPachy5utu/spPachy5van"
"313","simple","Golden Whistler","Pachycephala pectoralis","spPachy5bal/spPachy5pec"
"314","simple","Variable Pitohui","Pitohui kirhocephalus","spPitohcer/spPitohkir/spPitohuro"
"315","simple","Timor Oriole","Oriolus melanotis","spOriolfin/spOriolmel"
"316","simple","Dark-throated Oriole","Oriolus xanthonotus","spOriolcon/spOriolxan"
"317","simple","Black-and-crimson Oriole","Oriolus cruentus","spOriolcon1/spOriolcru"
"318","simple","Cape Batis","Batis capensis","spBatiscap/spBatisdim"
"319","simple","Black-headed Batis","Batis minor","spBatiserl/spBatismin"
"320","simple","Blue Vanga","Cyanolanius madagascarinus","spCyano5com/spCyano5mad"
"321","simple","Mountain Sooty Boubou","Laniarius poensis","spLaniahol/spLaniapoe"
"322","simple","Silktail","Lamprolia victoriae","spLampr1kli/spLampr1vic"
"323","simple","Cockerell's Fantail","Rhipidura cockerelli","spRhipicoc/spRhipicou"
"324","simple","Rusty-bellied Fantail","Rhipidura teysmanni","spRhipisul/spRhipitey"
"325","simple","Arafura Fantail","Rhipidura dryas","spRhipidry/spRhipisem1"
"326","simple","Rufous Fantail","Rhipidura rufifrons","spRhipilou/spRhipimel/spRhipiruf2/spRhipiruf3/spRhipitor/spRhipiver"
"327","simple","Brown Fantail","Rhipidura drownei","spRhipidro/spRhipiocu"
"328","simple","Streaked Fantail","Rhipidura verreauxi","spRhipilay/spRhipispi/spRhipiver1"
"329","simple","Square-tailed Drongo","Dicrurus ludwigii","spDicrulud/spDicrusha"
"330","simple","Hair-crested Drongo","Dicrurus hottentottus","spDicruhot/spDicrupal/spDicrustr"
"331","simple","Paradise-crow","Lycocorax pyrrhopterus","spLycocobi/spLycocpyr"
"332","simple","Lawes's Parotia","Parotia lawesii","spParothel/spParotlaw"
"333","simple","Superb Bird-of-Paradise","Lophorina superba","spLopho14lat/spLopho14min/spLopho14sup"
"334","simple","Magnificent Riflebird","Ptiloris magnificus","spPtilo6int/spPtilo6mag"
"335","complex","Blyth's Paradise-Flycatcher/Indian Paradise-Flycatcher","Terpsiphone affinis/Terpsiphone paradisi","spTerpsaff/spTerpsflo"
"335","complex","Indian Paradise-Flycatcher","Terpsiphone paradisi","sspTerpsaffsat/spTerpspar/sspTerpsparleu/sspTerpsparpar/sspTerpsparcey"
"335","complex","Blyth's Paradise-Flycatcher","Terpsiphone affinis","sspTerpsaffbur/sspTerpsaffind/sspTerpsaffaff/sspTerpsaffnic/sspTerpsaffbor/sspTerpsaffpro/sspTerpsaffins/sspTerpsfloflo/sspTerpsflosum"
"336","simple","Black-throated Shrikebill","Clytorhynchus nigrogularis","spClyto2nig/spClyto2san"
"337","complex","Chestnut-bellied Monarch/Bougainville Monarch","Monarcha castaneiventris/Monarcha erythrostictus","spMonarcas"
"337","complex","Chestnut-bellied Monarch","Monarcha castaneiventris","grMonarcascas/sspMonarcascascas/sspMonarcascasobs/grMonarcasmeg/grMonarcasugi"
"337","complex","Bougainville Monarch","Monarcha erythrostictus","grMonarcasery"
"338","simple","Spectacled Monarch","Symposiachrus trivirgatus","spSympobim/spSympomel/spSympotri"
"339","simple","Black-and-white Monarch","Symposiachrus barbatus","spSympobar/spSympomal"
"340","simple","Kulambangra Monarch","Symposiachrus browni","spSympobro/spSymponig"
"341","simple","Blue-crested Flycatcher","Myiagra azureocapilla","spMyiagazu/spMyiagcas"
"342","simple","Dull Flycatcher","Myiagra hebetior","spMyiageic/spMyiagheb"
"343","complex","Northern Shrike","Lanius excubitor","spLaniubor/grLaniubor[mo/sspLaniubor[mosib/sspLaniubor[mobia/sspLaniubor[momol/sspLaniubor[mofun/grLaniuborbor/grLaniuexc[ex/sspLaniuexc[exexc/sspLaniuexc[exhom/sspLaniuexc[exleu"
"343","complex","Northern Shrike/Southern Gray Shrike","Lanius excubitor/Lanius meridionalis","spLaniuexc"
"343","complex","Southern Gray Shrike","Lanius meridionalis","grLaniuexc[el/sspLaniuexc[elkoe/sspLaniuexc[elalg/sspLaniuexc[elele/sspLaniuexc[elleu/grLaniuexcauc/sspLaniuexcaucauc/sspLaniuexcaucbur/grLaniuexcunc/grLaniuexcpal/grLaniuexclah/spLaniumer"
"344","simple","Chinese Gray Shrike","Lanius sphenocercus","spLaniugig/spLaniusph"
"345","simple","Black Magpie","Platysmurus leucopterus","spPlaty4ate/spPlaty4leu"
"346","simple","Western Scrub-Jay","Aphelocoma californica","spAphel1cal/spAphel1woo"
"347","simple","Eurasian Magpie","Pica pica","spPicaasi/spPicabot/spPicamau/spPicapic/spPicaser"
"348","simple","Eurasian Nutcracker","Nucifraga caryocatactes","spNucifcar/spNucifhem"
"349","simple","Slender-billed Crow","Corvus enca","spCorvucel/spCorvuenc/spCorvupus/spCorvusam/spCorvusie/spCorvuvio"
"350","complex","American Crow/Northwestern Crow","Corvus brachyrhynchos/Corvus caurinus","spCorvubra"
"350","complex","Northwestern Crow","Corvus caurinus","sspCorvubracau"
"350","complex","American Crow","Corvus brachyrhynchos","sspCorvubrahes/sspCorvubrabra/sspCorvubrapau/sspCorvubrapas"
"351","simple","Palm Crow","Corvus palmarum","spCorvumin/spCorvupal"
"352","simple","Large-billed Crow","Corvus macrorhynchos","spCorvumac/spCorvuphi"
"353","simple","Spotted Berrypecker","Melanocharis crassirostris","spMelan5cra/spMelan5pip"
"354","simple","New Zealand Robin","Petroica australis","spPetro1aus/spPetro1lon"
"355","simple","Pacific Robin","Petroica multicolor","spPetro1mul/spPetro1pol/spPetro1pus"
"356","simple","Ashy Robin","Heteromyias albispecularis","spHeter6alb/spHeter6arm"
"357","simple","Varied Tit","Sittiparus varius","spSitticas/spSittioli/spSittiows/spSittivar"
"358","complex","Cinereous Tit/Japanese Tit","Parus cinereus/Parus minor","spParuscin"
"358","complex","Cinereous Tit","Parus cinereus","grParuscin[ci/sspParuscin[cicas/sspParuscin[cizia/sspParuscin[cidec/sspParuscin[cipla/sspParuscin[civau/sspParuscin[cistu/sspParuscin[cimah/sspParuscin[citem/sspParuscin[cihai/sspParuscin[ciamb/sspParuscin[cicin/sspParuscin[cisar"
"358","complex","Japanese Tit","Parus minor","grParuscin[mi/sspParuscin[mimin/sspParuscin[midag/sspParuscin[mitib/sspParuscin[misub/sspParuscin[minub/grParuscincom/grParuscinama/grParuscinoki/grParuscinnig"
"359","complex","Karoo Long-billed Lark/Benguela Lark","Certhilauda subcoronata/Certhilauda benguelensis","spCerth3sub"
"359","complex","Benguela Lark","Certhilauda benguelensis","grCerth3subben/sspCerth3subbenben/sspCerth3subbenkao"
"359","complex","Karoo Long-billed Lark","Certhilauda subcoronata","grCerth3sub[su/sspCerth3sub[subra/sspCerth3sub[sudam/sspCerth3sub[susub/sspCerth3sub[sugil"
"360","complex","Cape Lark/Agulhas Lark","Certhilauda curvirostris/Certhilauda brevirostris","spCerth3cur"
"360","complex","Cape Lark","Certhilauda curvirostris","grCerth3curcur/sspCerth3curcurfal/sspCerth3curcurcur"
"360","complex","Agulhas Lark","Certhilauda brevirostris","grCerth3curbre"
"361","complex","Fawn-colored Lark/Foxy Lark","Calendulauda africanoides/Calendulauda alopex","spCalenafr"
"361","complex","Fawn-colored Lark","Calendulauda africanoides","grCalenafr[af/sspCalenafr[aftra/sspCalenafr[afmak/sspCalenafr[afhar/sspCalenafr[afsar/sspCalenafr[afafr/sspCalenafr[afvin"
"361","complex","Foxy Lark","Calendulauda alopex","grCalenafralo/sspCalenafraloalo/sspCalenafraloint"
"362","complex","Barlow's Lark/Dune Lark","Calendulauda barlowi/Calendulauda erythrochlamys","spCalenery"
"362","complex","Barlow's Lark","Calendulauda barlowi","grCalenerybar/grCalenerypat/grCalenerycav"
"362","complex","Dune Lark","Calendulauda erythrochlamys","grCaleneryery"
"363","complex","Australasian Bushlark/Singing Bushlark","Mirafra javanica/Mirafra cantillans","spMirafjav"
"363","complex","Singing Bushlark","Mirafra cantillans","grMirafjav[ca/sspMirafjav[camar/sspMirafjav[cacha/sspMirafjav[casim/sspMirafjav[cacan"
"363","complex","Australasian Bushlark","Mirafra javanica","grMirafjav[ja/sspMirafjav[jawil/sspMirafjav[japhi/sspMirafjav[jamin/sspMirafjav[jajav/sspMirafjav[japar/sspMirafjav[jatim/sspMirafjav[jaali/sspMirafjav[jawoo/sspMirafjav[jahal/sspMirafjav[jafor/sspMirafjav[jamel/sspMirafjav[jasod/sspMirafjav[jaruf/sspMirafjav[jaath/sspMirafjav[jahor/sspMirafjav[jasec"
"364","simple","Rufous-naped Lark","Mirafra africana","spCoryp1afr/spCoryp1ath/spCoryp1kab/spCoryp1kur/spCoryp1nig/spCoryp1sha"
"365","complex","Ash's Lark/Somali Long-billed Lark","Mirafra ashi/Mirafra somalica","spCoryp1som"
"365","complex","Ash's Lark","Mirafra ashi","grCoryp1somash"
"365","complex","Somali Long-billed Lark","Mirafra somalica","grCoryp1somsom/sspCoryp1somsomsom/sspCoryp1somsomroc"
"366","simple","Red-winged Lark","Mirafra hypermetra","spCoryp1hyp/spCoryp1kid"
"367","complex","Blanford's Lark/Erlanger's Lark","Calandrella blanfordi/Calandrella erlangeri","spCalanbla"
"367","complex","Blanford's Lark","Calandrella blanfordi","grCalanblabla/spCalanere/sspCalanereere/sspCalaneredaa"
"367","complex","Erlanger's Lark","Calandrella erlangeri","grCalanblaerl"
"368","simple","Greater Short-toed Lark","Calandrella brachydactyla","spCalanbra/spCalanduk"
"369","simple","Dunn's Lark","Eremalauda dunni","spEremadun/spEremaere"
"370","simple","Lesser Short-toed Lark","Calandrella rufescens","spAlaud1che/spAlaud1hei/spAlaud1ruf"
"371","complex","Salvadori's Eremomela/Yellow-bellied Eremomela","Eremomela salvadorii/Eremomela icteropygialis","spEremo2ict"
"371","complex","Yellow-bellied Eremomela","Eremomela icteropygialis","grEremo2ict[ic/sspEremo2ict[icale/sspEremo2ict[icgri/sspEremo2ict[icabd/sspEremo2ict[icpol/sspEremo2ict[icpue/sspEremo2ict[icict/sspEremo2ict[ichel/sspEremo2ict[icper/sspEremo2ict[icsat"
"371","complex","Salvadori's Eremomela","Eremomela salvadorii","grEremo2ictsal"
"372","simple","Miombo Wren-Warbler","Calamonastes undosus","spCalam1sti/spCalam1und"
"373","simple","Green-backed Camaroptera","Camaroptera brachyura","spCamarbra/spCamarhar"
"374","simple","Bar-throated Apalis","Apalis thoracica","spApalifla/spApalifus/spApalilyn/spApalitho"
"375","simple","Chestnut-throated Apalis","Apalis porphyrolaema","spApalikab/spApalipor"
"376","simple","Karamoja Apalis","Apalis karamojae","spApalikar/spApalistr"
"377","complex","Brown Prinia","Prinia polychroa","spPrinicoo/sspPrinicriban/spPrinipol/sspPrinipoldei/sspPrinipolpol/spPriniroc"
"377","complex","Striated Prinia/Brown Prinia","Prinia crinigera/Prinia polychroa","spPrinicri/sspPrinicriyun"
"377","complex","Striated Prinia","Prinia crinigera","sspPrinicristr/sspPrinicricri/spPrinistr/sspPrinistrcat/sspPrinistrpar/sspPrinistrstr"
"378","simple","Black-throated Prinia","Prinia atrogularis","spPriniatr/spPrinikha"
"379","simple","Graceful Prinia","Prinia gracilis","spPrinigra/spPrinilep"
"380","simple","Rock-loving Cisticola","Cisticola aberrans","spCistiabe/spCistibai"
"381","simple","Wailing Cisticola","Cisticola lais","spCistidis/spCistilai"
"382","simple","Winding Cisticola","Cisticola galactotes","spCistigal/spCistihae/spCistilua/spCistilug/spCistimar"
"383","complex","Anjouan Brush-Warbler/Madagascar Brush-Warbler","Nesillas longicaudata/Nesillas typica","spNesiltyp"
"383","complex","Anjouan Brush-Warbler","Nesillas longicaudata","grNesiltyplon"
"383","complex","Madagascar Brush-Warbler","Nesillas typica","grNesiltyp[ty/sspNesiltyp[tymoh/sspNesiltyp[tyobs/sspNesiltyp[tytyp"
"384","complex","Eurasian Reed-Warbler/African Reed-Warbler","Acrocephalus scirpaceus/Acrocephalus baeticatus","spAcroc1sci"
"384","complex","Eurasian Reed-Warbler","Acrocephalus scirpaceus","grAcroc1scisci/grAcroc1scifus"
"384","complex","African Reed-Warbler","Acrocephalus baeticatus","grAcroc1sciavi/grAcroc1sciamm/grAcroc1sci[ba/sspAcroc1sci[baamb/sspAcroc1sci[bagui/sspAcroc1sci[bacin/sspAcroc1sci[bahal/sspAcroc1sci[basua/sspAcroc1sci[babae"
"385","complex","Clamorous Reed-Warbler/Australian Reed-Warbler","Acrocephalus stentoreus/Acrocephalus australis","spAcroc1aus/sspAcroc1aussum"
"385","complex","Australian Reed-Warbler","Acrocephalus australis","sspAcroc1ausaus/sspAcroc1ausgou"
"385","complex","Clamorous Reed-Warbler","Acrocephalus stentoreus","spAcroc1ste/grAcroc1steste/sspAcroc1stesteste/sspAcroc1stestelev/grAcroc1ste[br/sspAcroc1ste[brbru/sspAcroc1ste[bramy/sspAcroc1ste[brmer/sspAcroc1ste[brhar/sspAcroc1ste[brcel/sspAcroc1ste[brsie/sspAcroc1ste[brlen"
"386","simple","Chestnut-backed Bush-Warbler","Locustella castanea","spLocuscas/spLocusdis/spLocusmus"
"387","simple","Russet Bush-Warbler","Locustella mandelli","spLocusido/spLocusman"
"388","complex","Javan Bush-Warbler/Timor Bush-Warbler","Locustella montis/Locustella timorensis","spLocusmon"
"388","complex","Javan Bush-Warbler","Locustella montis","grLocusmonmon"
"388","complex","Timor Bush-Warbler","Locustella timorensis","grLocusmontim"
"389","simple","Tawny Grassbird","Megalurus timoriensis","spCincl2mac/spCincl2tim"
"390","simple","Guadalcanal Thicketbird","Megalurulus whitneyi","spCincl2tur/spCincl2whi"
"391","simple","Little Rush-Warbler","Bradypterus baboecala","spBradybab/spBradycen"
"392","complex","Scaly-breasted Cupwing/Chinese Cupwing","Pnoepyga albiventer/Pnoepyga mutica","spPnoepalb"
"392","complex","Scaly-breasted Cupwing","Pnoepyga albiventer","grPnoepalbalb/sspPnoepalbalbpal/sspPnoepalbalbalb"
"392","complex","Chinese Cupwing","Pnoepyga mutica","grPnoepalbmut"
"393","simple","Plain Martin","Riparia paludicola","spRiparcow/spRiparpal"
"394","simple","Rock Martin","Ptyonoprogne fuligula","spPtyonful/spPtyonobs/spPtyonruf"
"395","simple","Pacific Swallow","Hirundo tahitica","spHirun2jav/spHirun2tah"
"396","simple","Common House-Martin","Delichon urbicum","spDeliclag/spDelicurb"
"397","complex","Red-rumped Swallow/Striated Swallow","Cecropis daurica/Cecropis striolata","spCecrodau"
"397","complex","Red-rumped Swallow","Cecropis daurica","grCecrodau[da/sspCecrodau[danip/sspCecrodau[daery/sspCecrodau[dadau/sspCecrodau[dajap/spCecromel/grCecromeldom/grCecromel[me/sspCecromel[mekum/sspCecromel[memel/sspCecromel[meemi/spCecroruf"
"397","complex","Striated Swallow","Cecropis striolata","grCecrodau[st/sspCecrodau[stmay/sspCecrodau[ststa/sspCecrodau[stver/sspCecrodau[ststr"
"398","simple","Lesser Bristlebill","Bleda notatus","spBledanot/spBledauga"
"399","simple","Yellow-throated Greenbul","Atimastillas flavicollis","spAtimafla/spAtimafla1"
"400","simple","Eastern Mountain-Greenbul","Arizelocichla nigriceps","spArizechl/spArizefus/spArizekik/spArizeneu/spArizenig"
"401","simple","Stripe-cheeked Greenbul","Arizelocichla milanjensis","spArizemil/spArizestr"
"402","simple","White-throated Greenbul","Phyllastrephus albigularis","spPhyll4alb1/spPhyll4vir"
"403","simple","Gray-cheeked Bulbul","Alophoixus bres","spAlophbre/spAlophtep"
"404","simple","Ochraceous Bulbul","Alophoixus ochraceus","spAlophoch/spAlophruf"
"405","complex","Olive Bulbul","Iole virescens","spIolecac/sspIolepro[prmyi/sspIolevirvirvir"
"405","complex","Olive Bulbul/Gray-eyed Bulbul","Iole virescens/Iole propinqua","spIolepro/grIolepro[pr/spIolevir/grIolevirvir"
"405","complex","Gray-eyed Bulbul","Iole propinqua","sspIolepro[prpro/sspIolepro[prsim/sspIolepro[praqu/grIoleproinn/sspIolevirvirlek/grIolevircin"
"406","simple","Ashy Bulbul","Hemixos flavala","spHemixcin/spHemixfla"
"407","simple","Sunda Bulbul","Ixos virescens","spIxossum/spIxosvir"
"408","simple","Sula Golden-Bulbul","Alophoixus longirostris","spHypsihar/spHypsilon"
"409","simple","Yellowish Bulbul","Hypsipetes everetti","spHypsicat/spHypsieve"
"410","simple","Streak-eared Bulbul","Pycnonotus blanfordi","spPycno2bla/spPycno2con"
"411","simple","Stripe-throated Bulbul","Pycnonotus finlaysoni","spPycno2dav/spPycno2fin"
"412","simple","Flavescent Bulbul","Pycnonotus flavescens","spPycno2fla/spPycno2leu"
"413","simple","Orange-spotted Bulbul","Pycnonotus bimaculatus","spPycno2bim/spPycno2sno"
"414","complex","Tickell's Leaf Warbler/Alpine Leaf Warbler","Phylloscopus affinis/Phylloscopus occisinensis","spPhyll5aff"
"414","complex","Tickell's Leaf Warbler","Phylloscopus affinis","grPhyll5affaff/sspPhyll5affaffper/sspPhyll5affaffaff"
"414","complex","Alpine Leaf Warbler","Phylloscopus occisinensis","grPhyll5affocc"
"415","complex","Kloss's Leaf Warbler/Davison's Leaf Warbler","Phylloscopus ogilviegranti/Phylloscopus davisoni","spPhyll5int1"
"415","complex","Davison's Leaf Warbler","Phylloscopus davisoni","sspPhyll5int1mul"
"415","complex","Kloss's Leaf Warbler","Phylloscopus ogilviegranti","sspPhyll5int1int/spPhyll5ogi/sspPhyll5ogidis/sspPhyll5ogiogi/sspPhyll5ogiklo"
"416","simple","Mountain Warbler","Phylloscopus trivirgatus","spPhyll5nig/spPhyll5tri"
"417","simple","Sulawesi Leaf Warbler","Phylloscopus sarasinorum","spPhyll5nes/spPhyll5sar"
"418","simple","Island Leaf Warbler","Phylloscopus poliocephalus","spPhyll5maf/spPhyll5mis/spPhyll5pol1"
"419","complex","Japanese Bush-Warbler/Manchurian Bush-Warbler","Horornis diphone/Horornis borealis","spHororcan"
"419","complex","Manchurian Bush-Warbler","Horornis borealis","sspHororcanbor"
"419","complex","Japanese Bush-Warbler","Horornis diphone","sspHororcancan/spHorordip/grHorordip[ca/sspHorordip[cariu/sspHorordip[cacan/sspHorordip[cares/grHorordipdip"
"420","complex","Sunda Bush-Warbler/Aberrant Bush-Warbler","Horornis vulcanius/Horornis flavolivaceus","spHororfla"
"420","complex","Sunda Bush-Warbler","Horornis vulcanius","grHororfla[vu/sspHororfla[vusep/sspHororfla[vufla/sspHororfla[vuvul/sspHororfla[vukol/sspHororfla[vueve/sspHororfla[vuban/sspHororfla[vuore/sspHororfla[vupal"
"420","complex","Aberrant Bush-Warbler","Horornis flavolivaceus","grHororfla[fl/sspHororfla[flfla/sspHororfla[flstr/sspHororfla[flweb/grHororflaint/sspHororflaintint/sspHororflaintobl"
"421","simple","African Hill Babbler","Sylvia abyssinica","spSylvi3aby/spSylvi3atr1"
"422","complex","Desert Whitethroat/Hume's Whitethroat/Lesser Whitethroat/Margelanic Whitethroat","Sylvia minula/Sylvia althaea/Sylvia curruca/Sylvia margelanica","spCurrucur"
"422","complex","Lesser Whitethroat","Sylvia curruca","grCurrucurcur/sspCurrucurcurcur/sspCurrucurcurbly/grCurrucurhal"
"422","complex","Desert Whitethroat","Sylvia minula","grCurrucurmin"
"422","complex","Margelanic Whitethroat","Sylvia margelanica","grCurrucurmar"
"422","complex","Hume's Whitethroat","Sylvia althaea","grCurrucuralt"
"423","simple","Subalpine Warbler","Sylvia cantillans","spCurrucan/spCurruibe"
"424","simple","Brown-winged Parrotbill","Sinosuthora brunnea","spSuthobru/spSuthoric"
"425","complex","Whiskered Yuhina","Yuhina flavicollis","spYuhinfla/sspYuhinflaalb/sspYuhinflafla/sspYuhinflarou/sspYuhinflarog/sspYuhinflacon/sspYuhinhumcla"
"425","complex","Whiskered Yuhina/Burmese Yuhina","Yuhina flavicollis/Yuhina humilis","spYuhinhum"
"425","complex","Burmese Yuhina","Yuhina humilis","sspYuhinhumhum"
"426","simple","Black-crowned Babbler","Sterrhoptilus nigrocapitatus","spSterraff/spSterrnig"
"427","simple","White-breasted White-eye","Zosterops abyssinicus","spZoste1aby/spZoste1fla/spZoste1soc"
"428","simple","Broad-ringed White-eye","Zosterops poliogastrus","spZoste1eur/spZoste1kaf/spZoste1kik/spZoste1mbu/spZoste1pol/spZoste1sil/spZoste1win"
"429","complex","Oriental White-eye/Everett's White-eye","Zosterops palpebrosus/Zosterops everetti","spZoste1aur"
"429","complex","Oriental White-eye","Zosterops palpebrosus","sspZoste1auraur/grZoste1cituni/spZoste1mel1/sspZoste1mel1bux/sspZoste1mel1mel/spZoste1pal/sspZoste1palocc/sspZoste1palpal/sspZoste1palnil/sspZoste1palsal/sspZoste1palegr/sspZoste1palsia/sspZoste1palnic/sspZoste1simwil"
"429","complex","Everett's White-eye","Zosterops everetti","sspZoste1aurwet/sspZoste1aurtah/sspZoste1aurmed/spZoste1eve/sspZoste1eveeve/sspZoste1evebas/sspZoste1eveboh/sspZoste1evesiq/sspZoste1eveman/sspZoste1evebab"
"429","complex","Oriental White-eye/Ashy-bellied White-eye","Zosterops palpebrosus/Zosterops citrinella","spZoste1cit"
"429","complex","Ashy-bellied White-eye","Zosterops citrinella","grZoste1cit[ci/sspZoste1cit[cicit/sspZoste1cit[cihar/sspZoste1cit[cialb"
"429","complex","Japanese White-eye/Mountain White-eye","Zosterops japonicus/Zosterops montanus","spZoste1jap"
"429","complex","Japanese White-eye","Zosterops japonicus","sspZoste1japjap/sspZoste1japste/sspZoste1japins/sspZoste1japloo/sspZoste1japala/sspZoste1japdai/sspZoste1simsim/sspZoste1simhai"
"429","complex","Mountain White-eye","Zosterops montanus","sspZoste1japobs/sspZoste1japmon/sspZoste1japdif/sspZoste1jappar/sspZoste1japwhi/sspZoste1japdiu/sspZoste1japvul/sspZoste1jappec/sspZoste1japhal"
"429","complex","Oriental White-eye/Japanese White-eye/Enggano White-eye","Zosterops palpebrosus/Zosterops japonicus/Zosterops salvadorii","spZoste1sim"
"429","complex","Oriental White-eye/Enggano White-eye","Zosterops palpebrosus/Zosterops salvadorii","sspZoste1simerw"
"429","complex","Enggano White-eye","Zosterops salvadorii","sspZoste1simsal"
"430","simple","African Yellow White-eye","Zosterops senegalensis","spZoste1and/spZoste1kas/spZoste1sen/spZoste1ste/spZoste1stu"
"431","simple","Lemon-bellied White-eye","Zosterops chloris","spZoste1chl1/spZoste1fla1"
"432","simple","Cream-throated White-eye","Zosterops atriceps","spZoste1atr2/spZoste1deh"
"433","complex","Lord Howe White-eye/Silver-eye","Zosterops tephropleurus/Zosterops lateralis","spZoste1lat"
"433","complex","Silver-eye","Zosterops lateralis","sspZoste1latchl/sspZoste1latveg/sspZoste1latcor/sspZoste1latchl1/sspZoste1latwes/sspZoste1latpin/sspZoste1latoch/sspZoste1latlat/sspZoste1latvat/sspZoste1latval/sspZoste1lattro/sspZoste1latmac/sspZoste1latnig/sspZoste1latmel/sspZoste1latgri/sspZoste1latfla"
"433","complex","Lord Howe White-eye","Zosterops tephropleurus","sspZoste1lattep"
"434","simple","Gray-throated White-eye","Zosterops ugiensis","spZoste1ham/spZoste1obl/spZoste1ren"
"435","simple","Gray-brown White-eye","Zosterops cinereus","spZoste1cin/spZoste1pon"
"436","simple","Solomons White-eye","Zosterops kulambangrae","spZoste1kul/spZoste1tet"
"437","simple","Gray-cheeked Tit-Babbler","Mixornis flavicollis","spMixorfla/spMixorpri"
"438","simple","Chestnut-winged Babbler","Cyanoderma erythropterum","spCyano10bic/spCyano10ery"
"439","complex","Buff-chested Babbler/Rufous-fronted Babbler","Cyanoderma ambiguum/Cyanoderma rufifrons","spCyano10ruf"
"439","complex","Buff-chested Babbler","Cyanoderma ambiguum","grCyano10ruf[am/sspCyano10ruf[amamb/sspCyano10ruf[ampla/sspCyano10ruf[amadj/sspCyano10ruf[amins"
"439","complex","Rufous-fronted Babbler","Cyanoderma rufifrons","grCyano10ruf[ru/sspCyano10ruf[rupal/sspCyano10ruf[ruruf/sspCyano10ruf[ruobs/sspCyano10ruf[rupol/sspCyano10ruf[rusar"
"440","simple","Coral-billed Scimitar-Babbler","Pomatorhinus ferruginosus","spPomat1fer/spPomat1pha"
"441","simple","Chestnut-backed Scimitar-Babbler","Pomatorhinus montanus","spPomat1bor/spPomat1mon"
"442","simple","Rusty-cheeked Scimitar-Babbler","Megapomatorhinus erythrogenys","spEryth5ery/spEryth5imb"
"443","simple","Black-capped Babbler","Pellorneum capistratum","spPellocap/spPellocap1/spPellonig"
"444","simple","Pale-breasted Illadopsis","Illadopsis rufipennis","spIlladdis/spIlladruf"
"445","simple","Limestone Wren-Babbler","Turdinus crispifrons","spGypsoann/spGypsocal/spGypsocri"
"446","simple","Short-tailed Scimitar-Babbler","Napothera danjoui","spNapotdan/spNapotnau"
"447","complex","Chestnut-crowned Laughingthrush/Assam Laughingthrush","Trochalopteron erythrocephalum/Trochalopteron chrysopterum","spTroch2chr"
"447","complex","Assam Laughingthrush","Trochalopteron chrysopterum","sspTroch2chrchr/sspTroch2chrgod/sspTroch2chrery"
"447","complex","Chestnut-crowned Laughingthrush","Trochalopteron erythrocephalum","sspTroch2chrwoo/sspTroch2chrail/spTroch2ery/grTroch2eryery/sspTroch2eryeryery/sspTroch2eryerykal/grTroch2erynig"
"448","simple","Chinese Babax","Ianthocincla lanceolata","spPtero6lan/spPtero6woo"
"449","complex","Goldcrest/Canary Islands Kinglet","Regulus regulus/Regulus teneriffae","spRegulreg/grRegulregell"
"449","complex","Goldcrest","Regulus regulus","grRegulreg[re/sspRegulreg[rereg/sspRegulreg[recoa/sspRegulreg[rebut/sspRegulreg[rehyr/sspRegulreg[retri/grRegulregazo/grRegulregsan/grRegulregine/grRegulreg[hi/sspRegulreg[hihim/sspRegulreg[hisik/sspRegulreg[hijap/sspRegulreg[hiyun"
"449","complex","Canary Islands Kinglet","Regulus teneriffae","grRegulregten"
"450","simple","Firecrest","Regulus ignicapilla","spRegulign/spRegulmad"
"451","simple","Brown-headed Nuthatch","Sitta pusilla","spSitta1ins/spSitta1pus"
"452","simple","Eurasian Nuthatch","Sitta europaea","spSitta1arc/spSitta1eur"
"453","simple","Long-billed Gnatwren","Ramphocaenus melanurus","spRamph5mel/spRamph5sti"
"454","simple","Guianan Gnatcatcher","Polioptila guianensis","spPolio4att/spPolio4fac/spPolio4gui/spPolio4par"
"455","simple","Tropical Gnatcatcher","Polioptila plumbea","spPolio4bil/spPolio4mai/spPolio4plu"
"456","simple","White-lored Gnatcatcher","Polioptila albiloris","spPolio4alb/spPolio4alb1"
"457","simple","House Wren","Troglodytes aedon","spTroglaed/spTroglbea/spTroglgre/spTroglmar/spTroglmes/spTroglmus/spTroglmus1"
"458","simple","Sedge Wren","Cistothorus platensis","spCistopla/spCistoste"
"459","simple","Rufous-naped Wren","Campylorhynchus rufinucha","spCampy2cap/spCampy2hum/spCampy2ruf"
"460","simple","Plain-tailed Wren","Pheugopedius euophrys","spPheugeuo/spPheugsch"
"461","simple","Plain Wren","Cantorchilus modestus","spCantoelu/spCantomod/spCantozel"
"462","simple","Gray-breasted Wood-Wren","Henicorhina leucophrys","spHenic2ana/spHenic2leu2"
"463","simple","Chestnut-breasted Wren","Cyphorhinus thoracicus","spCyphodic/spCyphotho"
"464","complex","Common Hill Myna/Enggano Myna/Nias Myna","Gracula religiosa/Gracula enganensis/Gracula robusta","spGracurel"
"464","complex","Common Hill Myna","Gracula religiosa","grGracurel[re/sspGracurel[repen/sspGracurel[reint/sspGracurel[reand/sspGracurel[rerel/sspGracurel[rebat/sspGracurel[repal/spGracuven"
"464","complex","Common Hill Myna/Nias Myna","Gracula religiosa/Gracula robusta","grGracurelmio"
"464","complex","Nias Myna","Gracula robusta","grGracurelrob"
"464","complex","Enggano Myna","Gracula enganensis","grGracureleng"
"465","simple","Asian Pied Starling","Gracupica contra","spGracu1con/spGracu1flo/spGracu1jal"
"466","simple","Vinous-breasted Starling","Acridotheres burmannicus","spAcridbur/spAcridleu"
"467","simple","White-breasted Thrasher","Ramphocinclus brachyurus","spRamph6bra/spRamph6san"
"468","simple","Plain-backed Thrush","Zoothera mollissima","spZoothgri/spZoothmol/spZoothsal"
"469","simple","Scaly Thrush","Zoothera dauma","spZoothdau/spZoothmaj"
"470","simple","Spotted Nightingale-Thrush","Catharus dryas","spCatha1dry/spCatha1mac"
"471","complex","Abyssinian Ground-Thrush/Kivu Ground-Thrush","Geokichla piaggiae/Geokichla tanganjicae","spGeokipia"
"471","complex","Abyssinian Ground-Thrush","Geokichla piaggiae","grGeokipia[pi/sspGeokipia[pipia/sspGeokipia[pihad/sspGeokipia[piruw/sspGeokipia[pikil/sspGeokipia[pirow"
"471","complex","Kivu Ground-Thrush","Geokichla tanganjicae","grGeokipiatan"
"472","simple","Groundscraper Thrush","Psophocichla litsitsirupa","spTurdulit/spTurdusim"
"473","simple","Island Thrush","Turdus poliocephalus","spTurdubou1/spTurduden/spTurduery/spTurduhei/spTurdujav/spTurdukul/spTurdumin/spTurdunig2/spTurduniv/spTurdupap/spTurdupol/spTurdupri/spTurduruf3/spTurdusam/spTurdusch/spTurdutho/spTurduvan/spTurduxan1"
"474","simple","Slaty Thrush","Turdus nigriceps","spTurdunig1/spTurdusub"
"475","simple","Black-billed Thrush","Turdus ignobilis","spTurduart/spTurduign/spTurdumur"
"476","simple","Fire-crested Alethe","Alethe diademata","spAlethcas/spAlethdia"
"477","complex","Rufous-tailed Scrub-Robin/African Scrub-Robin","Cercotrichas galactotes/Cercotrichas minor","spCerco3gal"
"477","complex","Rufous-tailed Scrub-Robin","Cercotrichas galactotes","grCerco3gal[ga/sspCerco3gal[gagal/sspCerco3gal[gasyr/sspCerco3gal[gafam"
"477","complex","African Scrub-Robin","Cercotrichas minor","grCerco3galmin/sspCerco3galminmin/sspCerco3galminham"
"478","simple","White-rumped Shama","Copsychus malabaricus","spCopsybar/spCopsyleg/spCopsymal/spCopsynig/spCopsyomi/spCopsystr"
"479","simple","Vivid Niltava","Niltava vivida","spNiltaoat/spNiltaviv"
"480","simple","Flores Jungle-Flycatcher","Cyornis oscillans","spEumyiosc/spEumyistr"
"481","simple","Blue-breasted Flycatcher","Cyornis herioti","spCyorncam/spCyornher"
"482","complex","Blue-throated Flycatcher","Cyornis rubeculoides","spCyorngla/sspCyornhaidia/sspCyornhaiklo/spCyornrub/sspCyornrubrub/sspCyornrubrog"
"482","complex","Blue-throated Flycatcher/Hainan Blue-Flycatcher","Cyornis rubeculoides/Cyornis hainanus","spCyornhai"
"482","complex","Hainan Blue-Flycatcher","Cyornis hainanus","sspCyornhaihai"
"483","simple","Hill Blue-Flycatcher","Cyornis banyumas","spCyornban/spCyornmon/spCyornwhi"
"484","simple","Tickell's Blue-Flycatcher","Cyornis tickelliae","spCyornsum/spCyorntic"
"485","simple","Sulawesi Blue-Flycatcher","Cyornis omissus","spCyornkal/spCyornomi"
"486","simple","Chestnut-tailed Jungle-Flycatcher","Cyornis ruficauda","spCyornocu/spCyornruf1/spCyornruf2"
"487","simple","Henna-tailed Jungle-Flycatcher","Cyornis colonus","spCyorncol/spCyornpel"
"488","simple","Forest Robin","Stiphrornis erythrothorax","spStiphery/spStiphmab/spStiphpyr"
"489","simple","Bocage's Akalat","Sheppardia bocagei","spSheppboc/spShepppoe"
"490","simple","White-browed Shortwing","Brachypteryx montana","spBrach3cru/spBrach3ery/spBrach3flo/spBrach3goo/spBrach3mon/spBrach3pol/spBrach3sat/spBrach3sin"
"491","simple","Japanese Robin","Larvivora akahige","spLarviaka/spLarvitan"
"492","simple","Ryukyu Robin","Larvivora komadori","spLarvikom/spLarvinam"
"493","simple","White-crowned Forktail","Enicurus leschenaulti","spEnicubor/spEnicules"
"494","simple","White-tailed Rubythroat","Calliope pectoralis","spCalli2pec1/spCalli2tsc"
"495","simple","Sunda Robin","Cinclidium diana","spMyiomdia/spMyiomsum"
"496","simple","Red-flanked Bluetail","Tarsiger cyanurus","spTarsialb/spTarsicya"
"497","simple","White-browed Bush-Robin","Tarsiger indicus","spTarsifor/spTarsiind"
"498","simple","Narcissus Flycatcher","Ficedula narcissina","spFicednar/spFicedows"
"499","simple","Forest Rock-Thrush","Monticola sharpei","spMontiery/spMontisha"
"500","simple","Siberian Stonechat","Saxicola maurus","spSaxicmau/spSaxicste"
"501","complex","Jerdon's Bushchat/Gray Bushchat","Saxicola jerdoni/Saxicola ferreus","spSaxicfer"
"501","complex","Jerdon's Bushchat","Saxicola jerdoni","sspSaxicferhar/spSaxicjer"
"501","complex","Gray Bushchat","Saxicola ferreus","sspSaxicferfer"
"502","complex","White-headed Black-Chat/Ruaha Chat","Myrmecocichla arnotti/Myrmecocichla collaris","spMyrme2arn"
"502","complex","White-headed Black-Chat","Myrmecocichla arnotti","grMyrme2arnhar/grMyrme2arnarn"
"502","complex","Ruaha Chat","Myrmecocichla collaris","grMyrme2arncol"
"503","simple","Northern Wheatear","Oenanthe oenanthe","spOenanoen/spOenansee"
"504","simple","Red-breasted Wheatear","Oenanthe bottae","spOenanbot/spOenanfre"
"505","simple","Black-eared Wheatear","Oenanthe hispanica","spOenanhis/spOenanmel"
"506","simple","Red-tailed Wheatear","Oenanthe xanthoprymna","spOenanchr/spOenanxan"
"507","simple","Flame-crowned Flowerpecker","Dicaeum anthonyi","spDicaeant/spDicaekam"
"508","simple","Fire-breasted Flowerpecker","Dicaeum ignipectus","spDicaebec/spDicaecam/spDicaeign1/spDicaeluz"
"509","simple","Blood-breasted Flowerpecker","Dicaeum sanguinolentum","spDicaehan/spDicaerho/spDicaesan/spDicaewil"
"510","simple","Mistletoebird","Dicaeum hirundinaceum","spDicaehir/spDicaekei"
"511","simple","Plain-throated Sunbird","Anthreptes malacensis","spAnthr3gri/spAnthr3mal"
"512","simple","Green Sunbird","Anthreptes rectirostris","spAnthr3rec/spAnthr3tep"
"513","complex","Eastern Olive Sunbird/Western Olive Sunbird","Cyanomitra olivacea/Cyanomitra obscura","spCyano12oli"
"513","complex","Western Olive Sunbird","Cyanomitra obscura","sspCyano12oligui/sspCyano12olicep/sspCyano12oliobs/sspCyano12olirag/sspCyano12oligra/sspCyano12oliscl"
"513","complex","Eastern Olive Sunbird","Cyanomitra olivacea","sspCyano12olicha/sspCyano12olineg/sspCyano12olialf/sspCyano12olioli/sspCyano12olioli1"
"514","simple","Miombo Sunbird","Cinnyris manoensis","spCinny2ger/spCinny2man"
"515","simple","Eastern Double-collared Sunbird","Cinnyris mediocris","spCinny2fue/spCinny2med/spCinny2usa"
"516","simple","Beautiful Sunbird","Cinnyris pulchellus","spCinny2mel/spCinny2pul"
"517","simple","Shining Sunbird","Cinnyris habessinicus","spCinny2hab/spCinny2hel"
"518","simple","Olive-backed Sunbird","Cinnyris jugularis","spCinny2aur/spCinny2cle/spCinny2fre/spCinny2ide/spCinny2inf/spCinny2jug/spCinny2orn/spCinny2tey"
"519","complex","Metallic-winged Sunbird/Mountain Sunbird/Bohol Sunbird","Aethopyga pulcherrima/Aethopyga jefferyi/Aethopyga decorosa","spAetho1pul"
"519","complex","Mountain Sunbird","Aethopyga jefferyi","grAetho1puljef"
"519","complex","Bohol Sunbird","Aethopyga decorosa","grAetho1puldec"
"519","complex","Metallic-winged Sunbird","Aethopyga pulcherrima","grAetho1pulpul"
"520","complex","Gray-breasted Spiderhunter/Bornean Spiderhunter","Arachnothera modesta/Arachnothera everetti","spAracheve"
"520","complex","Gray-breasted Spiderhunter","Arachnothera modesta","spArachmod/sspArachmodcae/sspArachmodmod/sspArachmodcon"
"521","simple","Asian Fairy-bluebird","Irena puella","spIrenapue/spIrenatwe"
"522","simple","Blue-winged Leafbird","Chloropsis cochinchinensis","spChlor7coc/spChlor7mol"
"523","simple","Red-headed Weaver","Anaplectes rubriceps","spAnapljub/spAnaplrub"
"524","simple","Black-necked Weaver","Ploceus nigricollis","spPloce2bra/spPloce2nig1"
"525","simple","African Golden-Weaver","Ploceus subaureus","spPloce2hol/spPloce2sub1"
"526","simple","Vieillot's Weaver","Ploceus nigerrimus","spPloce2cas2/spPloce2nig2"
"527","simple","Red-headed Fody","Foudia eminentissima","spFoudiald/spFoudiemi"
"528","simple","Red-collared Widowbird","Euplectes ardens","spEupleard/spEuplelat"
"529","simple","Streak-headed Munia","Lonchura tristissima","spMayrileu/spMayritri"
"530","complex","Red-headed Parrotfinch/Royal Parrotfinch","Erythrura cyaneovirens/Erythrura regia","spEryth6cya"
"530","complex","Royal Parrotfinch","Erythrura regia","grEryth6cya[re/sspEryth6cya[rereg/sspEryth6cya[reefa/sspEryth6cya[reser"
"530","complex","Red-headed Parrotfinch","Erythrura cyaneovirens","grEryth6cyacya/sspEryth6cyacyacya/sspEryth6cyacyagau"
"531","simple","Swee Waxbill","Coccopygia melanotis","spCoccoboc/spCoccomel"
"532","complex","Black-faced Quailfinch/Black-chinned Quailfinch/African Quailfinch","Ortygospiza atricollis/Ortygospiza gabonensis/Ortygospiza fuscocrissa","spOrtyg1atr"
"532","complex","Black-faced Quailfinch","Ortygospiza atricollis","grOrtyg1atr[at/sspOrtyg1atr[atatr/sspOrtyg1atr[atans/sspOrtyg1atr[atuga"
"532","complex","African Quailfinch","Ortygospiza fuscocrissa","grOrtyg1atr[fu/sspOrtyg1atr[fufus/sspOrtyg1atr[fumue/sspOrtyg1atr[fusmi/sspOrtyg1atr[fupal/sspOrtyg1atr[fudig"
"532","complex","Black-chinned Quailfinch","Ortygospiza gabonensis","grOrtyg1atr[ga/sspOrtyg1atr[gagab/sspOrtyg1atr[gafus/sspOrtyg1atr[gador"
"533","complex","African Firefinch/Pale-billed Firefinch","Lagonosticta rubricata/Lagonosticta landanae","spLagonrub"
"533","complex","African Firefinch","Lagonosticta rubricata","sspLagonrubpol/sspLagonrubcon/sspLagonrubhae/sspLagonrubrub"
"533","complex","Pale-billed Firefinch","Lagonosticta landanae","sspLagonrublan"
"534","complex","Radde's Accentor/Yemen Accentor","Prunella ocularis/Prunella fagani","spPruneocu"
"534","complex","Radde's Accentor","Prunella ocularis","grPruneocuocu"
"534","complex","Yemen Accentor","Prunella fagani","grPruneocufag"
"535","simple","Desert Sparrow","Passer simplex","spPassesim/spPassezar"
"536","simple","Australasian Pipit","Anthus novaeseelandiae","spAnthuaus/spAnthunov"
"537","complex","African Pipit/Jackson's Pipit","Anthus cinnamomeus/Anthus latistriatus","spAnthucin"
"537","complex","African Pipit","Anthus cinnamomeus","grAnthucincam/grAnthucinexi/grAnthucin[ci/sspAnthucin[cilyn/sspAnthucin[cista/sspAnthucin[cicin/sspAnthucin[ciann/sspAnthucin[ciito/sspAnthucin[cilac/sspAnthucin[cilic/sspAnthucin[cispu/sspAnthucin[ciboc/sspAnthucin[ciruf/grAnthucingro"
"537","complex","Jackson's Pipit","Anthus latistriatus","grAnthucinlat"
"538","simple","Long-billed Pipit","Anthus similis","spAnthunic/spAnthusim"
"539","complex","Buffy Pipit/Plain-backed Pipit","Anthus vaalensis/Anthus leucophrys","spAnthuleu"
"539","complex","Plain-backed Pipit","Anthus leucophrys","sspAnthuleuans/sspAnthuleugou/sspAnthuleuzen/sspAnthuleuomo/sspAnthuleuboh/sspAnthuleutep/sspAnthuleuleu"
"539","complex","Buffy Pipit","Anthus vaalensis","sspAnthuleusap/sspAnthuleugoo/spAnthuvaa/sspAnthuvaaneu/sspAnthuvaacho/sspAnthuvaamar/sspAnthuvaanam/sspAnthuvaaexa/sspAnthuvaavaa"
"540","simple","American Pipit","Anthus rubescens","spAnthujap/spAnthurub"
"541","simple","Yellowish Pipit","Anthus lutescens","spAnthuchi/spAnthuper"
"542","simple","Short-billed Pipit","Anthus furcatus","spAnthubre/spAnthufur"
"543","simple","Common Chaffinch","Fringilla coelebs","spFringcan/spFringcoe/spFringmad/spFringmor/spFringspo"
"544","simple","Blue Chaffinch","Fringilla teydea","spFringpol/spFringtey"
"545","simple","Antillean Euphonia","Euphonia musica","spChlor8fla/spChlor8mus/spChlor8scl"
"546","simple","Scrub Euphonia","Euphonia affinis","spEuphoaff/spEuphogod"
"547","simple","Gray-headed Bullfinch","Pyrrhula erythaca","spPyrrh4ery1/spPyrrh4ows"
"548","simple","Golden-winged Grosbeak","Rhynchostruthus socotranus","spRhync4per/spRhync4soc"
"549","simple","Streaky-headed Seedeater","Serinus gularis","spCrithcan/spCrithgul"
"550","simple","Reichard's Seedeater","Serinus reichardi","spCrithrei1/spCrithstr1"
"551","complex","Common Redpoll/Lesser Redpoll/Hoary Redpoll","Acanthis flammea/Acanthis cabaret/Acanthis hornemanni","spAcant5fla"
"551","complex","Common Redpoll","Acanthis flammea","grAcant5flafla/grAcant5flaros/sspAcant5flarosros/sspAcant5flarosisl"
"551","complex","Lesser Redpoll","Acanthis cabaret","grAcant5flacab"
"551","complex","Hoary Redpoll","Acanthis hornemanni","grAcant5flaexi/grAcant5flahor"
"552","simple","Red Crossbill","Loxia curvirostra","spLoxiacur/spLoxiasin"
"553","simple","Mountain Serin","Serinus estherae","spChrys7est/spChrys7min"
"554","simple","European Goldfinch","Carduelis carduelis","spCarducan/spCarducar"
"555","complex","Black-headed Canary/Damara Canary","Alario alario/Alario leucolaemus","spSerinala"
"555","complex","Damara Canary","Alario leucolaemus","grSerinalaala/grSerinalaleu"
"556","complex","Godlewski's Bunting/Rock Bunting","Emberiza godlewskii/Emberiza cia","spEmbercia"
"556","complex","Rock Bunting","Emberiza cia","sspEmberciacia/sspEmberciapar"
"556","complex","Godlewski's Bunting","Emberiza godlewskii","sspEmberciastr/sspEmberciafle/spEmbergod/grEmbergod[go/sspEmbergod[godec/sspEmbergod[gogod/sspEmbergod[goomi/grEmbergodyun/sspEmbergodyunkha/sspEmbergodyunyun"
"557","complex","Cape Bunting/Vincent's Bunting","Emberiza capensis/Emberiza vincenti","spEmbercap"
"557","complex","Cape Bunting","Emberiza capensis","grEmbercap[ca/sspEmbercap[caneb/sspEmbercap[cabra/sspEmbercap[cacap/sspEmbercap[cavin/sspEmbercap[cacin/sspEmbercap[calim/sspEmbercap[casmi/sspEmbercap[caplo/sspEmbercap[carei/sspEmbercap[cabas"
"557","complex","Vincent's Bunting","Emberiza vincenti","grEmbercapvin"
"558","simple","Black-faced Bunting","Emberiza spodocephala","spEmberper/spEmberspo"
"559","simple","Stripe-capped Sparrow","Rhynchospiza strigiceps","spRhync6dab/spRhync6str"
"560","simple","Black-capped Sparrow","Arremon abeillei","spArrem1abe/spArrem1nig"
"561","simple","Saffron-billed Sparrow","Arremon flavirostris","spArrem1dor/spArrem1fla"
"562","simple","Yellow-eyed Junco","Junco phaeonotus","spJuncobai/spJuncopha"
"563","simple","Prevost's Ground-Sparrow","Melozone biarcuata","spMelozbia/spMelozcab"
"564","simple","Tricolored Brushfinch","Atlapetes tricolor","spAtlapcra/spAtlaptri"
"565","simple","Slaty Brushfinch","Atlapetes schistaceus","spAtlapsch/spAtlaptac"
"566","simple","Eastern Meadowlark","Sturnella magna","spSturn3lil/spSturn3mag"
"567","complex","Masked Yellowthroat","Geothlypis aequinoctialis","spGeothaeq/spGeothaur/sspGeothauraur/sspGeothaurper/grGeothsemchi/spGeothvel"
"567","complex","Masked Yellowthroat/Olive-crowned Yellowthroat","Geothlypis aequinoctialis/Geothlypis semiflava","spGeothsem"
"567","complex","Olive-crowned Yellowthroat","Geothlypis semiflava","grGeothsembai/grGeothsemsem"
"568","simple","Rufous-capped Warbler","Basileuterus rufifrons","spBasil2del/spBasil2ruf"
"569","simple","Three-striped Warbler","Basileuterus tristriatus","spBasil2mel1/spBasil2pun/spBasil2tac/spBasil2tri"
"570","simple","Golden-bellied Warbler","Myiothlypis chrysogaster","spMyiot2chl/spMyiot2chr"
"571","simple","Carmiol's Tanager","Chlorothraupis carmioli","spChlor13car/spChlor13fre"
"572","simple","Blue Seedeater","Amaurospiza concolor","spAmaur2aeq/spAmaur2con"
"573","simple","Blue-black Grosbeak","Cyanocompsa cyanoides","spCyano13cya/spCyano13rot"
"574","complex","Passerini's Tanager/Cherrie's Tanager","Ramphocelus passerinii/Ramphocelus costaricensis","spRamph7pas"
"574","complex","Passerini's Tanager","Ramphocelus passerinii","grRamph7paspas"
"574","complex","Cherrie's Tanager","Ramphocelus costaricensis","grRamph7pascos"
"575","simple","Turquoise Tanager","Tangara mexicana","spTangabra/spTangamex"
"576","complex","Nightingale Finch/Wilkins's Finch","Nesospiza acunhae/Nesospiza wilkinsi","spNesos1acu/grNesos1acufra"
"576","complex","Nightingale Finch","Nesospiza acunhae","grNesos1acuacu/spNesos1que"
"576","complex","Wilkins's Finch","Nesospiza wilkinsi","grNesos1acudun/spNesos1wil"
"577","simple","Black-and-rufous Warbling-Finch","Poospiza nigrorufa","spPoosp1nig/spPoosp1whi"
"578","complex","Wing-barred Seedeater/Caqueta Seedeater","Sporophila americana/Sporophila murallae","spSporo1ame"
"578","complex","Wing-barred Seedeater","Sporophila americana","grSporo1ameame/sspSporo1ameameame/sspSporo1ameamedis"
"578","complex","Caqueta Seedeater","Sporophila murallae","grSporo1amemur"
"579","simple","White-collared Seedeater","Sporophila torqueola","spSporo1mor/spSporo1tor"
"580","simple","Puerto Rican Bullfinch","Loxigilla portoricensis","spMelop1gra/spMelop1por"
"581","simple","Cuban Bullfinch","Melopyrrha nigra","spMelop1nig/spMelop1tay"
"582","complex","Large Cactus-Finch","Geospiza conirostris","spGeosp1con/sspGeosp1magdar/spGeosp1pro"
"582","complex","Large Cactus-Finch/Large Ground-Finch","Geospiza conirostris/Geospiza magnirostris","spGeosp1mag"
"582","complex","Large Ground-Finch","Geospiza magnirostris","sspGeosp1magmag"
"583","simple","Sharp-beaked Ground-Finch","Geospiza difficilis","spGeosp1acu/spGeosp1dif/spGeosp1sep"
"584","simple","Grayish Saltator","Saltator coerulescens","spSalta1coe/spSalta1gra/spSalta1oli"
